# 
# Wavefront OBJ file
# Converted by the DEEP Exploration Deep Exploration 5 5.0.3.1555 Release
# Right Hemisphere, LTD
# http://www.righthemisphere.com/
# 
mtllib cleaner.mtl
# object object
g object
v -0.01592 -0.01715 0.17831
v -0.01446 -0.01534 0.25841
v 0.00321 -0.00000 0.17831
v -0.00045 -0.00000 0.25841
v -0.01592 0.01715 0.17831
v -0.01446 0.01534 0.25841
v -0.05439 -0.00000 0.09763
v -0.03831 -0.00000 0.17831
v -0.03114 -0.00000 0.25841
v -0.05967 0.03244 -0.00903
v -0.06797 -0.00000 -0.00903
v -0.05967 -0.03244 -0.00903
v 0.06797 0.03244 -0.00903
v 0.06797 -0.03244 -0.00903
v -0.04782 -0.03000 0.09763
v -0.04782 0.03000 0.09763
v 0.05120 -0.03000 0.15458
v 0.05120 0.03000 0.15458
v -0.03505 -0.01715 0.17831
v -0.03505 0.01715 0.17831
v 0.00321 -0.01715 0.17831
v 0.00321 0.01715 0.17831
v -0.02978 0.01289 0.26576
v -0.02978 -0.01255 0.26576
v -0.00276 0.01289 0.26576
v -0.00276 -0.01255 0.26576
v -0.02804 -0.01338 0.25841
v -0.00360 -0.01338 0.25841
v -0.00360 0.01338 0.25841
v -0.02804 0.01338 0.25841
v -0.00192 0.01432 0.25244
v -0.00192 0.01432 0.27244
v -0.01607 0.02018 0.25244
v -0.01607 0.02018 0.27244
v -0.03021 0.01432 0.25244
v -0.03021 0.01432 0.27244
v -0.03607 0.00018 0.25244
v -0.03607 0.00018 0.27244
v -0.03021 -0.01396 0.25244
v -0.03021 -0.01396 0.27244
v -0.01607 -0.01982 0.25244
v -0.01607 -0.01982 0.27244
v -0.00192 -0.01396 0.25244
v -0.00192 -0.01396 0.27244
v 0.02526 0.00556 0.28606
v 0.02526 -0.00514 0.28606
v 0.02978 0.00556 0.26613
v 0.02978 -0.00514 0.26613
v 0.00394 0.00018 0.25244
v 0.00394 0.00018 0.27244
v -0.05121 0.00777 0.29808
v -0.02978 0.01289 0.29234
v -0.05121 -0.00743 0.29808
v -0.02978 -0.01255 0.29234
v -0.00276 0.01289 0.29234
v -0.00276 -0.01255 0.29234
v -0.03888 -0.01255 0.32903
v -0.03888 0.01289 0.32903
v -0.05121 -0.00743 0.31227
v -0.05121 0.00777 0.31227
v 0.05511 0.00583 0.31173
v 0.05511 -0.00549 0.31173
v 0.00177 -0.01255 0.32903
v 0.00177 0.01289 0.32903
v 0.05511 -0.00549 0.32513
v 0.05511 0.00583 0.32513
v 0.02085 0.00556 0.30599
v 0.02918 0.00556 0.30599
v 0.02085 -0.00514 0.30599
v 0.02918 -0.00514 0.30599
# 70 verticies
vt 0.16406 0.57617
vt 0.10938 0.56055
vt 0.16406 0.62500
vt 0.10938 0.64063
vt 0.08008 0.16992
vt 0.05664 0.02148
vt 0.00000 0.16992
vt 0.02148 0.02148
vt 0.08008 0.08984
vt 0.12305 0.10547
vt 0.12305 0.15430
vt 0.25195 0.80859
vt 0.17188 0.80859
vt 0.25195 0.91211
vt 0.17188 0.91211
vt 0.23047 0.67188
vt 0.19336 0.67188
vt 0.10352 0.85742
vt 0.00977 0.88086
vt 0.08984 0.91211
vt 0.05273 0.91211
vt 0.10352 0.78906
vt 0.00977 0.77734
vt 0.05469 0.64063
vt 0.01953 0.64063
vt 0.13672 0.87695
vt 0.13672 0.91211
vt 0.17188 0.87695
vt 0.09180 0.29297
vt 0.00000 0.30469
vt 0.04297 0.44141
vt 0.00977 0.44141
vt 0.09180 0.22461
vt 0.00000 0.20117
vt 0.07813 0.16992
vt 0.04102 0.16992
vt 0.15820 0.10547
vt 0.15820 0.15430
vt 0.17188 0.55273
vt 0.24023 0.55273
vt 0.17188 0.47266
vt 0.24023 0.47266
vt 0.16016 0.29297
vt 0.16016 0.22461
vt 0.14648 0.08984
vt 0.08008 0.00781
vt 0.14648 0.00781
vt 0.17188 0.85742
vt 0.17188 0.78906
vt 0.06250 0.53711
vt 0.08398 0.53125
vt 0.06055 0.48438
vt 0.14258 0.45508
vt 0.14648 0.50586
vt 0.16406 0.45898
vt 0.10938 0.50977
vt 0.14258 0.50977
vt 0.10938 0.45898
vt 0.14258 0.45898
vt 0.14258 0.56055
vt 0.23633 0.28516
vt 0.20313 0.28516
vt 0.23633 0.33594
vt 0.20313 0.33594
vt 0.23633 0.23438
vt 0.20313 0.23438
vt 0.49805 0.39258
vt 0.49805 0.00195
vt 0.62109 0.41797
vt 0.74414 0.39258
vt 0.74414 0.00195
vt 0.57031 0.99805
vt 0.62500 0.45898
vt 0.99219 0.99805
vt 0.95313 0.64648
vt 0.78320 0.38086
vt 0.84766 0.38086
vt 0.91016 0.38086
vt 0.84180 0.00000
vt 0.88672 0.00000
vt 0.54492 0.99805
vt 0.53516 0.45898
vt 0.27930 0.99805
vt 0.28906 0.45898
vt 0.48242 0.38086
vt 0.41211 0.38086
vt 0.34180 0.38086
vt 0.41211 0.00000
vt 0.35742 0.00000
vt 0.80664 0.00000
vt 0.28906 0.64648
vt 0.41211 0.99805
vt 0.41211 0.64648
vt 0.46680 0.00000
vt 0.53516 0.64648
vt 0.16016 0.35156
vt 0.10938 0.35156
vt 0.16016 0.39648
vt 0.10938 0.39648
vt 0.23633 0.40820
vt 0.18555 0.40820
vt 0.23633 0.44336
vt 0.18555 0.44336
vt 0.23633 0.37109
vt 0.18555 0.37109
vt 0.17188 0.74219
vt 0.12109 0.74219
vt 0.17188 0.78711
vt 0.12109 0.78711
vt 0.17188 0.69727
vt 0.12109 0.69727
vt 0.06641 0.59180
vt 0.01563 0.59180
vt 0.06641 0.62891
vt 0.01563 0.62891
vt 0.06641 0.55664
vt 0.01563 0.55664
vt 0.16016 0.44141
vt 0.10938 0.44141
vt 0.16016 0.08008
vt 0.16211 0.12695
vt 0.18750 0.05078
vt 0.19141 0.16406
vt 0.23047 0.16992
vt 0.25781 0.14063
vt 0.25781 0.09375
vt 0.22852 0.05664
vt 0.19922 0.55273
vt 0.17188 0.58203
vt 0.24023 0.55859
vt 0.17383 0.63086
vt 0.20313 0.66797
vt 0.24219 0.67188
vt 0.26953 0.64258
vt 0.26953 0.59570
# 135 texture verticies
vn -0.87613 0.34205 -0.33970
vn -0.35909 0.86440 -0.35194
vn -0.61611 -0.54203 -0.57150
vn -0.52177 -0.82584 -0.21386
vn 0.51143 0.83533 -0.20167
vn 0.56635 0.59335 -0.57200
vn 0.33323 -0.88027 -0.33776
vn 0.87145 -0.35469 -0.33879
vn -0.35026 -0.70467 0.61706
vn -0.46511 0.72005 0.51497
vn -0.93601 -0.21638 0.27762
vn -0.76033 0.62713 0.16910
vn 0.04864 0.00000 0.99882
vn 0.07807 0.70512 0.70477
vn 0.51334 -0.76924 0.38046
vn 0.71485 0.31123 0.62621
vn 0.04342 -0.99904 -0.00536
vn -1.00000 0.00000 0.00000
vn 0.00000 1.00000 0.00000
vn 1.00000 0.00000 0.00000
vn 0.00000 -1.00000 0.00000
vn 0.99844 0.00000 -0.05588
vn 0.99640 0.00000 0.08479
vn 0.97524 0.00000 0.22114
vn 0.98124 0.00000 -0.19279
vn -0.97561 0.00000 -0.21950
vn -0.97598 0.00000 -0.21785
vn -0.97635 0.00000 -0.21621
vn -0.97524 0.00000 -0.22114
vn 0.00000 0.00000 -1.00000
vn 0.00000 -0.99989 0.01489
vn 0.45380 -0.61843 0.64157
vn -0.39803 -0.91528 0.06187
vn -0.63073 -0.75313 0.18702
vn 0.36936 -0.83651 0.40475
vn 0.00584 -0.99710 0.07585
vn -0.74089 -0.65585 0.14474
vn 0.01765 -0.99960 0.02221
vn -0.44812 -0.89143 0.06739
vn 0.99479 0.00000 0.10196
vn 0.47088 0.75688 0.45321
vn 0.66171 0.48822 0.56903
vn 0.88940 -0.05279 0.45407
vn 0.99806 -0.00027 0.06223
vn 0.69503 -0.71620 0.06318
vn -0.60910 0.78846 0.08565
vn -0.62939 0.76576 0.13223
vn -0.00404 0.99982 0.01845
vn -0.63718 0.72980 0.24777
vn 0.00598 0.98236 0.18692
vn 0.01765 0.99960 0.02222
vn 0.45945 0.88591 0.06372
vn -0.99263 -0.00000 0.12122
vn -0.98530 0.03744 0.16665
vn -0.98987 0.00240 0.14198
vn -0.99376 -0.06319 0.09189
vn -0.65509 0.75138 0.07928
vn 0.60373 0.79719 0.00000
vn 0.79713 0.60381 0.00000
vn 0.99059 0.13683 0.00000
vn 0.99060 -0.13681 0.00000
vn -0.13682 0.99060 0.00000
vn 0.13677 0.99060 0.00000
vn -0.79713 0.60380 0.00000
vn -0.60376 0.79717 0.00000
vn -0.99060 -0.13681 0.00000
vn -0.99059 0.13683 0.00000
vn -0.60376 -0.79717 0.00000
vn -0.79714 -0.60379 0.00000
vn 0.13676 -0.99060 0.00000
vn -0.13681 -0.99060 0.00000
vn 0.79713 -0.60380 0.00000
vn 0.60373 -0.79719 0.00000
vn 0.00000 0.00000 1.00000
# 74 normals
usemtl mcleaner
f  51/1/1 52/2/2 53/3/3
f  54/4/4 53/3/3 52/2/2
f  55/5/5 61/6/6 56/7/7
f  62/8/8 56/7/7 61/6/6
f  57/9/9 58/5/10 59/10/11
f  60/11/12 59/10/11 58/5/10
f  63/12/13 64/13/14 57/14/9
f  58/15/10 57/14/9 64/13/14
f  65/16/15 66/17/16 63/12/13
f  64/13/14 63/12/13 66/17/16
f  54/18/4 57/19/9 53/20/3
f  59/21/11 53/20/3 57/19/9
f  56/22/7 63/23/17 54/18/4
f  57/19/9 54/18/4 63/23/17
f  62/24/8 65/25/15 56/22/7
f  63/23/17 56/22/7 65/25/15
f  61/26/6 66/27/16 62/28/8
f  65/15/15 62/28/8 66/27/16
f  55/29/5 64/30/14 61/31/6
f  66/32/16 61/31/6 64/30/14
f  52/33/2 58/34/10 55/29/5
f  64/30/14 55/29/5 58/34/10
f  51/35/1 60/36/12 52/33/2
f  58/34/10 52/33/2 60/36/12
f  53/37/3 59/10/11 51/38/1
f  60/11/12 51/38/1 59/10/11
f  52/39/2 23/40/18 54/41/4
f  24/42/18 54/41/4 23/40/18
f  55/29/5 25/43/19 52/33/2
f  23/44/19 52/33/2 25/43/19
f  56/9/7 26/45/20 55/46/5
f  25/47/20 55/46/5 26/45/20
f  54/18/4 24/48/21 56/22/7
f  26/49/21 56/22/7 24/48/21
f  67/50/19 68/51/19 45/52/19
f  69/53/21 46/54/21 70/55/21
f  45/56/22 46/57/23 47/58/24
f  48/59/24 47/58/24 46/57/23
f  68/2/25 70/60/25 45/56/22
f  46/57/23 45/56/22 70/60/25
f  45/61/26 46/62/27 67/63/28
f  69/64/28 67/63/28 46/62/27
f  47/65/29 48/66/29 45/61/26
f  46/62/27 45/61/26 48/66/29
f  10/67/30 13/68/30 11/69/30
f  11/69/30 13/68/30 12/70/30
f  13/68/30 14/71/30 12/70/30
f  14/72/31 17/73/32 12/74/33
f  15/75/34 12/74/33 17/73/32
f  17/73/32 21/76/35 15/75/34
f  21/76/35 1/77/36 15/75/34
f  1/77/36 19/78/37 15/75/34
f  2/79/38 27/80/39 1/77/36
f  19/78/37 1/77/36 27/80/39
f  13/81/40 18/82/41 14/83/40
f  17/84/32 14/83/40 18/82/41
f  18/82/41 22/85/42 17/84/32
f  22/85/42 3/86/43 17/84/32
f  3/86/43 21/87/35 17/84/32
f  4/88/44 28/89/45 3/86/43
f  21/87/35 3/86/43 28/89/45
f  10/74/46 16/75/47 13/72/48
f  18/73/41 13/72/48 16/75/47
f  16/75/47 20/78/49 18/73/41
f  20/78/49 5/77/50 18/73/41
f  5/77/50 22/76/42 18/73/41
f  6/79/51 29/90/52 5/77/50
f  22/76/42 5/77/50 29/90/52
f  12/83/33 15/91/34 11/92/53
f  7/93/54 11/92/53 15/91/34
f  19/87/37 8/86/55 15/91/34
f  7/93/54 15/91/34 8/86/55
f  27/89/39 9/88/56 19/87/37
f  8/86/55 19/87/37 9/88/56
f  20/78/49 30/80/57 5/77/50
f  6/79/51 5/77/50 30/80/57
f  21/76/35 28/90/45 1/77/36
f  2/79/38 1/77/36 28/90/45
f  29/94/52 4/88/44 22/85/42
f  3/86/43 22/85/42 4/88/44
f  20/85/49 8/86/55 30/94/57
f  9/88/56 30/94/57 8/86/55
f  16/95/47 7/93/54 20/85/49
f  8/86/55 20/85/49 7/93/54
f  10/81/46 11/92/53 16/95/47
f  7/93/54 16/95/47 11/92/53
f  31/96/58 32/97/59 49/98/60
f  50/99/61 49/98/60 32/97/59
f  33/100/62 34/101/63 31/102/58
f  32/103/59 31/102/58 34/101/63
f  35/104/64 36/105/65 33/100/62
f  34/101/63 33/100/62 36/105/65
f  37/106/66 38/107/67 35/108/64
f  36/109/65 35/108/64 38/107/67
f  39/110/68 40/111/69 37/106/66
f  38/107/67 37/106/66 40/111/69
f  41/112/70 42/113/71 39/114/68
f  40/115/69 39/114/68 42/113/71
f  43/116/72 44/117/73 41/112/70
f  42/113/71 41/112/70 44/117/73
f  49/98/60 50/99/61 43/118/72
f  44/119/73 43/118/72 50/99/61
f  39/120/30 37/121/30 41/122/30
f  35/123/30 33/124/30 37/121/30
f  31/125/30 49/126/30 33/124/30
f  33/124/30 49/126/30 37/121/30
f  37/121/30 49/126/30 41/122/30
f  41/122/30 49/126/30 43/127/30
f  34/128/74 36/129/74 32/130/74
f  38/131/74 40/132/74 36/129/74
f  42/133/74 44/134/74 40/132/74
f  40/132/74 44/134/74 36/129/74
f  36/129/74 44/134/74 32/130/74
f  32/130/74 44/134/74 50/135/74
