xof 0302txt 0032
Header {
 1;
 0;
 1;
}
template Header {
 <3D82AB43-62DA-11cf-AB39-0020AF71E433>
 WORD major;
 WORD minor;
 DWORD flags;
}

template Vector {
 <3D82AB5E-62DA-11cf-AB39-0020AF71E433>
 FLOAT x;
 FLOAT y;
 FLOAT z;
}

template Coords2d {
 <F6F23F44-7686-11cf-8F52-0040333594A3>
 FLOAT u;
 FLOAT v;
}

template Matrix4x4 {
 <F6F23F45-7686-11cf-8F52-0040333594A3>
 array FLOAT matrix[16];
}

template ColorRGBA {
 <35FF44E0-6C7C-11cf-8F52-0040333594A3>
 FLOAT red;
 FLOAT green;
 FLOAT blue;
 FLOAT alpha;
}

template ColorRGB {
 <D3E16E81-7835-11cf-8F52-0040333594A3>
 FLOAT red;
 FLOAT green;
 FLOAT blue;
}

template TextureFilename {
 <A42790E1-7810-11cf-8F52-0040333594A3>
 STRING filename;
}

template Material {
 <3D82AB4D-62DA-11cf-AB39-0020AF71E433>
 ColorRGBA faceColor;
 FLOAT power;
 ColorRGB specularColor;
 ColorRGB emissiveColor;
 [...]
}

template MeshFace {
 <3D82AB5F-62DA-11cf-AB39-0020AF71E433>
 DWORD nFaceVertexIndices;
 array DWORD faceVertexIndices[nFaceVertexIndices];
}

template MeshTextureCoords {
 <F6F23F40-7686-11cf-8F52-0040333594A3>
 DWORD nTextureCoords;
 array Coords2d textureCoords[nTextureCoords];
}

template MeshMaterialList {
 <F6F23F42-7686-11cf-8F52-0040333594A3>
 DWORD nMaterials;
 DWORD nFaceIndexes;
 array DWORD faceIndexes[nFaceIndexes];
 [Material]
}

template MeshNormals {
 <F6F23F43-7686-11cf-8F52-0040333594A3>
 DWORD nNormals;
 array Vector normals[nNormals];
 DWORD nFaceNormals;
 array MeshFace faceNormals[nFaceNormals];
}

template Mesh {
 <3D82AB44-62DA-11cf-AB39-0020AF71E433>
 DWORD nVertices;
 array Vector vertices[nVertices];
 DWORD nFaces;
 array MeshFace faces[nFaces];
 [...]
}

template FrameTransformMatrix {
 <F6F23F41-7686-11cf-8F52-0040333594A3>
 Matrix4x4 frameMatrix;
}

template Frame {
 <3D82AB46-62DA-11cf-AB39-0020AF71E433>
 [...]
}
template FloatKeys {
 <10DD46A9-775B-11cf-8F52-0040333594A3>
 DWORD nValues;
 array FLOAT values[nValues];
}

template TimedFloatKeys {
 <F406B180-7B3B-11cf-8F52-0040333594A3>
 DWORD time;
 FloatKeys tfkeys;
}

template AnimationKey {
 <10DD46A8-775B-11cf-8F52-0040333594A3>
 DWORD keyType;
 DWORD nKeys;
 array TimedFloatKeys keys[nKeys];
}

template AnimationOptions {
 <E2BF56C0-840F-11cf-8F52-0040333594A3>
 DWORD openclosed;
 DWORD positionquality;
}

template Animation {
 <3D82AB4F-62DA-11cf-AB39-0020AF71E433>
 [...]
}

template AnimationSet {
 <3D82AB50-62DA-11cf-AB39-0020AF71E433>
 [Animation]
}

template XSkinMeshHeader {
 <3cf169ce-ff7c-44ab-93c0-f78f62d172e2>
 WORD nMaxSkinWeightsPerVertex;
 WORD nMaxSkinWeightsPerFace;
 WORD nBones;
}

template VertexDuplicationIndices {
 <b8d65549-d7c9-4995-89cf-53a9a8b031e3>
 DWORD nIndices;
 DWORD nOriginalVertices;
 array DWORD indices[nIndices];
}

template SkinWeights {
 <6f0d123b-bad2-4167-a0d0-80224f25fabb>
 STRING transformNodeName;
 DWORD nWeights;
 array DWORD vertexIndices[nWeights];
 array FLOAT weights[nWeights];
 Matrix4x4 matrixOffset;
}
Frame Frm0 {
   FrameTransformMatrix {
1.000000,0.000000,0.000000,0.000000,
0.000000,1.000000,0.000000,0.000000,
0.000000,0.000000,1.000000,0.000000,
0.000000,0.000000,0.000000,1.000000;;
 }
Mesh object1 {
 158;
-0.051206;0.298078;0.007774;,
-0.029781;0.292336;0.012894;,
-0.051206;0.298078;-0.007433;,
-0.029781;0.292336;-0.012552;,
-0.002760;0.292336;0.012894;,
0.055110;0.311733;0.005835;,
-0.002760;0.292336;-0.012552;,
0.055110;0.311733;-0.005493;,
-0.038881;0.329035;-0.012552;,
-0.038881;0.329035;0.012894;,
-0.051206;0.312274;-0.007433;,
-0.051206;0.312274;0.007774;,
0.001768;0.329035;-0.012552;,
0.001768;0.329035;0.012894;,
-0.038881;0.329035;-0.012552;,
-0.038881;0.329035;0.012894;,
0.055110;0.325135;-0.005493;,
0.055110;0.325135;0.005835;,
-0.029781;0.292336;-0.012552;,
-0.038881;0.329035;-0.012552;,
-0.051206;0.298078;-0.007433;,
-0.051206;0.312274;-0.007433;,
-0.002760;0.292336;-0.012552;,
0.001768;0.329035;-0.012552;,
0.055110;0.311733;-0.005493;,
0.055110;0.325135;-0.005493;,
0.055110;0.311733;0.005835;,
0.055110;0.325135;0.005835;,
0.055110;0.311733;-0.005493;,
0.055110;0.325135;-0.005493;,
-0.002760;0.292336;0.012894;,
0.001768;0.329035;0.012894;,
0.055110;0.311733;0.005835;,
0.055110;0.325135;0.005835;,
-0.029781;0.292336;0.012894;,
-0.038881;0.329035;0.012894;,
-0.051206;0.298078;0.007774;,
-0.051206;0.312274;0.007774;,
-0.051206;0.298078;-0.007433;,
-0.051206;0.298078;0.007774;,
-0.029781;0.292336;0.012894;,
-0.029781;0.265759;0.012894;,
-0.029781;0.292336;-0.012552;,
-0.029781;0.265759;-0.012552;,
-0.002760;0.265759;0.012894;,
-0.029781;0.265759;0.012894;,
-0.002760;0.292336;-0.012552;,
-0.002760;0.265759;-0.012552;,
-0.002760;0.292336;0.012894;,
-0.002760;0.265759;0.012894;,
-0.029781;0.265759;-0.012552;,
-0.002760;0.265759;-0.012552;,
0.020845;0.305991;0.005561;,
0.029176;0.305991;0.005561;,
0.025259;0.286058;0.005561;,
0.020845;0.305991;-0.005141;,
0.025259;0.286058;-0.005141;,
0.029176;0.305991;-0.005141;,
0.025259;0.286058;0.005561;,
0.025259;0.286058;-0.005141;,
0.029779;0.266125;0.005561;,
0.029779;0.266125;-0.005141;,
0.029176;0.305991;0.005561;,
0.029176;0.305991;-0.005141;,
0.025259;0.286058;0.005561;,
0.025259;0.286058;-0.005141;,
0.020845;0.305991;0.005561;,
0.020845;0.305991;-0.005141;,
0.029779;0.266125;0.005561;,
0.029779;0.266125;-0.005141;,
-0.059667;-0.009035;0.032436;,
0.067969;-0.009035;0.032436;,
-0.067969;-0.009035;-0.000000;,
-0.059667;-0.009035;-0.032436;,
0.067969;-0.009035;-0.032436;,
0.067969;-0.009035;-0.032436;,
0.051200;0.154576;-0.030000;,
-0.059667;-0.009035;-0.032436;,
-0.047821;0.097630;-0.030000;,
0.003212;0.178305;-0.017147;,
-0.015921;0.178305;-0.017147;,
-0.035054;0.178305;-0.017147;,
-0.014457;0.258413;-0.015341;,
-0.028041;0.258413;-0.013384;,
0.067969;-0.009035;0.032436;,
0.051200;0.154576;0.030000;,
0.067969;-0.009035;-0.032436;,
0.051200;0.154576;-0.030000;,
0.003212;0.178305;0.017148;,
0.003212;0.178305;-0.000000;,
0.003212;0.178305;-0.017147;,
-0.000453;0.258413;-0.000000;,
-0.003602;0.258413;-0.013384;,
-0.059667;-0.009035;0.032436;,
-0.047821;0.097630;0.030000;,
0.067969;-0.009035;0.032436;,
0.051200;0.154576;0.030000;,
-0.035054;0.178305;0.017148;,
-0.015921;0.178305;0.017148;,
0.003212;0.178305;0.017148;,
-0.014457;0.258413;0.015341;,
-0.003602;0.258413;0.013384;,
-0.059667;-0.009035;-0.032436;,
-0.047821;0.097630;-0.030000;,
-0.067969;-0.009035;-0.000000;,
-0.054390;0.097630;-0.000000;,
-0.035054;0.178305;-0.017147;,
-0.038309;0.178305;-0.000000;,
-0.028041;0.258413;-0.013384;,
-0.031138;0.258413;-0.000000;,
-0.028041;0.258413;0.013384;,
-0.003602;0.258413;-0.013384;,
-0.003602;0.258413;0.013384;,
-0.035054;0.178305;0.017148;,
-0.028041;0.258413;0.013384;,
-0.047821;0.097630;0.030000;,
-0.059667;-0.009035;0.032436;,
-0.001924;0.252440;0.014322;,
-0.001924;0.272439;0.014322;,
0.003936;0.252440;0.000181;,
0.003936;0.272439;0.000181;,
-0.016066;0.252440;0.020181;,
-0.016066;0.272439;0.020181;,
-0.001924;0.252440;0.014322;,
-0.001924;0.272439;0.014322;,
-0.030207;0.252440;0.014322;,
-0.030207;0.272439;0.014322;,
-0.036066;0.252440;0.000181;,
-0.036066;0.272439;0.000181;,
-0.030207;0.252440;0.014322;,
-0.030207;0.272439;0.014322;,
-0.030207;0.252440;-0.013962;,
-0.030207;0.272439;-0.013962;,
-0.016066;0.252440;-0.019820;,
-0.016066;0.272439;-0.019820;,
-0.030207;0.252440;-0.013962;,
-0.030207;0.272439;-0.013962;,
-0.001924;0.252440;-0.013962;,
-0.001924;0.272439;-0.013962;,
-0.001924;0.252440;-0.013962;,
-0.001924;0.272439;-0.013962;,
-0.030207;0.252440;-0.013962;,
-0.036066;0.252440;0.000181;,
-0.016066;0.252440;-0.019820;,
-0.030207;0.252440;0.014322;,
-0.016066;0.252440;0.020181;,
-0.001924;0.252440;0.014322;,
0.003936;0.252440;0.000181;,
-0.001924;0.252440;-0.013962;,
-0.016066;0.272439;0.020181;,
-0.030207;0.272439;0.014322;,
-0.001924;0.272439;0.014322;,
-0.036066;0.272439;0.000181;,
-0.030207;0.272439;-0.013962;,
-0.016066;0.272439;-0.019820;,
-0.001924;0.272439;-0.013962;,
-0.001924;0.272439;0.014322;,
0.003936;0.272439;0.000181;;

 114;
3;2,1,0;,
3;1,2,3;,
3;6,5,4;,
3;5,6,7;,
3;10,9,8;,
3;9,10,11;,
3;14,13,12;,
3;13,14,15;,
3;12,17,16;,
3;17,12,13;,
3;20,19,18;,
3;19,20,21;,
3;18,23,22;,
3;23,18,19;,
3;22,25,24;,
3;25,22,23;,
3;28,27,26;,
3;27,28,29;,
3;32,31,30;,
3;31,32,33;,
3;30,35,34;,
3;35,30,31;,
3;34,37,36;,
3;37,34,35;,
3;39,10,38;,
3;10,39,11;,
3;42,41,40;,
3;41,42,43;,
3;34,44,30;,
3;44,34,45;,
3;48,47,46;,
3;47,48,49;,
3;22,50,18;,
3;50,22,51;,
3;54,53,52;,
3;57,56,55;,
3;60,59,58;,
3;59,60,61;,
3;58,63,62;,
3;63,58,59;,
3;66,65,64;,
3;65,66,67;,
3;64,69,68;,
3;69,64,65;,
3;72,71,70;,
3;73,71,72;,
3;73,74,71;,
3;77,76,75;,
3;76,77,78;,
3;78,79,76;,
3;78,80,79;,
3;78,81,80;,
3;80,83,82;,
3;83,80,81;,
3;86,85,84;,
3;85,86,87;,
3;87,88,85;,
3;87,89,88;,
3;87,90,89;,
3;89,92,91;,
3;92,89,90;,
3;95,94,93;,
3;94,95,96;,
3;96,97,94;,
3;96,98,97;,
3;96,99,98;,
3;98,101,100;,
3;101,98,99;,
3;104,103,102;,
3;103,104,105;,
3;103,107,106;,
3;107,103,105;,
3;106,109,108;,
3;109,106,107;,
3;98,110,97;,
3;110,98,100;,
3;80,111,79;,
3;111,80,82;,
3;88,91,112;,
3;91,88,89;,
3;114,107,113;,
3;107,114,109;,
3;113,105,115;,
3;105,113,107;,
3;115,104,116;,
3;104,115,105;,
3;119,118,117;,
3;118,119,120;,
3;123,122,121;,
3;122,123,124;,
3;121,126,125;,
3;126,121,122;,
3;129,128,127;,
3;128,129,130;,
3;127,132,131;,
3;132,127,128;,
3;135,134,133;,
3;134,135,136;,
3;133,138,137;,
3;138,133,134;,
3;139,120,119;,
3;120,139,140;,
3;143,142,141;,
3;142,145,144;,
3;145,147,146;,
3;142,147,145;,
3;143,147,142;,
3;148,147,143;,
3;151,150,149;,
3;150,153,152;,
3;153,155,154;,
3;150,155,153;,
3;151,155,150;,
3;157,155,156;;
MeshMaterialList {
 1;
 114;
  0,
  0,
  0,
  0,
  0,
  0,
  0,
  0,
  0,
  0,
  0,
  0,
  0,
  0,
  0,
  0,
  0,
  0,
  0,
  0,
  0,
  0,
  0,
  0,
  0,
  0,
  0,
  0,
  0,
  0,
  0,
  0,
  0,
  0,
  0,
  0,
  0,
  0,
  0,
  0,
  0,
  0,
  0,
  0,
  0,
  0,
  0,
  0,
  0,
  0,
  0,
  0,
  0,
  0,
  0,
  0,
  0,
  0,
  0,
  0,
  0,
  0,
  0,
  0,
  0,
  0,
  0,
  0,
  0,
  0,
  0,
  0,
  0,
  0,
  0,
  0,
  0,
  0,
  0,
  0,
  0,
  0,
  0,
  0,
  0,
  0,
  0,
  0,
  0,
  0,
  0,
  0,
  0,
  0,
  0,
  0,
  0,
  0,
  0,
  0,
  0,
  0,
  0,
  0,
  0,
  0,
  0,
  0,
  0,
  0,
  0,
  0,
  0,
  0;;
Material mcleaner {
 1.000000;1.000000;1.000000;1.000000;;
22.627417;
 0.000000;0.000000;0.000000;;
 0.000000;0.000000;0.000000;;
TextureFilename {
"garage\mcl_d.tga";
}
 }
}

 MeshNormals {
 158;
-0.876132;-0.339696;0.342051;,
-0.359094;-0.351937;0.864403;,
-0.616110;-0.571498;-0.542032;,
-0.521775;-0.213862;-0.825842;,
0.511425;-0.201668;0.835329;,
0.566348;-0.572003;0.593349;,
0.333226;-0.337759;-0.880272;,
0.871446;-0.338791;-0.354686;,
-0.350262;0.617056;-0.704669;,
-0.465113;0.514970;0.720052;,
-0.936005;0.277622;-0.216379;,
-0.760334;0.169105;0.627133;,
0.048640;0.998816;0.000000;,
0.078074;0.704774;0.705122;,
-0.350262;0.617056;-0.704669;,
-0.465113;0.514970;0.720052;,
0.513343;0.380464;-0.769237;,
0.714846;0.626206;0.311225;,
-0.521775;-0.213862;-0.825842;,
-0.350262;0.617056;-0.704669;,
-0.616110;-0.571498;-0.542032;,
-0.936005;0.277622;-0.216379;,
0.333226;-0.337759;-0.880272;,
0.043424;-0.005358;-0.999042;,
0.871446;-0.338791;-0.354686;,
0.513343;0.380464;-0.769237;,
0.566348;-0.572003;0.593349;,
0.714846;0.626206;0.311225;,
0.871446;-0.338791;-0.354686;,
0.513343;0.380464;-0.769237;,
0.511425;-0.201668;0.835329;,
0.078074;0.704774;0.705122;,
0.566348;-0.572003;0.593349;,
0.714846;0.626206;0.311225;,
-0.359094;-0.351937;0.864403;,
-0.465113;0.514970;0.720052;,
-0.876132;-0.339696;0.342051;,
-0.760334;0.169105;0.627133;,
-0.616110;-0.571498;-0.542032;,
-0.876132;-0.339696;0.342051;,
-0.359094;-0.351937;0.864403;,
-1.000000;0.000000;0.000000;,
-0.521775;-0.213862;-0.825842;,
-1.000000;0.000000;0.000000;,
0.000000;0.000000;1.000000;,
0.000000;0.000000;1.000000;,
0.333226;-0.337759;-0.880272;,
1.000000;0.000000;0.000000;,
0.511425;-0.201668;0.835329;,
1.000000;0.000000;0.000000;,
0.000000;0.000000;-1.000000;,
0.000000;0.000000;-1.000000;,
0.000000;0.000000;1.000000;,
0.000000;0.000000;1.000000;,
0.000000;0.000000;1.000000;,
0.000000;0.000000;-1.000000;,
0.000000;0.000000;-1.000000;,
0.000000;0.000000;-1.000000;,
0.998437;-0.055885;0.000000;,
0.996399;0.084795;0.000000;,
0.975242;0.221139;0.000000;,
0.975242;0.221139;0.000000;,
0.981241;-0.192785;0.000000;,
0.981241;-0.192785;0.000000;,
-0.975613;-0.219496;0.000000;,
-0.975982;-0.217852;0.000000;,
-0.976347;-0.216208;0.000000;,
-0.976347;-0.216208;0.000000;,
-0.975242;-0.221139;0.000000;,
-0.975242;-0.221139;0.000000;,
0.000000;-1.000000;0.000000;,
0.000000;-1.000000;0.000000;,
0.000000;-1.000000;0.000000;,
0.000000;-1.000000;0.000000;,
0.000000;-1.000000;0.000000;,
0.000000;0.014888;-0.999889;,
0.453796;0.641574;-0.618427;,
-0.398027;0.061870;-0.915285;,
-0.630725;0.187022;-0.753132;,
0.369356;0.404751;-0.836512;,
0.005844;0.075854;-0.997102;,
-0.740888;0.144745;-0.655846;,
0.017653;0.022209;-0.999597;,
-0.448117;0.067385;-0.891432;,
0.994789;0.101956;0.000000;,
0.470884;0.453215;0.756878;,
0.994789;0.101956;0.000000;,
0.453796;0.641574;-0.618427;,
0.661705;0.569027;0.488215;,
0.889403;0.454065;-0.052794;,
0.369356;0.404751;-0.836512;,
0.998062;0.062231;-0.000266;,
0.695027;0.063180;-0.716203;,
-0.609095;0.085654;0.788458;,
-0.629387;0.132227;0.765760;,
-0.004043;0.018447;0.999822;,
0.470884;0.453215;0.756878;,
-0.637179;0.247768;0.729804;,
0.005976;0.186920;0.982357;,
0.661705;0.569027;0.488215;,
0.017654;0.022220;0.999597;,
0.459453;0.063725;0.885913;,
-0.398027;0.061870;-0.915285;,
-0.630725;0.187022;-0.753132;,
-0.992626;0.121219;-0.000003;,
-0.985305;0.166652;0.037438;,
-0.740888;0.144745;-0.655846;,
-0.989867;0.141979;0.002399;,
-0.448117;0.067385;-0.891432;,
-0.993762;0.091894;-0.063186;,
-0.655092;0.079280;0.751378;,
0.695027;0.063180;-0.716203;,
0.459453;0.063725;0.885913;,
-0.637179;0.247768;0.729804;,
-0.655092;0.079280;0.751378;,
-0.629387;0.132227;0.765760;,
-0.609095;0.085654;0.788458;,
0.603728;0.000000;0.797190;,
0.797125;0.000000;0.603814;,
0.990595;0.000000;0.136830;,
0.990598;0.000000;-0.136806;,
-0.136817;0.000000;0.990596;,
0.136766;0.000000;0.990603;,
0.603728;0.000000;0.797190;,
0.797125;0.000000;0.603814;,
-0.797135;0.000000;0.603801;,
-0.603756;0.000000;0.797169;,
-0.990598;0.000000;-0.136806;,
-0.990595;0.000000;0.136830;,
-0.797135;0.000000;0.603801;,
-0.603756;0.000000;0.797169;,
-0.603758;0.000000;-0.797167;,
-0.797144;0.000000;-0.603790;,
0.136763;0.000000;-0.990604;,
-0.136814;0.000000;-0.990597;,
-0.603758;0.000000;-0.797167;,
-0.797144;0.000000;-0.603790;,
0.797134;0.000000;-0.603803;,
0.603730;0.000000;-0.797189;,
0.797134;0.000000;-0.603803;,
0.603730;0.000000;-0.797189;,
0.000000;-1.000000;0.000000;,
0.000000;-1.000000;0.000000;,
0.000000;-1.000000;0.000000;,
0.000000;-1.000000;0.000000;,
0.000000;-1.000000;0.000000;,
0.000000;-1.000000;0.000000;,
0.000000;-1.000000;0.000000;,
0.000000;-1.000000;0.000000;,
0.000000;1.000000;0.000000;,
0.000000;1.000000;0.000000;,
0.000000;1.000000;0.000000;,
0.000000;1.000000;0.000000;,
0.000000;1.000000;0.000000;,
0.000000;1.000000;0.000000;,
0.000000;1.000000;0.000000;,
0.000000;1.000000;0.000000;,
0.000000;1.000000;0.000000;;

 114;
3;2,1,0;,
3;1,2,3;,
3;6,5,4;,
3;5,6,7;,
3;10,9,8;,
3;9,10,11;,
3;14,13,12;,
3;13,14,15;,
3;12,17,16;,
3;17,12,13;,
3;20,19,18;,
3;19,20,21;,
3;18,23,22;,
3;23,18,19;,
3;22,25,24;,
3;25,22,23;,
3;28,27,26;,
3;27,28,29;,
3;32,31,30;,
3;31,32,33;,
3;30,35,34;,
3;35,30,31;,
3;34,37,36;,
3;37,34,35;,
3;39,10,38;,
3;10,39,11;,
3;42,41,40;,
3;41,42,43;,
3;34,44,30;,
3;44,34,45;,
3;48,47,46;,
3;47,48,49;,
3;22,50,18;,
3;50,22,51;,
3;54,53,52;,
3;57,56,55;,
3;60,59,58;,
3;59,60,61;,
3;58,63,62;,
3;63,58,59;,
3;66,65,64;,
3;65,66,67;,
3;64,69,68;,
3;69,64,65;,
3;72,71,70;,
3;73,71,72;,
3;73,74,71;,
3;77,76,75;,
3;76,77,78;,
3;78,79,76;,
3;78,80,79;,
3;78,81,80;,
3;80,83,82;,
3;83,80,81;,
3;86,85,84;,
3;85,86,87;,
3;87,88,85;,
3;87,89,88;,
3;87,90,89;,
3;89,92,91;,
3;92,89,90;,
3;95,94,93;,
3;94,95,96;,
3;96,97,94;,
3;96,98,97;,
3;96,99,98;,
3;98,101,100;,
3;101,98,99;,
3;104,103,102;,
3;103,104,105;,
3;103,107,106;,
3;107,103,105;,
3;106,109,108;,
3;109,106,107;,
3;98,110,97;,
3;110,98,100;,
3;80,111,79;,
3;111,80,82;,
3;88,91,112;,
3;91,88,89;,
3;114,107,113;,
3;107,114,109;,
3;113,105,115;,
3;105,113,107;,
3;115,104,116;,
3;104,115,105;,
3;119,118,117;,
3;118,119,120;,
3;123,122,121;,
3;122,123,124;,
3;121,126,125;,
3;126,121,122;,
3;129,128,127;,
3;128,129,130;,
3;127,132,131;,
3;132,127,128;,
3;135,134,133;,
3;134,135,136;,
3;133,138,137;,
3;138,133,134;,
3;139,120,119;,
3;120,139,140;,
3;143,142,141;,
3;142,145,144;,
3;145,147,146;,
3;142,147,145;,
3;143,147,142;,
3;148,147,143;,
3;151,150,149;,
3;150,153,152;,
3;153,155,154;,
3;150,155,153;,
3;151,155,150;,
3;157,155,156;;
 }
MeshTextureCoords {
 158;
0.164063;0.423828;,
0.109375;0.439453;,
0.164063;0.375000;,
0.109375;0.359375;,
0.080078;0.830078;,
0.056641;0.978516;,
0.000000;0.830078;,
0.021484;0.978516;,
0.080078;0.910156;,
0.080078;0.830078;,
0.123047;0.894531;,
0.123047;0.845703;,
0.251953;0.191406;,
0.171875;0.191406;,
0.251953;0.087891;,
0.171875;0.087891;,
0.230469;0.328125;,
0.193359;0.328125;,
0.103516;0.142578;,
0.009766;0.119141;,
0.089844;0.087891;,
0.052734;0.087891;,
0.103516;0.210938;,
0.009766;0.222656;,
0.054688;0.359375;,
0.019531;0.359375;,
0.136719;0.123047;,
0.136719;0.087891;,
0.171875;0.123047;,
0.171875;0.087891;,
0.091797;0.707031;,
0.000000;0.695313;,
0.042969;0.558594;,
0.009766;0.558594;,
0.091797;0.775391;,
0.000000;0.798828;,
0.078125;0.830078;,
0.041016;0.830078;,
0.158203;0.894531;,
0.158203;0.845703;,
0.171875;0.447266;,
0.240234;0.447266;,
0.171875;0.527344;,
0.240234;0.527344;,
0.160156;0.707031;,
0.160156;0.775391;,
0.080078;0.910156;,
0.146484;0.910156;,
0.080078;0.992188;,
0.146484;0.992188;,
0.171875;0.142578;,
0.171875;0.210938;,
0.062500;0.462891;,
0.083984;0.468750;,
0.060547;0.515625;,
0.142578;0.544922;,
0.146484;0.494141;,
0.164063;0.541016;,
0.109375;0.490234;,
0.142578;0.490234;,
0.109375;0.541016;,
0.142578;0.541016;,
0.109375;0.439453;,
0.142578;0.439453;,
0.236328;0.714844;,
0.203125;0.714844;,
0.236328;0.664063;,
0.203125;0.664063;,
0.236328;0.765625;,
0.203125;0.765625;,
0.498047;0.607422;,
0.498047;0.998047;,
0.621094;0.582031;,
0.744141;0.607422;,
0.744141;0.998047;,
0.570313;0.001953;,
0.625000;0.541016;,
0.992188;0.001953;,
0.953125;0.353516;,
0.783203;0.619141;,
0.847656;0.619141;,
0.910156;0.619141;,
0.841797;1.000000;,
0.886719;1.000000;,
0.544922;0.001953;,
0.535156;0.541016;,
0.279297;0.001953;,
0.289063;0.541016;,
0.482422;0.619141;,
0.412109;0.619141;,
0.341797;0.619141;,
0.412109;1.000000;,
0.357422;1.000000;,
0.992188;0.001953;,
0.953125;0.353516;,
0.570313;0.001953;,
0.625000;0.541016;,
0.910156;0.619141;,
0.847656;0.619141;,
0.783203;0.619141;,
0.841797;1.000000;,
0.806641;1.000000;,
0.279297;0.001953;,
0.289063;0.353516;,
0.412109;0.001953;,
0.412109;0.353516;,
0.341797;0.619141;,
0.412109;0.619141;,
0.357422;1.000000;,
0.412109;1.000000;,
0.886719;1.000000;,
0.806641;1.000000;,
0.466797;1.000000;,
0.482422;0.619141;,
0.466797;1.000000;,
0.535156;0.353516;,
0.544922;0.001953;,
0.160156;0.648438;,
0.109375;0.648438;,
0.160156;0.603516;,
0.109375;0.603516;,
0.236328;0.591797;,
0.185547;0.591797;,
0.236328;0.556641;,
0.185547;0.556641;,
0.236328;0.628906;,
0.185547;0.628906;,
0.171875;0.257813;,
0.121094;0.257813;,
0.171875;0.212891;,
0.121094;0.212891;,
0.171875;0.302734;,
0.121094;0.302734;,
0.066406;0.408203;,
0.015625;0.408203;,
0.066406;0.371094;,
0.015625;0.371094;,
0.066406;0.443359;,
0.015625;0.443359;,
0.160156;0.558594;,
0.109375;0.558594;,
0.160156;0.919922;,
0.162109;0.873047;,
0.187500;0.949219;,
0.191406;0.835938;,
0.230469;0.830078;,
0.257813;0.859375;,
0.257813;0.906250;,
0.228516;0.943359;,
0.199219;0.447266;,
0.171875;0.417969;,
0.240234;0.441406;,
0.173828;0.369141;,
0.203125;0.332031;,
0.242188;0.328125;,
0.269531;0.357422;,
0.240234;0.439850;,
0.269531;0.404297;;
}
}
 }
