xof 0302txt 0032
Header {
 1;
 0;
 1;
}
template Header {
 <3D82AB43-62DA-11cf-AB39-0020AF71E433>
 WORD major;
 WORD minor;
 DWORD flags;
}

template Vector {
 <3D82AB5E-62DA-11cf-AB39-0020AF71E433>
 FLOAT x;
 FLOAT y;
 FLOAT z;
}

template Coords2d {
 <F6F23F44-7686-11cf-8F52-0040333594A3>
 FLOAT u;
 FLOAT v;
}

template Matrix4x4 {
 <F6F23F45-7686-11cf-8F52-0040333594A3>
 array FLOAT matrix[16];
}

template ColorRGBA {
 <35FF44E0-6C7C-11cf-8F52-0040333594A3>
 FLOAT red;
 FLOAT green;
 FLOAT blue;
 FLOAT alpha;
}

template ColorRGB {
 <D3E16E81-7835-11cf-8F52-0040333594A3>
 FLOAT red;
 FLOAT green;
 FLOAT blue;
}

template TextureFilename {
 <A42790E1-7810-11cf-8F52-0040333594A3>
 STRING filename;
}

template Material {
 <3D82AB4D-62DA-11cf-AB39-0020AF71E433>
 ColorRGBA faceColor;
 FLOAT power;
 ColorRGB specularColor;
 ColorRGB emissiveColor;
 [...]
}

template MeshFace {
 <3D82AB5F-62DA-11cf-AB39-0020AF71E433>
 DWORD nFaceVertexIndices;
 array DWORD faceVertexIndices[nFaceVertexIndices];
}

template MeshTextureCoords {
 <F6F23F40-7686-11cf-8F52-0040333594A3>
 DWORD nTextureCoords;
 array Coords2d textureCoords[nTextureCoords];
}

template MeshMaterialList {
 <F6F23F42-7686-11cf-8F52-0040333594A3>
 DWORD nMaterials;
 DWORD nFaceIndexes;
 array DWORD faceIndexes[nFaceIndexes];
 [Material]
}

template MeshNormals {
 <F6F23F43-7686-11cf-8F52-0040333594A3>
 DWORD nNormals;
 array Vector normals[nNormals];
 DWORD nFaceNormals;
 array MeshFace faceNormals[nFaceNormals];
}

template Mesh {
 <3D82AB44-62DA-11cf-AB39-0020AF71E433>
 DWORD nVertices;
 array Vector vertices[nVertices];
 DWORD nFaces;
 array MeshFace faces[nFaces];
 [...]
}

template FrameTransformMatrix {
 <F6F23F41-7686-11cf-8F52-0040333594A3>
 Matrix4x4 frameMatrix;
}

template Frame {
 <3D82AB46-62DA-11cf-AB39-0020AF71E433>
 [...]
}
template FloatKeys {
 <10DD46A9-775B-11cf-8F52-0040333594A3>
 DWORD nValues;
 array FLOAT values[nValues];
}

template TimedFloatKeys {
 <F406B180-7B3B-11cf-8F52-0040333594A3>
 DWORD time;
 FloatKeys tfkeys;
}

template AnimationKey {
 <10DD46A8-775B-11cf-8F52-0040333594A3>
 DWORD keyType;
 DWORD nKeys;
 array TimedFloatKeys keys[nKeys];
}

template AnimationOptions {
 <E2BF56C0-840F-11cf-8F52-0040333594A3>
 DWORD openclosed;
 DWORD positionquality;
}

template Animation {
 <3D82AB4F-62DA-11cf-AB39-0020AF71E433>
 [...]
}

template AnimationSet {
 <3D82AB50-62DA-11cf-AB39-0020AF71E433>
 [Animation]
}

template XSkinMeshHeader {
 <3cf169ce-ff7c-44ab-93c0-f78f62d172e2>
 WORD nMaxSkinWeightsPerVertex;
 WORD nMaxSkinWeightsPerFace;
 WORD nBones;
}

template VertexDuplicationIndices {
 <b8d65549-d7c9-4995-89cf-53a9a8b031e3>
 DWORD nIndices;
 DWORD nOriginalVertices;
 array DWORD indices[nIndices];
}

template SkinWeights {
 <6f0d123b-bad2-4167-a0d0-80224f25fabb>
 STRING transformNodeName;
 DWORD nWeights;
 array DWORD vertexIndices[nWeights];
 array FLOAT weights[nWeights];
 Matrix4x4 matrixOffset;
}
Frame Frm0 {
   FrameTransformMatrix {
1.000000,0.000000,0.000000,0.000000,
0.000000,1.000000,0.000000,0.000000,
0.000000,0.000000,1.000000,0.000000,
0.000000,0.000000,0.000000,1.000000;;
 }
Mesh object1 {
 745;
-1.406981;-0.006259;-6.187200;,
-1.228378;-0.006259;-6.187200;,
-1.228378;-0.006259;-6.453487;,
-1.406981;-0.006259;-6.453487;,
1.567575;-0.006259;-3.267463;,
1.567575;-0.006259;-3.264611;,
1.802955;-0.006259;-3.264611;,
1.567575;-0.006259;-3.436295;,
1.802955;-0.006259;-3.455500;,
1.567575;-0.006259;-3.455500;,
-1.228378;2.175110;-6.453487;,
-1.228378;2.175110;-3.455500;,
-1.406981;2.143136;-3.455500;,
-1.406981;2.143136;-6.453487;,
-1.228378;2.175110;-3.264611;,
-1.406981;2.143136;-3.264611;,
-1.228378;2.175110;-0.217566;,
-1.406981;2.143136;-0.217566;,
-1.228378;-0.006259;-6.453487;,
-1.228378;2.139258;-6.453487;,
-1.406981;2.108196;-6.453487;,
-1.406981;2.029264;-6.453487;,
-1.406981;-0.006259;-6.453487;,
1.802955;-0.006259;-3.455500;,
1.802955;2.666448;-3.455500;,
1.802955;2.666448;-6.453487;,
1.802955;-0.006259;-6.453487;,
1.802955;-0.006259;-3.264611;,
1.802955;2.666448;-3.264611;,
1.802955;-0.006259;-0.217566;,
1.802955;2.666448;-0.217566;,
1.802955;-0.006259;-0.217566;,
-1.228378;-0.006259;-0.217566;,
-1.228378;2.139258;-0.217566;,
1.802955;2.666448;-0.217566;,
-1.406981;-0.006259;-0.445851;,
-1.406981;2.029160;-0.445851;,
-1.406981;2.026267;-0.217566;,
-1.406981;-0.006259;-0.217566;,
-1.406981;2.108196;-3.455500;,
-1.406981;2.108196;-3.264611;,
-1.406981;2.029160;-3.264611;,
-1.406981;2.029160;-3.267463;,
-1.406981;2.029160;-3.436295;,
-1.406981;2.029160;-3.455500;,
-1.756921;2.083945;-3.455500;,
-1.756921;2.049005;-3.455500;,
-1.796187;2.049005;-6.453487;,
-1.796187;2.083945;-6.453487;,
1.567575;-0.006259;-0.445851;,
1.802955;-0.006259;-0.217566;,
1.567575;-0.006259;-6.187200;,
1.567575;2.502803;-6.187200;,
1.567575;2.502803;-3.436295;,
1.567575;-0.006259;-3.455500;,
1.567575;-0.006259;-3.436295;,
1.567575;2.502803;-3.267463;,
1.567575;-0.006259;-3.267463;,
1.567575;2.502803;-0.445851;,
1.567575;-0.006259;-3.264611;,
1.567575;-0.006259;-0.445851;,
-1.406981;-0.006259;-0.445851;,
-1.228378;-0.006259;-0.445851;,
-1.228378;2.029160;-0.445851;,
-1.406981;2.029160;-0.445851;,
-1.406981;2.029160;-3.264611;,
-1.406981;2.029160;-0.445851;,
-1.228378;2.029160;-0.445851;,
-1.406981;2.029160;-3.267463;,
-1.228378;2.029160;-3.267463;,
-1.406981;-0.006260;-3.267463;,
-1.228378;-0.006260;-3.267463;,
-1.228378;-0.006260;-3.436295;,
-1.406981;-0.006260;-3.436295;,
-1.406981;2.029160;-3.455500;,
-1.406981;2.029160;-3.436295;,
-1.228378;2.029160;-3.436295;,
-1.228378;2.029160;-6.187200;,
-1.406981;2.029160;-6.187200;,
-1.406981;2.029160;-6.187200;,
-1.228378;2.029160;-6.187200;,
-1.228378;-0.006259;-6.187200;,
-1.406981;-0.006259;-6.187200;,
1.567575;-0.006259;-6.187200;,
1.802955;-0.006259;-6.453487;,
-1.406981;2.029160;-0.445851;,
-1.406981;2.108197;-0.217566;,
-1.406981;2.029160;-6.187200;,
-1.406981;2.029264;-6.453487;,
-1.406981;2.108196;-6.453487;,
-1.228378;-0.006259;-0.445851;,
-1.228378;-0.006259;-0.217566;,
1.802955;2.706260;-6.453487;,
1.802955;2.706260;-3.455500;,
1.802955;2.706260;-3.264611;,
1.802955;2.706260;-0.217566;,
1.802955;-0.006259;-6.453487;,
1.802955;2.666448;-6.453487;,
-1.406981;-0.006259;-0.217566;,
-1.406981;2.026267;-0.217566;,
-1.406981;2.108197;-0.217566;,
1.567575;-0.006259;-0.445851;,
1.567575;2.502803;-0.445851;,
1.567575;2.630803;-0.445851;,
1.567575;2.630803;-3.267463;,
-1.228378;2.157160;-3.267463;,
-1.228378;2.157160;-0.445851;,
1.567575;2.630803;-3.436295;,
-1.228378;2.157160;-3.436295;,
1.567575;2.630803;-6.187200;,
-1.228378;2.157160;-6.187200;,
1.567575;2.502803;-6.187200;,
1.567575;-0.006259;-6.187200;,
-1.406981;-0.006259;-0.445851;,
-1.406981;-0.006259;-0.217566;,
1.567575;2.630803;-6.187200;,
1.567575;2.630803;-3.436295;,
-1.228378;2.157160;-6.187200;,
1.567575;2.630803;-6.187200;,
-1.228378;2.029160;-3.436295;,
-1.228378;2.157160;-3.436295;,
-1.228378;2.157160;-6.187200;,
-1.228378;2.029160;-6.187200;,
-1.228378;2.029160;-3.267463;,
-1.228378;2.157160;-3.267463;,
-1.228378;2.029160;-0.445851;,
-1.228378;2.157160;-0.445851;,
1.567575;2.630803;-0.445851;,
-1.228378;2.157160;-0.445851;,
1.567575;2.630803;-3.267463;,
1.567575;2.630803;-0.445851;,
-1.406981;2.029160;-3.267463;,
-1.228378;2.029160;-3.267463;,
-1.228378;-0.006260;-3.267463;,
-1.406981;-0.006260;-3.267463;,
-1.228378;2.029160;-3.267463;,
-1.228378;2.029160;-3.436295;,
-1.228378;-0.006260;-3.436295;,
-1.228378;-0.006260;-3.267463;,
-1.228378;2.029160;-3.436295;,
-1.406981;2.029160;-3.436295;,
-1.406981;-0.006260;-3.436295;,
-1.228378;-0.006260;-3.436295;,
-1.406981;2.029160;-3.436295;,
-1.406981;2.029160;-3.267463;,
-1.406981;-0.006260;-3.267463;,
-1.406981;-0.006260;-3.436295;,
-1.228378;2.139258;-6.579465;,
-1.228378;2.175110;-6.579465;,
-1.406981;2.143136;-6.579465;,
-1.406981;2.108196;-6.579465;,
1.802955;2.706260;-3.455500;,
1.802955;2.706260;-6.453487;,
1.802955;2.666448;-6.453487;,
1.802955;2.666448;-3.455500;,
1.802955;2.706260;-3.264611;,
1.802955;2.666448;-3.264611;,
1.802955;2.706260;-0.217566;,
1.802955;2.666448;-0.217566;,
-1.228378;2.175110;-0.091588;,
1.802955;2.706260;-0.091588;,
1.802955;2.666448;-0.091588;,
-1.228378;2.139258;-0.091588;,
-1.802955;2.083945;-3.264611;,
-1.802955;2.049005;-3.264611;,
-1.702698;2.083945;-0.217566;,
-1.702698;2.049006;-0.217566;,
1.802955;2.666448;-6.579465;,
1.802955;2.706260;-6.579465;,
-1.406981;2.143136;-0.091588;,
-1.406981;2.108197;-0.091588;,
-1.756921;2.083945;-3.455500;,
-1.796187;2.083945;-6.453487;,
-1.802955;2.083945;-3.264611;,
-1.702698;2.083945;-0.217566;,
-1.702698;2.049006;-0.091588;,
-1.702698;2.083945;-0.091588;,
-1.406981;2.108197;-0.217566;,
-1.406981;2.108196;-3.264611;,
-1.802955;2.049005;-3.264611;,
-1.702698;2.049006;-0.217566;,
-1.406981;2.108196;-3.455500;,
-1.756921;2.049005;-3.455500;,
-1.406981;2.108196;-6.453487;,
-1.796187;2.049005;-6.453487;,
-1.756921;2.083945;-6.579465;,
-1.756921;2.049005;-6.579465;,
-1.406981;2.143136;-6.579465;,
-1.228378;2.175110;-6.579465;,
-1.756921;2.083945;-6.579465;,
-1.756921;2.049005;-6.579465;,
-1.756921;2.083945;-6.579465;,
-1.406981;2.108196;-6.579465;,
-1.756921;2.049005;-6.579465;,
-1.228378;2.139258;-6.453487;,
-1.228378;2.139258;-6.579465;,
1.802955;2.666448;-6.453487;,
1.802955;2.666448;-6.579465;,
1.802955;2.706260;-6.579465;,
1.802955;2.666448;-6.579465;,
1.802955;2.706260;-6.579465;,
1.802955;2.706260;-0.091588;,
-1.228378;2.175110;-0.091588;,
1.802955;2.666448;-0.091588;,
1.802955;2.706260;-0.091588;,
1.802955;2.666448;-0.217566;,
-1.228378;2.139258;-0.217566;,
-1.228378;2.139258;-0.091588;,
1.802955;2.666448;-0.091588;,
-1.406981;2.108197;-0.091588;,
-1.702698;2.049006;-0.091588;,
-1.702698;2.083945;-0.091588;,
-1.702698;2.049006;-0.091588;,
-1.406981;2.143136;-0.091588;,
-1.702698;2.083945;-0.091588;,
-1.406981;2.026267;-0.217566;,
-1.406981;2.029160;-6.187200;,
-1.406981;-0.006259;-6.187200;,
-1.406981;-0.006259;-6.453487;,
-1.406981;2.029264;-6.453487;,
-1.124973;1.409898;-6.450367;,
-1.124973;1.873647;-6.450367;,
-0.739529;1.873647;-6.450367;,
-0.739528;1.409898;-6.450367;,
-1.124973;1.409898;-6.462965;,
-0.739528;1.409898;-6.462965;,
-0.739529;1.873647;-6.462965;,
-1.124973;1.873647;-6.462965;,
-1.124973;1.409898;-6.450367;,
-0.739528;1.409898;-6.450367;,
-0.739528;1.409898;-6.462965;,
-1.124973;1.409898;-6.462965;,
-0.739528;1.409898;-6.450367;,
-0.739529;1.873647;-6.450367;,
-0.739529;1.873647;-6.462965;,
-0.739528;1.409898;-6.462965;,
-0.739529;1.873647;-6.450367;,
-1.124973;1.873647;-6.450367;,
-1.124973;1.873647;-6.462965;,
-0.739529;1.873647;-6.462965;,
-1.124973;1.873647;-6.450367;,
-1.124973;1.409898;-6.450367;,
-1.124973;1.409898;-6.462965;,
-1.124973;1.873647;-6.462965;,
-1.124973;0.824079;-6.450367;,
-1.124973;1.277628;-6.450367;,
-0.555277;1.277628;-6.450367;,
-0.555277;0.824079;-6.450367;,
-1.124973;0.824079;-6.462965;,
-0.555277;0.824079;-6.462965;,
-0.555277;1.277628;-6.462965;,
-1.124973;1.277628;-6.462965;,
-1.124973;0.824079;-6.450367;,
-0.555277;0.824079;-6.450367;,
-0.555277;0.824079;-6.462965;,
-1.124973;0.824079;-6.462965;,
-0.555277;0.824079;-6.450367;,
-0.555277;1.277628;-6.450367;,
-0.555277;1.277628;-6.462965;,
-0.555277;0.824079;-6.462965;,
-0.555277;1.277628;-6.450367;,
-1.124973;1.277628;-6.450367;,
-1.124973;1.277628;-6.462965;,
-0.555277;1.277628;-6.462965;,
-1.124973;1.277628;-6.450367;,
-1.124973;0.824079;-6.450367;,
-1.124973;0.824079;-6.462965;,
-1.124973;1.277628;-6.462965;,
-1.570615;-0.006259;-6.282666;,
-1.570615;0.028766;-6.282666;,
-1.543102;0.028766;-6.225536;,
-1.543102;-0.006259;-6.225536;,
-1.543102;-0.006259;-6.225536;,
-1.543102;0.028766;-6.225536;,
-1.481283;0.028766;-6.211426;,
-1.481283;-0.006259;-6.211426;,
-1.431707;0.028766;-6.250961;,
-1.431707;-0.006259;-6.250961;,
-1.431707;-0.006259;-6.250961;,
-1.431707;0.028766;-6.250961;,
-1.431707;0.028766;-6.314371;,
-1.431707;-0.006259;-6.314371;,
-1.431707;-0.006259;-6.314371;,
-1.431707;0.028766;-6.314371;,
-1.481283;0.028766;-6.353906;,
-1.481283;-0.006259;-6.353906;,
-1.543102;0.028766;-6.339797;,
-1.543102;-0.006259;-6.339797;,
-1.543102;-0.006259;-6.339797;,
-1.543102;0.028766;-6.339797;,
-1.543102;-0.006259;-6.225536;,
-1.481283;-0.006259;-6.211426;,
-1.431707;-0.006259;-6.250961;,
-1.570615;-0.006259;-6.282666;,
-1.431707;-0.006259;-6.314371;,
-1.481283;-0.006259;-6.353906;,
-1.543102;-0.006259;-6.339797;,
-1.489087;1.420766;-6.319713;,
-1.463307;1.420766;-6.299153;,
-1.463307;1.420766;-6.266179;,
-1.521235;1.420766;-6.312376;,
-1.489087;1.420766;-6.245620;,
-1.521235;1.420766;-6.252958;,
-1.535542;1.420766;-6.282666;,
-1.570615;0.028766;-6.282666;,
-1.535542;0.028766;-6.282666;,
-1.521235;0.028766;-6.252958;,
-1.543102;0.028766;-6.225536;,
-1.489087;0.028766;-6.245620;,
-1.481283;0.028766;-6.211426;,
-1.463307;0.028766;-6.266179;,
-1.431707;0.028766;-6.250961;,
-1.463307;0.028766;-6.299153;,
-1.431707;0.028766;-6.314371;,
-1.489087;0.028766;-6.319713;,
-1.481283;0.028766;-6.353906;,
-1.521235;0.028766;-6.312376;,
-1.543102;0.028766;-6.339797;,
-1.535542;0.028766;-6.282666;,
-1.535542;1.420766;-6.282666;,
-1.521235;1.420766;-6.252958;,
-1.521235;0.028766;-6.252958;,
-1.521235;0.028766;-6.252958;,
-1.521235;1.420766;-6.252958;,
-1.489087;1.420766;-6.245620;,
-1.489087;0.028766;-6.245620;,
-1.463307;1.420766;-6.266179;,
-1.463307;0.028766;-6.266179;,
-1.463307;0.028766;-6.266179;,
-1.463307;1.420766;-6.266179;,
-1.463307;1.420766;-6.299153;,
-1.463307;0.028766;-6.299153;,
-1.463307;0.028766;-6.299153;,
-1.463307;1.420766;-6.299153;,
-1.489087;1.420766;-6.319713;,
-1.489087;0.028766;-6.319713;,
-1.521235;1.420766;-6.312376;,
-1.521235;0.028766;-6.312376;,
-1.521235;0.028766;-6.312376;,
-1.521235;1.420766;-6.312376;,
-1.382643;1.198605;-6.275136;,
-1.494928;1.198605;-6.275136;,
-1.494928;1.242838;-6.275136;,
-1.382643;1.242838;-6.275136;,
-1.382643;1.198605;-6.287354;,
-1.382643;1.242838;-6.287354;,
-1.494928;1.242838;-6.287354;,
-1.494928;1.198605;-6.287354;,
-1.382643;1.198605;-6.275136;,
-1.382643;1.198605;-6.287354;,
-1.494928;1.198605;-6.287354;,
-1.494928;1.198605;-6.275136;,
-1.494928;1.242838;-6.275136;,
-1.494928;1.242838;-6.287354;,
-1.382643;1.242838;-6.287354;,
-1.382643;1.242838;-6.275136;,
-1.382643;0.202192;-6.275136;,
-1.494928;0.202192;-6.275136;,
-1.494928;0.246426;-6.275136;,
-1.382643;0.246426;-6.275136;,
-1.382643;0.202192;-6.287354;,
-1.382643;0.246426;-6.287354;,
-1.494928;0.246426;-6.287354;,
-1.494928;0.202192;-6.287354;,
-1.382643;0.202192;-6.275136;,
-1.382643;0.202192;-6.287354;,
-1.494928;0.202192;-6.287354;,
-1.494928;0.202192;-6.275136;,
-1.494928;0.246426;-6.275136;,
-1.494928;0.246426;-6.287354;,
-1.382643;0.246426;-6.287354;,
-1.382643;0.246426;-6.275136;,
-1.406981;-0.006259;0.483853;,
-1.228378;-0.006259;0.483853;,
-1.228378;-0.006259;0.217565;,
-1.406981;-0.006259;0.217565;,
1.567575;-0.006259;3.403590;,
1.567575;-0.006259;3.406442;,
1.802955;-0.006259;3.406442;,
1.567575;-0.006259;3.234758;,
1.802955;-0.006259;3.215552;,
1.567575;-0.006259;3.215552;,
-1.228378;2.175110;0.217565;,
-1.228378;2.175110;3.215552;,
-1.406981;2.143136;3.215552;,
-1.406981;2.143136;0.217565;,
-1.228378;2.175110;3.406442;,
-1.406981;2.143136;3.406442;,
-1.228378;2.175110;6.453487;,
-1.406981;2.143136;6.453487;,
-1.228378;-0.006259;0.217565;,
-1.228378;2.139258;0.217565;,
-1.406981;2.108196;0.217565;,
-1.406981;2.029264;0.217565;,
-1.406981;-0.006259;0.217565;,
1.802955;-0.006259;3.215552;,
1.802955;2.666448;3.215552;,
1.802955;2.666448;0.217565;,
1.802955;-0.006259;0.217565;,
1.802955;-0.006259;3.406442;,
1.802955;2.666448;3.406442;,
1.802955;-0.006259;6.453487;,
1.802955;2.666448;6.453487;,
1.802955;-0.006259;6.453487;,
-1.228378;-0.006259;6.453487;,
-1.228378;2.139258;6.453487;,
1.802955;2.666448;6.453487;,
-1.406981;-0.006259;6.225202;,
-1.406981;2.029160;6.225202;,
-1.406981;2.026267;6.453487;,
-1.406981;-0.006259;6.453487;,
-1.406981;2.108196;3.215552;,
-1.406981;2.108196;3.406442;,
-1.406981;2.029160;3.406442;,
-1.406981;2.029160;3.403589;,
-1.406981;2.029160;3.234758;,
-1.406981;2.029160;3.215552;,
-1.756921;2.083945;3.215552;,
-1.756921;2.049005;3.215552;,
-1.796187;2.049005;0.217565;,
-1.796187;2.083945;0.217565;,
1.567575;-0.006259;6.225202;,
1.802955;-0.006259;6.453487;,
1.567575;-0.006259;0.483853;,
1.567575;2.502803;0.483853;,
1.567575;2.502803;3.234758;,
1.567575;-0.006259;3.215552;,
1.567575;-0.006259;3.234758;,
1.567575;2.502803;3.403589;,
1.567575;-0.006259;3.403590;,
1.567575;2.502803;6.225202;,
1.567575;-0.006259;3.406442;,
1.567575;-0.006259;6.225202;,
-1.406981;-0.006259;6.225202;,
-1.228378;-0.006259;6.225202;,
-1.228378;2.029160;6.225202;,
-1.406981;2.029160;6.225202;,
-1.406981;2.029160;3.406442;,
-1.406981;2.029160;6.225202;,
-1.228378;2.029160;6.225202;,
-1.406981;2.029160;3.403589;,
-1.228378;2.029160;3.403589;,
-1.406981;-0.006260;3.403589;,
-1.228378;-0.006260;3.403589;,
-1.228378;-0.006260;3.234758;,
-1.406981;-0.006260;3.234758;,
-1.406981;2.029160;3.215552;,
-1.406981;2.029160;3.234758;,
-1.228378;2.029160;3.234758;,
-1.228378;2.029160;0.483853;,
-1.406981;2.029160;0.483853;,
-1.406981;2.029160;0.483853;,
-1.228378;2.029160;0.483853;,
-1.228378;-0.006259;0.483853;,
-1.406981;-0.006259;0.483853;,
1.567575;-0.006259;0.483853;,
1.802955;-0.006259;0.217565;,
-1.406981;2.029160;6.225202;,
-1.406981;2.108197;6.453487;,
-1.406981;2.029160;0.483853;,
-1.406981;2.029264;0.217565;,
-1.406981;2.108196;0.217565;,
-1.228378;-0.006259;6.225202;,
-1.228378;-0.006259;6.453487;,
1.802955;2.706260;0.217565;,
1.802955;2.706260;3.215552;,
1.802955;2.706260;3.406442;,
1.802955;2.706260;6.453487;,
1.802955;-0.006259;0.217565;,
1.802955;2.666448;0.217565;,
-1.406981;-0.006259;6.453487;,
-1.406981;2.026267;6.453487;,
-1.406981;2.108197;6.453487;,
1.567575;-0.006259;6.225202;,
1.567575;2.502803;6.225202;,
1.567575;2.630803;6.225202;,
1.567575;2.630803;3.403589;,
-1.228378;2.157160;3.403589;,
-1.228378;2.157160;6.225202;,
1.567575;2.630803;3.234758;,
-1.228378;2.157160;3.234758;,
1.567575;2.630803;0.483853;,
-1.228378;2.157160;0.483853;,
1.567575;2.502803;0.483853;,
1.567575;-0.006259;0.483853;,
-1.406981;-0.006259;6.225202;,
-1.406981;-0.006259;6.453487;,
1.567575;2.630803;0.483853;,
1.567575;2.630803;3.234758;,
-1.228378;2.157160;0.483853;,
1.567575;2.630803;0.483853;,
-1.228378;2.029160;3.234758;,
-1.228378;2.157160;3.234758;,
-1.228378;2.157160;0.483853;,
-1.228378;2.029160;0.483853;,
-1.228378;2.029160;3.403589;,
-1.228378;2.157160;3.403589;,
-1.228378;2.029160;6.225202;,
-1.228378;2.157160;6.225202;,
1.567575;2.630803;6.225202;,
-1.228378;2.157160;6.225202;,
1.567575;2.630803;3.403589;,
1.567575;2.630803;6.225202;,
-1.406981;2.029160;3.403589;,
-1.228378;2.029160;3.403589;,
-1.228378;-0.006260;3.403589;,
-1.406981;-0.006260;3.403589;,
-1.228378;2.029160;3.403589;,
-1.228378;2.029160;3.234758;,
-1.228378;-0.006260;3.234758;,
-1.228378;-0.006260;3.403589;,
-1.228378;2.029160;3.234758;,
-1.406981;2.029160;3.234758;,
-1.406981;-0.006260;3.234758;,
-1.228378;-0.006260;3.234758;,
-1.406981;2.029160;3.234758;,
-1.406981;2.029160;3.403589;,
-1.406981;-0.006260;3.403589;,
-1.406981;-0.006260;3.234758;,
-1.228378;2.139258;0.091587;,
-1.228378;2.175110;0.091587;,
-1.406981;2.143136;0.091587;,
-1.406981;2.108196;0.091587;,
1.802955;2.706260;3.215552;,
1.802955;2.706260;0.217565;,
1.802955;2.666448;0.217565;,
1.802955;2.666448;3.215552;,
1.802955;2.706260;3.406442;,
1.802955;2.666448;3.406442;,
1.802955;2.706260;6.453487;,
1.802955;2.666448;6.453487;,
-1.228378;2.175110;6.579465;,
1.802955;2.706260;6.579465;,
1.802955;2.666448;6.579465;,
-1.228378;2.139258;6.579465;,
-1.802955;2.083945;3.406442;,
-1.802955;2.049005;3.406442;,
-1.702698;2.083945;6.453487;,
-1.702698;2.049006;6.453487;,
1.802955;2.666448;0.091587;,
1.802955;2.706260;0.091587;,
-1.406981;2.143136;6.579465;,
-1.406981;2.108197;6.579465;,
-1.756921;2.083945;3.215552;,
-1.796187;2.083945;0.217565;,
-1.802955;2.083945;3.406442;,
-1.702698;2.083945;6.453487;,
-1.702698;2.049006;6.579465;,
-1.702698;2.083945;6.579465;,
-1.406981;2.108197;6.453487;,
-1.406981;2.108196;3.406442;,
-1.802955;2.049005;3.406442;,
-1.702698;2.049006;6.453487;,
-1.406981;2.108196;3.215552;,
-1.756921;2.049005;3.215552;,
-1.406981;2.108196;0.217565;,
-1.796187;2.049005;0.217565;,
-1.756921;2.083945;0.091587;,
-1.756921;2.049005;0.091587;,
-1.406981;2.143136;0.091587;,
-1.228378;2.175110;0.091587;,
-1.756921;2.083945;0.091587;,
-1.756921;2.049005;0.091587;,
-1.756921;2.083945;0.091587;,
-1.406981;2.108196;0.091587;,
-1.756921;2.049005;0.091587;,
-1.228378;2.139258;0.217565;,
-1.228378;2.139258;0.091587;,
1.802955;2.666448;0.217565;,
1.802955;2.666448;0.091587;,
1.802955;2.706260;0.091587;,
1.802955;2.666448;0.091587;,
1.802955;2.706260;0.091587;,
1.802955;2.706260;6.579465;,
-1.228378;2.175110;6.579465;,
1.802955;2.666448;6.579465;,
1.802955;2.706260;6.579465;,
1.802955;2.666448;6.453487;,
-1.228378;2.139258;6.453487;,
-1.228378;2.139258;6.579465;,
1.802955;2.666448;6.579465;,
-1.406981;2.108197;6.579465;,
-1.702698;2.049006;6.579465;,
-1.702698;2.083945;6.579465;,
-1.702698;2.049006;6.579465;,
-1.406981;2.143136;6.579465;,
-1.702698;2.083945;6.579465;,
-1.406981;2.026267;6.453487;,
-1.406981;2.029160;0.483853;,
-1.406981;-0.006259;0.483853;,
-1.406981;-0.006259;0.217565;,
-1.406981;2.029264;0.217565;,
-1.124973;1.409898;0.220685;,
-1.124973;1.873647;0.220685;,
-0.739529;1.873647;0.220685;,
-0.739528;1.409898;0.220685;,
-1.124973;1.409898;0.208087;,
-0.739528;1.409898;0.208087;,
-0.739529;1.873647;0.208087;,
-1.124973;1.873647;0.208087;,
-1.124973;1.409898;0.220685;,
-0.739528;1.409898;0.220685;,
-0.739528;1.409898;0.208087;,
-1.124973;1.409898;0.208087;,
-0.739528;1.409898;0.220685;,
-0.739529;1.873647;0.220685;,
-0.739529;1.873647;0.208087;,
-0.739528;1.409898;0.208087;,
-0.739529;1.873647;0.220685;,
-1.124973;1.873647;0.220685;,
-1.124973;1.873647;0.208087;,
-0.739529;1.873647;0.208087;,
-1.124973;1.873647;0.220685;,
-1.124973;1.409898;0.220685;,
-1.124973;1.409898;0.208087;,
-1.124973;1.873647;0.208087;,
-1.124973;0.824079;0.220685;,
-1.124973;1.277628;0.220685;,
-0.555277;1.277628;0.220685;,
-0.555277;0.824079;0.220685;,
-1.124973;0.824079;0.208087;,
-0.555277;0.824079;0.208087;,
-0.555277;1.277628;0.208087;,
-1.124973;1.277628;0.208087;,
-1.124973;0.824079;0.220685;,
-0.555277;0.824079;0.220685;,
-0.555277;0.824079;0.208087;,
-1.124973;0.824079;0.208087;,
-0.555277;0.824079;0.220685;,
-0.555277;1.277628;0.220685;,
-0.555277;1.277628;0.208087;,
-0.555277;0.824079;0.208087;,
-0.555277;1.277628;0.220685;,
-1.124973;1.277628;0.220685;,
-1.124973;1.277628;0.208087;,
-0.555277;1.277628;0.208087;,
-1.124973;1.277628;0.220685;,
-1.124973;0.824079;0.220685;,
-1.124973;0.824079;0.208087;,
-1.124973;1.277628;0.208087;,
-1.570615;-0.006259;0.388386;,
-1.570615;0.028766;0.388386;,
-1.543102;0.028766;0.445516;,
-1.543102;-0.006259;0.445516;,
-1.543102;-0.006259;0.445516;,
-1.543102;0.028766;0.445516;,
-1.481283;0.028766;0.459626;,
-1.481283;-0.006259;0.459626;,
-1.431707;0.028766;0.420091;,
-1.431707;-0.006259;0.420091;,
-1.431707;-0.006259;0.420091;,
-1.431707;0.028766;0.420091;,
-1.431707;0.028766;0.356681;,
-1.431707;-0.006259;0.356681;,
-1.431707;-0.006259;0.356681;,
-1.431707;0.028766;0.356681;,
-1.481283;0.028766;0.317146;,
-1.481283;-0.006259;0.317146;,
-1.543102;0.028766;0.331255;,
-1.543102;-0.006259;0.331255;,
-1.543102;-0.006259;0.331255;,
-1.543102;0.028766;0.331255;,
-1.543102;-0.006259;0.445516;,
-1.481283;-0.006259;0.459626;,
-1.431707;-0.006259;0.420091;,
-1.570615;-0.006259;0.388386;,
-1.431707;-0.006259;0.356681;,
-1.481283;-0.006259;0.317146;,
-1.543102;-0.006259;0.331255;,
-1.489087;1.420766;0.351340;,
-1.463307;1.420766;0.371899;,
-1.463307;1.420766;0.404873;,
-1.521235;1.420766;0.358677;,
-1.489087;1.420766;0.425432;,
-1.521235;1.420766;0.418095;,
-1.535542;1.420766;0.388386;,
-1.570615;0.028766;0.388386;,
-1.535542;0.028766;0.388386;,
-1.521235;0.028766;0.418095;,
-1.543102;0.028766;0.445516;,
-1.489087;0.028766;0.425432;,
-1.481283;0.028766;0.459626;,
-1.463307;0.028766;0.404873;,
-1.431707;0.028766;0.420091;,
-1.463307;0.028766;0.371899;,
-1.431707;0.028766;0.356681;,
-1.489087;0.028766;0.351340;,
-1.481283;0.028766;0.317146;,
-1.521235;0.028766;0.358677;,
-1.543102;0.028766;0.331255;,
-1.535542;0.028766;0.388386;,
-1.535542;1.420766;0.388386;,
-1.521235;1.420766;0.418095;,
-1.521235;0.028766;0.418095;,
-1.521235;0.028766;0.418095;,
-1.521235;1.420766;0.418095;,
-1.489087;1.420766;0.425432;,
-1.489087;0.028766;0.425432;,
-1.463307;1.420766;0.404873;,
-1.463307;0.028766;0.404873;,
-1.463307;0.028766;0.404873;,
-1.463307;1.420766;0.404873;,
-1.463307;1.420766;0.371899;,
-1.463307;0.028766;0.371899;,
-1.463307;0.028766;0.371899;,
-1.463307;1.420766;0.371899;,
-1.489087;1.420766;0.351340;,
-1.489087;0.028766;0.351340;,
-1.521235;1.420766;0.358677;,
-1.521235;0.028766;0.358677;,
-1.521235;0.028766;0.358677;,
-1.521235;1.420766;0.358677;,
-1.382643;1.198605;0.395916;,
-1.494928;1.198605;0.395916;,
-1.494928;1.242838;0.395916;,
-1.382643;1.242838;0.395916;,
-1.382643;1.198605;0.383698;,
-1.382643;1.242838;0.383698;,
-1.494928;1.242838;0.383698;,
-1.494928;1.198605;0.383698;,
-1.382643;1.198605;0.395916;,
-1.382643;1.198605;0.383698;,
-1.494928;1.198605;0.383698;,
-1.494928;1.198605;0.395916;,
-1.494928;1.242838;0.395916;,
-1.494928;1.242838;0.383698;,
-1.382643;1.242838;0.383698;,
-1.382643;1.242838;0.395916;,
-1.382643;0.202192;0.395916;,
-1.494928;0.202192;0.395916;,
-1.494928;0.246426;0.395916;,
-1.382643;0.246426;0.395916;,
-1.382643;0.202192;0.383698;,
-1.382643;0.246426;0.383698;,
-1.494928;0.246426;0.383698;,
-1.494928;0.202192;0.383698;,
-1.382643;0.202192;0.395916;,
-1.382643;0.202192;0.383698;,
-1.494928;0.202192;0.383698;,
-1.494928;0.202192;0.395916;,
-1.494928;0.246426;0.395916;,
-1.494928;0.246426;0.383698;,
-1.382643;0.246426;0.383698;,
-1.382643;0.246426;0.383698;,
-1.382643;0.246426;0.395916;;

 544;
3;2,1,0;,
3;0,3,2;,
3;6,5,4;,
3;6,4,7;,
3;8,6,7;,
3;9,8,7;,
3;12,11,10;,
3;10,13,12;,
3;15,14,11;,
3;11,12,15;,
3;17,16,14;,
3;14,15,17;,
3;20,19,18;,
3;21,20,18;,
3;21,18,22;,
3;25,24,23;,
3;23,26,25;,
3;24,28,27;,
3;27,23,24;,
3;28,30,29;,
3;29,27,28;,
3;33,32,31;,
3;31,34,33;,
3;37,36,35;,
3;35,38,37;,
3;41,40,39;,
3;42,41,39;,
3;43,42,39;,
3;43,39,44;,
3;47,46,45;,
3;45,48,47;,
3;49,5,6;,
3;6,50,49;,
3;53,52,51;,
3;53,51,54;,
3;55,53,54;,
3;55,57,56;,
3;56,53,55;,
3;58,56,57;,
3;58,57,59;,
3;58,59,60;,
3;63,62,61;,
3;61,64,63;,
3;67,66,65;,
3;67,65,68;,
3;69,67,68;,
3;72,71,70;,
3;70,73,72;,
3;76,75,74;,
3;77,76,74;,
3;78,77,74;,
3;81,80,79;,
3;79,82,81;,
3;8,9,83;,
3;83,84,8;,
3;40,41,85;,
3;85,86,40;,
3;89,88,87;,
3;91,90,49;,
3;49,50,91;,
3;2,84,83;,
3;83,1,2;,
3;11,93,92;,
3;92,10,11;,
3;14,94,93;,
3;93,11,14;,
3;16,95,94;,
3;94,14,16;,
3;19,97,96;,
3;96,18,19;,
3;99,98,32;,
3;100,99,32;,
3;33,100,32;,
3;63,102,101;,
3;101,62,63;,
3;105,104,103;,
3;103,106,105;,
3;108,107,104;,
3;104,105,108;,
3;110,109,107;,
3;107,108,110;,
3;81,112,111;,
3;111,80,81;,
3;91,114,113;,
3;113,90,91;,
3;116,115,52;,
3;52,53,116;,
3;117,80,111;,
3;111,118,117;,
3;121,120,119;,
3;119,122,121;,
3;120,124,123;,
3;123,119,120;,
3;124,126,125;,
3;125,123,124;,
3;128,127,102;,
3;102,63,128;,
3;130,129,56;,
3;56,58,130;,
3;129,116,53;,
3;53,56,129;,
3;133,132,131;,
3;131,134,133;,
3;137,136,135;,
3;135,138,137;,
3;141,140,139;,
3;139,142,141;,
3;145,144,143;,
3;143,146,145;,
3;149,148,147;,
3;147,150,149;,
3;153,152,151;,
3;151,154,153;,
3;154,151,155;,
3;155,156,154;,
3;156,155,157;,
3;157,158,156;,
3;161,160,159;,
3;159,162,161;,
3;164,163,45;,
3;45,46,164;,
3;87,44,39;,
3;39,89,87;,
3;166,165,163;,
3;163,164,166;,
3;148,168,167;,
3;167,147,148;,
3;162,159,169;,
3;169,170,162;,
3;171,12,13;,
3;13,172,171;,
3;173,15,12;,
3;12,171,173;,
3;174,17,15;,
3;15,173,174;,
3;175,170,169;,
3;169,176,175;,
3;179,178,177;,
3;177,180,179;,
3;182,181,178;,
3;178,179,182;,
3;184,183,181;,
3;181,182,184;,
3;185,149,150;,
3;150,186,185;,
3;187,13,10;,
3;10,188,187;,
3;189,172,13;,
3;13,187,189;,
3;190,47,48;,
3;48,191,190;,
3;192,183,184;,
3;184,193,192;,
3;195,194,183;,
3;183,192,195;,
3;197,196,194;,
3;194,195,197;,
3;198,152,153;,
3;153,199,198;,
3;188,10,92;,
3;92,200,188;,
3;201,95,16;,
3;16,202,201;,
3;203,158,157;,
3;157,204,203;,
3;207,206,205;,
3;205,208,207;,
3;209,177,206;,
3;206,207,209;,
3;210,180,177;,
3;177,209,210;,
3;211,165,166;,
3;166,212,211;,
3;213,17,174;,
3;174,214,213;,
3;202,16,17;,
3;17,213,202;,
3;215,86,85;,
3;218,217,216;,
3;216,219,218;,
3;222,221,220;,
3;220,223,222;,
3;226,225,224;,
3;224,227,226;,
3;230,229,228;,
3;228,231,230;,
3;234,233,232;,
3;232,235,234;,
3;238,237,236;,
3;236,239,238;,
3;242,241,240;,
3;240,243,242;,
3;246,245,244;,
3;244,247,246;,
3;250,249,248;,
3;248,251,250;,
3;254,253,252;,
3;252,255,254;,
3;258,257,256;,
3;256,259,258;,
3;262,261,260;,
3;260,263,262;,
3;266,265,264;,
3;264,267,266;,
3;270,269,268;,
3;268,271,270;,
3;274,273,272;,
3;272,275,274;,
3;276,274,275;,
3;275,277,276;,
3;280,279,278;,
3;278,281,280;,
3;284,283,282;,
3;282,285,284;,
3;286,284,285;,
3;285,287,286;,
3;269,289,288;,
3;288,268,269;,
3;292,291,290;,
3;292,290,293;,
3;295,294,292;,
3;295,292,293;,
3;295,293,296;,
3;299,298,297;,
3;299,297,300;,
3;302,301,299;,
3;302,299,300;,
3;302,300,303;,
3;306,305,304;,
3;304,307,306;,
3;308,306,307;,
3;307,309,308;,
3;310,308,309;,
3;309,311,310;,
3;312,310,311;,
3;311,313,312;,
3;314,312,313;,
3;313,315,314;,
3;316,314,315;,
3;315,317,316;,
3;305,316,317;,
3;317,304,305;,
3;320,319,318;,
3;318,321,320;,
3;324,323,322;,
3;322,325,324;,
3;326,324,325;,
3;325,327,326;,
3;330,329,328;,
3;328,331,330;,
3;334,333,332;,
3;332,335,334;,
3;336,334,335;,
3;335,337,336;,
3;319,339,338;,
3;338,318,319;,
3;342,341,340;,
3;340,343,342;,
3;346,345,344;,
3;344,347,346;,
3;350,349,348;,
3;348,351,350;,
3;354,353,352;,
3;352,355,354;,
3;358,357,356;,
3;356,359,358;,
3;362,361,360;,
3;360,363,362;,
3;366,365,364;,
3;364,367,366;,
3;370,369,368;,
3;368,371,370;,
3;374,373,372;,
3;372,375,374;,
3;378,377,376;,
3;378,376,379;,
3;380,378,379;,
3;381,380,379;,
3;384,383,382;,
3;382,385,384;,
3;387,386,383;,
3;383,384,387;,
3;389,388,386;,
3;386,387,389;,
3;392,391,390;,
3;393,392,390;,
3;393,390,394;,
3;397,396,395;,
3;395,398,397;,
3;396,400,399;,
3;399,395,396;,
3;400,402,401;,
3;401,399,400;,
3;405,404,403;,
3;403,406,405;,
3;409,408,407;,
3;407,410,409;,
3;413,412,411;,
3;414,413,411;,
3;415,414,411;,
3;415,411,416;,
3;419,418,417;,
3;417,420,419;,
3;421,377,378;,
3;378,422,421;,
3;425,424,423;,
3;425,423,426;,
3;427,425,426;,
3;427,429,428;,
3;428,425,427;,
3;430,428,429;,
3;430,429,431;,
3;430,431,432;,
3;435,434,433;,
3;433,436,435;,
3;439,438,437;,
3;439,437,440;,
3;441,439,440;,
3;444,443,442;,
3;442,445,444;,
3;448,447,446;,
3;449,448,446;,
3;450,449,446;,
3;453,452,451;,
3;451,454,453;,
3;380,381,455;,
3;455,456,380;,
3;412,413,457;,
3;457,458,412;,
3;461,460,459;,
3;463,462,421;,
3;421,422,463;,
3;374,456,455;,
3;455,373,374;,
3;383,465,464;,
3;464,382,383;,
3;386,466,465;,
3;465,383,386;,
3;388,467,466;,
3;466,386,388;,
3;391,469,468;,
3;468,390,391;,
3;471,470,404;,
3;472,471,404;,
3;405,472,404;,
3;435,474,473;,
3;473,434,435;,
3;477,476,475;,
3;475,478,477;,
3;480,479,476;,
3;476,477,480;,
3;482,481,479;,
3;479,480,482;,
3;453,484,483;,
3;483,452,453;,
3;463,486,485;,
3;485,462,463;,
3;488,487,424;,
3;424,425,488;,
3;489,452,483;,
3;483,490,489;,
3;493,492,491;,
3;491,494,493;,
3;492,496,495;,
3;495,491,492;,
3;496,498,497;,
3;497,495,496;,
3;500,499,474;,
3;474,435,500;,
3;502,501,428;,
3;428,430,502;,
3;501,488,425;,
3;425,428,501;,
3;505,504,503;,
3;503,506,505;,
3;509,508,507;,
3;507,510,509;,
3;513,512,511;,
3;511,514,513;,
3;517,516,515;,
3;515,518,517;,
3;521,520,519;,
3;519,522,521;,
3;525,524,523;,
3;523,526,525;,
3;526,523,527;,
3;527,528,526;,
3;528,527,529;,
3;529,530,528;,
3;533,532,531;,
3;531,534,533;,
3;536,535,417;,
3;417,418,536;,
3;459,416,411;,
3;411,461,459;,
3;538,537,535;,
3;535,536,538;,
3;520,540,539;,
3;539,519,520;,
3;534,531,541;,
3;541,542,534;,
3;543,384,385;,
3;385,544,543;,
3;545,387,384;,
3;384,543,545;,
3;546,389,387;,
3;387,545,546;,
3;547,542,541;,
3;541,548,547;,
3;551,550,549;,
3;549,552,551;,
3;554,553,550;,
3;550,551,554;,
3;556,555,553;,
3;553,554,556;,
3;557,521,522;,
3;522,558,557;,
3;559,385,382;,
3;382,560,559;,
3;561,544,385;,
3;385,559,561;,
3;562,419,420;,
3;420,563,562;,
3;564,555,556;,
3;556,565,564;,
3;567,566,555;,
3;555,564,567;,
3;569,568,566;,
3;566,567,569;,
3;570,524,525;,
3;525,571,570;,
3;560,382,464;,
3;464,572,560;,
3;573,467,388;,
3;388,574,573;,
3;575,530,529;,
3;529,576,575;,
3;579,578,577;,
3;577,580,579;,
3;581,549,578;,
3;578,579,581;,
3;582,552,549;,
3;549,581,582;,
3;583,537,538;,
3;538,584,583;,
3;585,389,546;,
3;546,586,585;,
3;574,388,389;,
3;389,585,574;,
3;587,458,457;,
3;590,589,588;,
3;588,591,590;,
3;594,593,592;,
3;592,595,594;,
3;598,597,596;,
3;596,599,598;,
3;602,601,600;,
3;600,603,602;,
3;606,605,604;,
3;604,607,606;,
3;610,609,608;,
3;608,611,610;,
3;614,613,612;,
3;612,615,614;,
3;618,617,616;,
3;616,619,618;,
3;622,621,620;,
3;620,623,622;,
3;626,625,624;,
3;624,627,626;,
3;630,629,628;,
3;628,631,630;,
3;634,633,632;,
3;632,635,634;,
3;638,637,636;,
3;636,639,638;,
3;642,641,640;,
3;640,643,642;,
3;646,645,644;,
3;644,647,646;,
3;648,646,647;,
3;647,649,648;,
3;652,651,650;,
3;650,653,652;,
3;656,655,654;,
3;654,657,656;,
3;658,656,657;,
3;657,659,658;,
3;641,661,660;,
3;660,640,641;,
3;664,663,662;,
3;664,662,665;,
3;667,666,664;,
3;667,664,665;,
3;667,665,668;,
3;671,670,669;,
3;671,669,672;,
3;674,673,671;,
3;674,671,672;,
3;674,672,675;,
3;678,677,676;,
3;676,679,678;,
3;680,678,679;,
3;679,681,680;,
3;682,680,681;,
3;681,683,682;,
3;684,682,683;,
3;683,685,684;,
3;686,684,685;,
3;685,687,686;,
3;688,686,687;,
3;687,689,688;,
3;677,688,689;,
3;689,676,677;,
3;692,691,690;,
3;690,693,692;,
3;696,695,694;,
3;694,697,696;,
3;698,696,697;,
3;697,699,698;,
3;702,701,700;,
3;700,703,702;,
3;706,705,704;,
3;704,707,706;,
3;708,706,707;,
3;707,709,708;,
3;691,711,710;,
3;710,690,691;,
3;714,713,712;,
3;712,715,714;,
3;718,717,716;,
3;716,719,718;,
3;722,721,720;,
3;720,723,722;,
3;726,725,724;,
3;724,727,726;,
3;730,729,728;,
3;728,731,730;,
3;734,733,732;,
3;732,735,734;,
3;738,737,736;,
3;736,739,738;,
3;742,741,740;,
3;740,744,743;;
MeshMaterialList {
 8;
 544;
  0,
  0,
  0,
  0,
  0,
  0,
  1,
  1,
  1,
  1,
  1,
  1,
  0,
  0,
  0,
  0,
  0,
  0,
  0,
  0,
  0,
  0,
  0,
  0,
  0,
  2,
  2,
  2,
  2,
  1,
  1,
  0,
  0,
  0,
  0,
  0,
  0,
  0,
  0,
  0,
  0,
  0,
  0,
  2,
  2,
  2,
  0,
  0,
  2,
  2,
  2,
  0,
  0,
  0,
  0,
  2,
  2,
  2,
  0,
  0,
  0,
  0,
  1,
  1,
  1,
  1,
  1,
  1,
  0,
  0,
  0,
  0,
  0,
  0,
  0,
  1,
  1,
  1,
  1,
  1,
  1,
  0,
  0,
  0,
  0,
  0,
  0,
  0,
  0,
  2,
  2,
  2,
  2,
  2,
  2,
  0,
  0,
  0,
  0,
  0,
  0,
  2,
  2,
  2,
  2,
  2,
  2,
  2,
  2,
  1,
  1,
  1,
  1,
  1,
  1,
  1,
  1,
  1,
  1,
  1,
  1,
  2,
  2,
  1,
  1,
  1,
  1,
  1,
  1,
  1,
  1,
  1,
  1,
  1,
  1,
  1,
  1,
  1,
  1,
  1,
  1,
  1,
  1,
  1,
  1,
  1,
  1,
  1,
  1,
  1,
  1,
  1,
  1,
  1,
  1,
  1,
  1,
  1,
  1,
  1,
  1,
  1,
  1,
  1,
  1,
  1,
  1,
  1,
  1,
  1,
  1,
  1,
  1,
  1,
  1,
  1,
  1,
  2,
  0,
  0,
  3,
  3,
  4,
  4,
  5,
  5,
  5,
  5,
  5,
  5,
  5,
  5,
  3,
  3,
  5,
  5,
  5,
  5,
  5,
  5,
  5,
  5,
  5,
  5,
  6,
  6,
  6,
  6,
  6,
  6,
  6,
  6,
  6,
  6,
  6,
  6,
  6,
  6,
  6,
  6,
  6,
  6,
  6,
  6,
  6,
  6,
  6,
  6,
  6,
  6,
  6,
  6,
  6,
  6,
  6,
  6,
  6,
  6,
  6,
  6,
  6,
  6,
  6,
  6,
  6,
  6,
  6,
  6,
  6,
  6,
  6,
  6,
  6,
  6,
  6,
  6,
  6,
  6,
  6,
  6,
  6,
  6,
  6,
  6,
  6,
  6,
  6,
  6,
  6,
  6,
  6,
  6,
  0,
  0,
  0,
  0,
  0,
  0,
  1,
  1,
  1,
  1,
  1,
  1,
  0,
  0,
  0,
  0,
  0,
  0,
  0,
  0,
  0,
  0,
  0,
  0,
  0,
  2,
  2,
  2,
  2,
  1,
  1,
  0,
  0,
  0,
  0,
  0,
  0,
  0,
  0,
  0,
  0,
  0,
  0,
  2,
  2,
  2,
  0,
  0,
  2,
  2,
  2,
  0,
  0,
  0,
  0,
  2,
  2,
  2,
  0,
  0,
  0,
  0,
  1,
  1,
  1,
  1,
  1,
  1,
  0,
  0,
  0,
  0,
  0,
  0,
  0,
  1,
  1,
  1,
  1,
  1,
  1,
  0,
  0,
  0,
  0,
  0,
  0,
  0,
  0,
  2,
  2,
  2,
  2,
  2,
  2,
  0,
  0,
  0,
  0,
  0,
  0,
  2,
  2,
  2,
  2,
  2,
  2,
  2,
  2,
  1,
  1,
  1,
  1,
  1,
  1,
  1,
  1,
  1,
  1,
  1,
  1,
  2,
  2,
  1,
  1,
  1,
  1,
  1,
  1,
  1,
  1,
  1,
  1,
  1,
  1,
  1,
  1,
  1,
  1,
  1,
  1,
  1,
  1,
  1,
  1,
  1,
  1,
  1,
  1,
  1,
  1,
  1,
  1,
  1,
  1,
  1,
  1,
  1,
  1,
  1,
  1,
  1,
  1,
  1,
  1,
  1,
  1,
  1,
  1,
  1,
  1,
  1,
  1,
  1,
  1,
  1,
  1,
  2,
  0,
  0,
  3,
  3,
  4,
  4,
  5,
  5,
  5,
  5,
  5,
  5,
  5,
  5,
  3,
  3,
  5,
  5,
  5,
  5,
  5,
  5,
  5,
  5,
  5,
  5,
  6,
  6,
  6,
  6,
  6,
  6,
  6,
  6,
  6,
  6,
  6,
  6,
  6,
  6,
  6,
  6,
  6,
  6,
  6,
  6,
  6,
  6,
  6,
  6,
  6,
  6,
  6,
  6,
  6,
  6,
  6,
  6,
  6,
  6,
  6,
  6,
  6,
  6,
  6,
  6,
  6,
  6,
  6,
  6,
  6,
  6,
  6,
  6,
  6,
  6,
  6,
  6,
  6,
  6,
  6,
  6,
  6,
  6,
  6,
  6,
  6,
  6,
  6,
  6,
  6,
  6,
  6,
  6;;
Material con_3 {
 1.000000;1.000000;1.000000;1.000000;;
8.000000;
 0.000000;0.000000;0.000000;;
 0.000000;0.000000;0.000000;;
TextureFilename {
"garage\CON_3.tga";
}
 }
Material met_1 {
 1.000000;1.000000;1.000000;1.000000;;
8.000000;
 0.000000;0.000000;0.000000;;
 0.000000;0.000000;0.000000;;
TextureFilename {
"garage\MET_1.tga";
}
 }
Material wood_1 {
 1.000000;1.000000;1.000000;1.000000;;
8.000000;
 0.000000;0.000000;0.000000;;
 0.000000;0.000000;0.000000;;
TextureFilename {
"garage\WOOD_1.tga";
}
 }
Material wood_1a {
 1.000000;1.000000;1.000000;1.000000;;
8.000000;
 0.000000;0.000000;0.000000;;
 0.000000;0.000000;0.000000;;
TextureFilename {
"garage\WOOD_1.tga";
}
 }
Material rec_1 {
 1.000000;1.000000;1.000000;1.000000;;
8.000000;
 0.000000;0.000000;0.000000;;
 0.000000;0.000000;0.000000;;
TextureFilename {
"garage\REC_1.tga";
}
 }
Material trans_1 {
 1.000000;1.000000;1.000000;1.000000;;
8.000000;
 0.000000;0.000000;0.000000;;
 0.000000;0.000000;0.000000;;
TextureFilename {
"garage\TRANS1.tga";
}
 }
Material m_21 {
 1.000000;1.000000;1.000000;1.000000;;
8.000000;
 0.000000;0.000000;0.000000;;
 0.000000;0.000000;0.000000;;
TextureFilename {
"garage\M_2.tga";
}
 }
Material Material {
 0.752941;0.752941;0.752941;1.000000;;
8.000000;
 0.301177;0.301177;0.301177;;
 0.023529;0.023529;0.023529;;
 }
}

 MeshNormals {
 745;
0.000000;-1.000000;0.000000;,
0.000000;-1.000000;0.000000;,
0.000000;-1.000000;0.000000;,
0.000000;-1.000000;0.000000;,
0.000000;-1.000000;0.000000;,
0.000000;-1.000000;0.000000;,
0.000000;-1.000000;0.000000;,
0.000000;-1.000000;0.000000;,
0.000000;-1.000000;0.000000;,
0.000000;-1.000000;0.000000;,
-0.175011;0.984566;0.000000;,
-0.174406;0.984674;0.000000;,
-0.168348;0.985705;-0.006699;,
-0.164458;0.986356;-0.007475;,
-0.174406;0.984674;0.000000;,
-0.170128;0.985422;0.000811;,
-0.173801;0.984781;0.000000;,
-0.182912;0.983129;0.000000;,
0.000000;0.000000;-1.000000;,
0.000000;0.000000;-1.000000;,
0.000000;0.000000;-1.000000;,
0.000000;0.000000;-1.000000;,
0.000000;0.000000;-1.000000;,
1.000000;0.000000;0.000000;,
1.000000;0.000000;0.000000;,
0.987496;-0.157647;0.000000;,
1.000000;0.000000;0.000000;,
1.000000;0.000000;0.000000;,
1.000000;0.000000;0.000000;,
1.000000;0.000000;0.000000;,
0.861468;-0.507812;0.000000;,
0.000000;0.000000;1.000000;,
0.000000;0.000000;1.000000;,
0.000000;0.000000;1.000000;,
0.000000;0.000000;1.000000;,
-1.000000;0.000000;0.000000;,
-1.000000;0.000000;0.000000;,
-1.000000;0.000000;0.000000;,
-1.000000;0.000000;0.000000;,
-1.000000;0.000000;0.000000;,
-1.000000;0.000000;0.000000;,
-1.000000;0.000000;0.000000;,
-1.000000;0.000000;0.000000;,
-1.000000;0.000000;0.000000;,
-1.000000;0.000000;0.000000;,
-0.827996;0.553477;-0.089927;,
-0.993760;0.000000;-0.111539;,
-0.995808;0.000000;-0.091467;,
-0.840016;0.517164;-0.164057;,
0.000000;-1.000000;0.000000;,
0.000000;-1.000000;0.000000;,
-1.000000;0.000000;0.000000;,
-1.000000;0.000000;0.000000;,
-1.000000;0.000000;0.000000;,
-1.000000;0.000000;0.000000;,
-1.000000;0.000000;0.000000;,
-1.000000;0.000000;0.000000;,
-1.000000;0.000000;0.000000;,
-1.000000;0.000000;0.000000;,
-1.000000;0.000000;0.000000;,
-1.000000;0.000000;0.000000;,
0.000000;0.000000;-1.000000;,
0.000000;0.000000;-1.000000;,
0.000000;0.000000;-1.000000;,
0.000000;0.000000;-1.000000;,
0.000000;-1.000000;0.000000;,
0.000000;-1.000000;0.000000;,
0.000000;-1.000000;0.000000;,
0.000000;-1.000000;0.000000;,
0.000000;-1.000000;0.000000;,
0.000000;-1.000000;0.000000;,
0.000000;-1.000000;0.000000;,
0.000000;-1.000000;0.000000;,
0.000000;-1.000000;0.000000;,
0.000000;-1.000000;0.000000;,
0.000000;-1.000000;0.000000;,
0.000000;-1.000000;0.000000;,
0.000000;-1.000000;0.000000;,
0.000000;-1.000000;0.000000;,
0.000000;0.000000;1.000000;,
0.000000;0.000000;1.000000;,
0.000000;0.000000;1.000000;,
0.000000;0.000000;1.000000;,
0.000000;-1.000000;0.000000;,
0.000000;-1.000000;0.000000;,
-1.000000;0.000000;0.000000;,
-1.000000;0.000000;0.000000;,
-1.000000;0.000000;0.000000;,
-1.000000;0.000000;0.000000;,
-1.000000;0.000000;0.000000;,
0.000000;-1.000000;0.000000;,
0.000000;-1.000000;0.000000;,
-0.172591;0.984994;0.000000;,
-0.172591;0.984994;0.000000;,
-0.172591;0.984994;0.000000;,
-0.172591;0.984994;0.000000;,
0.000000;0.000000;-1.000000;,
0.000000;0.000000;-1.000000;,
0.000000;0.000000;1.000000;,
0.000000;0.000000;1.000000;,
0.000000;0.000000;1.000000;,
0.000000;0.000000;-1.000000;,
0.000000;0.000000;-1.000000;,
0.167023;-0.985953;0.000000;,
0.167023;-0.985953;0.000000;,
0.763879;-0.645359;0.000000;,
0.763879;-0.645359;0.000000;,
0.167023;-0.985953;0.000000;,
0.763879;-0.645359;0.000000;,
0.167023;-0.985953;0.000000;,
0.763879;-0.645359;0.000000;,
0.000000;0.000000;1.000000;,
0.000000;0.000000;1.000000;,
0.000000;-1.000000;0.000000;,
0.000000;-1.000000;0.000000;,
-1.000000;0.000000;0.000000;,
-1.000000;0.000000;0.000000;,
0.000000;0.000000;1.000000;,
0.000000;0.000000;1.000000;,
1.000000;0.000000;0.000000;,
0.763879;-0.645359;0.000000;,
0.763879;-0.645359;0.000000;,
1.000000;0.000000;0.000000;,
1.000000;0.000000;0.000000;,
0.763879;-0.645359;0.000000;,
1.000000;0.000000;0.000000;,
0.763879;-0.645359;0.000000;,
0.000000;0.000000;-1.000000;,
0.000000;0.000000;-1.000000;,
-1.000000;0.000000;0.000000;,
-1.000000;0.000000;0.000000;,
0.000000;0.000000;1.000000;,
0.000000;0.000000;1.000000;,
0.000000;0.000000;1.000000;,
0.000000;0.000000;1.000000;,
1.000000;0.000000;0.000000;,
1.000000;0.000000;0.000000;,
1.000000;0.000000;0.000000;,
1.000000;0.000000;0.000000;,
0.000000;0.000000;-1.000000;,
0.000000;0.000000;-1.000000;,
0.000000;0.000000;-1.000000;,
0.000000;0.000000;-1.000000;,
-1.000000;0.000000;0.000000;,
-1.000000;0.000000;0.000000;,
-1.000000;0.000000;0.000000;,
-1.000000;0.000000;0.000000;,
0.000000;0.000000;-1.000000;,
0.000000;0.000000;-1.000000;,
0.000000;0.000000;-1.000000;,
0.000000;0.000000;-1.000000;,
1.000000;0.000000;0.000000;,
1.000000;0.000000;0.000000;,
0.987496;-0.157647;0.000000;,
1.000000;0.000000;0.000000;,
1.000000;0.000000;0.000000;,
1.000000;0.000000;0.000000;,
1.000000;0.000000;0.000000;,
0.861468;-0.507812;0.000000;,
0.000000;0.000000;1.000000;,
0.000000;0.000000;1.000000;,
0.000000;0.000000;1.000000;,
0.000000;0.000000;1.000000;,
-0.756274;0.652710;-0.044933;,
-0.989209;0.000000;-0.146510;,
-0.571291;0.820710;0.007882;,
-0.999865;0.000000;0.016445;,
0.000000;0.000000;-1.000000;,
0.000000;0.000000;-1.000000;,
0.000000;0.000000;1.000000;,
0.000000;0.000000;1.000000;,
-0.827996;0.553477;-0.089927;,
-0.840016;0.517164;-0.164057;,
-0.756274;0.652710;-0.044933;,
-0.571291;0.820710;0.007882;,
0.000000;0.000000;1.000000;,
0.000000;0.000000;1.000000;,
0.181633;-0.983366;-0.001292;,
0.154149;-0.987976;0.011879;,
0.164022;-0.986409;0.009728;,
0.196267;-0.980545;-0.003229;,
0.161308;-0.986904;-0.000728;,
0.160465;-0.986979;0.011151;,
0.160857;-0.986978;0.000000;,
0.158556;-0.987272;0.012436;,
-0.383280;0.594825;-0.706597;,
-0.767434;0.000000;-0.641128;,
-0.173075;0.984909;0.000000;,
-0.173801;0.984781;0.000000;,
-0.383280;0.594825;-0.706597;,
-0.767434;0.000000;-0.641128;,
-0.383280;0.594825;-0.706597;,
0.162805;-0.986506;0.017310;,
0.166553;-0.984665;0.051913;,
0.171342;-0.985212;0.000000;,
0.171343;-0.985211;0.000000;,
0.987496;-0.157647;0.000000;,
0.563111;-0.826381;0.000000;,
1.000000;0.000000;0.000000;,
0.563111;-0.826381;0.000000;,
-0.172591;0.984994;0.000000;,
-0.172591;0.984994;0.000000;,
-0.175011;0.984566;0.000000;,
0.910645;-0.413190;0.000000;,
1.000000;0.000000;0.000000;,
0.861468;-0.507812;0.000000;,
0.171342;-0.985212;0.000000;,
0.171342;-0.985212;0.000000;,
0.910645;-0.413190;0.000000;,
0.179664;-0.983728;0.000000;,
0.196268;-0.980550;0.000000;,
-0.913127;0.407676;0.000000;,
-1.000000;0.000000;0.000000;,
-0.189595;0.981862;0.000000;,
-0.913127;0.407676;0.000000;,
-1.000000;0.000000;0.000000;,
-1.000000;0.000000;0.000000;,
-1.000000;0.000000;0.000000;,
-1.000000;0.000000;0.000000;,
-1.000000;0.000000;0.000000;,
0.000000;0.000000;1.000000;,
0.000000;0.000000;1.000000;,
0.000000;0.000000;1.000000;,
0.000000;0.000000;1.000000;,
0.000000;0.000000;-1.000000;,
0.000000;0.000000;-1.000000;,
0.000000;0.000000;-1.000000;,
0.000000;0.000000;-1.000000;,
0.000000;-1.000000;0.000000;,
0.000000;-1.000000;0.000000;,
0.000000;-1.000000;0.000000;,
0.000000;-1.000000;0.000000;,
1.000000;0.000001;0.000000;,
1.000000;0.000001;0.000000;,
1.000000;0.000001;0.000000;,
1.000000;0.000001;0.000000;,
0.000000;1.000000;0.000000;,
0.000000;1.000000;0.000000;,
0.000000;1.000000;0.000000;,
0.000000;1.000000;0.000000;,
-1.000000;0.000000;0.000000;,
-1.000000;0.000000;0.000000;,
-1.000000;0.000000;0.000000;,
-1.000000;0.000000;0.000000;,
0.000000;0.000000;1.000000;,
0.000000;0.000000;1.000000;,
0.000000;0.000000;1.000000;,
0.000000;0.000000;1.000000;,
0.000000;0.000000;-1.000000;,
0.000000;0.000000;-1.000000;,
0.000000;0.000000;-1.000000;,
0.000000;0.000000;-1.000000;,
0.000000;-1.000000;0.000000;,
0.000000;-1.000000;0.000000;,
0.000000;-1.000000;0.000000;,
0.000000;-1.000000;0.000000;,
1.000000;0.000000;0.000000;,
1.000000;0.000000;0.000000;,
1.000000;0.000000;0.000000;,
1.000000;0.000000;0.000000;,
0.000000;1.000000;0.000000;,
0.000000;1.000000;0.000000;,
0.000000;1.000000;0.000000;,
0.000000;1.000000;0.000000;,
-1.000000;0.000000;0.000000;,
-1.000000;0.000000;0.000000;,
-1.000000;0.000000;0.000000;,
-1.000000;0.000000;0.000000;,
-0.987359;0.000000;0.158497;,
-0.987359;0.000000;-0.158497;,
-0.739525;0.000000;0.673130;,
-0.491693;0.000000;0.870769;,
-0.491693;0.000000;0.870769;,
-0.739525;0.000000;0.673130;,
0.065182;0.000000;0.997873;,
0.374226;0.000000;0.927338;,
0.820809;0.000000;0.571202;,
0.958349;0.000000;0.285601;,
0.958349;0.000000;0.285601;,
0.820809;0.000000;0.571202;,
0.958348;0.000000;-0.285603;,
0.820807;0.000000;-0.571205;,
0.820807;0.000000;-0.571205;,
0.958348;0.000000;-0.285603;,
0.374224;0.000000;-0.927338;,
0.065185;0.000000;-0.997873;,
-0.491688;0.000000;-0.870771;,
-0.739523;0.000000;-0.673131;,
-0.739523;0.000000;-0.673131;,
-0.491688;0.000000;-0.870771;,
0.000000;-1.000000;0.000000;,
0.000000;-1.000000;0.000000;,
0.000000;-1.000000;0.000000;,
0.000000;-1.000000;0.000000;,
0.000000;-1.000000;0.000000;,
0.000000;-1.000000;0.000000;,
0.000000;-1.000000;0.000000;,
0.000000;1.000000;0.000000;,
0.000000;1.000000;0.000000;,
0.000000;1.000000;0.000000;,
0.000000;1.000000;0.000000;,
0.000000;1.000000;0.000000;,
0.000000;1.000000;0.000000;,
0.000000;1.000000;0.000000;,
0.000000;1.000000;0.000000;,
0.000000;1.000000;0.000000;,
0.000000;1.000000;0.000000;,
0.000000;1.000000;0.000000;,
0.000000;1.000000;0.000000;,
0.000000;1.000000;0.000000;,
0.000000;1.000000;0.000000;,
0.000000;1.000000;0.000000;,
0.000000;1.000000;0.000000;,
0.000000;1.000000;0.000000;,
0.000000;1.000000;0.000000;,
0.000000;1.000000;0.000000;,
0.000000;1.000000;0.000000;,
0.000000;1.000000;0.000000;,
-0.987358;0.000000;0.158504;,
-0.987360;0.000000;-0.158492;,
-0.739520;0.000000;0.673134;,
-0.491690;0.000000;0.870770;,
-0.491690;0.000000;0.870770;,
-0.739520;0.000000;0.673134;,
0.065183;0.000000;0.997873;,
0.374227;0.000000;0.927337;,
0.820810;0.000000;0.571202;,
0.958349;0.000000;0.285601;,
0.958349;0.000000;0.285601;,
0.820810;0.000000;0.571202;,
0.958350;0.000000;-0.285598;,
0.820814;0.000000;-0.571195;,
0.820814;0.000000;-0.571195;,
0.958350;0.000000;-0.285598;,
0.374238;0.000000;-0.927333;,
0.065196;0.000000;-0.997872;,
-0.491685;0.000000;-0.870773;,
-0.739523;0.000000;-0.673131;,
-0.739523;0.000000;-0.673131;,
-0.491685;0.000000;-0.870773;,
0.000000;0.000000;1.000000;,
0.000000;0.000000;1.000000;,
0.000000;0.000000;1.000000;,
0.000000;0.000000;1.000000;,
0.000000;0.000000;-1.000000;,
0.000000;0.000000;-1.000000;,
0.000000;0.000000;-1.000000;,
0.000000;0.000000;-1.000000;,
0.000000;-1.000000;0.000000;,
0.000000;-1.000000;0.000000;,
0.000000;-1.000000;0.000000;,
0.000000;-1.000000;0.000000;,
0.000000;1.000000;0.000000;,
0.000000;1.000000;0.000000;,
0.000000;1.000000;0.000000;,
0.000000;1.000000;0.000000;,
0.000000;0.000000;1.000000;,
0.000000;0.000000;1.000000;,
0.000000;0.000000;1.000000;,
0.000000;0.000000;1.000000;,
0.000000;0.000000;-1.000000;,
0.000000;0.000000;-1.000000;,
0.000000;0.000000;-1.000000;,
0.000000;0.000000;-1.000000;,
0.000000;-1.000000;0.000000;,
0.000000;-1.000000;0.000000;,
0.000000;-1.000000;0.000000;,
0.000000;-1.000000;0.000000;,
0.000000;1.000000;0.000000;,
0.000000;1.000000;0.000000;,
0.000000;1.000000;0.000000;,
0.000000;1.000000;0.000000;,
0.000000;-1.000000;0.000000;,
0.000000;-1.000000;0.000000;,
0.000000;-1.000000;0.000000;,
0.000000;-1.000000;0.000000;,
0.000000;-1.000000;0.000000;,
0.000000;-1.000000;0.000000;,
0.000000;-1.000000;0.000000;,
0.000000;-1.000000;0.000000;,
0.000000;-1.000000;0.000000;,
0.000000;-1.000000;0.000000;,
-0.175011;0.984566;0.000000;,
-0.174406;0.984674;0.000000;,
-0.168348;0.985705;-0.006699;,
-0.164458;0.986356;-0.007475;,
-0.174406;0.984674;0.000000;,
-0.170128;0.985422;0.000811;,
-0.173801;0.984781;0.000000;,
-0.182912;0.983129;0.000000;,
0.000000;0.000000;-1.000000;,
0.000000;0.000000;-1.000000;,
0.000000;0.000000;-1.000000;,
0.000000;0.000000;-1.000000;,
0.000000;0.000000;-1.000000;,
1.000000;0.000000;0.000000;,
1.000000;0.000000;0.000000;,
0.987496;-0.157647;0.000000;,
1.000000;0.000000;0.000000;,
1.000000;0.000000;0.000000;,
1.000000;0.000000;0.000000;,
1.000000;0.000000;0.000000;,
0.861468;-0.507812;0.000000;,
-0.000000;0.000000;1.000000;,
0.000000;0.000000;1.000000;,
-0.000000;0.000000;1.000000;,
-0.000000;0.000000;1.000000;,
-1.000000;0.000000;0.000000;,
-1.000000;0.000000;0.000000;,
-1.000000;0.000000;0.000000;,
-1.000000;0.000000;0.000000;,
-1.000000;0.000000;0.000000;,
-1.000000;0.000000;0.000000;,
-1.000000;0.000000;0.000000;,
-1.000000;0.000000;0.000000;,
-1.000000;0.000000;0.000000;,
-1.000000;0.000000;0.000000;,
-0.827995;0.553477;-0.089927;,
-0.993760;0.000000;-0.111539;,
-0.995808;0.000000;-0.091467;,
-0.840016;0.517164;-0.164057;,
0.000000;-1.000000;0.000000;,
0.000000;-1.000000;0.000000;,
-1.000000;0.000000;0.000000;,
-1.000000;0.000000;0.000000;,
-1.000000;0.000000;0.000000;,
-1.000000;0.000000;0.000000;,
-1.000000;0.000000;0.000000;,
-1.000000;0.000000;0.000000;,
-1.000000;0.000000;0.000000;,
-1.000000;0.000000;0.000000;,
-1.000000;0.000000;0.000000;,
-1.000000;0.000000;0.000000;,
0.000000;0.000000;-1.000000;,
0.000000;0.000000;-1.000000;,
0.000000;0.000000;-1.000000;,
0.000000;0.000000;-1.000000;,
0.000000;-1.000000;0.000000;,
0.000000;-1.000000;0.000000;,
0.000000;-1.000000;0.000000;,
0.000000;-1.000000;0.000000;,
0.000000;-1.000000;0.000000;,
0.000000;-1.000000;0.000000;,
0.000000;-1.000000;0.000000;,
0.000000;-1.000000;0.000000;,
0.000000;-1.000000;0.000000;,
0.000000;-1.000000;0.000000;,
0.000000;-1.000000;0.000000;,
0.000000;-1.000000;0.000000;,
0.000000;-1.000000;0.000000;,
0.000000;-1.000000;0.000000;,
0.000000;0.000000;1.000000;,
-0.000000;0.000000;1.000000;,
0.000000;0.000000;1.000000;,
0.000000;0.000000;1.000000;,
0.000000;-1.000000;0.000000;,
0.000000;-1.000000;0.000000;,
-1.000000;0.000000;0.000000;,
-1.000000;0.000000;0.000000;,
-1.000000;0.000000;0.000000;,
-1.000000;0.000000;0.000000;,
-1.000000;0.000000;0.000000;,
0.000000;-1.000000;0.000000;,
0.000000;-1.000000;0.000000;,
-0.172591;0.984994;0.000000;,
-0.172591;0.984994;0.000000;,
-0.172591;0.984994;0.000000;,
-0.172591;0.984994;0.000000;,
0.000000;0.000000;-1.000000;,
0.000000;0.000000;-1.000000;,
0.000000;0.000000;1.000000;,
0.000000;0.000000;1.000000;,
0.000000;0.000000;1.000000;,
0.000000;0.000000;-1.000000;,
0.000000;0.000000;-1.000000;,
0.167023;-0.985953;0.000000;,
0.167023;-0.985953;0.000000;,
0.763879;-0.645359;0.000000;,
0.763879;-0.645359;0.000000;,
0.167023;-0.985953;0.000000;,
0.763879;-0.645359;0.000000;,
0.167023;-0.985953;0.000000;,
0.763879;-0.645359;0.000000;,
0.000000;0.000000;1.000000;,
0.000000;0.000000;1.000000;,
0.000000;-1.000000;0.000000;,
0.000000;-1.000000;0.000000;,
-1.000000;0.000000;0.000000;,
-1.000000;0.000000;0.000000;,
0.000000;0.000000;1.000000;,
0.000000;0.000000;1.000000;,
1.000000;0.000000;0.000000;,
0.763879;-0.645359;0.000000;,
0.763879;-0.645359;0.000000;,
1.000000;0.000000;0.000000;,
1.000000;0.000000;0.000000;,
0.763879;-0.645359;0.000000;,
1.000000;0.000000;0.000000;,
0.763879;-0.645359;0.000000;,
0.000000;0.000000;-1.000000;,
0.000000;0.000000;-1.000000;,
-1.000000;0.000000;0.000000;,
-1.000000;0.000000;0.000000;,
0.000000;0.000000;1.000000;,
0.000000;0.000000;1.000000;,
0.000000;0.000000;1.000000;,
0.000000;0.000000;1.000000;,
1.000000;0.000000;0.000000;,
1.000000;0.000000;0.000000;,
1.000000;0.000000;0.000000;,
1.000000;0.000000;0.000000;,
0.000000;0.000000;-1.000000;,
0.000000;0.000000;-1.000000;,
0.000000;0.000000;-1.000000;,
0.000000;0.000000;-1.000000;,
-1.000000;0.000000;0.000000;,
-1.000000;0.000000;0.000000;,
-1.000000;0.000000;0.000000;,
-1.000000;0.000000;0.000000;,
0.000000;0.000000;-1.000000;,
0.000000;0.000000;-1.000000;,
0.000000;0.000000;-1.000000;,
0.000000;0.000000;-1.000000;,
1.000000;0.000000;0.000000;,
1.000000;0.000000;0.000000;,
0.987496;-0.157647;0.000000;,
1.000000;0.000000;0.000000;,
1.000000;0.000000;0.000000;,
1.000000;0.000000;0.000000;,
1.000000;0.000000;0.000000;,
0.861468;-0.507812;0.000000;,
0.000000;0.000000;1.000000;,
0.000000;0.000000;1.000000;,
0.000000;0.000000;1.000000;,
0.000000;0.000000;1.000000;,
-0.756274;0.652711;-0.044933;,
-0.989209;0.000001;-0.146510;,
-0.571291;0.820710;0.007882;,
-0.999865;-0.000000;0.016445;,
0.000000;0.000000;-1.000000;,
0.000000;0.000000;-1.000000;,
0.000000;0.000000;1.000000;,
0.000000;0.000000;1.000000;,
-0.827995;0.553477;-0.089927;,
-0.840016;0.517164;-0.164057;,
-0.756274;0.652711;-0.044933;,
-0.571291;0.820710;0.007882;,
0.000000;0.000000;1.000000;,
0.000000;0.000000;1.000000;,
0.181633;-0.983366;-0.001292;,
0.154149;-0.987976;0.011879;,
0.164022;-0.986409;0.009729;,
0.196267;-0.980545;-0.003229;,
0.161308;-0.986904;-0.000728;,
0.160465;-0.986979;0.011151;,
0.160857;-0.986978;0.000000;,
0.158556;-0.987272;0.012436;,
-0.383280;0.594825;-0.706597;,
-0.767434;0.000000;-0.641128;,
-0.173075;0.984909;0.000000;,
-0.173801;0.984781;0.000000;,
-0.383280;0.594825;-0.706597;,
-0.767434;0.000000;-0.641128;,
-0.383280;0.594825;-0.706597;,
0.162805;-0.986506;0.017310;,
0.166553;-0.984665;0.051913;,
0.171342;-0.985212;0.000000;,
0.171343;-0.985211;0.000000;,
0.987496;-0.157647;0.000000;,
0.563111;-0.826381;0.000000;,
1.000000;0.000000;0.000000;,
0.563111;-0.826381;0.000000;,
-0.172591;0.984994;0.000000;,
-0.172591;0.984994;0.000000;,
-0.175011;0.984566;0.000000;,
0.910645;-0.413190;0.000000;,
1.000000;0.000000;0.000000;,
0.861468;-0.507812;0.000000;,
0.171342;-0.985212;0.000000;,
0.171342;-0.985212;0.000000;,
0.910645;-0.413190;0.000000;,
0.179664;-0.983728;0.000000;,
0.196268;-0.980550;0.000000;,
-0.913127;0.407676;0.000000;,
-1.000000;0.000000;0.000000;,
-0.189595;0.981862;0.000000;,
-0.913127;0.407676;0.000000;,
-1.000000;0.000000;0.000000;,
-1.000000;0.000000;0.000000;,
-1.000000;0.000000;0.000000;,
-1.000000;0.000000;0.000000;,
-1.000000;0.000000;0.000000;,
0.000000;0.000000;1.000000;,
0.000000;0.000000;1.000000;,
0.000000;0.000000;1.000000;,
0.000000;0.000000;1.000000;,
0.000000;0.000000;-1.000000;,
0.000000;0.000000;-1.000000;,
0.000000;0.000000;-1.000000;,
0.000000;0.000000;-1.000000;,
0.000000;-1.000000;0.000000;,
0.000000;-1.000000;0.000000;,
0.000000;-1.000000;0.000000;,
0.000000;-1.000000;0.000000;,
1.000000;0.000001;0.000000;,
1.000000;0.000001;0.000000;,
1.000000;0.000001;0.000000;,
1.000000;0.000001;0.000000;,
0.000000;1.000000;0.000000;,
0.000000;1.000000;0.000000;,
0.000000;1.000000;0.000000;,
0.000000;1.000000;0.000000;,
-1.000000;0.000000;0.000000;,
-1.000000;0.000000;0.000000;,
-1.000000;0.000000;0.000000;,
-1.000000;0.000000;0.000000;,
0.000000;0.000000;1.000000;,
0.000000;0.000000;1.000000;,
0.000000;0.000000;1.000000;,
0.000000;0.000000;1.000000;,
0.000000;0.000000;-1.000000;,
0.000000;0.000000;-1.000000;,
0.000000;0.000000;-1.000000;,
0.000000;0.000000;-1.000000;,
0.000000;-1.000000;0.000000;,
0.000000;-1.000000;0.000000;,
0.000000;-1.000000;0.000000;,
0.000000;-1.000000;0.000000;,
1.000000;0.000000;0.000000;,
1.000000;0.000000;0.000000;,
1.000000;0.000000;0.000000;,
1.000000;0.000000;0.000000;,
0.000000;1.000000;0.000000;,
0.000000;1.000000;0.000000;,
0.000000;1.000000;0.000000;,
0.000000;1.000000;0.000000;,
-1.000000;0.000000;0.000000;,
-1.000000;0.000000;0.000000;,
-1.000000;0.000000;0.000000;,
-1.000000;0.000000;0.000000;,
-0.987359;0.000000;0.158497;,
-0.987359;0.000000;-0.158497;,
-0.739524;0.000000;0.673130;,
-0.491690;0.000000;0.870770;,
-0.491690;0.000000;0.870770;,
-0.739524;0.000000;0.673130;,
0.065184;0.000000;0.997873;,
0.374224;0.000000;0.927338;,
0.820808;0.000000;0.571204;,
0.958348;0.000000;0.285602;,
0.958348;0.000000;0.285602;,
0.820808;0.000000;0.571204;,
0.958348;0.000000;-0.285602;,
0.820808;0.000000;-0.571204;,
0.820808;0.000000;-0.571204;,
0.958348;0.000000;-0.285602;,
0.374224;0.000000;-0.927338;,
0.065184;0.000000;-0.997873;,
-0.491690;0.000000;-0.870770;,
-0.739524;0.000000;-0.673130;,
-0.739524;0.000000;-0.673130;,
-0.491690;0.000000;-0.870770;,
0.000000;-1.000000;0.000000;,
0.000000;-1.000000;0.000000;,
0.000000;-1.000000;0.000000;,
0.000000;-1.000000;0.000000;,
0.000000;-1.000000;0.000000;,
0.000000;-1.000000;0.000000;,
0.000000;-1.000000;0.000000;,
0.000000;1.000000;0.000000;,
0.000000;1.000000;0.000000;,
0.000000;1.000000;0.000000;,
0.000000;1.000000;0.000000;,
0.000000;1.000000;0.000000;,
0.000000;1.000000;0.000000;,
0.000000;1.000000;0.000000;,
0.000000;1.000000;0.000000;,
0.000000;1.000000;0.000000;,
0.000000;1.000000;0.000000;,
0.000000;1.000000;0.000000;,
0.000000;1.000000;0.000000;,
0.000000;1.000000;0.000000;,
0.000000;1.000000;0.000000;,
0.000000;1.000000;0.000000;,
0.000000;1.000000;0.000000;,
0.000000;1.000000;0.000000;,
0.000000;1.000000;0.000000;,
0.000000;1.000000;0.000000;,
0.000000;1.000000;0.000000;,
0.000000;1.000000;0.000000;,
-0.987359;0.000000;0.158498;,
-0.987359;0.000000;-0.158498;,
-0.739522;0.000000;0.673133;,
-0.491687;0.000000;0.870772;,
-0.491687;0.000000;0.870772;,
-0.739522;0.000000;0.673133;,
0.065190;0.000000;0.997873;,
0.374232;0.000000;0.927335;,
0.820812;0.000000;0.571198;,
0.958349;0.000000;0.285599;,
0.958349;0.000000;0.285599;,
0.820812;0.000000;0.571198;,
0.958349;0.000000;-0.285599;,
0.820812;0.000000;-0.571198;,
0.820812;0.000000;-0.571198;,
0.958349;0.000000;-0.285599;,
0.374232;0.000000;-0.927335;,
0.065190;0.000000;-0.997873;,
-0.491687;0.000000;-0.870772;,
-0.739522;0.000000;-0.673133;,
-0.739522;0.000000;-0.673133;,
-0.491687;0.000000;-0.870772;,
0.000000;0.000000;1.000000;,
0.000000;0.000000;1.000000;,
0.000000;0.000000;1.000000;,
0.000000;0.000000;1.000000;,
0.000000;0.000000;-1.000000;,
0.000000;0.000000;-1.000000;,
0.000000;0.000000;-1.000000;,
0.000000;0.000000;-1.000000;,
0.000000;-1.000000;0.000000;,
0.000000;-1.000000;0.000000;,
0.000000;-1.000000;0.000000;,
0.000000;-1.000000;0.000000;,
0.000000;1.000000;0.000000;,
0.000000;1.000000;0.000000;,
0.000000;1.000000;0.000000;,
0.000000;1.000000;0.000000;,
0.000000;0.000000;1.000000;,
0.000000;0.000000;1.000000;,
0.000000;0.000000;1.000000;,
0.000000;0.000000;1.000000;,
0.000000;0.000000;-1.000000;,
0.000000;0.000000;-1.000000;,
0.000000;0.000000;-1.000000;,
0.000000;0.000000;-1.000000;,
0.000000;-1.000000;0.000000;,
0.000000;-1.000000;0.000000;,
0.000000;-1.000000;0.000000;,
0.000000;-1.000000;0.000000;,
0.000000;1.000000;0.000000;,
0.000000;1.000000;0.000000;,
0.000000;1.000000;0.000000;,
0.000000;1.000000;0.000000;,
0.000000;1.000000;0.000000;;

 544;
3;2,1,0;,
3;0,3,2;,
3;6,5,4;,
3;6,4,7;,
3;8,6,7;,
3;9,8,7;,
3;12,11,10;,
3;10,13,12;,
3;15,14,11;,
3;11,12,15;,
3;17,16,14;,
3;14,15,17;,
3;20,19,18;,
3;21,20,18;,
3;21,18,22;,
3;25,24,23;,
3;23,26,25;,
3;24,28,27;,
3;27,23,24;,
3;28,30,29;,
3;29,27,28;,
3;33,32,31;,
3;31,34,33;,
3;37,36,35;,
3;35,38,37;,
3;41,40,39;,
3;42,41,39;,
3;43,42,39;,
3;43,39,44;,
3;47,46,45;,
3;45,48,47;,
3;49,5,6;,
3;6,50,49;,
3;53,52,51;,
3;53,51,54;,
3;55,53,54;,
3;55,57,56;,
3;56,53,55;,
3;58,56,57;,
3;58,57,59;,
3;58,59,60;,
3;63,62,61;,
3;61,64,63;,
3;67,66,65;,
3;67,65,68;,
3;69,67,68;,
3;72,71,70;,
3;70,73,72;,
3;76,75,74;,
3;77,76,74;,
3;78,77,74;,
3;81,80,79;,
3;79,82,81;,
3;8,9,83;,
3;83,84,8;,
3;40,41,85;,
3;85,86,40;,
3;89,88,87;,
3;91,90,49;,
3;49,50,91;,
3;2,84,83;,
3;83,1,2;,
3;11,93,92;,
3;92,10,11;,
3;14,94,93;,
3;93,11,14;,
3;16,95,94;,
3;94,14,16;,
3;19,97,96;,
3;96,18,19;,
3;99,98,32;,
3;100,99,32;,
3;33,100,32;,
3;63,102,101;,
3;101,62,63;,
3;105,104,103;,
3;103,106,105;,
3;108,107,104;,
3;104,105,108;,
3;110,109,107;,
3;107,108,110;,
3;81,112,111;,
3;111,80,81;,
3;91,114,113;,
3;113,90,91;,
3;116,115,52;,
3;52,53,116;,
3;117,80,111;,
3;111,118,117;,
3;121,120,119;,
3;119,122,121;,
3;120,124,123;,
3;123,119,120;,
3;124,126,125;,
3;125,123,124;,
3;128,127,102;,
3;102,63,128;,
3;130,129,56;,
3;56,58,130;,
3;129,116,53;,
3;53,56,129;,
3;133,132,131;,
3;131,134,133;,
3;137,136,135;,
3;135,138,137;,
3;141,140,139;,
3;139,142,141;,
3;145,144,143;,
3;143,146,145;,
3;149,148,147;,
3;147,150,149;,
3;153,152,151;,
3;151,154,153;,
3;154,151,155;,
3;155,156,154;,
3;156,155,157;,
3;157,158,156;,
3;161,160,159;,
3;159,162,161;,
3;164,163,45;,
3;45,46,164;,
3;87,44,39;,
3;39,89,87;,
3;166,165,163;,
3;163,164,166;,
3;148,168,167;,
3;167,147,148;,
3;162,159,169;,
3;169,170,162;,
3;171,12,13;,
3;13,172,171;,
3;173,15,12;,
3;12,171,173;,
3;174,17,15;,
3;15,173,174;,
3;175,170,169;,
3;169,176,175;,
3;179,178,177;,
3;177,180,179;,
3;182,181,178;,
3;178,179,182;,
3;184,183,181;,
3;181,182,184;,
3;185,149,150;,
3;150,186,185;,
3;187,13,10;,
3;10,188,187;,
3;189,172,13;,
3;13,187,189;,
3;190,47,48;,
3;48,191,190;,
3;192,183,184;,
3;184,193,192;,
3;195,194,183;,
3;183,192,195;,
3;197,196,194;,
3;194,195,197;,
3;198,152,153;,
3;153,199,198;,
3;188,10,92;,
3;92,200,188;,
3;201,95,16;,
3;16,202,201;,
3;203,158,157;,
3;157,204,203;,
3;207,206,205;,
3;205,208,207;,
3;209,177,206;,
3;206,207,209;,
3;210,180,177;,
3;177,209,210;,
3;211,165,166;,
3;166,212,211;,
3;213,17,174;,
3;174,214,213;,
3;202,16,17;,
3;17,213,202;,
3;215,86,85;,
3;218,217,216;,
3;216,219,218;,
3;222,221,220;,
3;220,223,222;,
3;226,225,224;,
3;224,227,226;,
3;230,229,228;,
3;228,231,230;,
3;234,233,232;,
3;232,235,234;,
3;238,237,236;,
3;236,239,238;,
3;242,241,240;,
3;240,243,242;,
3;246,245,244;,
3;244,247,246;,
3;250,249,248;,
3;248,251,250;,
3;254,253,252;,
3;252,255,254;,
3;258,257,256;,
3;256,259,258;,
3;262,261,260;,
3;260,263,262;,
3;266,265,264;,
3;264,267,266;,
3;270,269,268;,
3;268,271,270;,
3;274,273,272;,
3;272,275,274;,
3;276,274,275;,
3;275,277,276;,
3;280,279,278;,
3;278,281,280;,
3;284,283,282;,
3;282,285,284;,
3;286,284,285;,
3;285,287,286;,
3;269,289,288;,
3;288,268,269;,
3;292,291,290;,
3;292,290,293;,
3;295,294,292;,
3;295,292,293;,
3;295,293,296;,
3;299,298,297;,
3;299,297,300;,
3;302,301,299;,
3;302,299,300;,
3;302,300,303;,
3;306,305,304;,
3;304,307,306;,
3;308,306,307;,
3;307,309,308;,
3;310,308,309;,
3;309,311,310;,
3;312,310,311;,
3;311,313,312;,
3;314,312,313;,
3;313,315,314;,
3;316,314,315;,
3;315,317,316;,
3;305,316,317;,
3;317,304,305;,
3;320,319,318;,
3;318,321,320;,
3;324,323,322;,
3;322,325,324;,
3;326,324,325;,
3;325,327,326;,
3;330,329,328;,
3;328,331,330;,
3;334,333,332;,
3;332,335,334;,
3;336,334,335;,
3;335,337,336;,
3;319,339,338;,
3;338,318,319;,
3;342,341,340;,
3;340,343,342;,
3;346,345,344;,
3;344,347,346;,
3;350,349,348;,
3;348,351,350;,
3;354,353,352;,
3;352,355,354;,
3;358,357,356;,
3;356,359,358;,
3;362,361,360;,
3;360,363,362;,
3;366,365,364;,
3;364,367,366;,
3;370,369,368;,
3;368,371,370;,
3;374,373,372;,
3;372,375,374;,
3;378,377,376;,
3;378,376,379;,
3;380,378,379;,
3;381,380,379;,
3;384,383,382;,
3;382,385,384;,
3;387,386,383;,
3;383,384,387;,
3;389,388,386;,
3;386,387,389;,
3;392,391,390;,
3;393,392,390;,
3;393,390,394;,
3;397,396,395;,
3;395,398,397;,
3;396,400,399;,
3;399,395,396;,
3;400,402,401;,
3;401,399,400;,
3;405,404,403;,
3;403,406,405;,
3;409,408,407;,
3;407,410,409;,
3;413,412,411;,
3;414,413,411;,
3;415,414,411;,
3;415,411,416;,
3;419,418,417;,
3;417,420,419;,
3;421,377,378;,
3;378,422,421;,
3;425,424,423;,
3;425,423,426;,
3;427,425,426;,
3;427,429,428;,
3;428,425,427;,
3;430,428,429;,
3;430,429,431;,
3;430,431,432;,
3;435,434,433;,
3;433,436,435;,
3;439,438,437;,
3;439,437,440;,
3;441,439,440;,
3;444,443,442;,
3;442,445,444;,
3;448,447,446;,
3;449,448,446;,
3;450,449,446;,
3;453,452,451;,
3;451,454,453;,
3;380,381,455;,
3;455,456,380;,
3;412,413,457;,
3;457,458,412;,
3;461,460,459;,
3;463,462,421;,
3;421,422,463;,
3;374,456,455;,
3;455,373,374;,
3;383,465,464;,
3;464,382,383;,
3;386,466,465;,
3;465,383,386;,
3;388,467,466;,
3;466,386,388;,
3;391,469,468;,
3;468,390,391;,
3;471,470,404;,
3;472,471,404;,
3;405,472,404;,
3;435,474,473;,
3;473,434,435;,
3;477,476,475;,
3;475,478,477;,
3;480,479,476;,
3;476,477,480;,
3;482,481,479;,
3;479,480,482;,
3;453,484,483;,
3;483,452,453;,
3;463,486,485;,
3;485,462,463;,
3;488,487,424;,
3;424,425,488;,
3;489,452,483;,
3;483,490,489;,
3;493,492,491;,
3;491,494,493;,
3;492,496,495;,
3;495,491,492;,
3;496,498,497;,
3;497,495,496;,
3;500,499,474;,
3;474,435,500;,
3;502,501,428;,
3;428,430,502;,
3;501,488,425;,
3;425,428,501;,
3;505,504,503;,
3;503,506,505;,
3;509,508,507;,
3;507,510,509;,
3;513,512,511;,
3;511,514,513;,
3;517,516,515;,
3;515,518,517;,
3;521,520,519;,
3;519,522,521;,
3;525,524,523;,
3;523,526,525;,
3;526,523,527;,
3;527,528,526;,
3;528,527,529;,
3;529,530,528;,
3;533,532,531;,
3;531,534,533;,
3;536,535,417;,
3;417,418,536;,
3;459,416,411;,
3;411,461,459;,
3;538,537,535;,
3;535,536,538;,
3;520,540,539;,
3;539,519,520;,
3;534,531,541;,
3;541,542,534;,
3;543,384,385;,
3;385,544,543;,
3;545,387,384;,
3;384,543,545;,
3;546,389,387;,
3;387,545,546;,
3;547,542,541;,
3;541,548,547;,
3;551,550,549;,
3;549,552,551;,
3;554,553,550;,
3;550,551,554;,
3;556,555,553;,
3;553,554,556;,
3;557,521,522;,
3;522,558,557;,
3;559,385,382;,
3;382,560,559;,
3;561,544,385;,
3;385,559,561;,
3;562,419,420;,
3;420,563,562;,
3;564,555,556;,
3;556,565,564;,
3;567,566,555;,
3;555,564,567;,
3;569,568,566;,
3;566,567,569;,
3;570,524,525;,
3;525,571,570;,
3;560,382,464;,
3;464,572,560;,
3;573,467,388;,
3;388,574,573;,
3;575,530,529;,
3;529,576,575;,
3;579,578,577;,
3;577,580,579;,
3;581,549,578;,
3;578,579,581;,
3;582,552,549;,
3;549,581,582;,
3;583,537,538;,
3;538,584,583;,
3;585,389,546;,
3;546,586,585;,
3;574,388,389;,
3;389,585,574;,
3;587,458,457;,
3;590,589,588;,
3;588,591,590;,
3;594,593,592;,
3;592,595,594;,
3;598,597,596;,
3;596,599,598;,
3;602,601,600;,
3;600,603,602;,
3;606,605,604;,
3;604,607,606;,
3;610,609,608;,
3;608,611,610;,
3;614,613,612;,
3;612,615,614;,
3;618,617,616;,
3;616,619,618;,
3;622,621,620;,
3;620,623,622;,
3;626,625,624;,
3;624,627,626;,
3;630,629,628;,
3;628,631,630;,
3;634,633,632;,
3;632,635,634;,
3;638,637,636;,
3;636,639,638;,
3;642,641,640;,
3;640,643,642;,
3;646,645,644;,
3;644,647,646;,
3;648,646,647;,
3;647,649,648;,
3;652,651,650;,
3;650,653,652;,
3;656,655,654;,
3;654,657,656;,
3;658,656,657;,
3;657,659,658;,
3;641,661,660;,
3;660,640,641;,
3;664,663,662;,
3;664,662,665;,
3;667,666,664;,
3;667,664,665;,
3;667,665,668;,
3;671,670,669;,
3;671,669,672;,
3;674,673,671;,
3;674,671,672;,
3;674,672,675;,
3;678,677,676;,
3;676,679,678;,
3;680,678,679;,
3;679,681,680;,
3;682,680,681;,
3;681,683,682;,
3;684,682,683;,
3;683,685,684;,
3;686,684,685;,
3;685,687,686;,
3;688,686,687;,
3;687,689,688;,
3;677,688,689;,
3;689,676,677;,
3;692,691,690;,
3;690,693,692;,
3;696,695,694;,
3;694,697,696;,
3;698,696,697;,
3;697,699,698;,
3;702,701,700;,
3;700,703,702;,
3;706,705,704;,
3;704,707,706;,
3;708,706,707;,
3;707,709,708;,
3;691,711,710;,
3;710,690,691;,
3;714,713,712;,
3;712,715,714;,
3;718,717,716;,
3;716,719,718;,
3;722,721,720;,
3;720,723,722;,
3;726,725,724;,
3;724,727,726;,
3;730,729,728;,
3;728,731,730;,
3;734,733,732;,
3;732,735,734;,
3;738,737,736;,
3;736,739,738;,
3;742,741,740;,
3;740,744,743;;
 }
MeshTextureCoords {
 745;
1.215000;1.925836;,
1.125698;1.925836;,
1.125698;2.058980;,
1.215000;2.058980;,
-0.272279;0.465968;,
-0.272279;0.464542;,
-0.389969;0.464542;,
-0.272279;0.550385;,
-0.389969;0.559987;,
-0.272279;0.559987;,
-1.058980;1.834004;,
0.440013;1.834003;,
0.440013;1.924712;,
-1.058980;1.924713;,
0.535458;1.834003;,
0.535458;1.924712;,
2.058981;1.834003;,
2.058981;1.924712;,
-0.125698;0.510672;,
-0.125698;-0.562086;,
-0.215000;-0.546555;,
-0.215000;-0.507089;,
-0.215000;0.510672;,
0.440013;0.510672;,
0.440013;-0.825681;,
-1.058981;-0.825681;,
-1.058981;0.510672;,
0.535458;0.510672;,
0.535458;-0.825681;,
2.058980;0.510672;,
2.058980;-0.825681;,
-0.389969;0.510672;,
1.125697;0.510672;,
1.125697;-0.562086;,
-0.389969;-0.825681;,
-0.944838;0.510672;,
-0.944838;-0.507037;,
-1.058980;-0.505591;,
-1.058980;0.510672;,
0.508014;0.400022;,
0.508014;0.559097;,
0.573878;0.559096;,
0.573878;0.556720;,
0.573878;0.416026;,
0.573878;0.400022;,
0.610570;0.440013;,
0.593325;0.440013;,
0.593325;-1.058980;,
0.610570;-1.058980;,
-0.272279;-0.944838;,
-0.389969;-1.058980;,
1.925837;0.510672;,
1.925837;-0.743859;,
0.550385;-0.743859;,
0.559987;0.510672;,
0.550385;0.510672;,
0.465968;-0.743859;,
0.465968;0.510672;,
-0.944838;-0.743859;,
0.464542;0.510672;,
-0.944838;0.510672;,
-0.214999;0.510672;,
-0.125697;0.510672;,
-0.125697;-0.507037;,
-0.214999;-0.507037;,
0.508651;0.559096;,
0.508652;2.908063;,
0.657488;2.908063;,
0.508651;0.556720;,
0.657487;0.556720;,
1.214999;0.465968;,
1.125698;0.465968;,
1.125698;0.550384;,
1.214999;0.550384;,
0.508651;0.400022;,
0.508651;0.416026;,
0.657487;0.416026;,
0.657487;-1.876395;,
0.508650;-1.876395;,
1.215000;-0.507037;,
1.125698;-0.507037;,
1.125698;0.510672;,
1.215000;0.510672;,
-0.272278;1.925837;,
-0.389969;2.058980;,
0.573878;2.908063;,
0.508014;3.098301;,
0.573878;-1.876395;,
0.573791;-2.098301;,
0.508014;-2.098301;,
1.125697;-0.944838;,
1.125697;-1.058980;,
-1.058981;0.295376;,
0.440013;0.295376;,
0.535458;0.295376;,
2.058980;0.295375;,
1.389969;0.510672;,
1.389969;-0.825681;,
1.214999;0.510672;,
1.214999;-0.505591;,
1.214999;-0.546556;,
1.272279;0.510672;,
1.272279;-0.743859;,
-0.944838;0.417582;,
0.465968;0.417582;,
0.465968;1.835437;,
-0.944838;1.835437;,
0.550384;0.417582;,
0.550384;1.835437;,
1.925837;0.417583;,
1.925836;1.835438;,
-0.272278;-0.743859;,
-0.272278;0.510672;,
1.214999;-0.944838;,
1.214999;-1.058980;,
1.925837;-0.807859;,
0.550385;-0.807859;,
1.125698;-0.571037;,
-0.272278;-0.807859;,
0.426122;0.416026;,
0.532789;0.416026;,
0.532789;-1.876395;,
0.426122;-1.876395;,
0.426122;0.556720;,
0.532789;0.556720;,
0.426122;2.908063;,
0.532789;2.908063;,
1.272279;-0.807859;,
-0.125697;-0.571037;,
0.465968;-0.807859;,
-0.944838;-0.807859;,
0.483132;0.023145;,
0.393830;0.023145;,
0.393830;1.040855;,
0.483132;1.040855;,
0.486543;0.023145;,
0.402127;0.023145;,
0.402127;1.040855;,
0.486543;1.040855;,
0.606170;0.023145;,
0.516868;0.023145;,
0.516868;1.040855;,
0.606170;1.040855;,
0.597873;0.023145;,
0.513457;0.023145;,
0.513457;1.040855;,
0.597873;1.040855;,
0.595646;1.836868;,
0.613342;1.834004;,
0.611829;1.924713;,
0.594584;1.927504;,
0.366668;0.440013;,
0.366668;-1.058980;,
0.386318;-1.058980;,
0.386318;0.440013;,
0.366668;0.535458;,
0.386318;0.535458;,
0.366668;2.058980;,
0.386318;2.058980;,
0.386658;1.834003;,
0.366668;0.295375;,
0.386318;0.298556;,
0.404354;1.836867;,
0.610570;0.535458;,
0.593325;0.535458;,
0.610570;2.058981;,
0.593325;2.058981;,
0.613682;0.298557;,
0.633332;0.295376;,
0.388171;1.924712;,
0.405416;1.927503;,
0.440013;2.102163;,
-1.058980;2.102163;,
0.535458;2.102163;,
2.058981;2.102162;,
0.406675;2.104954;,
0.389430;2.102162;,
-1.058981;1.927503;,
0.464542;1.927504;,
0.464542;2.104954;,
-1.058981;2.104954;,
0.559987;1.927504;,
0.559987;2.104954;,
2.058980;1.927504;,
2.058980;2.104955;,
0.610570;2.102163;,
0.593325;2.104955;,
-1.121969;1.924713;,
-1.121969;1.834004;,
-1.121969;2.102163;,
0.593325;-1.121969;,
0.610570;-1.121969;,
2.121969;1.927504;,
2.121969;2.104955;,
2.058980;1.836868;,
2.121969;1.836868;,
2.058980;0.298556;,
2.121970;0.298557;,
0.366668;-1.121970;,
0.386318;-1.121970;,
-1.121970;0.295376;,
2.121970;0.295375;,
2.121970;1.834003;,
0.386318;2.121970;,
0.366668;2.121970;,
-1.058980;0.298556;,
-1.058981;1.836867;,
-1.121970;1.836867;,
-1.121970;0.298556;,
-1.121970;1.927503;,
-1.121970;2.104954;,
0.610570;2.121970;,
0.593325;2.121970;,
2.121970;1.924712;,
2.121970;2.102162;,
0.576289;3.098301;,
1.925836;-0.507037;,
1.925836;0.510672;,
2.058980;0.510672;,
2.058980;-0.507089;,
-0.548742;0.985175;,
-0.548742;0.014825;,
1.548742;0.014825;,
1.548742;0.985175;,
0.001506;0.969145;,
0.160432;0.969145;,
0.160432;0.755597;,
0.001506;0.755597;,
0.000000;1.011223;,
1.000000;1.011223;,
1.000000;0.967078;,
0.000000;0.967078;,
-0.012159;1.000000;,
0.020015;1.000000;,
0.020015;0.000000;,
-0.012159;0.000000;,
0.000000;1.011223;,
1.000000;1.011223;,
1.000000;0.967078;,
0.000000;0.967078;,
-0.012159;1.000000;,
0.020015;1.000000;,
0.020015;0.000000;,
-0.012159;0.000000;,
-0.548742;0.985175;,
-0.548742;0.014825;,
1.548742;0.014825;,
1.548742;0.985175;,
0.000000;1.000000;,
1.000000;1.000000;,
1.000000;0.000000;,
0.000000;0.000000;,
0.000000;1.011223;,
1.000000;1.011223;,
1.000000;0.967078;,
0.000000;0.967078;,
-0.012159;1.000000;,
0.020015;1.000000;,
0.020015;0.000000;,
-0.012159;0.000000;,
0.000000;1.011223;,
1.000000;1.011223;,
1.000000;0.967078;,
0.000000;0.967078;,
-0.012159;1.000000;,
0.020015;1.000000;,
0.020015;0.000000;,
-0.012159;0.000000;,
0.500000;2.283782;,
0.500000;2.196218;,
0.642826;2.196218;,
0.642826;2.283782;,
0.333816;2.283782;,
0.333816;2.196218;,
0.488366;2.196218;,
0.488366;2.283782;,
0.612306;2.196218;,
0.612306;2.283782;,
0.420738;2.283782;,
0.420738;2.196218;,
0.579262;2.196218;,
0.579262;2.283782;,
0.387694;2.283782;,
0.387694;2.196218;,
0.511634;2.196218;,
0.511634;2.283782;,
0.666184;2.196218;,
0.666184;2.283782;,
0.357174;2.283782;,
0.357174;2.196218;,
0.333816;0.357174;,
0.488366;0.321899;,
0.612306;0.420738;,
0.265035;0.500000;,
0.612306;0.579262;,
0.488366;0.678101;,
0.333816;0.642826;,
0.531145;0.592616;,
0.466694;0.541218;,
0.466694;0.458782;,
0.611514;0.574272;,
0.531145;0.407384;,
0.611514;0.425728;,
0.647282;0.500000;,
0.734965;0.500000;,
0.647282;0.500000;,
0.611514;0.425728;,
0.666184;0.357174;,
0.531145;0.407384;,
0.511634;0.321899;,
0.466694;0.458782;,
0.387694;0.420738;,
0.466694;0.541218;,
0.387694;0.579262;,
0.531145;0.592616;,
0.511634;0.678101;,
0.611514;0.574272;,
0.666184;0.642826;,
0.500000;2.196218;,
0.500000;-1.283782;,
0.574272;-1.283782;,
0.574272;2.196218;,
0.388486;2.196218;,
0.388486;-1.283782;,
0.468855;-1.283782;,
0.468855;2.196218;,
0.533306;-1.283782;,
0.533306;2.196218;,
0.458782;2.196218;,
0.458782;-1.283782;,
0.541218;-1.283782;,
0.541218;2.196218;,
0.466694;2.196218;,
0.466694;-1.283782;,
0.531145;-1.283782;,
0.531145;2.196218;,
0.611514;-1.283782;,
0.611514;2.196218;,
0.425728;2.196218;,
0.425728;-1.283782;,
0.734965;-0.728378;,
0.454253;-0.728378;,
0.454253;-0.838962;,
0.734965;-0.838962;,
0.265035;-0.728378;,
0.265035;-0.838962;,
0.545748;-0.838962;,
0.545748;-0.728378;,
0.734965;0.481174;,
0.734965;0.511719;,
0.454253;0.511719;,
0.454253;0.481174;,
0.545748;0.481174;,
0.545748;0.511719;,
0.265035;0.511719;,
0.265035;0.481174;,
0.734965;1.762652;,
0.454253;1.762652;,
0.454253;1.652068;,
0.734965;1.652068;,
0.265035;1.762652;,
0.265035;1.652068;,
0.545748;1.652068;,
0.545748;1.762652;,
0.734965;0.481174;,
0.734965;0.511719;,
0.454253;0.511719;,
0.454253;0.481174;,
0.545748;0.481174;,
0.545748;0.511719;,
0.265035;0.511719;,
0.265035;0.481174;,
1.215000;1.925836;,
1.125698;1.925836;,
1.125698;2.058980;,
1.215000;2.058980;,
-0.272279;0.465968;,
-0.272279;0.464542;,
-0.389969;0.464542;,
-0.272279;0.550385;,
-0.389969;0.559987;,
-0.272279;0.559987;,
-1.058980;1.834004;,
0.440013;1.834003;,
0.440013;1.924712;,
-1.058980;1.924713;,
0.535458;1.834003;,
0.535458;1.924712;,
2.058981;1.834003;,
2.058981;1.924712;,
-0.125698;0.510672;,
-0.125698;-0.562086;,
-0.215000;-0.546555;,
-0.215000;-0.507089;,
-0.215000;0.510672;,
0.440013;0.510672;,
0.440013;-0.825681;,
-1.058981;-0.825681;,
-1.058981;0.510672;,
0.535458;0.510672;,
0.535458;-0.825681;,
2.058980;0.510672;,
2.058980;-0.825681;,
-0.389969;0.510672;,
1.125697;0.510672;,
1.125697;-0.562086;,
-0.389969;-0.825681;,
-0.944838;0.510672;,
-0.944838;-0.507037;,
-1.058980;-0.505591;,
-1.058980;0.510672;,
0.508014;0.400022;,
0.508014;0.559097;,
0.573878;0.559096;,
0.573878;0.556720;,
0.573878;0.416026;,
0.573878;0.400022;,
0.610570;0.440013;,
0.593325;0.440013;,
0.593325;-1.058980;,
0.610570;-1.058980;,
-0.272279;-0.944838;,
-0.389969;-1.058980;,
1.925837;0.510672;,
1.925837;-0.743859;,
0.550385;-0.743859;,
0.559987;0.510672;,
0.550385;0.510672;,
0.465968;-0.743859;,
0.465968;0.510672;,
-0.944838;-0.743859;,
0.464542;0.510672;,
-0.944838;0.510672;,
-0.214999;0.510672;,
-0.125697;0.510672;,
-0.125697;-0.507037;,
-0.214999;-0.507037;,
0.508651;0.559096;,
0.508652;2.908063;,
0.657488;2.908063;,
0.508651;0.556720;,
0.657487;0.556720;,
1.214999;0.465968;,
1.125698;0.465968;,
1.125698;0.550384;,
1.214999;0.550384;,
0.508651;0.400022;,
0.508651;0.416026;,
0.657487;0.416026;,
0.657487;-1.876395;,
0.508650;-1.876395;,
1.215000;-0.507037;,
1.125698;-0.507037;,
1.125698;0.510672;,
1.215000;0.510672;,
-0.272278;1.925837;,
-0.389969;2.058980;,
0.573878;2.908063;,
0.508014;3.098301;,
0.573878;-1.876395;,
0.573791;-2.098301;,
0.508014;-2.098301;,
1.125697;-0.944838;,
1.125697;-1.058980;,
-1.058981;0.295376;,
0.440013;0.295376;,
0.535458;0.295376;,
2.058980;0.295375;,
1.389969;0.510672;,
1.389969;-0.825681;,
1.214999;0.510672;,
1.214999;-0.505591;,
1.214999;-0.546556;,
1.272279;0.510672;,
1.272279;-0.743859;,
-0.944838;0.417582;,
0.465968;0.417582;,
0.465968;1.835437;,
-0.944838;1.835437;,
0.550384;0.417582;,
0.550384;1.835437;,
1.925837;0.417583;,
1.925836;1.835438;,
-0.272278;-0.743859;,
-0.272278;0.510672;,
1.214999;-0.944838;,
1.214999;-1.058980;,
1.925837;-0.807859;,
0.550385;-0.807859;,
1.125698;-0.571037;,
-0.272278;-0.807859;,
0.426122;0.416026;,
0.532789;0.416026;,
0.532789;-1.876395;,
0.426122;-1.876395;,
0.426122;0.556720;,
0.532789;0.556720;,
0.426122;2.908063;,
0.532789;2.908063;,
1.272279;-0.807859;,
-0.125697;-0.571037;,
0.465968;-0.807859;,
-0.944838;-0.807859;,
0.483132;0.023145;,
0.393830;0.023145;,
0.393830;1.040855;,
0.483132;1.040855;,
0.486543;0.023145;,
0.402127;0.023145;,
0.402127;1.040855;,
0.486543;1.040855;,
0.606170;0.023145;,
0.516868;0.023145;,
0.516868;1.040855;,
0.606170;1.040855;,
0.597873;0.023145;,
0.513457;0.023145;,
0.513457;1.040855;,
0.597873;1.040855;,
0.595646;1.836868;,
0.613342;1.834004;,
0.611829;1.924713;,
0.594584;1.927504;,
0.366668;0.440013;,
0.366668;-1.058980;,
0.386318;-1.058980;,
0.386318;0.440013;,
0.366668;0.535458;,
0.386318;0.535458;,
0.366668;2.058980;,
0.386318;2.058980;,
0.386658;1.834003;,
0.366668;0.295375;,
0.386318;0.298556;,
0.404354;1.836867;,
0.610570;0.535458;,
0.593325;0.535458;,
0.610570;2.058981;,
0.593325;2.058981;,
0.613682;0.298557;,
0.633332;0.295376;,
0.388171;1.924712;,
0.405416;1.927503;,
0.440013;2.102163;,
-1.058980;2.102163;,
0.535458;2.102163;,
2.058981;2.102162;,
0.406675;2.104954;,
0.389430;2.102162;,
-1.058981;1.927503;,
0.464542;1.927504;,
0.464542;2.104954;,
-1.058981;2.104954;,
0.559987;1.927504;,
0.559987;2.104954;,
2.058980;1.927504;,
2.058980;2.104955;,
0.610570;2.102163;,
0.593325;2.104955;,
-1.121969;1.924713;,
-1.121969;1.834004;,
-1.121969;2.102163;,
0.593325;-1.121969;,
0.610570;-1.121969;,
2.121969;1.927504;,
2.121969;2.104955;,
2.058980;1.836868;,
2.121969;1.836868;,
2.058980;0.298556;,
2.121970;0.298557;,
0.366668;-1.121970;,
0.386318;-1.121970;,
-1.121970;0.295376;,
2.121970;0.295375;,
2.121970;1.834003;,
0.386318;2.121970;,
0.366668;2.121970;,
-1.058980;0.298556;,
-1.058981;1.836867;,
-1.121970;1.836867;,
-1.121970;0.298556;,
-1.121970;1.927503;,
-1.121970;2.104954;,
0.610570;2.121970;,
0.593325;2.121970;,
2.121970;1.924712;,
2.121970;2.102162;,
0.576289;3.098301;,
1.925836;-0.507037;,
1.925836;0.510672;,
2.058980;0.510672;,
2.058980;-0.507089;,
-0.548742;0.985175;,
-0.548742;0.014825;,
1.548742;0.014825;,
1.548742;0.985175;,
0.001506;0.969145;,
0.160432;0.969145;,
0.160432;0.755597;,
0.001506;0.755597;,
0.000000;1.011223;,
1.000000;1.011223;,
1.000000;0.967078;,
0.000000;0.967078;,
-0.012159;1.000000;,
0.020015;1.000000;,
0.020015;0.000000;,
-0.012159;0.000000;,
0.000000;1.011223;,
1.000000;1.011223;,
1.000000;0.967078;,
0.000000;0.967078;,
-0.012159;1.000000;,
0.020015;1.000000;,
0.020015;0.000000;,
-0.012159;0.000000;,
-0.548742;0.985175;,
-0.548742;0.014825;,
1.548742;0.014825;,
1.548742;0.985175;,
0.000000;1.000000;,
1.000000;1.000000;,
1.000000;0.000000;,
0.000000;0.000000;,
0.000000;1.011223;,
1.000000;1.011223;,
1.000000;0.967078;,
0.000000;0.967078;,
-0.012159;1.000000;,
0.020015;1.000000;,
0.020015;0.000000;,
-0.012159;0.000000;,
0.000000;1.011223;,
1.000000;1.011223;,
1.000000;0.967078;,
0.000000;0.967078;,
-0.012159;1.000000;,
0.020015;1.000000;,
0.020015;0.000000;,
-0.012159;0.000000;,
0.500000;2.283782;,
0.500000;2.196218;,
0.642826;2.196218;,
0.642826;2.283782;,
0.333816;2.283782;,
0.333816;2.196218;,
0.488366;2.196218;,
0.488366;2.283782;,
0.612306;2.196218;,
0.612306;2.283782;,
0.420738;2.283782;,
0.420738;2.196218;,
0.579262;2.196218;,
0.579262;2.283782;,
0.387694;2.283782;,
0.387694;2.196218;,
0.511634;2.196218;,
0.511634;2.283782;,
0.666184;2.196218;,
0.666184;2.283782;,
0.357174;2.283782;,
0.357174;2.196218;,
0.333816;0.357174;,
0.488366;0.321899;,
0.612306;0.420738;,
0.265035;0.500000;,
0.612306;0.579262;,
0.488366;0.678101;,
0.333816;0.642826;,
0.531145;0.592616;,
0.466694;0.541218;,
0.466694;0.458782;,
0.611514;0.574272;,
0.531145;0.407384;,
0.611514;0.425728;,
0.647282;0.500000;,
0.734965;0.500000;,
0.647282;0.500000;,
0.611514;0.425728;,
0.666184;0.357174;,
0.531145;0.407384;,
0.511634;0.321899;,
0.466694;0.458782;,
0.387694;0.420738;,
0.466694;0.541218;,
0.387694;0.579262;,
0.531145;0.592616;,
0.511634;0.678101;,
0.611514;0.574272;,
0.666184;0.642826;,
0.500000;2.196218;,
0.500000;-1.283782;,
0.574272;-1.283782;,
0.574272;2.196218;,
0.388486;2.196218;,
0.388486;-1.283782;,
0.468855;-1.283782;,
0.468855;2.196218;,
0.533306;-1.283782;,
0.533306;2.196218;,
0.458782;2.196218;,
0.458782;-1.283782;,
0.541218;-1.283782;,
0.541218;2.196218;,
0.466694;2.196218;,
0.466694;-1.283782;,
0.531145;-1.283782;,
0.531145;2.196218;,
0.611514;-1.283782;,
0.611514;2.196218;,
0.425728;2.196218;,
0.425728;-1.283782;,
0.734965;-0.728378;,
0.454253;-0.728378;,
0.454253;-0.838962;,
0.734965;-0.838962;,
0.265035;-0.728378;,
0.265035;-0.838962;,
0.545748;-0.838962;,
0.545748;-0.728378;,
0.734965;0.481174;,
0.734965;0.511719;,
0.454253;0.511719;,
0.454253;0.481174;,
0.545748;0.481174;,
0.545748;0.511719;,
0.265035;0.511719;,
0.265035;0.481174;,
0.734965;1.762652;,
0.454253;1.762652;,
0.454253;1.652068;,
0.734965;1.652068;,
0.265035;1.762652;,
0.265035;1.652068;,
0.545748;1.652068;,
0.545748;1.762652;,
0.734965;0.481174;,
0.734965;0.511719;,
0.454253;0.511719;,
0.454253;0.481174;,
0.545748;0.481174;,
0.545748;0.511719;,
0.265035;0.511719;,
0.265035;0.511703;,
0.265035;0.481174;;
}
}
 }
