xof 0302txt 0032
Header {
 1;
 0;
 1;
}
template Header {
 <3D82AB43-62DA-11cf-AB39-0020AF71E433>
 WORD major;
 WORD minor;
 DWORD flags;
}

template Vector {
 <3D82AB5E-62DA-11cf-AB39-0020AF71E433>
 FLOAT x;
 FLOAT y;
 FLOAT z;
}

template Coords2d {
 <F6F23F44-7686-11cf-8F52-0040333594A3>
 FLOAT u;
 FLOAT v;
}

template Matrix4x4 {
 <F6F23F45-7686-11cf-8F52-0040333594A3>
 array FLOAT matrix[16];
}

template ColorRGBA {
 <35FF44E0-6C7C-11cf-8F52-0040333594A3>
 FLOAT red;
 FLOAT green;
 FLOAT blue;
 FLOAT alpha;
}

template ColorRGB {
 <D3E16E81-7835-11cf-8F52-0040333594A3>
 FLOAT red;
 FLOAT green;
 FLOAT blue;
}

template TextureFilename {
 <A42790E1-7810-11cf-8F52-0040333594A3>
 STRING filename;
}

template Material {
 <3D82AB4D-62DA-11cf-AB39-0020AF71E433>
 ColorRGBA faceColor;
 FLOAT power;
 ColorRGB specularColor;
 ColorRGB emissiveColor;
 [...]
}

template MeshFace {
 <3D82AB5F-62DA-11cf-AB39-0020AF71E433>
 DWORD nFaceVertexIndices;
 array DWORD faceVertexIndices[nFaceVertexIndices];
}

template MeshTextureCoords {
 <F6F23F40-7686-11cf-8F52-0040333594A3>
 DWORD nTextureCoords;
 array Coords2d textureCoords[nTextureCoords];
}

template MeshMaterialList {
 <F6F23F42-7686-11cf-8F52-0040333594A3>
 DWORD nMaterials;
 DWORD nFaceIndexes;
 array DWORD faceIndexes[nFaceIndexes];
 [Material]
}

template MeshNormals {
 <F6F23F43-7686-11cf-8F52-0040333594A3>
 DWORD nNormals;
 array Vector normals[nNormals];
 DWORD nFaceNormals;
 array MeshFace faceNormals[nFaceNormals];
}

template Mesh {
 <3D82AB44-62DA-11cf-AB39-0020AF71E433>
 DWORD nVertices;
 array Vector vertices[nVertices];
 DWORD nFaces;
 array MeshFace faces[nFaces];
 [...]
}

template FrameTransformMatrix {
 <F6F23F41-7686-11cf-8F52-0040333594A3>
 Matrix4x4 frameMatrix;
}

template Frame {
 <3D82AB46-62DA-11cf-AB39-0020AF71E433>
 [...]
}
template FloatKeys {
 <10DD46A9-775B-11cf-8F52-0040333594A3>
 DWORD nValues;
 array FLOAT values[nValues];
}

template TimedFloatKeys {
 <F406B180-7B3B-11cf-8F52-0040333594A3>
 DWORD time;
 FloatKeys tfkeys;
}

template AnimationKey {
 <10DD46A8-775B-11cf-8F52-0040333594A3>
 DWORD keyType;
 DWORD nKeys;
 array TimedFloatKeys keys[nKeys];
}

template AnimationOptions {
 <E2BF56C0-840F-11cf-8F52-0040333594A3>
 DWORD openclosed;
 DWORD positionquality;
}

template Animation {
 <3D82AB4F-62DA-11cf-AB39-0020AF71E433>
 [...]
}

template AnimationSet {
 <3D82AB50-62DA-11cf-AB39-0020AF71E433>
 [Animation]
}

template XSkinMeshHeader {
 <3cf169ce-ff7c-44ab-93c0-f78f62d172e2>
 WORD nMaxSkinWeightsPerVertex;
 WORD nMaxSkinWeightsPerFace;
 WORD nBones;
}

template VertexDuplicationIndices {
 <b8d65549-d7c9-4995-89cf-53a9a8b031e3>
 DWORD nIndices;
 DWORD nOriginalVertices;
 array DWORD indices[nIndices];
}

template SkinWeights {
 <6f0d123b-bad2-4167-a0d0-80224f25fabb>
 STRING transformNodeName;
 DWORD nWeights;
 array DWORD vertexIndices[nWeights];
 array FLOAT weights[nWeights];
 Matrix4x4 matrixOffset;
}
Frame Frm0 {
   FrameTransformMatrix {
1.000000,0.000000,0.000000,0.000000,
0.000000,1.000000,0.000000,0.000000,
0.000000,0.000000,1.000000,0.000000,
0.000000,0.000000,0.000000,1.000000;;
 }
Mesh object1 {
 111;
0.023507;0.938366;-0.032554;,
0.000006;0.938366;-0.040192;,
0.040575;0.909196;-0.056255;,
0.000010;0.909196;-0.069435;,
0.038030;0.938366;-0.012565;,
0.065649;0.909196;-0.021746;,
0.038030;0.938366;0.012147;,
0.065649;0.909196;0.020907;,
0.023507;0.938366;0.032137;,
0.038030;0.938366;0.012147;,
0.040575;0.909196;0.055416;,
0.065649;0.909196;0.020907;,
0.000006;0.938366;0.039775;,
0.000010;0.909196;0.068595;,
-0.023495;0.938366;0.032137;,
-0.040557;0.909196;0.055416;,
-0.038021;0.938366;0.012147;,
-0.065628;0.909196;0.020907;,
-0.038021;0.938366;-0.012565;,
-0.065628;0.909196;-0.021746;,
-0.023495;0.938366;-0.032554;,
-0.040557;0.909196;-0.056255;,
0.047034;0.869543;-0.065142;,
0.000010;0.869543;-0.080420;,
0.076094;0.869543;-0.025140;,
0.076094;0.869543;0.024301;,
0.047034;0.869543;0.064303;,
0.076094;0.869543;0.024301;,
0.000010;0.869543;0.079580;,
-0.047013;0.869543;0.064303;,
-0.076076;0.869543;0.024301;,
-0.076076;0.869543;-0.025140;,
-0.047013;0.869543;-0.065142;,
0.047013;-0.011263;-0.064303;,
-0.000010;-0.011263;-0.079580;,
0.076076;-0.011263;-0.024301;,
0.076076;-0.011263;0.025140;,
0.047013;-0.011263;0.065142;,
0.076076;-0.011263;0.025140;,
-0.000010;-0.011263;0.080420;,
-0.047034;-0.011263;0.065142;,
-0.076094;-0.011263;0.025140;,
-0.076094;-0.011263;-0.024301;,
-0.047034;-0.011263;-0.064303;,
-0.047034;-0.011263;0.065142;,
0.000010;-0.011263;-0.000421;,
-0.076094;-0.011263;0.025140;,
-0.076094;-0.011263;-0.024301;,
-0.000010;-0.011263;0.080420;,
0.076076;-0.011263;-0.024301;,
0.076076;-0.011263;0.025140;,
-0.047034;-0.011263;-0.064303;,
-0.000010;-0.011263;-0.079580;,
0.047013;-0.011263;-0.064303;,
0.047013;-0.011263;0.065142;,
0.011754;1.108094;-0.016585;,
0.000010;1.108094;-0.020401;,
0.020393;1.093535;-0.028473;,
0.000010;1.093535;-0.035097;,
0.019013;1.108094;-0.006596;,
0.032989;1.093535;-0.011136;,
0.019013;1.108094;0.005754;,
0.032989;1.093535;0.010297;,
0.011754;1.108094;0.015745;,
0.019013;1.108094;0.005754;,
0.020393;1.093535;0.027634;,
0.032989;1.093535;0.010297;,
0.000010;1.108094;0.019562;,
0.000010;1.093535;0.034258;,
-0.011735;1.108094;0.015745;,
-0.020372;1.093535;0.027634;,
-0.018995;1.108094;0.005754;,
-0.032970;1.093535;0.010297;,
-0.018995;1.108094;-0.006596;,
-0.032970;1.093535;-0.011136;,
-0.011735;1.108094;-0.016585;,
-0.020372;1.093535;-0.028473;,
0.023637;1.073614;-0.032940;,
0.000010;1.073614;-0.040614;,
0.038237;1.073614;-0.012842;,
0.038237;1.073614;0.012002;,
0.023637;1.073614;0.032098;,
0.038237;1.073614;0.012002;,
0.000010;1.073614;0.039775;,
-0.023616;1.073614;0.032098;,
-0.038218;1.073614;0.012002;,
-0.038218;1.073614;-0.012842;,
-0.023616;1.073614;-0.032940;,
0.023507;0.938366;-0.032554;,
0.000006;0.938366;-0.040192;,
0.038030;0.938366;-0.012565;,
0.038030;0.938366;0.012147;,
0.023507;0.938366;0.032137;,
0.038030;0.938366;0.012147;,
0.000006;0.938366;0.039775;,
-0.023495;0.938366;0.032137;,
-0.038021;0.938366;0.012147;,
-0.038021;0.938366;-0.012565;,
-0.023495;0.938366;-0.032554;,
-0.018995;1.108094;0.005754;,
0.000010;1.111263;-0.000421;,
-0.011735;1.108094;0.015745;,
-0.018995;1.108094;-0.006596;,
-0.011735;1.108094;-0.016585;,
0.000010;1.108094;-0.020401;,
0.011754;1.108094;-0.016585;,
0.019013;1.108094;-0.006596;,
0.019013;1.108094;0.005754;,
0.011754;1.108094;0.015745;,
0.000010;1.108094;0.019562;,
-0.011735;1.108094;0.015745;;

 140;
3;2,1,0;,
3;1,2,3;,
3;5,0,4;,
3;0,5,2;,
3;7,4,6;,
3;4,7,5;,
3;10,9,8;,
3;9,10,11;,
3;13,8,12;,
3;8,13,10;,
3;15,12,14;,
3;12,15,13;,
3;17,14,16;,
3;14,17,15;,
3;19,16,18;,
3;16,19,17;,
3;21,18,20;,
3;18,21,19;,
3;3,20,1;,
3;20,3,21;,
3;22,3,2;,
3;3,22,23;,
3;24,2,5;,
3;2,24,22;,
3;25,5,7;,
3;5,25,24;,
3;26,11,10;,
3;11,26,27;,
3;28,10,13;,
3;10,28,26;,
3;29,13,15;,
3;13,29,28;,
3;30,15,17;,
3;15,30,29;,
3;31,17,19;,
3;17,31,30;,
3;32,19,21;,
3;19,32,31;,
3;23,21,3;,
3;21,23,32;,
3;33,23,22;,
3;23,33,34;,
3;35,22,24;,
3;22,35,33;,
3;36,24,25;,
3;24,36,35;,
3;37,27,26;,
3;27,37,38;,
3;39,26,28;,
3;26,39,37;,
3;40,28,29;,
3;28,40,39;,
3;41,29,30;,
3;29,41,40;,
3;42,30,31;,
3;30,42,41;,
3;43,31,32;,
3;31,43,42;,
3;34,32,23;,
3;32,34,43;,
3;46,45,44;,
3;47,45,46;,
3;44,45,48;,
3;50,45,49;,
3;52,45,51;,
3;53,45,52;,
3;49,45,53;,
3;54,45,50;,
3;48,45,54;,
3;51,45,47;,
3;57,56,55;,
3;56,57,58;,
3;60,55,59;,
3;55,60,57;,
3;62,59,61;,
3;59,62,60;,
3;65,64,63;,
3;64,65,66;,
3;68,63,67;,
3;63,68,65;,
3;70,67,69;,
3;67,70,68;,
3;72,69,71;,
3;69,72,70;,
3;74,71,73;,
3;71,74,72;,
3;76,73,75;,
3;73,76,74;,
3;58,75,56;,
3;75,58,76;,
3;77,58,57;,
3;58,77,78;,
3;79,57,60;,
3;57,79,77;,
3;80,60,62;,
3;60,80,79;,
3;81,66,65;,
3;66,81,82;,
3;83,65,68;,
3;65,83,81;,
3;84,68,70;,
3;68,84,83;,
3;85,70,72;,
3;70,85,84;,
3;86,72,74;,
3;72,86,85;,
3;87,74,76;,
3;74,87,86;,
3;78,76,58;,
3;76,78,87;,
3;88,78,77;,
3;78,88,89;,
3;90,77,79;,
3;77,90,88;,
3;91,79,80;,
3;79,91,90;,
3;92,82,81;,
3;82,92,93;,
3;94,81,83;,
3;81,94,92;,
3;95,83,84;,
3;83,95,94;,
3;96,84,85;,
3;84,96,95;,
3;97,85,86;,
3;85,97,96;,
3;98,86,87;,
3;86,98,97;,
3;89,87,78;,
3;87,89,98;,
3;101,100,99;,
3;99,100,102;,
3;102,100,103;,
3;103,100,104;,
3;104,100,105;,
3;105,100,106;,
3;106,100,107;,
3;107,100,108;,
3;108,100,109;,
3;109,100,110;;
MeshMaterialList {
 1;
 140;
  0,
  0,
  0,
  0,
  0,
  0,
  0,
  0,
  0,
  0,
  0,
  0,
  0,
  0,
  0,
  0,
  0,
  0,
  0,
  0,
  0,
  0,
  0,
  0,
  0,
  0,
  0,
  0,
  0,
  0,
  0,
  0,
  0,
  0,
  0,
  0,
  0,
  0,
  0,
  0,
  0,
  0,
  0,
  0,
  0,
  0,
  0,
  0,
  0,
  0,
  0,
  0,
  0,
  0,
  0,
  0,
  0,
  0,
  0,
  0,
  0,
  0,
  0,
  0,
  0,
  0,
  0,
  0,
  0,
  0,
  0,
  0,
  0,
  0,
  0,
  0,
  0,
  0,
  0,
  0,
  0,
  0,
  0,
  0,
  0,
  0,
  0,
  0,
  0,
  0,
  0,
  0,
  0,
  0,
  0,
  0,
  0,
  0,
  0,
  0,
  0,
  0,
  0,
  0,
  0,
  0,
  0,
  0,
  0,
  0,
  0,
  0,
  0,
  0,
  0,
  0,
  0,
  0,
  0,
  0,
  0,
  0,
  0,
  0,
  0,
  0,
  0,
  0,
  0,
  0,
  0,
  0,
  0,
  0,
  0,
  0,
  0,
  0,
  0,
  0;;
Material mat_gbottle3_5_1 {
 1.000000;1.000000;1.000000;1.000000;;
4.000000;
 0.000000;0.000000;0.000000;;
 0.000000;0.000000;0.000000;;
TextureFilename {
"garage\gbottle31.tga";
}
 }
}

 MeshNormals {
 111;
0.476107;0.705325;-0.525203;,
0.076251;0.705943;-0.704153;,
0.517706;0.506374;-0.689613;,
0.013425;0.506554;-0.862104;,
0.695223;0.703964;-0.145257;,
0.824577;0.505642;-0.253767;,
0.649278;0.702352;0.291788;,
0.816827;0.504668;0.279471;,
0.354455;0.701118;0.618704;,
0.649278;0.702352;0.291788;,
0.496945;0.503795;0.706567;,
0.816827;0.504668;0.279471;,
-0.076808;0.700766;0.709245;,
-0.013135;0.503346;0.863985;,
-0.478514;0.701408;0.528252;,
-0.518370;0.503543;0.691185;,
-0.696275;0.702783;0.145933;,
-0.825240;0.504269;0.254346;,
-0.647609;0.704396;-0.290566;,
-0.816562;0.505251;-0.279191;,
-0.352468;0.705596;-0.614737;,
-0.496085;0.506138;-0.705496;,
0.583895;0.134592;-0.800594;,
0.001804;0.134472;-0.990916;,
0.942931;0.134825;-0.304472;,
0.941783;0.135107;0.307881;,
0.580920;0.135350;0.802628;,
0.941783;0.135107;0.307881;,
-0.001801;0.135420;0.990787;,
-0.583832;0.135300;0.800521;,
-0.942900;0.135051;0.304468;,
-0.941825;0.134765;-0.307903;,
-0.580980;0.134534;-0.802722;,
0.497244;-0.000839;-0.867610;,
-0.107670;-0.000945;-0.994186;,
0.912259;-0.000410;-0.409614;,
0.978801;0.000175;0.204813;,
0.671486;0.000691;0.741017;,
0.978801;0.000175;0.204813;,
0.107670;0.000945;0.994186;,
-0.497255;0.000839;0.867604;,
-0.912259;0.000410;0.409614;,
-0.978804;-0.000175;-0.204801;,
-0.671486;-0.000691;-0.741017;,
0.000000;-1.000000;0.000000;,
0.000000;-1.000000;0.000000;,
0.000000;-1.000000;0.000000;,
0.000000;-1.000000;0.000000;,
0.000000;-1.000000;0.000000;,
0.000000;-1.000000;0.000000;,
0.000000;-1.000000;0.000000;,
0.000000;-1.000000;0.000000;,
0.000000;-1.000000;0.000000;,
0.000000;-1.000000;0.000000;,
0.000000;-1.000000;0.000000;,
0.335011;0.862009;-0.380406;,
0.047465;0.862022;-0.504643;,
0.517206;0.508084;-0.688729;,
0.013553;0.508058;-0.861216;,
0.494623;0.862009;-0.110850;,
0.823261;0.508043;-0.253244;,
0.465290;0.862019;0.201068;,
0.814881;0.508047;0.279031;,
0.258253;0.862022;0.436147;,
0.465290;0.862019;0.201068;,
0.495250;0.508047;0.704709;,
0.814881;0.508047;0.279031;,
-0.047446;0.862023;0.504644;,
-0.013563;0.508046;0.861223;,
-0.335002;0.862014;0.380401;,
-0.517178;0.508041;0.688783;,
-0.494617;0.862017;0.110823;,
-0.823257;0.508047;0.253253;,
-0.465283;0.862013;-0.201108;,
-0.814868;0.508052;-0.279058;,
-0.258236;0.862011;-0.436177;,
-0.495208;0.508050;-0.704737;,
0.583975;0.133598;-0.800703;,
0.001802;0.133388;-0.991062;,
0.943041;0.134002;-0.304495;,
0.941862;0.134467;0.307919;,
0.580973;0.134834;0.802677;,
0.941862;0.134467;0.307919;,
-0.001801;0.134921;0.990855;,
-0.583862;0.134742;0.800593;,
-0.942979;0.134345;0.304537;,
-0.941935;0.133860;-0.307962;,
-0.581035;0.133530;-0.802850;,
0.497248;-0.002940;-0.867604;,
-0.107648;-0.003109;-0.994184;,
0.912261;-0.002238;-0.409604;,
0.978801;-0.001276;0.204812;,
0.671498;-0.000430;0.741006;,
0.978801;-0.001276;0.204812;,
0.107680;-0.000007;0.994186;,
-0.497256;-0.000188;0.867604;,
-0.912233;-0.000893;0.409670;,
-0.978795;-0.001849;-0.204835;,
-0.671472;-0.002707;-0.741025;,
-0.494617;0.862017;0.110823;,
0.000007;1.000000;-0.000008;,
-0.335002;0.862014;0.380401;,
-0.465283;0.862013;-0.201108;,
-0.258236;0.862011;-0.436177;,
0.047465;0.862022;-0.504643;,
0.335011;0.862009;-0.380406;,
0.494623;0.862009;-0.110850;,
0.465290;0.862019;0.201068;,
0.258253;0.862022;0.436147;,
-0.047446;0.862023;0.504644;,
-0.335002;0.862014;0.380401;;

 140;
3;2,1,0;,
3;1,2,3;,
3;5,0,4;,
3;0,5,2;,
3;7,4,6;,
3;4,7,5;,
3;10,9,8;,
3;9,10,11;,
3;13,8,12;,
3;8,13,10;,
3;15,12,14;,
3;12,15,13;,
3;17,14,16;,
3;14,17,15;,
3;19,16,18;,
3;16,19,17;,
3;21,18,20;,
3;18,21,19;,
3;3,20,1;,
3;20,3,21;,
3;22,3,2;,
3;3,22,23;,
3;24,2,5;,
3;2,24,22;,
3;25,5,7;,
3;5,25,24;,
3;26,11,10;,
3;11,26,27;,
3;28,10,13;,
3;10,28,26;,
3;29,13,15;,
3;13,29,28;,
3;30,15,17;,
3;15,30,29;,
3;31,17,19;,
3;17,31,30;,
3;32,19,21;,
3;19,32,31;,
3;23,21,3;,
3;21,23,32;,
3;33,23,22;,
3;23,33,34;,
3;35,22,24;,
3;22,35,33;,
3;36,24,25;,
3;24,36,35;,
3;37,27,26;,
3;27,37,38;,
3;39,26,28;,
3;26,39,37;,
3;40,28,29;,
3;28,40,39;,
3;41,29,30;,
3;29,41,40;,
3;42,30,31;,
3;30,42,41;,
3;43,31,32;,
3;31,43,42;,
3;34,32,23;,
3;32,34,43;,
3;46,45,44;,
3;47,45,46;,
3;44,45,48;,
3;50,45,49;,
3;52,45,51;,
3;53,45,52;,
3;49,45,53;,
3;54,45,50;,
3;48,45,54;,
3;51,45,47;,
3;57,56,55;,
3;56,57,58;,
3;60,55,59;,
3;55,60,57;,
3;62,59,61;,
3;59,62,60;,
3;65,64,63;,
3;64,65,66;,
3;68,63,67;,
3;63,68,65;,
3;70,67,69;,
3;67,70,68;,
3;72,69,71;,
3;69,72,70;,
3;74,71,73;,
3;71,74,72;,
3;76,73,75;,
3;73,76,74;,
3;58,75,56;,
3;75,58,76;,
3;77,58,57;,
3;58,77,78;,
3;79,57,60;,
3;57,79,77;,
3;80,60,62;,
3;60,80,79;,
3;81,66,65;,
3;66,81,82;,
3;83,65,68;,
3;65,83,81;,
3;84,68,70;,
3;68,84,83;,
3;85,70,72;,
3;70,85,84;,
3;86,72,74;,
3;72,86,85;,
3;87,74,76;,
3;74,87,86;,
3;78,76,58;,
3;76,78,87;,
3;88,78,77;,
3;78,88,89;,
3;90,77,79;,
3;77,90,88;,
3;91,79,80;,
3;79,91,90;,
3;92,82,81;,
3;82,92,93;,
3;94,81,83;,
3;81,94,92;,
3;95,83,84;,
3;83,95,94;,
3;96,84,85;,
3;84,96,95;,
3;97,85,86;,
3;85,97,96;,
3;98,86,87;,
3;86,98,97;,
3;89,87,78;,
3;87,89,98;,
3;101,100,99;,
3;99,100,102;,
3;102,100,103;,
3;103,100,104;,
3;104,100,105;,
3;105,100,106;,
3;106,100,107;,
3;107,100,108;,
3;108,100,109;,
3;109,100,110;;
 }
MeshTextureCoords {
 111;
0.697266;0.777344;,
0.611328;0.777344;,
0.697266;0.724609;,
0.611328;0.724609;,
0.783203;0.777344;,
0.783203;0.724609;,
0.871094;0.777344;,
0.871094;0.724609;,
0.087891;0.777344;,
0.001953;0.777344;,
0.087891;0.724609;,
0.000000;0.724609;,
0.175781;0.777344;,
0.175781;0.724609;,
0.263672;0.777344;,
0.263672;0.724609;,
0.349609;0.777344;,
0.349609;0.724609;,
0.437500;0.777344;,
0.437500;0.724609;,
0.523438;0.777344;,
0.523438;0.724609;,
0.697266;0.683594;,
0.611328;0.683594;,
0.783203;0.683594;,
0.871094;0.683594;,
0.087891;0.683594;,
0.001953;0.683594;,
0.175781;0.683594;,
0.263672;0.683594;,
0.349609;0.683594;,
0.437500;0.683594;,
0.523438;0.683594;,
0.697266;0.001953;,
0.611328;0.001953;,
0.785156;0.001953;,
0.871094;0.001953;,
0.089844;0.001953;,
0.001953;0.001953;,
0.175781;0.001953;,
0.261719;0.001953;,
0.349609;0.001953;,
0.435547;0.001953;,
0.523438;0.001953;,
0.968750;0.867188;,
0.927734;0.925781;,
0.996094;0.902344;,
0.996094;0.947266;,
0.927734;0.853516;,
0.859375;0.962891;,
0.859375;0.902344;,
0.968750;0.982422;,
0.927734;0.996094;,
0.884766;0.982422;,
0.884766;0.867188;,
0.695313;1.000000;,
0.611328;1.000000;,
0.697266;0.951172;,
0.611328;0.951172;,
0.781250;1.000000;,
0.783203;0.951172;,
0.869141;1.000000;,
0.869141;0.951172;,
0.085938;1.000000;,
0.000000;1.000000;,
0.087891;0.951172;,
0.000000;0.951172;,
0.175781;1.000000;,
0.175781;0.951172;,
0.263672;1.000000;,
0.263672;0.951172;,
0.351563;1.000000;,
0.351563;0.951172;,
0.439453;1.000000;,
0.437500;0.951172;,
0.525391;1.000000;,
0.525391;0.951172;,
0.697266;0.917969;,
0.611328;0.917969;,
0.783203;0.917969;,
0.869141;0.917969;,
0.087891;0.917969;,
0.000000;0.917969;,
0.175781;0.917969;,
0.263672;0.917969;,
0.351563;0.917969;,
0.437500;0.917969;,
0.523438;0.917969;,
0.697266;0.777344;,
0.611328;0.777344;,
0.783203;0.777344;,
0.871094;0.777344;,
0.087891;0.777344;,
0.001953;0.777344;,
0.175781;0.777344;,
0.263672;0.777344;,
0.349609;0.777344;,
0.437500;0.777344;,
0.523438;0.777344;,
0.943359;0.919922;,
0.927734;0.925781;,
0.937500;0.910156;,
0.943359;0.929688;,
0.937500;0.939453;,
0.927734;0.943359;,
0.916016;0.939453;,
0.910156;0.929688;,
0.910156;0.919922;,
0.916016;0.910156;,
0.927734;0.906250;,
0.937500;0.909926;;
}
}
 }
