# 
# Wavefront OBJ file
# Converted by the DEEP Exploration Deep Exploration 5 5.0.3.1555 Release
# Right Hemisphere, LTD
# http://www.righthemisphere.com/
# 
mtllib gtorn.mtl
# object object
g object
v -0.14930 0.03661 0.45845
v -0.14930 -0.03817 0.45845
v -0.20764 0.07862 -0.00018
v -0.20764 -0.07862 -0.00018
v 0.21169 0.07862 -0.00018
v 0.21169 -0.07862 -0.00018
v -0.20764 -0.07862 0.43278
v -0.20764 0.07862 0.43278
v -0.17213 0.03661 0.50564
v -0.12485 -0.00078 0.47028
v -0.14768 -0.00078 0.51746
v -0.18887 0.02233 0.43931
v -0.21169 0.02233 0.48650
v -0.18887 -0.02388 0.43931
v -0.21169 -0.02388 0.48650
v -0.17213 -0.03817 0.50564
v -0.09553 -0.07862 0.48612
v -0.09553 0.07862 0.48612
v -0.06850 -0.06143 0.52338
v -0.06850 -0.03686 0.52338
v -0.07139 -0.06143 0.48612
v -0.07139 -0.03686 0.48612
v -0.08561 -0.06143 0.53906
v -0.09104 -0.06143 0.48612
v -0.08561 -0.03686 0.53906
v -0.09104 -0.03686 0.48612
v -0.06850 -0.01229 0.52338
v -0.06850 0.01229 0.52338
v -0.07139 -0.01229 0.48612
v -0.07139 0.01229 0.48612
v -0.08561 -0.01229 0.53906
v -0.09104 -0.01229 0.48612
v -0.08561 0.01229 0.53906
v -0.09104 0.01229 0.48612
v -0.06850 0.03686 0.52338
v -0.06850 0.06143 0.52338
v -0.07139 0.03686 0.48612
v -0.07139 0.06143 0.48612
v -0.08561 0.03686 0.53906
v -0.09104 0.03686 0.48612
v -0.08561 0.06143 0.53906
v -0.09104 0.06143 0.48612
v 0.07058 -0.07862 0.48612
v 0.07058 0.07862 0.48612
v 0.14154 -0.07862 0.55018
v 0.14154 0.07862 0.55018
v 0.21169 -0.07862 0.52397
v 0.18548 -0.07862 0.55018
v 0.18548 0.07862 0.55018
v 0.21169 0.07862 0.52397
v 0.14154 -0.06143 0.53052
v 0.14154 -0.03686 0.53052
v 0.14154 -0.06143 0.55018
v 0.14154 -0.03686 0.55018
v 0.14154 -0.01229 0.53052
v 0.14154 0.01229 0.53052
v 0.14154 -0.01229 0.55018
v 0.14154 0.01229 0.55018
v 0.14154 0.03686 0.53052
v 0.14154 0.06143 0.53052
v 0.14154 0.03686 0.55018
v 0.14154 0.06143 0.55018
# 62 verticies
vt 0.74609 0.21484
vt 0.74609 0.99609
vt 0.99219 0.21484
vt 0.99219 0.99609
vt 0.99609 0.72656
vt 0.74609 0.72656
vt 0.99609 0.99609
vt 0.99609 0.33984
vt 0.74609 0.33984
vt 0.99609 0.16406
vt 0.74609 0.16406
vt 0.20313 0.12500
vt 0.00391 0.99609
vt 0.00391 0.21484
vt 0.49609 0.12500
vt 0.63672 0.00781
vt 0.74609 0.05078
vt 0.69141 0.00781
vt 0.99609 0.05859
vt 0.99609 0.00391
vt 0.74609 0.05859
vt 0.74609 0.00391
vt 0.99219 0.05078
vt 0.58203 0.03125
vt 0.33984 0.03125
vt 0.58203 0.00781
vt 0.33984 0.00781
vt 0.53906 0.00781
vt 0.53906 0.03125
vt 0.27734 0.00781
vt 0.62109 0.03906
vt 0.28906 0.03516
vt 0.23047 0.12500
vt 0.28516 0.12500
vt 0.32031 0.03125
vt 0.32031 0.00781
vt 0.51953 0.00781
vt 0.51953 0.03125
vt 0.46094 0.00781
vt 0.41797 0.00781
vt 0.46094 0.03125
vt 0.41797 0.03125
vt 0.47656 0.00781
vt 0.47656 0.03125
vt 0.09766 0.16797
vt 0.07813 0.12109
vt 0.07422 0.17969
vt 0.05469 0.13281
vt 0.14063 0.15234
vt 0.12109 0.10156
vt 0.06641 0.12500
vt 0.08594 0.17578
vt 0.10547 0.10938
vt 0.12500 0.16016
vt 0.11719 0.16016
vt 0.09375 0.11328
vt 0.12891 0.09375
vt 0.13672 0.06250
vt 0.09766 0.09375
vt 0.08594 0.06250
vt 0.08594 0.06251
vt 0.11328 0.04297
# 62 texture verticies
vn 0.00000 0.00000 -1.00000
vn -0.14641 0.00000 0.98922
vn -0.29283 0.00000 0.95616
vn -0.84548 0.00000 0.53401
vn -0.47477 0.00000 0.88011
vn -0.23739 0.00000 0.97142
vn -0.35899 0.00000 0.93334
vn -0.35895 0.00001 0.93336
vn 0.00000 -1.00000 0.00000
vn 0.25279 0.00003 0.96752
vn 0.86283 0.00001 0.50549
vn 0.50546 0.00003 0.86285
vn 0.96753 0.00000 0.25277
vn 0.00000 1.00000 0.00000
vn -1.00000 0.00000 0.00000
vn 1.00000 0.00000 0.00000
vn 0.03401 0.00000 -0.99942
vn 0.45640 0.00000 -0.88978
vn 0.86908 0.00000 -0.49468
vn 0.99700 0.00000 -0.07746
vn -0.04893 0.00000 0.99880
vn -0.46164 0.00000 0.88707
vn -0.86126 0.00000 0.50817
vn -0.99479 0.00000 0.10199
vn 0.06885 0.99707 0.03332
vn 0.47192 0.85158 0.22826
vn 0.87494 0.23534 0.42320
vn 0.87493 -0.23537 0.42320
vn -0.83242 0.38085 -0.40252
vn -0.58331 0.76169 -0.28208
vn -0.58331 -0.76169 -0.28208
vn -0.83243 -0.38084 -0.40252
vn 0.47191 -0.85158 0.22826
vn 0.06885 -0.99707 0.03332
vn -0.43548 0.00000 0.90020
vn -0.43543 0.00000 0.90022
vn -0.43541 0.00000 0.90023
vn -0.43533 0.00000 0.90027
# 38 normals
usemtl mat_gtorn_5_1
f  3/1/1 5/2/1 4/3/1
f  6/4/1 4/3/1 5/2/1
f  17/5/2 18/6/3 7/7/4
f  8/2/4 7/7/4 18/6/3
f  43/8/5 44/9/6 17/5/2
f  18/6/3 17/5/2 44/9/6
f  45/10/7 46/11/8 43/8/5
f  44/9/6 43/8/5 46/11/8
f  6/2/9 17/12/9 4/13/9
f  7/14/9 4/13/9 17/12/9
f  43/15/9 17/12/9 6/2/9
f  45/16/9 43/15/9 6/2/9
f  47/17/9 48/18/9 6/2/9
f  45/16/9 6/2/9 48/18/9
f  48/19/10 47/20/11 49/21/12
f  50/22/13 49/21/12 47/20/11
f  46/16/14 49/18/14 5/2/14
f  50/17/14 5/2/14 49/18/14
f  44/15/14 46/16/14 5/2/14
f  18/12/14 44/15/14 5/2/14
f  3/13/14 8/14/14 5/2/14
f  18/12/14 5/2/14 8/14/14
f  4/2/15 7/1/4 3/4/15
f  8/3/4 3/4/15 7/1/4
f  45/10/7 48/19/10 46/11/8
f  49/21/12 46/11/8 48/19/10
f  5/4/16 50/23/13 6/2/16
f  47/17/11 6/2/16 50/23/13
f  51/24/17 19/25/18 52/26/17
f  20/27/19 52/26/17 19/25/18
f  19/26/18 21/28/20 20/24/19
f  22/29/20 20/24/19 21/28/20
f  53/16/9 23/30/9 51/31/9
f  19/32/9 51/31/9 23/30/9
f  23/30/9 24/33/9 19/32/9
f  21/34/9 19/32/9 24/33/9
f  54/24/21 25/35/22 53/26/21
f  23/36/23 53/26/21 25/35/22
f  25/26/22 26/37/24 23/24/23
f  24/38/24 23/24/23 26/37/24
f  52/31/14 20/32/14 54/16/14
f  25/30/14 54/16/14 20/32/14
f  20/32/14 22/34/14 25/30/14
f  26/33/14 25/30/14 22/34/14
f  55/27/17 27/26/18 56/25/17
f  28/24/19 56/25/17 27/26/18
f  27/39/18 29/40/20 28/41/19
f  30/42/20 28/41/19 29/40/20
f  57/16/9 31/30/9 55/31/9
f  27/32/9 55/31/9 31/30/9
f  31/30/9 32/33/9 27/32/9
f  29/34/9 27/32/9 32/33/9
f  58/36/21 33/26/22 57/35/21
f  31/24/23 57/35/21 33/26/22
f  33/37/22 34/39/24 31/38/23
f  32/41/24 31/38/23 34/39/24
f  56/31/14 28/32/14 58/16/14
f  33/30/14 58/16/14 28/32/14
f  28/32/14 30/34/14 33/30/14
f  34/33/14 33/30/14 30/34/14
f  59/27/17 35/26/18 60/25/17
f  36/24/19 60/25/17 35/26/18
f  35/37/18 37/43/20 36/38/19
f  38/44/20 36/38/19 37/43/20
f  61/16/9 39/30/9 59/31/9
f  35/32/9 59/31/9 39/30/9
f  39/30/9 40/33/9 35/32/9
f  37/34/9 35/32/9 40/33/9
f  62/35/21 41/24/22 61/36/21
f  39/26/23 61/36/21 41/24/22
f  41/26/22 42/37/24 39/24/23
f  40/38/24 39/24/23 42/37/24
f  60/31/14 36/32/14 62/16/14
f  41/30/14 62/16/14 36/32/14
f  36/32/14 38/34/14 41/30/14
f  42/33/14 41/30/14 38/34/14
f  1/45/25 9/46/26 10/47/27
f  11/48/28 10/47/27 9/46/26
f  12/49/29 13/50/30 1/45/25
f  9/46/26 1/45/25 13/50/30
f  14/51/31 15/52/32 12/53/29
f  13/54/30 12/53/29 15/52/32
f  2/55/33 16/56/34 14/47/31
f  15/48/32 14/47/31 16/56/34
f  10/49/27 11/50/28 2/55/33
f  16/56/34 2/55/33 11/50/28
f  15/57/35 16/58/36 13/59/35
f  13/59/35 16/58/36 9/60/37
f  9/61/37 16/58/36 11/62/38
