xof 0302txt 0032
Header {
 1;
 0;
 1;
}
template Header {
 <3D82AB43-62DA-11cf-AB39-0020AF71E433>
 WORD major;
 WORD minor;
 DWORD flags;
}

template Vector {
 <3D82AB5E-62DA-11cf-AB39-0020AF71E433>
 FLOAT x;
 FLOAT y;
 FLOAT z;
}

template Coords2d {
 <F6F23F44-7686-11cf-8F52-0040333594A3>
 FLOAT u;
 FLOAT v;
}

template Matrix4x4 {
 <F6F23F45-7686-11cf-8F52-0040333594A3>
 array FLOAT matrix[16];
}

template ColorRGBA {
 <35FF44E0-6C7C-11cf-8F52-0040333594A3>
 FLOAT red;
 FLOAT green;
 FLOAT blue;
 FLOAT alpha;
}

template ColorRGB {
 <D3E16E81-7835-11cf-8F52-0040333594A3>
 FLOAT red;
 FLOAT green;
 FLOAT blue;
}

template TextureFilename {
 <A42790E1-7810-11cf-8F52-0040333594A3>
 STRING filename;
}

template Material {
 <3D82AB4D-62DA-11cf-AB39-0020AF71E433>
 ColorRGBA faceColor;
 FLOAT power;
 ColorRGB specularColor;
 ColorRGB emissiveColor;
 [...]
}

template MeshFace {
 <3D82AB5F-62DA-11cf-AB39-0020AF71E433>
 DWORD nFaceVertexIndices;
 array DWORD faceVertexIndices[nFaceVertexIndices];
}

template MeshTextureCoords {
 <F6F23F40-7686-11cf-8F52-0040333594A3>
 DWORD nTextureCoords;
 array Coords2d textureCoords[nTextureCoords];
}

template MeshMaterialList {
 <F6F23F42-7686-11cf-8F52-0040333594A3>
 DWORD nMaterials;
 DWORD nFaceIndexes;
 array DWORD faceIndexes[nFaceIndexes];
 [Material]
}

template MeshNormals {
 <F6F23F43-7686-11cf-8F52-0040333594A3>
 DWORD nNormals;
 array Vector normals[nNormals];
 DWORD nFaceNormals;
 array MeshFace faceNormals[nFaceNormals];
}

template Mesh {
 <3D82AB44-62DA-11cf-AB39-0020AF71E433>
 DWORD nVertices;
 array Vector vertices[nVertices];
 DWORD nFaces;
 array MeshFace faces[nFaces];
 [...]
}

template FrameTransformMatrix {
 <F6F23F41-7686-11cf-8F52-0040333594A3>
 Matrix4x4 frameMatrix;
}

template Frame {
 <3D82AB46-62DA-11cf-AB39-0020AF71E433>
 [...]
}
template FloatKeys {
 <10DD46A9-775B-11cf-8F52-0040333594A3>
 DWORD nValues;
 array FLOAT values[nValues];
}

template TimedFloatKeys {
 <F406B180-7B3B-11cf-8F52-0040333594A3>
 DWORD time;
 FloatKeys tfkeys;
}

template AnimationKey {
 <10DD46A8-775B-11cf-8F52-0040333594A3>
 DWORD keyType;
 DWORD nKeys;
 array TimedFloatKeys keys[nKeys];
}

template AnimationOptions {
 <E2BF56C0-840F-11cf-8F52-0040333594A3>
 DWORD openclosed;
 DWORD positionquality;
}

template Animation {
 <3D82AB4F-62DA-11cf-AB39-0020AF71E433>
 [...]
}

template AnimationSet {
 <3D82AB50-62DA-11cf-AB39-0020AF71E433>
 [Animation]
}

template XSkinMeshHeader {
 <3cf169ce-ff7c-44ab-93c0-f78f62d172e2>
 WORD nMaxSkinWeightsPerVertex;
 WORD nMaxSkinWeightsPerFace;
 WORD nBones;
}

template VertexDuplicationIndices {
 <b8d65549-d7c9-4995-89cf-53a9a8b031e3>
 DWORD nIndices;
 DWORD nOriginalVertices;
 array DWORD indices[nIndices];
}

template SkinWeights {
 <6f0d123b-bad2-4167-a0d0-80224f25fabb>
 STRING transformNodeName;
 DWORD nWeights;
 array DWORD vertexIndices[nWeights];
 array FLOAT weights[nWeights];
 Matrix4x4 matrixOffset;
}
Frame Frm0 {
   FrameTransformMatrix {
1.000000,0.000000,0.000000,0.000000,
0.000000,1.000000,0.000000,0.000000,
0.000000,0.000000,1.000000,0.000000,
0.000000,0.000000,0.000000,1.000000;;
 }
Mesh object1 {
 146;
-0.207636;-0.000184;0.078623;,
0.211693;-0.000184;0.078623;,
-0.207636;-0.000184;-0.078623;,
0.211693;-0.000184;-0.078623;,
-0.095527;0.486123;-0.078623;,
-0.095527;0.486123;0.078623;,
-0.207636;0.432779;-0.078623;,
-0.207636;0.432779;0.078623;,
0.070584;0.486123;-0.078623;,
0.070584;0.486123;0.078623;,
0.141539;0.550184;-0.078623;,
0.141539;0.550184;0.078623;,
0.211693;-0.000184;-0.078623;,
-0.095527;0.486123;-0.078623;,
-0.207636;-0.000184;-0.078623;,
-0.207636;0.432779;-0.078623;,
0.070584;0.486123;-0.078623;,
0.141539;0.550184;-0.078623;,
0.211693;0.523974;-0.078623;,
0.185483;0.550184;-0.078623;,
0.185483;0.550184;-0.078623;,
0.211693;0.523974;-0.078623;,
0.185483;0.550176;0.078623;,
0.211693;0.523974;0.078623;,
0.141539;0.550184;0.078623;,
0.185483;0.550176;0.078623;,
0.211693;-0.000184;0.078623;,
0.211693;0.523974;0.078623;,
0.070584;0.486123;0.078623;,
-0.095527;0.486123;0.078623;,
-0.207636;-0.000184;0.078623;,
-0.207636;0.432779;0.078623;,
-0.207636;-0.000184;-0.078623;,
-0.207636;0.432779;-0.078623;,
-0.207636;-0.000184;0.078623;,
-0.207636;0.432779;0.078623;,
0.211693;-0.000184;0.078623;,
0.211693;0.523974;0.078623;,
0.211693;-0.000184;-0.078623;,
0.211693;0.523974;-0.078623;,
0.141539;0.530524;-0.061426;,
-0.068497;0.523377;-0.061426;,
0.141539;0.530524;-0.036856;,
-0.068497;0.523377;-0.036856;,
-0.068497;0.523377;-0.061426;,
-0.071391;0.486123;-0.061426;,
-0.068497;0.523377;-0.036856;,
-0.071391;0.486123;-0.036856;,
0.141539;0.550184;-0.061426;,
-0.085611;0.539056;-0.061426;,
0.141539;0.530524;-0.061426;,
-0.068497;0.523377;-0.061426;,
-0.091037;0.486123;-0.061426;,
-0.071391;0.486123;-0.061426;,
0.141539;0.550184;-0.036856;,
-0.085611;0.539056;-0.036856;,
0.141539;0.550184;-0.061426;,
-0.085611;0.539056;-0.061426;,
-0.085611;0.539056;-0.036856;,
-0.091037;0.486123;-0.036856;,
-0.085611;0.539056;-0.061426;,
-0.091037;0.486123;-0.061426;,
0.141539;0.530524;-0.036856;,
-0.068497;0.523377;-0.036856;,
0.141539;0.550184;-0.036856;,
-0.085611;0.539056;-0.036856;,
-0.071391;0.486123;-0.036856;,
-0.091037;0.486123;-0.036856;,
0.141539;0.530524;-0.012286;,
-0.068497;0.523377;-0.012286;,
0.141539;0.530524;0.012286;,
-0.068497;0.523377;0.012286;,
-0.068497;0.523377;-0.012286;,
-0.071391;0.486123;-0.012286;,
-0.068497;0.523377;0.012286;,
-0.071391;0.486123;0.012286;,
0.141539;0.550184;-0.012286;,
-0.085611;0.539056;-0.012286;,
0.141539;0.530524;-0.012286;,
-0.068497;0.523377;-0.012286;,
-0.091037;0.486123;-0.012286;,
-0.071391;0.486123;-0.012286;,
0.141539;0.550184;0.012286;,
-0.085611;0.539056;0.012286;,
0.141539;0.550184;-0.012286;,
-0.085611;0.539056;-0.012286;,
-0.085611;0.539056;0.012286;,
-0.091037;0.486123;0.012286;,
-0.085611;0.539056;-0.012286;,
-0.091037;0.486123;-0.012286;,
0.141539;0.530524;0.012286;,
-0.068497;0.523377;0.012286;,
0.141539;0.550184;0.012286;,
-0.085611;0.539056;0.012286;,
-0.071391;0.486123;0.012286;,
-0.091037;0.486123;0.012286;,
0.141539;0.530524;0.036856;,
-0.068497;0.523377;0.036856;,
0.141539;0.530524;0.061426;,
-0.068497;0.523377;0.061426;,
-0.068497;0.523377;0.036856;,
-0.071391;0.486123;0.036856;,
-0.068497;0.523377;0.061426;,
-0.071391;0.486123;0.061426;,
0.141539;0.550184;0.036856;,
-0.085611;0.539056;0.036856;,
0.141539;0.530524;0.036856;,
-0.068497;0.523377;0.036856;,
-0.091037;0.486123;0.036856;,
-0.071391;0.486123;0.036856;,
0.141539;0.550184;0.061426;,
-0.085611;0.539056;0.061426;,
0.141539;0.550184;0.036856;,
-0.085611;0.539056;0.036856;,
-0.085611;0.539056;0.061426;,
-0.091037;0.486123;0.061426;,
-0.085611;0.539056;0.036856;,
-0.091037;0.486123;0.036856;,
0.141539;0.530524;0.061426;,
-0.068497;0.523377;0.061426;,
0.141539;0.550184;0.061426;,
-0.085611;0.539056;0.061426;,
-0.071391;0.486123;0.061426;,
-0.091037;0.486123;0.061426;,
-0.149304;0.458452;0.036612;,
-0.172129;0.505641;0.036612;,
-0.124851;0.470276;-0.000779;,
-0.147676;0.517465;-0.000779;,
-0.188874;0.439313;0.022330;,
-0.211693;0.486501;0.022330;,
-0.188874;0.439313;-0.023885;,
-0.211693;0.486501;-0.023885;,
-0.188874;0.439313;0.022330;,
-0.211693;0.486501;0.022330;,
-0.149304;0.458452;-0.038166;,
-0.172129;0.505641;-0.038166;,
-0.188874;0.439313;-0.023885;,
-0.211693;0.486501;-0.023885;,
-0.124851;0.470276;-0.000779;,
-0.147676;0.517465;-0.000779;,
-0.211693;0.486501;-0.023885;,
-0.172129;0.505641;-0.038166;,
-0.211693;0.486501;0.022330;,
-0.172129;0.505641;0.036612;,
-0.172129;0.505641;0.036612;,
-0.147676;0.517465;-0.000779;;

 89;
3;2,1,0;,
3;1,2,3;,
3;6,5,4;,
3;5,6,7;,
3;4,9,8;,
3;9,4,5;,
3;8,11,10;,
3;11,8,9;,
3;14,13,12;,
3;13,14,15;,
3;12,13,16;,
3;12,16,17;,
3;12,19,18;,
3;19,12,17;,
3;22,21,20;,
3;21,22,23;,
3;26,25,24;,
3;25,26,27;,
3;26,24,28;,
3;26,28,29;,
3;26,31,30;,
3;31,26,29;,
3;34,33,32;,
3;33,34,35;,
3;11,20,10;,
3;20,11,22;,
3;38,37,36;,
3;37,38,39;,
3;42,41,40;,
3;41,42,43;,
3;46,45,44;,
3;45,46,47;,
3;50,49,48;,
3;49,50,51;,
3;51,52,49;,
3;52,51,53;,
3;56,55,54;,
3;55,56,57;,
3;60,59,58;,
3;59,60,61;,
3;64,63,62;,
3;63,64,65;,
3;65,66,63;,
3;66,65,67;,
3;70,69,68;,
3;69,70,71;,
3;74,73,72;,
3;73,74,75;,
3;78,77,76;,
3;77,78,79;,
3;79,80,77;,
3;80,79,81;,
3;84,83,82;,
3;83,84,85;,
3;88,87,86;,
3;87,88,89;,
3;92,91,90;,
3;91,92,93;,
3;93,94,91;,
3;94,93,95;,
3;98,97,96;,
3;97,98,99;,
3;102,101,100;,
3;101,102,103;,
3;106,105,104;,
3;105,106,107;,
3;107,108,105;,
3;108,107,109;,
3;112,111,110;,
3;111,112,113;,
3;116,115,114;,
3;115,116,117;,
3;120,119,118;,
3;119,120,121;,
3;121,122,119;,
3;122,121,123;,
3;126,125,124;,
3;125,126,127;,
3;124,129,128;,
3;129,124,125;,
3;132,131,130;,
3;131,132,133;,
3;136,135,134;,
3;135,136,137;,
3;134,139,138;,
3;139,134,135;,
3;142,141,140;,
3;143,141,142;,
3;145,141,144;;
MeshMaterialList {
 1;
 89;
  0,
  0,
  0,
  0,
  0,
  0,
  0,
  0,
  0,
  0,
  0,
  0,
  0,
  0,
  0,
  0,
  0,
  0,
  0,
  0,
  0,
  0,
  0,
  0,
  0,
  0,
  0,
  0,
  0,
  0,
  0,
  0,
  0,
  0,
  0,
  0,
  0,
  0,
  0,
  0,
  0,
  0,
  0,
  0,
  0,
  0,
  0,
  0,
  0,
  0,
  0,
  0,
  0,
  0,
  0,
  0,
  0,
  0,
  0,
  0,
  0,
  0,
  0,
  0,
  0,
  0,
  0,
  0,
  0,
  0,
  0,
  0,
  0,
  0,
  0,
  0,
  0,
  0,
  0,
  0,
  0,
  0,
  0,
  0,
  0,
  0,
  0,
  0,
  0;;
Material mat_gtorn_5_1 {
 1.000000;1.000000;1.000000;1.000000;;
4.000000;
 0.000000;0.000000;0.000000;;
 0.000000;0.000000;0.000000;;
TextureFilename {
"garage\gtorn.tga";
}
 }
}

 MeshNormals {
 146;
0.000000;-1.000000;0.000000;,
0.000000;-1.000000;0.000000;,
0.000000;-1.000000;0.000000;,
0.000000;-1.000000;0.000000;,
-0.146414;0.989223;0.000000;,
-0.292828;0.956165;0.000000;,
-0.845479;0.534009;0.000000;,
-0.845479;0.534009;0.000000;,
-0.474771;0.880109;0.000000;,
-0.237386;0.971416;0.000000;,
-0.358993;0.933340;0.000000;,
-0.358948;0.933357;0.000014;,
0.000000;0.000000;-1.000000;,
0.000000;0.000000;-1.000000;,
0.000000;0.000000;-1.000000;,
0.000000;0.000000;-1.000000;,
0.000000;0.000000;-1.000000;,
0.000000;0.000000;-1.000000;,
0.000000;0.000000;-1.000000;,
0.000000;0.000000;-1.000000;,
0.252791;0.967521;0.000033;,
0.862831;0.505493;0.000014;,
0.505457;0.862852;0.000033;,
0.967526;0.252771;0.000000;,
0.000000;0.000000;1.000000;,
0.000000;0.000000;1.000000;,
0.000000;0.000000;1.000000;,
0.000000;0.000000;1.000000;,
0.000000;0.000000;1.000000;,
0.000000;0.000000;1.000000;,
0.000000;0.000000;1.000000;,
0.000000;0.000000;1.000000;,
-1.000000;0.000000;0.000000;,
-0.845479;0.534009;0.000000;,
-1.000000;0.000000;0.000000;,
-0.845479;0.534009;0.000000;,
1.000000;0.000000;0.000000;,
0.967526;0.252771;0.000000;,
1.000000;0.000000;0.000000;,
0.862831;0.505493;0.000014;,
0.034006;-0.999422;0.000000;,
0.456398;-0.889776;0.000000;,
0.034006;-0.999422;0.000000;,
0.869076;-0.494678;0.000000;,
0.456398;-0.889776;0.000000;,
0.996996;-0.077457;0.000000;,
0.869076;-0.494678;0.000000;,
0.996996;-0.077457;0.000000;,
0.000000;0.000000;-1.000000;,
0.000000;0.000000;-1.000000;,
0.000000;0.000000;-1.000000;,
0.000000;0.000000;-1.000000;,
0.000000;0.000000;-1.000000;,
0.000000;0.000000;-1.000000;,
-0.048929;0.998802;0.000000;,
-0.461637;0.887069;0.000000;,
-0.048929;0.998802;0.000000;,
-0.861258;0.508168;0.000000;,
-0.461637;0.887069;0.000000;,
-0.994786;0.101987;0.000000;,
-0.861258;0.508168;0.000000;,
-0.994786;0.101987;0.000000;,
0.000000;0.000000;1.000000;,
0.000000;0.000000;1.000000;,
0.000000;0.000000;1.000000;,
0.000000;0.000000;1.000000;,
0.000000;0.000000;1.000000;,
0.000000;0.000000;1.000000;,
0.034006;-0.999422;0.000000;,
0.456398;-0.889776;0.000000;,
0.034006;-0.999422;0.000000;,
0.869076;-0.494678;0.000000;,
0.456398;-0.889776;0.000000;,
0.996996;-0.077457;0.000000;,
0.869076;-0.494678;0.000000;,
0.996996;-0.077457;0.000000;,
0.000000;0.000000;-1.000000;,
0.000000;0.000000;-1.000000;,
0.000000;0.000000;-1.000000;,
0.000000;0.000000;-1.000000;,
0.000000;0.000000;-1.000000;,
0.000000;0.000000;-1.000000;,
-0.048929;0.998802;0.000000;,
-0.461637;0.887069;0.000000;,
-0.048929;0.998802;0.000000;,
-0.861258;0.508168;0.000000;,
-0.461637;0.887069;0.000000;,
-0.994786;0.101987;0.000000;,
-0.861258;0.508168;0.000000;,
-0.994786;0.101987;0.000000;,
0.000000;0.000000;1.000000;,
0.000000;0.000000;1.000000;,
0.000000;0.000000;1.000000;,
0.000000;0.000000;1.000000;,
0.000000;0.000000;1.000000;,
0.000000;0.000000;1.000000;,
0.034006;-0.999422;0.000000;,
0.456398;-0.889776;0.000000;,
0.034006;-0.999422;0.000000;,
0.869076;-0.494678;0.000000;,
0.456398;-0.889776;0.000000;,
0.996996;-0.077457;0.000000;,
0.869076;-0.494678;0.000000;,
0.996996;-0.077457;0.000000;,
0.000000;0.000000;-1.000000;,
0.000000;0.000000;-1.000000;,
0.000000;0.000000;-1.000000;,
0.000000;0.000000;-1.000000;,
0.000000;0.000000;-1.000000;,
0.000000;0.000000;-1.000000;,
-0.048929;0.998802;0.000000;,
-0.461637;0.887069;0.000000;,
-0.048929;0.998802;0.000000;,
-0.861258;0.508168;0.000000;,
-0.461637;0.887069;0.000000;,
-0.994786;0.101987;0.000000;,
-0.861258;0.508168;0.000000;,
-0.994786;0.101987;0.000000;,
0.000000;0.000000;1.000000;,
0.000000;0.000000;1.000000;,
0.000000;0.000000;1.000000;,
0.000000;0.000000;1.000000;,
0.000000;0.000000;1.000000;,
0.000000;0.000000;1.000000;,
0.068855;0.033320;0.997070;,
0.471922;0.228265;0.851578;,
0.874939;0.423200;0.235338;,
0.874932;0.423197;-0.235368;,
-0.832424;-0.402521;0.380851;,
-0.583314;-0.282079;0.761693;,
-0.583314;-0.282079;-0.761693;,
-0.832427;-0.402523;-0.380842;,
-0.832424;-0.402521;0.380851;,
-0.583314;-0.282079;0.761693;,
0.471913;0.228260;-0.851584;,
0.068848;0.033317;-0.997071;,
-0.583314;-0.282079;-0.761693;,
-0.832427;-0.402523;-0.380842;,
0.874939;0.423200;0.235338;,
0.874932;0.423197;-0.235368;,
-0.435477;0.900200;0.000000;,
-0.435429;0.900223;0.000000;,
-0.435477;0.900200;0.000000;,
-0.435406;0.900234;0.000000;,
-0.435406;0.900234;0.000000;,
-0.435335;0.900269;0.000000;;

 89;
3;2,1,0;,
3;1,2,3;,
3;6,5,4;,
3;5,6,7;,
3;4,9,8;,
3;9,4,5;,
3;8,11,10;,
3;11,8,9;,
3;14,13,12;,
3;13,14,15;,
3;12,13,16;,
3;12,16,17;,
3;12,19,18;,
3;19,12,17;,
3;22,21,20;,
3;21,22,23;,
3;26,25,24;,
3;25,26,27;,
3;26,24,28;,
3;26,28,29;,
3;26,31,30;,
3;31,26,29;,
3;34,33,32;,
3;33,34,35;,
3;11,20,10;,
3;20,11,22;,
3;38,37,36;,
3;37,38,39;,
3;42,41,40;,
3;41,42,43;,
3;46,45,44;,
3;45,46,47;,
3;50,49,48;,
3;49,50,51;,
3;51,52,49;,
3;52,51,53;,
3;56,55,54;,
3;55,56,57;,
3;60,59,58;,
3;59,60,61;,
3;64,63,62;,
3;63,64,65;,
3;65,66,63;,
3;66,65,67;,
3;70,69,68;,
3;69,70,71;,
3;74,73,72;,
3;73,74,75;,
3;78,77,76;,
3;77,78,79;,
3;79,80,77;,
3;80,79,81;,
3;84,83,82;,
3;83,84,85;,
3;88,87,86;,
3;87,88,89;,
3;92,91,90;,
3;91,92,93;,
3;93,94,91;,
3;94,93,95;,
3;98,97,96;,
3;97,98,99;,
3;102,101,100;,
3;101,102,103;,
3;106,105,104;,
3;105,106,107;,
3;107,108,105;,
3;108,107,109;,
3;112,111,110;,
3;111,112,113;,
3;116,115,114;,
3;115,116,117;,
3;120,119,118;,
3;119,120,121;,
3;121,122,119;,
3;122,121,123;,
3;126,125,124;,
3;125,126,127;,
3;124,129,128;,
3;129,124,125;,
3;132,131,130;,
3;131,132,133;,
3;136,135,134;,
3;135,136,137;,
3;134,139,138;,
3;139,134,135;,
3;142,141,140;,
3;143,141,142;,
3;145,141,144;;
 }
MeshTextureCoords {
 146;
0.746094;0.785156;,
0.746094;0.003906;,
0.992188;0.785156;,
0.992188;0.003906;,
0.996094;0.273438;,
0.746094;0.273438;,
0.996094;0.003906;,
0.746094;0.003906;,
0.996094;0.660156;,
0.746094;0.660156;,
0.996094;0.835938;,
0.746094;0.835938;,
0.746094;0.003906;,
0.203125;0.875000;,
0.003906;0.003906;,
0.003906;0.785156;,
0.496094;0.875000;,
0.636719;0.992188;,
0.746094;0.949219;,
0.691406;0.992188;,
0.996094;0.941406;,
0.996094;0.996094;,
0.746094;0.941406;,
0.746094;0.996094;,
0.636719;0.992188;,
0.691406;0.992188;,
0.746094;0.003906;,
0.746094;0.949219;,
0.496094;0.875000;,
0.203125;0.875000;,
0.003906;0.003906;,
0.003906;0.785156;,
0.746094;0.003906;,
0.746094;0.785156;,
0.992188;0.003906;,
0.992188;0.785156;,
0.992188;0.003906;,
0.992188;0.949219;,
0.746094;0.003906;,
0.746094;0.949219;,
0.582031;0.968750;,
0.339844;0.968750;,
0.582031;0.992188;,
0.339844;0.992188;,
0.582031;0.992188;,
0.539063;0.992188;,
0.582031;0.968750;,
0.539063;0.968750;,
0.636719;0.992188;,
0.277344;0.992188;,
0.621094;0.960938;,
0.289063;0.964844;,
0.230469;0.875000;,
0.285156;0.875000;,
0.582031;0.968750;,
0.320313;0.968750;,
0.582031;0.992188;,
0.320313;0.992188;,
0.582031;0.992188;,
0.519531;0.992188;,
0.582031;0.968750;,
0.519531;0.968750;,
0.621094;0.960938;,
0.289063;0.964844;,
0.636719;0.992188;,
0.277344;0.992188;,
0.285156;0.875000;,
0.230469;0.875000;,
0.339844;0.992188;,
0.582031;0.992188;,
0.339844;0.968750;,
0.582031;0.968750;,
0.460938;0.992188;,
0.417969;0.992188;,
0.460938;0.968750;,
0.417969;0.968750;,
0.636719;0.992188;,
0.277344;0.992188;,
0.621094;0.960938;,
0.289063;0.964844;,
0.230469;0.875000;,
0.285156;0.875000;,
0.320313;0.992188;,
0.582031;0.992188;,
0.320313;0.968750;,
0.582031;0.968750;,
0.519531;0.992188;,
0.460938;0.992188;,
0.519531;0.968750;,
0.460938;0.968750;,
0.621094;0.960938;,
0.289063;0.964844;,
0.636719;0.992188;,
0.277344;0.992188;,
0.285156;0.875000;,
0.230469;0.875000;,
0.339844;0.992188;,
0.582031;0.992188;,
0.339844;0.968750;,
0.582031;0.968750;,
0.519531;0.992188;,
0.476563;0.992188;,
0.519531;0.968750;,
0.476563;0.968750;,
0.636719;0.992188;,
0.277344;0.992188;,
0.621094;0.960938;,
0.289063;0.964844;,
0.230469;0.875000;,
0.285156;0.875000;,
0.320313;0.968750;,
0.582031;0.968750;,
0.320313;0.992188;,
0.582031;0.992188;,
0.582031;0.992188;,
0.519531;0.992188;,
0.582031;0.968750;,
0.519531;0.968750;,
0.621094;0.960938;,
0.289063;0.964844;,
0.636719;0.992188;,
0.277344;0.992188;,
0.285156;0.875000;,
0.230469;0.875000;,
0.097656;0.832031;,
0.078125;0.878906;,
0.074219;0.820313;,
0.054688;0.867188;,
0.140625;0.847656;,
0.121094;0.898438;,
0.066406;0.875000;,
0.085938;0.824219;,
0.105469;0.890625;,
0.125000;0.839844;,
0.117188;0.839844;,
0.093750;0.886719;,
0.074219;0.820313;,
0.054688;0.867188;,
0.140625;0.847656;,
0.121094;0.898438;,
0.128906;0.906250;,
0.136719;0.937500;,
0.097656;0.906250;,
0.085938;0.937500;,
0.085938;0.937486;,
0.113281;0.957031;;
}
}
 }
