xof 0302txt 0032
Header {
 1;
 0;
 1;
}
template Header {
 <3D82AB43-62DA-11cf-AB39-0020AF71E433>
 WORD major;
 WORD minor;
 DWORD flags;
}

template Vector {
 <3D82AB5E-62DA-11cf-AB39-0020AF71E433>
 FLOAT x;
 FLOAT y;
 FLOAT z;
}

template Coords2d {
 <F6F23F44-7686-11cf-8F52-0040333594A3>
 FLOAT u;
 FLOAT v;
}

template Matrix4x4 {
 <F6F23F45-7686-11cf-8F52-0040333594A3>
 array FLOAT matrix[16];
}

template ColorRGBA {
 <35FF44E0-6C7C-11cf-8F52-0040333594A3>
 FLOAT red;
 FLOAT green;
 FLOAT blue;
 FLOAT alpha;
}

template ColorRGB {
 <D3E16E81-7835-11cf-8F52-0040333594A3>
 FLOAT red;
 FLOAT green;
 FLOAT blue;
}

template TextureFilename {
 <A42790E1-7810-11cf-8F52-0040333594A3>
 STRING filename;
}

template Material {
 <3D82AB4D-62DA-11cf-AB39-0020AF71E433>
 ColorRGBA faceColor;
 FLOAT power;
 ColorRGB specularColor;
 ColorRGB emissiveColor;
 [...]
}

template MeshFace {
 <3D82AB5F-62DA-11cf-AB39-0020AF71E433>
 DWORD nFaceVertexIndices;
 array DWORD faceVertexIndices[nFaceVertexIndices];
}

template MeshTextureCoords {
 <F6F23F40-7686-11cf-8F52-0040333594A3>
 DWORD nTextureCoords;
 array Coords2d textureCoords[nTextureCoords];
}

template MeshMaterialList {
 <F6F23F42-7686-11cf-8F52-0040333594A3>
 DWORD nMaterials;
 DWORD nFaceIndexes;
 array DWORD faceIndexes[nFaceIndexes];
 [Material]
}

template MeshNormals {
 <F6F23F43-7686-11cf-8F52-0040333594A3>
 DWORD nNormals;
 array Vector normals[nNormals];
 DWORD nFaceNormals;
 array MeshFace faceNormals[nFaceNormals];
}

template Mesh {
 <3D82AB44-62DA-11cf-AB39-0020AF71E433>
 DWORD nVertices;
 array Vector vertices[nVertices];
 DWORD nFaces;
 array MeshFace faces[nFaces];
 [...]
}

template FrameTransformMatrix {
 <F6F23F41-7686-11cf-8F52-0040333594A3>
 Matrix4x4 frameMatrix;
}

template Frame {
 <3D82AB46-62DA-11cf-AB39-0020AF71E433>
 [...]
}
template FloatKeys {
 <10DD46A9-775B-11cf-8F52-0040333594A3>
 DWORD nValues;
 array FLOAT values[nValues];
}

template TimedFloatKeys {
 <F406B180-7B3B-11cf-8F52-0040333594A3>
 DWORD time;
 FloatKeys tfkeys;
}

template AnimationKey {
 <10DD46A8-775B-11cf-8F52-0040333594A3>
 DWORD keyType;
 DWORD nKeys;
 array TimedFloatKeys keys[nKeys];
}

template AnimationOptions {
 <E2BF56C0-840F-11cf-8F52-0040333594A3>
 DWORD openclosed;
 DWORD positionquality;
}

template Animation {
 <3D82AB4F-62DA-11cf-AB39-0020AF71E433>
 [...]
}

template AnimationSet {
 <3D82AB50-62DA-11cf-AB39-0020AF71E433>
 [Animation]
}

template XSkinMeshHeader {
 <3cf169ce-ff7c-44ab-93c0-f78f62d172e2>
 WORD nMaxSkinWeightsPerVertex;
 WORD nMaxSkinWeightsPerFace;
 WORD nBones;
}

template VertexDuplicationIndices {
 <b8d65549-d7c9-4995-89cf-53a9a8b031e3>
 DWORD nIndices;
 DWORD nOriginalVertices;
 array DWORD indices[nIndices];
}

template SkinWeights {
 <6f0d123b-bad2-4167-a0d0-80224f25fabb>
 STRING transformNodeName;
 DWORD nWeights;
 array DWORD vertexIndices[nWeights];
 array FLOAT weights[nWeights];
 Matrix4x4 matrixOffset;
}
Frame Frm0 {
   FrameTransformMatrix {
1.000000,0.000000,0.000000,0.000000,
0.000000,1.000000,0.000000,0.000000,
0.000000,0.000000,1.000000,0.000000,
0.000000,0.000000,0.000000,1.000000;;
 }
Mesh object1 {
 520;
0.049541;1.279636;-0.172380;,
0.001828;1.279636;-0.172380;,
0.503956;0.058127;-0.172380;,
0.456242;0.058127;-0.172380;,
0.456242;0.058127;-0.153290;,
0.001828;1.279636;-0.153290;,
0.503956;0.058127;-0.153290;,
0.049541;1.279636;-0.153290;,
0.468110;0.016811;-0.175236;,
0.468110;0.016811;-0.150440;,
0.523231;0.017757;-0.175048;,
0.523231;0.017757;-0.150623;,
0.001828;1.279636;-0.172380;,
0.001828;1.279636;-0.153290;,
0.456242;0.058127;-0.172380;,
0.456242;0.058127;-0.153290;,
0.049541;1.279636;-0.172380;,
0.049541;1.279636;-0.153290;,
0.001828;1.279636;-0.172380;,
0.001828;1.279636;-0.153290;,
0.503956;0.058127;-0.172380;,
0.503956;0.058127;-0.153290;,
0.049541;1.279636;-0.172380;,
0.049541;1.279636;-0.153290;,
0.063181;1.262974;0.171175;,
0.063181;1.262974;-0.162835;,
-0.060878;1.262974;0.171175;,
-0.060878;1.262974;-0.162835;,
-0.060878;1.282069;-0.162835;,
0.063181;1.282069;-0.162835;,
-0.060878;1.282069;0.171175;,
0.063181;1.282069;0.171175;,
-0.060878;1.262974;-0.162835;,
-0.060878;1.282069;-0.162835;,
-0.060878;1.262974;0.171175;,
-0.060878;1.282069;0.171175;,
0.063181;1.262974;-0.162835;,
0.063181;1.282069;-0.162835;,
-0.060878;1.262974;-0.162835;,
-0.060878;1.282069;-0.162835;,
0.063181;1.262974;0.171175;,
0.063181;1.282069;0.171175;,
0.063181;1.262974;-0.162835;,
0.063181;1.282069;-0.162835;,
-0.060878;1.262974;0.171175;,
-0.060878;1.282069;0.171175;,
0.063181;1.262974;0.171175;,
0.063181;1.282069;0.171175;,
0.049541;1.279636;0.161629;,
0.001828;1.279636;0.161629;,
0.503956;0.058127;0.161629;,
0.456242;0.058127;0.161629;,
0.456242;0.058127;0.180720;,
0.001828;1.279636;0.180720;,
0.503956;0.058127;0.180720;,
0.049541;1.279636;0.180720;,
0.468110;0.016811;0.158780;,
0.468110;0.016811;0.183575;,
0.523231;0.017757;0.158962;,
0.523231;0.017757;0.183387;,
0.001828;1.279636;0.161629;,
0.001828;1.279636;0.180720;,
0.456242;0.058127;0.161629;,
0.456242;0.058127;0.180720;,
0.049541;1.279636;0.161629;,
0.049541;1.279636;0.180720;,
0.001828;1.279636;0.161629;,
0.001828;1.279636;0.180720;,
0.503956;0.058127;0.161629;,
0.503956;0.058127;0.180720;,
0.049541;1.279636;0.161629;,
0.049541;1.279636;0.180720;,
0.188350;1.030678;0.171175;,
0.188350;1.030678;-0.162835;,
0.092923;1.030678;0.171175;,
0.092923;1.030678;-0.162835;,
0.092923;1.049772;-0.162835;,
0.188350;1.049772;-0.162835;,
0.092923;1.049772;0.171175;,
0.188350;1.049772;0.171175;,
0.092923;1.030678;-0.162835;,
0.092923;1.049772;-0.162835;,
0.092923;1.030678;0.171175;,
0.092923;1.049772;0.171175;,
0.188350;1.030678;-0.162835;,
0.188350;1.049772;-0.162835;,
0.092923;1.030678;-0.162835;,
0.092923;1.049772;-0.162835;,
0.188350;1.030678;0.171175;,
0.188350;1.049772;0.171175;,
0.188350;1.030678;-0.162835;,
0.188350;1.049772;-0.162835;,
0.092923;1.030678;0.171175;,
0.092923;1.049772;0.171175;,
0.188350;1.030678;0.171175;,
0.188350;1.049772;0.171175;,
0.271877;0.801644;0.171175;,
0.271877;0.801644;-0.162835;,
0.176450;0.801644;0.171175;,
0.176450;0.801644;-0.162835;,
0.176450;0.820738;-0.162835;,
0.271877;0.820738;-0.162835;,
0.176450;0.820738;0.171175;,
0.271877;0.820738;0.171175;,
0.176450;0.801644;-0.162835;,
0.176450;0.820738;-0.162835;,
0.176450;0.801644;0.171175;,
0.176450;0.820738;0.171175;,
0.271877;0.801644;-0.162835;,
0.271877;0.820738;-0.162835;,
0.176450;0.801644;-0.162835;,
0.176450;0.820738;-0.162835;,
0.271877;0.801644;0.171175;,
0.271877;0.820738;0.171175;,
0.271877;0.801644;-0.162835;,
0.271877;0.820738;-0.162835;,
0.176450;0.801644;0.171175;,
0.176450;0.820738;0.171175;,
0.271877;0.801644;0.171175;,
0.271877;0.820738;0.171175;,
0.361040;0.572609;0.171175;,
0.361040;0.572609;-0.162835;,
0.265613;0.572609;0.171175;,
0.265613;0.572609;-0.162835;,
0.265613;0.591704;-0.162835;,
0.361040;0.591704;-0.162835;,
0.265613;0.591704;0.171175;,
0.361040;0.591704;0.171175;,
0.265613;0.572609;-0.162835;,
0.265613;0.591704;-0.162835;,
0.265613;0.572609;0.171175;,
0.265613;0.591704;0.171175;,
0.361040;0.572609;-0.162835;,
0.361040;0.591704;-0.162835;,
0.265613;0.572609;-0.162835;,
0.265613;0.591704;-0.162835;,
0.361040;0.572609;0.171175;,
0.361040;0.591704;0.171175;,
0.361040;0.572609;-0.162835;,
0.361040;0.591704;-0.162835;,
0.265613;0.572609;0.171175;,
0.265613;0.591704;0.171175;,
0.361040;0.572609;0.171175;,
0.361040;0.591704;0.171175;,
0.444728;0.343575;0.171175;,
0.444728;0.343575;-0.162835;,
0.349301;0.343575;0.171175;,
0.349301;0.343575;-0.162835;,
0.349301;0.362669;-0.162835;,
0.444728;0.362669;-0.162835;,
0.349301;0.362669;0.171175;,
0.444728;0.362669;0.171175;,
0.349301;0.343575;-0.162835;,
0.349301;0.362669;-0.162835;,
0.349301;0.343575;0.171175;,
0.349301;0.362669;0.171175;,
0.444728;0.343575;-0.162835;,
0.444728;0.362669;-0.162835;,
0.349301;0.343575;-0.162835;,
0.349301;0.362669;-0.162835;,
0.444728;0.343575;0.171175;,
0.444728;0.362669;0.171175;,
0.444728;0.343575;-0.162835;,
0.444728;0.362669;-0.162835;,
0.349301;0.343575;0.171175;,
0.349301;0.362669;0.171175;,
0.444728;0.343575;0.171175;,
0.444728;0.362669;0.171175;,
0.527660;0.114541;0.171175;,
0.527660;0.114541;-0.162835;,
0.432232;0.114541;0.171175;,
0.432232;0.114541;-0.162835;,
0.432232;0.133635;-0.162835;,
0.527660;0.133635;-0.162835;,
0.432232;0.133635;0.171175;,
0.527660;0.133635;0.171175;,
0.432232;0.114541;-0.162835;,
0.432232;0.133635;-0.162835;,
0.432232;0.114541;0.171175;,
0.432232;0.133635;0.171175;,
0.527660;0.114541;-0.162835;,
0.527660;0.133635;-0.162835;,
0.432232;0.114541;-0.162835;,
0.432232;0.133635;-0.162835;,
0.527660;0.114541;0.171175;,
0.527660;0.133635;0.171175;,
0.527660;0.114541;-0.162835;,
0.527660;0.133635;-0.162835;,
0.432232;0.114541;0.171175;,
0.432232;0.133635;0.171175;,
0.527660;0.114541;0.171175;,
0.527660;0.133635;0.171175;,
-0.456242;0.058127;-0.172380;,
-0.001828;1.279636;-0.172380;,
-0.503956;0.058127;-0.172380;,
-0.049541;1.279636;-0.172380;,
-0.049541;1.279636;-0.153290;,
-0.001828;1.279636;-0.153290;,
-0.503956;0.058127;-0.153290;,
-0.456242;0.058127;-0.153290;,
-0.521830;0.017699;-0.150617;,
-0.466693;0.016850;-0.150445;,
-0.521830;0.017699;-0.175053;,
-0.466693;0.016850;-0.175225;,
-0.456242;0.058127;-0.153290;,
-0.001828;1.279636;-0.153290;,
-0.456242;0.058127;-0.172380;,
-0.001828;1.279636;-0.172380;,
-0.001828;1.279636;-0.153290;,
-0.049541;1.279636;-0.153290;,
-0.001828;1.279636;-0.172380;,
-0.049541;1.279636;-0.172380;,
-0.049541;1.279636;-0.153290;,
-0.503956;0.058127;-0.153290;,
-0.049541;1.279636;-0.172380;,
-0.503956;0.058127;-0.172380;,
-0.456242;0.058127;0.161629;,
-0.001828;1.279636;0.161629;,
-0.503956;0.058127;0.161629;,
-0.049541;1.279636;0.161629;,
-0.049541;1.279636;0.180720;,
-0.001828;1.279636;0.180720;,
-0.503956;0.058127;0.180720;,
-0.456242;0.058127;0.180720;,
-0.521830;0.017699;0.183393;,
-0.466693;0.016850;0.183564;,
-0.521830;0.017699;0.158957;,
-0.466693;0.016850;0.158785;,
-0.456242;0.058127;0.180720;,
-0.001828;1.279636;0.180720;,
-0.456242;0.058127;0.161629;,
-0.001828;1.279636;0.161629;,
-0.001828;1.279636;0.180720;,
-0.049541;1.279636;0.180720;,
-0.001828;1.279636;0.161629;,
-0.049541;1.279636;0.161629;,
-0.049541;1.279636;0.180720;,
-0.503956;0.058127;0.180720;,
-0.049541;1.279636;0.161629;,
-0.503956;0.058127;0.161629;,
-0.092923;1.030678;-0.162835;,
-0.188350;1.030678;-0.162835;,
-0.092923;1.030678;0.171175;,
-0.188350;1.030678;0.171175;,
-0.188350;1.049772;0.171175;,
-0.188350;1.049772;-0.162835;,
-0.092923;1.049772;0.171175;,
-0.092923;1.049772;-0.162835;,
-0.092923;1.049772;0.171175;,
-0.092923;1.049772;-0.162835;,
-0.092923;1.030678;0.171175;,
-0.092923;1.030678;-0.162835;,
-0.092923;1.049772;-0.162835;,
-0.188350;1.049772;-0.162835;,
-0.092923;1.030678;-0.162835;,
-0.188350;1.030678;-0.162835;,
-0.188350;1.049772;-0.162835;,
-0.188350;1.049772;0.171175;,
-0.188350;1.030678;-0.162835;,
-0.188350;1.030678;0.171175;,
-0.188350;1.049772;0.171175;,
-0.092923;1.049772;0.171175;,
-0.188350;1.030678;0.171175;,
-0.092923;1.030678;0.171175;,
-0.176450;0.801644;-0.162835;,
-0.271877;0.801644;-0.162835;,
-0.176450;0.801644;0.171175;,
-0.271877;0.801644;0.171175;,
-0.271877;0.820738;0.171175;,
-0.271877;0.820738;-0.162835;,
-0.176450;0.820738;0.171175;,
-0.176450;0.820738;-0.162835;,
-0.176450;0.820738;0.171175;,
-0.176450;0.820738;-0.162835;,
-0.176450;0.801644;0.171175;,
-0.176450;0.801644;-0.162835;,
-0.176450;0.820738;-0.162835;,
-0.271877;0.820738;-0.162835;,
-0.176450;0.801644;-0.162835;,
-0.271877;0.801644;-0.162835;,
-0.271877;0.820738;-0.162835;,
-0.271877;0.820738;0.171175;,
-0.271877;0.801644;-0.162835;,
-0.271877;0.801644;0.171175;,
-0.271877;0.820738;0.171175;,
-0.176450;0.820738;0.171175;,
-0.271877;0.801644;0.171175;,
-0.176450;0.801644;0.171175;,
-0.265613;0.572609;-0.162835;,
-0.361040;0.572609;-0.162835;,
-0.265613;0.572609;0.171175;,
-0.361040;0.572609;0.171175;,
-0.361040;0.591704;0.171175;,
-0.361040;0.591704;-0.162835;,
-0.265613;0.591704;0.171175;,
-0.265613;0.591704;-0.162835;,
-0.265613;0.591704;0.171175;,
-0.265613;0.591704;-0.162835;,
-0.265613;0.572609;0.171175;,
-0.265613;0.572609;-0.162835;,
-0.265613;0.591704;-0.162835;,
-0.361040;0.591704;-0.162835;,
-0.265613;0.572609;-0.162835;,
-0.361040;0.572609;-0.162835;,
-0.361040;0.591704;-0.162835;,
-0.361040;0.591704;0.171175;,
-0.361040;0.572609;-0.162835;,
-0.361040;0.572609;0.171175;,
-0.361040;0.591704;0.171175;,
-0.265613;0.591704;0.171175;,
-0.361040;0.572609;0.171175;,
-0.265613;0.572609;0.171175;,
-0.349301;0.343575;-0.162835;,
-0.444728;0.343575;-0.162835;,
-0.349301;0.343575;0.171175;,
-0.444728;0.343575;0.171175;,
-0.444728;0.362669;0.171175;,
-0.444728;0.362669;-0.162835;,
-0.349301;0.362669;0.171175;,
-0.349301;0.362669;-0.162835;,
-0.349301;0.362669;0.171175;,
-0.349301;0.362669;-0.162835;,
-0.349301;0.343575;0.171175;,
-0.349301;0.343575;-0.162835;,
-0.349301;0.362669;-0.162835;,
-0.444728;0.362669;-0.162835;,
-0.349301;0.343575;-0.162835;,
-0.444728;0.343575;-0.162835;,
-0.444728;0.362669;-0.162835;,
-0.444728;0.362669;0.171175;,
-0.444728;0.343575;-0.162835;,
-0.444728;0.343575;0.171175;,
-0.444728;0.362669;0.171175;,
-0.349301;0.362669;0.171175;,
-0.444728;0.343575;0.171175;,
-0.349301;0.343575;0.171175;,
-0.432232;0.114541;-0.162835;,
-0.527660;0.114541;-0.162835;,
-0.432232;0.114541;0.171175;,
-0.527660;0.114541;0.171175;,
-0.527660;0.133635;0.171175;,
-0.527660;0.133635;-0.162835;,
-0.432232;0.133635;0.171175;,
-0.432232;0.133635;-0.162835;,
-0.432232;0.133635;0.171175;,
-0.432232;0.133635;-0.162835;,
-0.432232;0.114541;0.171175;,
-0.432232;0.114541;-0.162835;,
-0.432232;0.133635;-0.162835;,
-0.527660;0.133635;-0.162835;,
-0.432232;0.114541;-0.162835;,
-0.527660;0.114541;-0.162835;,
-0.527660;0.133635;-0.162835;,
-0.527660;0.133635;0.171175;,
-0.527660;0.114541;-0.162835;,
-0.527660;0.114541;0.171175;,
-0.527660;0.133635;0.171175;,
-0.432232;0.133635;0.171175;,
-0.527660;0.114541;0.171175;,
-0.432232;0.114541;0.171175;,
0.452700;0.056814;-0.175302;,
0.468110;0.016811;-0.175236;,
0.506710;0.059266;-0.176110;,
0.523231;0.017757;-0.175048;,
0.452700;0.056814;-0.150368;,
0.468110;0.016811;-0.150440;,
0.452700;0.056814;-0.175302;,
0.468110;0.016811;-0.175236;,
0.506710;0.059266;-0.149566;,
0.523231;0.017757;-0.150623;,
0.452700;0.056814;-0.150368;,
0.468110;0.016811;-0.150440;,
0.506710;0.059266;-0.176110;,
0.523231;0.017757;-0.175048;,
0.506710;0.059266;-0.149566;,
0.523231;0.017757;-0.150623;,
0.452700;0.056814;0.158708;,
0.468110;0.016811;0.158780;,
0.506710;0.059266;0.157905;,
0.523231;0.017757;0.158962;,
0.452700;0.056814;0.183642;,
0.468110;0.016811;0.183575;,
0.452700;0.056814;0.158708;,
0.468110;0.016811;0.158780;,
0.506710;0.059266;0.184450;,
0.523231;0.017757;0.183387;,
0.452700;0.056814;0.183642;,
0.468110;0.016811;0.183575;,
0.506710;0.059266;0.157905;,
0.523231;0.017757;0.158962;,
0.506710;0.059266;0.184450;,
0.523231;0.017757;0.183387;,
-0.506774;0.059189;-0.176082;,
-0.521830;0.017699;-0.175053;,
-0.452700;0.056950;-0.175352;,
-0.466693;0.016850;-0.175225;,
-0.506774;0.059189;-0.149588;,
-0.521830;0.017699;-0.150617;,
-0.506774;0.059189;-0.176082;,
-0.521830;0.017699;-0.175053;,
-0.452700;0.056950;-0.150324;,
-0.466693;0.016850;-0.150445;,
-0.506774;0.059189;-0.149588;,
-0.521830;0.017699;-0.150617;,
-0.452700;0.056950;-0.175352;,
-0.466693;0.016850;-0.175225;,
-0.452700;0.056950;-0.150324;,
-0.466693;0.016850;-0.150445;,
-0.506774;0.059189;0.157927;,
-0.521830;0.017699;0.158957;,
-0.452700;0.056950;0.158663;,
-0.466693;0.016850;0.158785;,
-0.506774;0.059189;0.184422;,
-0.521830;0.017699;0.183393;,
-0.506774;0.059189;0.157927;,
-0.521830;0.017699;0.158957;,
-0.452700;0.056950;0.183691;,
-0.466693;0.016850;0.183564;,
-0.506774;0.059189;0.184422;,
-0.521830;0.017699;0.183393;,
-0.452700;0.056950;0.158663;,
-0.466693;0.016850;0.158785;,
-0.452700;0.056950;0.183691;,
-0.466693;0.016850;0.183564;,
0.456242;0.058127;-0.172380;,
0.452700;0.056814;-0.175302;,
0.503956;0.058127;-0.172380;,
0.506710;0.059266;-0.176110;,
0.456242;0.058127;-0.153290;,
0.452700;0.056814;-0.150368;,
0.503956;0.058127;-0.153290;,
0.506710;0.059266;-0.149566;,
0.456242;0.058127;0.161629;,
0.452700;0.056814;0.158708;,
0.503956;0.058127;0.161629;,
0.506710;0.059266;0.157905;,
0.456242;0.058127;0.180720;,
0.452700;0.056814;0.183642;,
0.503956;0.058127;0.180720;,
0.506710;0.059266;0.184450;,
-0.503956;0.058127;-0.172380;,
-0.506774;0.059189;-0.176082;,
-0.456242;0.058127;-0.172380;,
-0.452700;0.056950;-0.175352;,
-0.503956;0.058127;-0.153290;,
-0.506774;0.059189;-0.149588;,
-0.456242;0.058127;-0.153290;,
-0.452700;0.056950;-0.150324;,
-0.503956;0.058127;0.161629;,
-0.506774;0.059189;0.157927;,
-0.456242;0.058127;0.161629;,
-0.452700;0.056950;0.158663;,
-0.503956;0.058127;0.180720;,
-0.506774;0.059189;0.184422;,
-0.456242;0.058127;0.180720;,
-0.452700;0.056950;0.183691;,
0.309365;0.520964;-0.177150;,
0.003986;0.487139;-0.177150;,
0.309365;0.511427;-0.177150;,
0.003986;0.477602;-0.177150;,
-0.301394;0.520964;-0.177150;,
-0.301394;0.511427;-0.177150;,
0.003986;0.477602;-0.172380;,
0.003986;0.487139;-0.172380;,
0.309365;0.511427;-0.172380;,
0.309365;0.520964;-0.172380;,
-0.301394;0.511427;-0.172380;,
-0.301394;0.520964;-0.172380;,
0.003986;0.477602;-0.177150;,
0.003986;0.477602;-0.172380;,
0.309365;0.511427;-0.177150;,
0.309365;0.511427;-0.172380;,
-0.301394;0.511427;-0.177150;,
-0.301394;0.511427;-0.172380;,
-0.301394;0.520964;-0.177150;,
-0.301394;0.520964;-0.172380;,
-0.301394;0.511427;-0.177150;,
-0.301394;0.511427;-0.172380;,
0.003986;0.487139;-0.177150;,
0.003986;0.487139;-0.172380;,
-0.301394;0.520964;-0.177150;,
-0.301394;0.520964;-0.172380;,
0.309365;0.520964;-0.177150;,
0.309365;0.520964;-0.172380;,
0.309365;0.511427;-0.177150;,
0.309365;0.511427;-0.172380;,
0.309365;0.520964;-0.177150;,
0.309365;0.520964;-0.172380;,
0.309365;0.520964;0.180720;,
0.003986;0.487139;0.180720;,
0.309365;0.511427;0.180720;,
0.003986;0.477602;0.180720;,
-0.301394;0.520964;0.180720;,
-0.301394;0.511427;0.180720;,
0.003986;0.477602;0.185490;,
0.003986;0.487139;0.185490;,
0.309365;0.511427;0.185490;,
0.309365;0.520964;0.185490;,
-0.301394;0.511427;0.185490;,
-0.301394;0.520964;0.185490;,
0.003986;0.477602;0.180720;,
0.003986;0.477602;0.185490;,
0.309365;0.511427;0.180720;,
0.309365;0.511427;0.185490;,
-0.301394;0.511427;0.180720;,
-0.301394;0.511427;0.185490;,
-0.301394;0.520964;0.180720;,
-0.301394;0.520964;0.185490;,
-0.301394;0.511427;0.180720;,
-0.301394;0.511427;0.185490;,
0.003986;0.487139;0.180720;,
0.003986;0.487139;0.185490;,
-0.301394;0.520964;0.180720;,
-0.301394;0.520964;0.185490;,
0.309365;0.520964;0.180720;,
0.309365;0.520964;0.185490;,
0.309365;0.511427;0.180720;,
0.309365;0.511427;0.185490;,
0.309365;0.520964;0.180720;,
0.309365;0.520964;0.185490;;

 284;
3;2,1,0;,
3;1,2,3;,
3;6,5,4;,
3;5,6,7;,
3;10,9,8;,
3;9,10,11;,
3;14,13,12;,
3;13,14,15;,
3;18,17,16;,
3;17,18,19;,
3;22,21,20;,
3;21,22,23;,
3;26,25,24;,
3;25,26,27;,
3;30,29,28;,
3;29,30,31;,
3;34,33,32;,
3;33,34,35;,
3;38,37,36;,
3;37,38,39;,
3;42,41,40;,
3;41,42,43;,
3;46,45,44;,
3;45,46,47;,
3;50,49,48;,
3;49,50,51;,
3;54,53,52;,
3;53,54,55;,
3;58,57,56;,
3;57,58,59;,
3;62,61,60;,
3;61,62,63;,
3;66,65,64;,
3;65,66,67;,
3;70,69,68;,
3;69,70,71;,
3;74,73,72;,
3;73,74,75;,
3;78,77,76;,
3;77,78,79;,
3;82,81,80;,
3;81,82,83;,
3;86,85,84;,
3;85,86,87;,
3;90,89,88;,
3;89,90,91;,
3;94,93,92;,
3;93,94,95;,
3;98,97,96;,
3;97,98,99;,
3;102,101,100;,
3;101,102,103;,
3;106,105,104;,
3;105,106,107;,
3;110,109,108;,
3;109,110,111;,
3;114,113,112;,
3;113,114,115;,
3;118,117,116;,
3;117,118,119;,
3;122,121,120;,
3;121,122,123;,
3;126,125,124;,
3;125,126,127;,
3;130,129,128;,
3;129,130,131;,
3;134,133,132;,
3;133,134,135;,
3;138,137,136;,
3;137,138,139;,
3;142,141,140;,
3;141,142,143;,
3;146,145,144;,
3;145,146,147;,
3;150,149,148;,
3;149,150,151;,
3;154,153,152;,
3;153,154,155;,
3;158,157,156;,
3;157,158,159;,
3;162,161,160;,
3;161,162,163;,
3;166,165,164;,
3;165,166,167;,
3;170,169,168;,
3;169,170,171;,
3;174,173,172;,
3;173,174,175;,
3;178,177,176;,
3;177,178,179;,
3;182,181,180;,
3;181,182,183;,
3;186,185,184;,
3;185,186,187;,
3;190,189,188;,
3;189,190,191;,
3;194,193,192;,
3;193,194,195;,
3;198,197,196;,
3;197,198,199;,
3;202,201,200;,
3;201,202,203;,
3;206,205,204;,
3;205,206,207;,
3;210,209,208;,
3;209,210,211;,
3;214,213,212;,
3;213,214,215;,
3;218,217,216;,
3;217,218,219;,
3;222,221,220;,
3;221,222,223;,
3;226,225,224;,
3;225,226,227;,
3;230,229,228;,
3;229,230,231;,
3;234,233,232;,
3;233,234,235;,
3;238,237,236;,
3;237,238,239;,
3;242,241,240;,
3;241,242,243;,
3;246,245,244;,
3;245,246,247;,
3;250,249,248;,
3;249,250,251;,
3;254,253,252;,
3;253,254,255;,
3;258,257,256;,
3;257,258,259;,
3;262,261,260;,
3;261,262,263;,
3;266,265,264;,
3;265,266,267;,
3;270,269,268;,
3;269,270,271;,
3;274,273,272;,
3;273,274,275;,
3;278,277,276;,
3;277,278,279;,
3;282,281,280;,
3;281,282,283;,
3;286,285,284;,
3;285,286,287;,
3;290,289,288;,
3;289,290,291;,
3;294,293,292;,
3;293,294,295;,
3;298,297,296;,
3;297,298,299;,
3;302,301,300;,
3;301,302,303;,
3;306,305,304;,
3;305,306,307;,
3;310,309,308;,
3;309,310,311;,
3;314,313,312;,
3;313,314,315;,
3;318,317,316;,
3;317,318,319;,
3;322,321,320;,
3;321,322,323;,
3;326,325,324;,
3;325,326,327;,
3;330,329,328;,
3;329,330,331;,
3;334,333,332;,
3;333,334,335;,
3;338,337,336;,
3;337,338,339;,
3;342,341,340;,
3;341,342,343;,
3;346,345,344;,
3;345,346,347;,
3;350,349,348;,
3;349,350,351;,
3;354,353,352;,
3;353,354,355;,
3;358,357,356;,
3;357,358,359;,
3;362,361,360;,
3;361,362,363;,
3;366,365,364;,
3;365,366,367;,
3;370,369,368;,
3;369,370,371;,
3;374,373,372;,
3;373,374,375;,
3;378,377,376;,
3;377,378,379;,
3;382,381,380;,
3;381,382,383;,
3;386,385,384;,
3;385,386,387;,
3;390,389,388;,
3;389,390,391;,
3;394,393,392;,
3;393,394,395;,
3;398,397,396;,
3;397,398,399;,
3;402,401,400;,
3;401,402,403;,
3;406,405,404;,
3;405,406,407;,
3;410,409,408;,
3;409,410,411;,
3;414,413,412;,
3;413,414,415;,
3;418,417,416;,
3;417,418,419;,
3;422,421,420;,
3;421,422,423;,
3;426,425,424;,
3;425,426,427;,
3;424,429,428;,
3;429,424,425;,
3;428,431,430;,
3;431,428,429;,
3;430,427,426;,
3;427,430,431;,
3;434,433,432;,
3;433,434,435;,
3;432,437,436;,
3;437,432,433;,
3;436,439,438;,
3;439,436,437;,
3;438,435,434;,
3;435,438,439;,
3;442,441,440;,
3;441,442,443;,
3;440,445,444;,
3;445,440,441;,
3;444,447,446;,
3;447,444,445;,
3;446,443,442;,
3;443,446,447;,
3;450,449,448;,
3;449,450,451;,
3;448,453,452;,
3;453,448,449;,
3;452,455,454;,
3;455,452,453;,
3;454,451,450;,
3;451,454,455;,
3;458,457,456;,
3;457,458,459;,
3;459,460,457;,
3;460,459,461;,
3;464,463,462;,
3;463,464,465;,
3;462,467,466;,
3;467,462,463;,
3;470,469,468;,
3;469,470,471;,
3;468,473,472;,
3;473,468,469;,
3;476,475,474;,
3;475,476,477;,
3;480,479,478;,
3;479,480,481;,
3;478,483,482;,
3;483,478,479;,
3;486,485,484;,
3;485,486,487;,
3;490,489,488;,
3;489,490,491;,
3;491,492,489;,
3;492,491,493;,
3;496,495,494;,
3;495,496,497;,
3;494,499,498;,
3;499,494,495;,
3;502,501,500;,
3;501,502,503;,
3;500,505,504;,
3;505,500,501;,
3;508,507,506;,
3;507,508,509;,
3;512,511,510;,
3;511,512,513;,
3;510,515,514;,
3;515,510,511;,
3;518,517,516;,
3;517,518,519;;
MeshMaterialList {
 1;
 284;
  0,
  0,
  0,
  0,
  0,
  0,
  0,
  0,
  0,
  0,
  0,
  0,
  0,
  0,
  0,
  0,
  0,
  0,
  0,
  0,
  0,
  0,
  0,
  0,
  0,
  0,
  0,
  0,
  0,
  0,
  0,
  0,
  0,
  0,
  0,
  0,
  0,
  0,
  0,
  0,
  0,
  0,
  0,
  0,
  0,
  0,
  0,
  0,
  0,
  0,
  0,
  0,
  0,
  0,
  0,
  0,
  0,
  0,
  0,
  0,
  0,
  0,
  0,
  0,
  0,
  0,
  0,
  0,
  0,
  0,
  0,
  0,
  0,
  0,
  0,
  0,
  0,
  0,
  0,
  0,
  0,
  0,
  0,
  0,
  0,
  0,
  0,
  0,
  0,
  0,
  0,
  0,
  0,
  0,
  0,
  0,
  0,
  0,
  0,
  0,
  0,
  0,
  0,
  0,
  0,
  0,
  0,
  0,
  0,
  0,
  0,
  0,
  0,
  0,
  0,
  0,
  0,
  0,
  0,
  0,
  0,
  0,
  0,
  0,
  0,
  0,
  0,
  0,
  0,
  0,
  0,
  0,
  0,
  0,
  0,
  0,
  0,
  0,
  0,
  0,
  0,
  0,
  0,
  0,
  0,
  0,
  0,
  0,
  0,
  0,
  0,
  0,
  0,
  0,
  0,
  0,
  0,
  0,
  0,
  0,
  0,
  0,
  0,
  0,
  0,
  0,
  0,
  0,
  0,
  0,
  0,
  0,
  0,
  0,
  0,
  0,
  0,
  0,
  0,
  0,
  0,
  0,
  0,
  0,
  0,
  0,
  0,
  0,
  0,
  0,
  0,
  0,
  0,
  0,
  0,
  0,
  0,
  0,
  0,
  0,
  0,
  0,
  0,
  0,
  0,
  0,
  0,
  0,
  0,
  0,
  0,
  0,
  0,
  0,
  0,
  0,
  0,
  0,
  0,
  0,
  0,
  0,
  0,
  0,
  0,
  0,
  0,
  0,
  0,
  0,
  0,
  0,
  0,
  0,
  0,
  0,
  0,
  0,
  0,
  0,
  0,
  0,
  0,
  0,
  0,
  0,
  0,
  0,
  0,
  0,
  0,
  0,
  0,
  0,
  0,
  0,
  0,
  0,
  0,
  0,
  0,
  0,
  0,
  0,
  0,
  0,
  0,
  0,
  0,
  0,
  0,
  0,
  0,
  0,
  0,
  0,
  0,
  0,
  0,
  0,
  0,
  0,
  0,
  0;;
Material mat_ladder_5_1 {
 1.000000;1.000000;1.000000;1.000000;;
11.313708;
 0.000000;0.000000;0.000000;;
 0.000000;0.000000;0.000000;;
TextureFilename {
"garage\ladder.tga";
}
 }
}

 MeshNormals {
 520;
0.000000;0.000000;-1.000000;,
0.000000;0.000000;-1.000000;,
0.134024;0.818968;-0.557969;,
-0.217171;0.871057;-0.440563;,
-0.129708;0.927471;0.350675;,
0.000000;0.000000;1.000000;,
0.000000;0.000000;1.000000;,
0.000000;0.000000;1.000000;,
-0.355637;-0.533651;-0.767294;,
-0.558819;-0.829290;0.000000;,
0.016897;-0.896448;-0.442828;,
0.003126;-0.458363;0.888760;,
-0.937247;-0.348666;0.000000;,
-0.937247;-0.348666;0.000000;,
-0.937247;-0.348666;0.000000;,
-0.937247;-0.348666;0.000000;,
0.741268;0.671209;0.000000;,
0.370634;0.928779;0.000000;,
0.000000;1.000000;0.000000;,
0.000000;1.000000;0.000000;,
0.134024;0.818968;-0.557969;,
0.301216;0.950247;-0.079373;,
0.741268;0.671209;0.000000;,
0.370634;0.928779;0.000000;,
0.000000;-1.000000;0.000000;,
0.000000;-1.000000;0.000000;,
0.000000;-1.000000;0.000000;,
0.000000;-1.000000;0.000000;,
0.000000;1.000000;0.000000;,
0.000000;1.000000;0.000000;,
0.000000;1.000000;0.000000;,
0.000000;1.000000;0.000000;,
-1.000000;0.000000;0.000000;,
-1.000000;0.000000;0.000000;,
-1.000000;0.000000;0.000000;,
-1.000000;0.000000;0.000000;,
0.000000;0.000000;-1.000000;,
0.000000;0.000000;-1.000000;,
0.000000;0.000000;-1.000000;,
0.000000;0.000000;-1.000000;,
1.000000;0.000000;0.000000;,
1.000000;0.000000;0.000000;,
1.000000;0.000000;0.000000;,
1.000000;0.000000;0.000000;,
0.000000;0.000000;1.000000;,
0.000000;0.000000;1.000000;,
0.000000;0.000000;1.000000;,
0.000000;0.000000;1.000000;,
0.000000;0.000000;-1.000000;,
0.000000;0.000000;-1.000000;,
0.134029;0.819001;-0.557918;,
-0.217171;0.871057;-0.440564;,
-0.129710;0.927438;0.350763;,
0.000000;0.000000;1.000000;,
0.000000;0.000000;1.000000;,
0.000000;0.000000;1.000000;,
-0.355635;-0.533652;-0.767294;,
-0.558819;-0.829290;0.000000;,
0.016852;-0.896440;-0.442845;,
0.003127;-0.458362;0.888760;,
-0.937247;-0.348666;0.000000;,
-0.937247;-0.348666;0.000000;,
-0.937247;-0.348666;0.000000;,
-0.937247;-0.348666;0.000000;,
0.741268;0.671209;0.000000;,
0.370634;0.928779;0.000000;,
0.000000;1.000000;0.000000;,
0.000000;1.000000;0.000000;,
0.134029;0.819001;-0.557918;,
0.301210;0.950258;-0.079263;,
0.741268;0.671209;0.000000;,
0.370634;0.928779;0.000000;,
0.000000;-1.000000;0.000000;,
0.000000;-1.000000;0.000000;,
0.000000;-1.000000;0.000000;,
0.000000;-1.000000;0.000000;,
0.000000;1.000000;0.000000;,
0.000000;1.000000;0.000000;,
0.000000;1.000000;0.000000;,
0.000000;1.000000;0.000000;,
-1.000000;0.000000;0.000000;,
-1.000000;0.000000;0.000000;,
-1.000000;0.000000;0.000000;,
-1.000000;0.000000;0.000000;,
0.000000;0.000000;-1.000000;,
0.000000;0.000000;-1.000000;,
0.000000;0.000000;-1.000000;,
0.000000;0.000000;-1.000000;,
1.000000;0.000000;0.000000;,
1.000000;0.000000;0.000000;,
1.000000;0.000000;0.000000;,
1.000000;0.000000;0.000000;,
0.000000;0.000000;1.000000;,
0.000000;0.000000;1.000000;,
0.000000;0.000000;1.000000;,
0.000000;0.000000;1.000000;,
0.000000;-1.000000;0.000000;,
0.000000;-1.000000;0.000000;,
0.000000;-1.000000;0.000000;,
0.000000;-1.000000;0.000000;,
0.000000;1.000000;0.000000;,
0.000000;1.000000;0.000000;,
0.000000;1.000000;0.000000;,
0.000000;1.000000;0.000000;,
-1.000000;0.000000;0.000000;,
-1.000000;0.000000;0.000000;,
-1.000000;0.000000;0.000000;,
-1.000000;0.000000;0.000000;,
0.000000;0.000000;-1.000000;,
0.000000;0.000000;-1.000000;,
0.000000;0.000000;-1.000000;,
0.000000;0.000000;-1.000000;,
1.000000;0.000000;0.000000;,
1.000000;0.000000;0.000000;,
1.000000;0.000000;0.000000;,
1.000000;0.000000;0.000000;,
0.000000;0.000000;1.000000;,
0.000000;0.000000;1.000000;,
0.000000;0.000000;1.000000;,
0.000000;0.000000;1.000000;,
0.000000;-1.000000;0.000000;,
0.000000;-1.000000;0.000000;,
0.000000;-1.000000;0.000000;,
0.000000;-1.000000;0.000000;,
0.000000;1.000000;0.000000;,
0.000000;1.000000;0.000000;,
0.000000;1.000000;0.000000;,
0.000000;1.000000;0.000000;,
-1.000000;0.000000;0.000000;,
-1.000000;0.000000;0.000000;,
-1.000000;0.000000;0.000000;,
-1.000000;0.000000;0.000000;,
0.000000;0.000000;-1.000000;,
0.000000;0.000000;-1.000000;,
0.000000;0.000000;-1.000000;,
0.000000;0.000000;-1.000000;,
1.000000;0.000000;0.000000;,
1.000000;0.000000;0.000000;,
1.000000;0.000000;0.000000;,
1.000000;0.000000;0.000000;,
0.000000;0.000000;1.000000;,
0.000000;0.000000;1.000000;,
0.000000;0.000000;1.000000;,
0.000000;0.000000;1.000000;,
0.000000;-1.000000;0.000000;,
0.000000;-1.000000;0.000000;,
0.000000;-1.000000;0.000000;,
0.000000;-1.000000;0.000000;,
0.000000;1.000000;0.000000;,
0.000000;1.000000;0.000000;,
0.000000;1.000000;0.000000;,
0.000000;1.000000;0.000000;,
-1.000000;0.000000;0.000000;,
-1.000000;0.000000;0.000000;,
-1.000000;0.000000;0.000000;,
-1.000000;0.000000;0.000000;,
0.000000;0.000000;-1.000000;,
0.000000;0.000000;-1.000000;,
0.000000;0.000000;-1.000000;,
0.000000;0.000000;-1.000000;,
1.000000;0.000000;0.000000;,
1.000000;0.000000;0.000000;,
1.000000;0.000000;0.000000;,
1.000000;0.000000;0.000000;,
0.000000;0.000000;1.000000;,
0.000000;0.000000;1.000000;,
0.000000;0.000000;1.000000;,
0.000000;0.000000;1.000000;,
0.000000;-1.000000;0.000000;,
0.000000;-1.000000;0.000000;,
0.000000;-1.000000;0.000000;,
0.000000;-1.000000;0.000000;,
0.000000;1.000000;0.000000;,
0.000000;1.000000;0.000000;,
0.000000;1.000000;0.000000;,
0.000000;1.000000;0.000000;,
-1.000000;0.000000;0.000000;,
-1.000000;0.000000;0.000000;,
-1.000000;0.000000;0.000000;,
-1.000000;0.000000;0.000000;,
0.000000;0.000000;-1.000000;,
0.000000;0.000000;-1.000000;,
0.000000;0.000000;-1.000000;,
0.000000;0.000000;-1.000000;,
1.000000;0.000000;0.000000;,
1.000000;0.000000;0.000000;,
1.000000;0.000000;0.000000;,
1.000000;0.000000;0.000000;,
0.000000;0.000000;1.000000;,
0.000000;0.000000;1.000000;,
0.000000;0.000000;1.000000;,
0.000000;0.000000;1.000000;,
0.117214;0.932398;-0.341898;,
0.000000;0.000000;-1.000000;,
0.000000;0.000000;-1.000000;,
0.000000;0.000000;-1.000000;,
0.000000;0.000000;1.000000;,
0.000000;0.000000;1.000000;,
-0.339306;0.806490;0.484196;,
0.196920;0.882410;0.427289;,
-0.013194;-0.715280;0.698713;,
0.285955;-0.731160;0.619382;,
-0.007601;-0.712609;-0.701520;,
0.748592;-0.663031;0.000000;,
0.937247;-0.348666;0.000000;,
0.937247;-0.348666;0.000000;,
0.937247;-0.348666;0.000000;,
0.937247;-0.348666;0.000000;,
0.000000;1.000000;0.000000;,
-0.370634;0.928779;0.000000;,
0.000000;1.000000;0.000000;,
-0.741268;0.671209;0.000000;,
-0.370634;0.928779;0.000000;,
-0.339306;0.806490;0.484196;,
-0.741268;0.671209;0.000000;,
-0.072469;0.993646;0.086115;,
0.117225;0.932338;-0.342058;,
0.000000;0.000000;-1.000000;,
0.000000;0.000000;-1.000000;,
0.000000;0.000000;-1.000000;,
0.000000;0.000000;1.000000;,
0.000000;0.000000;1.000000;,
-0.339308;0.806562;0.484075;,
0.196922;0.882496;0.427110;,
-0.013194;-0.715280;0.698713;,
0.285918;-0.731182;0.619374;,
-0.007565;-0.712592;-0.701538;,
0.748592;-0.663031;0.000000;,
0.937247;-0.348666;0.000000;,
0.937247;-0.348666;0.000000;,
0.937247;-0.348666;0.000000;,
0.937247;-0.348666;0.000000;,
0.000000;1.000000;0.000000;,
-0.370634;0.928779;0.000000;,
0.000000;1.000000;0.000000;,
-0.741268;0.671209;0.000000;,
-0.370634;0.928779;0.000000;,
-0.339308;0.806562;0.484075;,
-0.741268;0.671209;0.000000;,
-0.072469;0.993646;0.086115;,
0.000000;-1.000000;0.000000;,
0.000000;-1.000000;0.000000;,
0.000000;-1.000000;0.000000;,
0.000000;-1.000000;0.000000;,
0.000000;1.000000;0.000000;,
0.000000;1.000000;0.000000;,
0.000000;1.000000;0.000000;,
0.000000;1.000000;0.000000;,
1.000000;0.000000;0.000000;,
1.000000;0.000000;0.000000;,
1.000000;0.000000;0.000000;,
1.000000;0.000000;0.000000;,
0.000000;0.000000;-1.000000;,
0.000000;0.000000;-1.000000;,
0.000000;0.000000;-1.000000;,
0.000000;0.000000;-1.000000;,
-1.000000;0.000000;0.000000;,
-1.000000;0.000000;0.000000;,
-1.000000;0.000000;0.000000;,
-1.000000;0.000000;0.000000;,
0.000000;0.000000;1.000000;,
0.000000;0.000000;1.000000;,
0.000000;0.000000;1.000000;,
0.000000;0.000000;1.000000;,
0.000000;-1.000000;0.000000;,
0.000000;-1.000000;0.000000;,
0.000000;-1.000000;0.000000;,
0.000000;-1.000000;0.000000;,
0.000000;1.000000;0.000000;,
0.000000;1.000000;0.000000;,
0.000000;1.000000;0.000000;,
0.000000;1.000000;0.000000;,
1.000000;0.000000;0.000000;,
1.000000;0.000000;0.000000;,
1.000000;0.000000;0.000000;,
1.000000;0.000000;0.000000;,
0.000000;0.000000;-1.000000;,
0.000000;0.000000;-1.000000;,
0.000000;0.000000;-1.000000;,
0.000000;0.000000;-1.000000;,
-1.000000;0.000000;0.000000;,
-1.000000;0.000000;0.000000;,
-1.000000;0.000000;0.000000;,
-1.000000;0.000000;0.000000;,
0.000000;0.000000;1.000000;,
0.000000;0.000000;1.000000;,
0.000000;0.000000;1.000000;,
0.000000;0.000000;1.000000;,
0.000000;-1.000000;0.000000;,
0.000000;-1.000000;0.000000;,
0.000000;-1.000000;0.000000;,
0.000000;-1.000000;0.000000;,
0.000000;1.000000;0.000000;,
0.000000;1.000000;0.000000;,
0.000000;1.000000;0.000000;,
0.000000;1.000000;0.000000;,
1.000000;0.000000;0.000000;,
1.000000;0.000000;0.000000;,
1.000000;0.000000;0.000000;,
1.000000;0.000000;0.000000;,
0.000000;0.000000;-1.000000;,
0.000000;0.000000;-1.000000;,
0.000000;0.000000;-1.000000;,
0.000000;0.000000;-1.000000;,
-1.000000;0.000000;0.000000;,
-1.000000;0.000000;0.000000;,
-1.000000;0.000000;0.000000;,
-1.000000;0.000000;0.000000;,
0.000000;0.000000;1.000000;,
0.000000;0.000000;1.000000;,
0.000000;0.000000;1.000000;,
0.000000;0.000000;1.000000;,
0.000000;-1.000000;0.000000;,
0.000000;-1.000000;0.000000;,
0.000000;-1.000000;0.000000;,
0.000000;-1.000000;0.000000;,
0.000000;1.000000;0.000000;,
0.000000;1.000000;0.000000;,
0.000000;1.000000;0.000000;,
0.000000;1.000000;0.000000;,
1.000000;0.000000;0.000000;,
1.000000;0.000000;0.000000;,
1.000000;0.000000;0.000000;,
1.000000;0.000000;0.000000;,
0.000000;0.000000;-1.000000;,
0.000000;0.000000;-1.000000;,
0.000000;0.000000;-1.000000;,
0.000000;0.000000;-1.000000;,
-1.000000;0.000000;0.000000;,
-1.000000;0.000000;0.000000;,
-1.000000;0.000000;0.000000;,
-1.000000;0.000000;0.000000;,
0.000000;0.000000;1.000000;,
0.000000;0.000000;1.000000;,
0.000000;0.000000;1.000000;,
0.000000;0.000000;1.000000;,
0.000000;-1.000000;0.000000;,
0.000000;-1.000000;0.000000;,
0.000000;-1.000000;0.000000;,
0.000000;-1.000000;0.000000;,
0.000000;1.000000;0.000000;,
0.000000;1.000000;0.000000;,
0.000000;1.000000;0.000000;,
0.000000;1.000000;0.000000;,
1.000000;0.000000;0.000000;,
1.000000;0.000000;0.000000;,
1.000000;0.000000;0.000000;,
1.000000;0.000000;0.000000;,
0.000000;0.000000;-1.000000;,
0.000000;0.000000;-1.000000;,
0.000000;0.000000;-1.000000;,
0.000000;0.000000;-1.000000;,
-1.000000;0.000000;0.000000;,
-1.000000;0.000000;0.000000;,
-1.000000;0.000000;0.000000;,
-1.000000;0.000000;0.000000;,
0.000000;0.000000;1.000000;,
0.000000;0.000000;1.000000;,
0.000000;0.000000;1.000000;,
0.000000;0.000000;1.000000;,
-0.689837;0.634737;-0.348188;,
-0.355637;-0.533651;-0.767294;,
-0.005400;-0.015681;-0.999862;,
0.016897;-0.896448;-0.442828;,
-0.446609;0.640017;0.625235;,
-0.558819;-0.829290;0.000000;,
-0.689837;0.634737;-0.348188;,
-0.355637;-0.533651;-0.767294;,
0.358958;0.893181;0.270881;,
0.003126;-0.458363;0.888760;,
-0.446609;0.640017;0.625235;,
0.003321;-0.000519;0.999994;,
0.039075;0.995791;0.082911;,
0.929108;0.369809;0.000000;,
0.358958;0.893181;0.270881;,
0.929108;0.369809;0.000000;,
-0.689874;0.634737;-0.348114;,
-0.355635;-0.533652;-0.767294;,
-0.005398;-0.015683;-0.999862;,
0.016852;-0.896440;-0.442845;,
-0.446618;0.640022;0.625223;,
-0.558819;-0.829290;0.000000;,
-0.689874;0.634737;-0.348114;,
-0.355635;-0.533652;-0.767294;,
0.358923;0.893169;0.270969;,
0.003127;-0.458362;0.888760;,
-0.446618;0.640022;0.625223;,
0.003419;-0.000343;0.999994;,
0.039071;0.995782;0.083022;,
0.929108;0.369809;0.000000;,
0.358923;0.893169;0.270969;,
0.929108;0.369809;0.000000;,
-0.374041;0.888441;-0.266018;,
-0.007601;-0.712609;-0.701520;,
0.431878;0.658658;-0.616159;,
-0.003143;-0.002077;-0.999993;,
-0.061985;0.995016;-0.078104;,
-0.940017;0.341128;0.000000;,
-0.374041;0.888441;-0.266018;,
-0.940017;0.341128;0.000000;,
0.677022;0.654667;0.336232;,
0.285955;-0.731160;0.619382;,
0.004909;-0.015608;0.999866;,
-0.013194;-0.715280;0.698713;,
0.431878;0.658658;-0.616159;,
0.748592;-0.663031;0.000000;,
0.677022;0.654667;0.336232;,
0.285955;-0.731160;0.619382;,
-0.374017;0.888412;-0.266150;,
-0.007565;-0.712592;-0.701538;,
0.431878;0.658583;-0.616238;,
-0.003141;-0.001940;-0.999993;,
-0.061977;0.995017;-0.078098;,
-0.940017;0.341128;0.000000;,
-0.374017;0.888412;-0.266150;,
-0.940017;0.341128;0.000000;,
0.677030;0.654739;0.336076;,
0.285918;-0.731182;0.619374;,
0.004856;-0.015658;0.999866;,
-0.013194;-0.715280;0.698713;,
0.431878;0.658583;-0.616238;,
0.748592;-0.663031;0.000000;,
0.677030;0.654739;0.336076;,
0.285918;-0.731182;0.619374;,
-0.217171;0.871057;-0.440563;,
-0.689837;0.634737;-0.348188;,
0.134024;0.818968;-0.557969;,
0.039075;0.995791;0.082911;,
-0.129708;0.927471;0.350675;,
-0.446609;0.640017;0.625235;,
0.301216;0.950247;-0.079373;,
0.358958;0.893181;0.270881;,
-0.217171;0.871057;-0.440564;,
-0.689874;0.634737;-0.348114;,
0.134029;0.819001;-0.557918;,
0.039071;0.995782;0.083022;,
-0.129710;0.927438;0.350763;,
-0.446618;0.640022;0.625223;,
0.301210;0.950258;-0.079263;,
0.358923;0.893169;0.270969;,
-0.072469;0.993646;0.086115;,
-0.374041;0.888441;-0.266018;,
0.117214;0.932398;-0.341898;,
0.431878;0.658658;-0.616159;,
-0.339306;0.806490;0.484196;,
-0.061985;0.995016;-0.078104;,
0.196920;0.882410;0.427289;,
0.677022;0.654667;0.336232;,
-0.072469;0.993646;0.086115;,
-0.374017;0.888412;-0.266150;,
0.117225;0.932338;-0.342058;,
0.431878;0.658583;-0.616238;,
-0.339308;0.806562;0.484075;,
-0.061977;0.995017;-0.078098;,
0.196922;0.882496;0.427110;,
0.677030;0.654739;0.336076;,
0.000000;0.000000;-1.000000;,
0.000000;0.000000;-1.000000;,
0.000000;0.000000;-1.000000;,
0.000000;0.000000;-1.000000;,
0.000000;0.000000;-1.000000;,
0.000000;0.000000;-1.000000;,
0.000000;0.000000;1.000000;,
0.000000;0.000000;1.000000;,
0.000000;0.000000;1.000000;,
0.000000;0.000000;1.000000;,
0.000000;0.000000;1.000000;,
0.000000;0.000000;1.000000;,
-0.036896;-0.999319;0.000000;,
0.036896;-0.999319;0.000000;,
0.523131;-0.852252;0.000000;,
0.904664;-0.426126;0.000000;,
-0.904664;-0.426126;0.000000;,
-0.523131;-0.852252;0.000000;,
-1.000000;0.000000;0.000000;,
-1.000000;0.000000;0.000000;,
-0.904664;-0.426126;0.000000;,
-0.523131;-0.852252;0.000000;,
-0.036896;0.999319;0.000000;,
0.036896;0.999319;0.000000;,
0.110091;0.993922;0.000000;,
0.110091;0.993922;0.000000;,
-0.110091;0.993922;0.000000;,
-0.110091;0.993922;0.000000;,
0.523131;-0.852252;0.000000;,
0.904664;-0.426126;0.000000;,
1.000000;0.000000;0.000000;,
1.000000;0.000000;0.000000;,
0.000000;0.000000;-1.000000;,
0.000000;0.000000;-1.000000;,
0.000000;0.000000;-1.000000;,
0.000000;0.000000;-1.000000;,
0.000000;0.000000;-1.000000;,
0.000000;0.000000;-1.000000;,
0.000000;0.000000;1.000000;,
0.000000;0.000000;1.000000;,
0.000000;0.000000;1.000000;,
0.000000;0.000000;1.000000;,
0.000000;0.000000;1.000000;,
0.000000;0.000000;1.000000;,
-0.036896;-0.999319;0.000000;,
0.036896;-0.999319;0.000000;,
0.523131;-0.852252;0.000000;,
0.904664;-0.426126;0.000000;,
-0.904664;-0.426126;0.000000;,
-0.523131;-0.852252;0.000000;,
-1.000000;0.000000;0.000000;,
-1.000000;0.000000;0.000000;,
-0.904664;-0.426126;0.000000;,
-0.523131;-0.852252;0.000000;,
-0.036896;0.999319;0.000000;,
0.036896;0.999319;0.000000;,
0.110091;0.993922;0.000000;,
0.110091;0.993922;0.000000;,
-0.110091;0.993922;0.000000;,
-0.110091;0.993922;0.000000;,
0.523131;-0.852252;0.000000;,
0.904664;-0.426126;0.000000;,
1.000000;0.000000;0.000000;,
1.000000;0.000000;0.000000;;

 284;
3;2,1,0;,
3;1,2,3;,
3;6,5,4;,
3;5,6,7;,
3;10,9,8;,
3;9,10,11;,
3;14,13,12;,
3;13,14,15;,
3;18,17,16;,
3;17,18,19;,
3;22,21,20;,
3;21,22,23;,
3;26,25,24;,
3;25,26,27;,
3;30,29,28;,
3;29,30,31;,
3;34,33,32;,
3;33,34,35;,
3;38,37,36;,
3;37,38,39;,
3;42,41,40;,
3;41,42,43;,
3;46,45,44;,
3;45,46,47;,
3;50,49,48;,
3;49,50,51;,
3;54,53,52;,
3;53,54,55;,
3;58,57,56;,
3;57,58,59;,
3;62,61,60;,
3;61,62,63;,
3;66,65,64;,
3;65,66,67;,
3;70,69,68;,
3;69,70,71;,
3;74,73,72;,
3;73,74,75;,
3;78,77,76;,
3;77,78,79;,
3;82,81,80;,
3;81,82,83;,
3;86,85,84;,
3;85,86,87;,
3;90,89,88;,
3;89,90,91;,
3;94,93,92;,
3;93,94,95;,
3;98,97,96;,
3;97,98,99;,
3;102,101,100;,
3;101,102,103;,
3;106,105,104;,
3;105,106,107;,
3;110,109,108;,
3;109,110,111;,
3;114,113,112;,
3;113,114,115;,
3;118,117,116;,
3;117,118,119;,
3;122,121,120;,
3;121,122,123;,
3;126,125,124;,
3;125,126,127;,
3;130,129,128;,
3;129,130,131;,
3;134,133,132;,
3;133,134,135;,
3;138,137,136;,
3;137,138,139;,
3;142,141,140;,
3;141,142,143;,
3;146,145,144;,
3;145,146,147;,
3;150,149,148;,
3;149,150,151;,
3;154,153,152;,
3;153,154,155;,
3;158,157,156;,
3;157,158,159;,
3;162,161,160;,
3;161,162,163;,
3;166,165,164;,
3;165,166,167;,
3;170,169,168;,
3;169,170,171;,
3;174,173,172;,
3;173,174,175;,
3;178,177,176;,
3;177,178,179;,
3;182,181,180;,
3;181,182,183;,
3;186,185,184;,
3;185,186,187;,
3;190,189,188;,
3;189,190,191;,
3;194,193,192;,
3;193,194,195;,
3;198,197,196;,
3;197,198,199;,
3;202,201,200;,
3;201,202,203;,
3;206,205,204;,
3;205,206,207;,
3;210,209,208;,
3;209,210,211;,
3;214,213,212;,
3;213,214,215;,
3;218,217,216;,
3;217,218,219;,
3;222,221,220;,
3;221,222,223;,
3;226,225,224;,
3;225,226,227;,
3;230,229,228;,
3;229,230,231;,
3;234,233,232;,
3;233,234,235;,
3;238,237,236;,
3;237,238,239;,
3;242,241,240;,
3;241,242,243;,
3;246,245,244;,
3;245,246,247;,
3;250,249,248;,
3;249,250,251;,
3;254,253,252;,
3;253,254,255;,
3;258,257,256;,
3;257,258,259;,
3;262,261,260;,
3;261,262,263;,
3;266,265,264;,
3;265,266,267;,
3;270,269,268;,
3;269,270,271;,
3;274,273,272;,
3;273,274,275;,
3;278,277,276;,
3;277,278,279;,
3;282,281,280;,
3;281,282,283;,
3;286,285,284;,
3;285,286,287;,
3;290,289,288;,
3;289,290,291;,
3;294,293,292;,
3;293,294,295;,
3;298,297,296;,
3;297,298,299;,
3;302,301,300;,
3;301,302,303;,
3;306,305,304;,
3;305,306,307;,
3;310,309,308;,
3;309,310,311;,
3;314,313,312;,
3;313,314,315;,
3;318,317,316;,
3;317,318,319;,
3;322,321,320;,
3;321,322,323;,
3;326,325,324;,
3;325,326,327;,
3;330,329,328;,
3;329,330,331;,
3;334,333,332;,
3;333,334,335;,
3;338,337,336;,
3;337,338,339;,
3;342,341,340;,
3;341,342,343;,
3;346,345,344;,
3;345,346,347;,
3;350,349,348;,
3;349,350,351;,
3;354,353,352;,
3;353,354,355;,
3;358,357,356;,
3;357,358,359;,
3;362,361,360;,
3;361,362,363;,
3;366,365,364;,
3;365,366,367;,
3;370,369,368;,
3;369,370,371;,
3;374,373,372;,
3;373,374,375;,
3;378,377,376;,
3;377,378,379;,
3;382,381,380;,
3;381,382,383;,
3;386,385,384;,
3;385,386,387;,
3;390,389,388;,
3;389,390,391;,
3;394,393,392;,
3;393,394,395;,
3;398,397,396;,
3;397,398,399;,
3;402,401,400;,
3;401,402,403;,
3;406,405,404;,
3;405,406,407;,
3;410,409,408;,
3;409,410,411;,
3;414,413,412;,
3;413,414,415;,
3;418,417,416;,
3;417,418,419;,
3;422,421,420;,
3;421,422,423;,
3;426,425,424;,
3;425,426,427;,
3;424,429,428;,
3;429,424,425;,
3;428,431,430;,
3;431,428,429;,
3;430,427,426;,
3;427,430,431;,
3;434,433,432;,
3;433,434,435;,
3;432,437,436;,
3;437,432,433;,
3;436,439,438;,
3;439,436,437;,
3;438,435,434;,
3;435,438,439;,
3;442,441,440;,
3;441,442,443;,
3;440,445,444;,
3;445,440,441;,
3;444,447,446;,
3;447,444,445;,
3;446,443,442;,
3;443,446,447;,
3;450,449,448;,
3;449,450,451;,
3;448,453,452;,
3;453,448,449;,
3;452,455,454;,
3;455,452,453;,
3;454,451,450;,
3;451,454,455;,
3;458,457,456;,
3;457,458,459;,
3;459,460,457;,
3;460,459,461;,
3;464,463,462;,
3;463,464,465;,
3;462,467,466;,
3;467,462,463;,
3;470,469,468;,
3;469,470,471;,
3;468,473,472;,
3;473,468,469;,
3;476,475,474;,
3;475,476,477;,
3;480,479,478;,
3;479,480,481;,
3;478,483,482;,
3;483,478,479;,
3;486,485,484;,
3;485,486,487;,
3;490,489,488;,
3;489,490,491;,
3;491,492,489;,
3;492,491,493;,
3;496,495,494;,
3;495,496,497;,
3;494,499,498;,
3;499,494,495;,
3;502,501,500;,
3;501,502,503;,
3;500,505,504;,
3;505,500,501;,
3;508,507,506;,
3;507,508,509;,
3;512,511,510;,
3;511,512,513;,
3;510,515,514;,
3;515,510,511;,
3;518,517,516;,
3;517,518,519;;
 }
MeshTextureCoords {
 520;
0.179688;0.986328;,
0.146484;1.000000;,
0.153320;0.000000;,
0.120117;0.013672;,
0.318359;0.012695;,
0.328125;0.999023;,
0.284180;0.000000;,
0.294922;0.986328;,
0.977539;0.702148;,
0.972656;0.702148;,
0.977539;0.689453;,
0.972656;0.689453;,
0.503906;0.924805;,
0.490234;0.924805;,
0.503906;0.000000;,
0.490234;0.000000;,
0.577148;0.869141;,
0.577148;0.974609;,
0.554688;0.869141;,
0.554688;0.974609;,
0.490234;0.924805;,
0.475586;0.924805;,
0.490234;0.000000;,
0.475586;0.000000;,
0.707031;0.416992;,
0.707031;0.621094;,
0.631836;0.416992;,
0.631836;0.621094;,
0.707031;0.206055;,
0.630859;0.206055;,
0.707031;0.001953;,
0.630859;0.001953;,
0.686523;0.976563;,
0.686523;0.965820;,
0.881836;0.976563;,
0.881836;0.965820;,
0.921875;0.996094;,
0.911133;0.996094;,
0.921875;0.923828;,
0.911133;0.923828;,
0.881836;0.954102;,
0.881836;0.965820;,
0.686523;0.954102;,
0.686523;0.965820;,
0.911133;0.851563;,
0.921875;0.851563;,
0.911133;0.923828;,
0.921875;0.923828;,
0.059570;0.986328;,
0.026367;1.000000;,
0.033203;0.000000;,
0.000000;0.013672;,
0.362305;0.012695;,
0.373047;0.999023;,
0.328125;0.000000;,
0.338867;0.986328;,
0.984375;0.689453;,
0.978516;0.689453;,
0.983398;0.677734;,
0.978516;0.677734;,
0.460938;0.924805;,
0.446289;0.924805;,
0.460938;0.000000;,
0.446289;0.000000;,
0.577148;0.869141;,
0.577148;0.974609;,
0.554688;0.869141;,
0.554688;0.974609;,
0.475586;0.924805;,
0.460938;0.924805;,
0.475586;0.000000;,
0.460938;0.000000;,
0.999023;0.416992;,
0.999023;0.621094;,
0.940430;0.416992;,
0.940430;0.621094;,
0.999023;0.206055;,
0.940430;0.206055;,
0.999023;0.001953;,
0.940430;0.001953;,
0.686523;0.932617;,
0.686523;0.920898;,
0.881836;0.932617;,
0.881836;0.920898;,
0.955078;0.801758;,
0.944336;0.801758;,
0.955078;0.746094;,
0.944336;0.746094;,
0.881836;0.976563;,
0.881836;0.987305;,
0.686523;0.976563;,
0.686523;0.987305;,
0.631836;0.943359;,
0.631836;0.932617;,
0.686523;0.943359;,
0.686523;0.932617;,
0.940430;0.621094;,
0.940430;0.825195;,
0.882813;0.621094;,
0.882813;0.825195;,
0.881836;0.206055;,
0.824219;0.206055;,
0.881836;0.001953;,
0.824219;0.001953;,
0.686523;0.898438;,
0.686523;0.887695;,
0.881836;0.898438;,
0.881836;0.887695;,
0.686523;0.887695;,
0.686523;0.898438;,
0.631836;0.887695;,
0.631836;0.898438;,
0.881836;0.876953;,
0.881836;0.887695;,
0.686523;0.876953;,
0.686523;0.887695;,
0.631836;0.954102;,
0.631836;0.943359;,
0.686523;0.954102;,
0.686523;0.943359;,
0.882813;0.621094;,
0.882813;0.825195;,
0.824219;0.621094;,
0.824219;0.825195;,
0.940430;0.206055;,
0.881836;0.206055;,
0.940430;0.001953;,
0.881836;0.001953;,
0.686523;0.854492;,
0.686523;0.842773;,
0.881836;0.854492;,
0.881836;0.842773;,
0.686523;0.898438;,
0.686523;0.910156;,
0.631836;0.898438;,
0.631836;0.910156;,
0.881836;0.910156;,
0.881836;0.920898;,
0.686523;0.910156;,
0.686523;0.920898;,
0.955078;0.746094;,
0.966797;0.746094;,
0.955078;0.801758;,
0.966797;0.801758;,
0.940430;0.416992;,
0.940430;0.621094;,
0.882813;0.416992;,
0.882813;0.621094;,
0.999023;0.410156;,
0.940430;0.410156;,
0.999023;0.206055;,
0.940430;0.206055;,
0.977539;0.801758;,
0.988281;0.801758;,
0.977539;0.996094;,
0.988281;0.996094;,
0.988281;0.801758;,
0.977539;0.801758;,
0.988281;0.746094;,
0.977539;0.746094;,
0.977539;0.996094;,
0.966797;0.996094;,
0.977539;0.801758;,
0.966797;0.801758;,
0.631836;0.965820;,
0.631836;0.954102;,
0.686523;0.965820;,
0.686523;0.954102;,
0.882813;0.416992;,
0.882813;0.621094;,
0.824219;0.416992;,
0.824219;0.621094;,
0.881836;0.410156;,
0.824219;0.410156;,
0.881836;0.206055;,
0.824219;0.206055;,
0.911133;0.224609;,
0.922852;0.224609;,
0.911133;0.418945;,
0.922852;0.418945;,
0.686523;0.965820;,
0.686523;0.976563;,
0.631836;0.965820;,
0.631836;0.976563;,
0.955078;0.996094;,
0.944336;0.996094;,
0.955078;0.801758;,
0.944336;0.801758;,
0.631836;0.987305;,
0.631836;0.976563;,
0.686523;0.987305;,
0.686523;0.976563;,
0.383789;0.986328;,
0.373047;0.000000;,
0.417969;0.999023;,
0.407227;0.012695;,
0.059570;0.013672;,
0.093750;0.000000;,
0.085938;1.000000;,
0.120117;0.986328;,
0.978516;0.702148;,
0.978516;0.689453;,
0.983398;0.702148;,
0.984375;0.689453;,
0.503906;0.924805;,
0.503906;0.000000;,
0.518555;0.924805;,
0.518555;0.000000;,
0.554688;0.974609;,
0.577148;0.974609;,
0.554688;0.869141;,
0.577148;0.869141;,
0.518555;0.924805;,
0.518555;0.000000;,
0.533203;0.924805;,
0.533203;0.000000;,
0.250000;0.986328;,
0.239258;0.000000;,
0.284180;0.999023;,
0.273438;0.012695;,
0.179688;0.013672;,
0.212891;0.000000;,
0.206055;1.000000;,
0.239258;0.986328;,
0.987305;0.674805;,
0.987305;0.663086;,
0.993164;0.674805;,
0.993164;0.663086;,
0.417969;0.924805;,
0.417969;0.000000;,
0.431641;0.924805;,
0.431641;0.000000;,
0.554688;0.974609;,
0.577148;0.974609;,
0.554688;0.869141;,
0.577148;0.869141;,
0.431641;0.924805;,
0.431641;0.000000;,
0.446289;0.924805;,
0.446289;0.000000;,
0.824219;0.621094;,
0.765625;0.621094;,
0.824219;0.416992;,
0.765625;0.416992;,
0.824219;0.001953;,
0.824219;0.206055;,
0.765625;0.001953;,
0.765625;0.206055;,
0.988281;0.996094;,
0.988281;0.801758;,
1.000000;0.996094;,
1.000000;0.801758;,
0.686523;0.920898;,
0.631836;0.920898;,
0.686523;0.910156;,
0.631836;0.910156;,
0.966797;0.801758;,
0.966797;0.996094;,
0.955078;0.801758;,
0.955078;0.996094;,
0.631836;0.876953;,
0.686523;0.876953;,
0.631836;0.887695;,
0.686523;0.887695;,
0.765625;0.825195;,
0.707031;0.825195;,
0.765625;0.621094;,
0.707031;0.621094;,
0.765625;0.206055;,
0.765625;0.410156;,
0.707031;0.206055;,
0.707031;0.410156;,
0.881836;0.876953;,
0.686523;0.876953;,
0.881836;0.865234;,
0.686523;0.865234;,
0.686523;0.865234;,
0.631836;0.865234;,
0.686523;0.854492;,
0.631836;0.854492;,
0.686523;0.854492;,
0.881836;0.854492;,
0.686523;0.865234;,
0.881836;0.865234;,
0.631836;0.865234;,
0.686523;0.865234;,
0.631836;0.876953;,
0.686523;0.876953;,
0.765625;0.621094;,
0.707031;0.621094;,
0.765625;0.416992;,
0.707031;0.416992;,
0.765625;0.001953;,
0.765625;0.206055;,
0.707031;0.001953;,
0.707031;0.206055;,
0.881836;0.910156;,
0.686523;0.910156;,
0.881836;0.898438;,
0.686523;0.898438;,
0.686523;0.842773;,
0.631836;0.842773;,
0.686523;0.832031;,
0.631836;0.832031;,
0.686523;0.832031;,
0.881836;0.832031;,
0.686523;0.842773;,
0.881836;0.842773;,
0.631836;0.842773;,
0.686523;0.842773;,
0.631836;0.854492;,
0.686523;0.854492;,
0.689453;0.825195;,
0.631836;0.825195;,
0.689453;0.621094;,
0.631836;0.621094;,
0.689453;0.206055;,
0.689453;0.410156;,
0.630859;0.206055;,
0.630859;0.410156;,
0.881836;0.954102;,
0.686523;0.954102;,
0.881836;0.943359;,
0.686523;0.943359;,
0.988281;0.801758;,
0.988281;0.746094;,
1.000000;0.801758;,
1.000000;0.746094;,
0.686523;0.932617;,
0.881836;0.932617;,
0.686523;0.943359;,
0.881836;0.943359;,
0.631836;0.987305;,
0.686523;0.987305;,
0.631836;0.999023;,
0.686523;0.999023;,
0.824219;0.825195;,
0.765625;0.825195;,
0.824219;0.621094;,
0.765625;0.621094;,
0.824219;0.206055;,
0.824219;0.410156;,
0.765625;0.206055;,
0.765625;0.410156;,
0.881836;0.999023;,
0.686523;0.999023;,
0.881836;0.987305;,
0.686523;0.987305;,
0.966797;0.801758;,
0.966797;0.746094;,
0.977539;0.801758;,
0.977539;0.746094;,
0.911133;0.224609;,
0.911133;0.418945;,
0.900391;0.224609;,
0.900391;0.418945;,
0.631836;0.920898;,
0.686523;0.920898;,
0.631836;0.932617;,
0.686523;0.932617;,
0.954102;0.693359;,
0.944336;0.690430;,
0.954102;0.681641;,
0.944336;0.677734;,
0.990234;0.686523;,
0.990234;0.677734;,
0.995117;0.686523;,
0.995117;0.677734;,
0.954102;0.681641;,
0.962891;0.677734;,
0.954102;0.693359;,
0.962891;0.690430;,
0.968750;0.701172;,
0.968750;0.710938;,
0.962891;0.701172;,
0.963867;0.710938;,
0.954102;0.677734;,
0.944336;0.674805;,
0.954102;0.666016;,
0.944336;0.663086;,
0.990234;0.695313;,
0.990234;0.686523;,
0.995117;0.695313;,
0.995117;0.686523;,
0.954102;0.666016;,
0.962891;0.663086;,
0.954102;0.677734;,
0.962891;0.674805;,
0.978516;0.702148;,
0.978516;0.710938;,
0.972656;0.702148;,
0.972656;0.710938;,
0.962891;0.705078;,
0.954102;0.708008;,
0.962891;0.693359;,
0.954102;0.696289;,
0.984375;0.686523;,
0.984375;0.677734;,
0.990234;0.686523;,
0.989258;0.677734;,
0.944336;0.693359;,
0.953125;0.696289;,
0.944336;0.705078;,
0.954102;0.708008;,
0.989258;0.696289;,
0.989258;0.705078;,
0.984375;0.696289;,
0.984375;0.705078;,
0.981445;0.674805;,
0.972656;0.677734;,
0.981445;0.663086;,
0.972656;0.665039;,
0.984375;0.696289;,
0.984375;0.686523;,
0.990234;0.696289;,
0.989258;0.686523;,
0.962891;0.663086;,
0.972656;0.665039;,
0.962891;0.674805;,
0.972656;0.677734;,
0.995117;0.696289;,
0.995117;0.705078;,
0.989258;0.696289;,
0.989258;0.705078;,
0.968750;0.678711;,
0.968750;0.677734;,
0.968750;0.688477;,
0.968750;0.689453;,
0.963867;0.678711;,
0.963867;0.677734;,
0.963867;0.688477;,
0.962891;0.689453;,
0.977539;0.678711;,
0.978516;0.677734;,
0.977539;0.688477;,
0.978516;0.689453;,
0.973633;0.678711;,
0.972656;0.677734;,
0.973633;0.688477;,
0.972656;0.689453;,
0.987305;0.663086;,
0.987305;0.663086;,
0.987305;0.673828;,
0.987305;0.674805;,
0.982422;0.663086;,
0.981445;0.663086;,
0.982422;0.673828;,
0.982422;0.674805;,
0.967773;0.690430;,
0.968750;0.689453;,
0.967773;0.701172;,
0.968750;0.701172;,
0.963867;0.690430;,
0.962891;0.689453;,
0.963867;0.701172;,
0.962891;0.701172;,
0.551758;0.127930;,
0.587891;0.458984;,
0.562500;0.127930;,
0.598633;0.458984;,
0.551758;0.791016;,
0.562500;0.791016;,
0.598633;0.458984;,
0.588867;0.458984;,
0.562500;0.127930;,
0.551758;0.127930;,
0.562500;0.791016;,
0.551758;0.791016;,
0.608398;0.458984;,
0.603516;0.458984;,
0.608398;0.127930;,
0.603516;0.127930;,
0.608398;0.791016;,
0.603516;0.791016;,
0.583008;0.154297;,
0.577148;0.154297;,
0.583008;0.144531;,
0.577148;0.144531;,
0.614258;0.458984;,
0.608398;0.458984;,
0.614258;0.127930;,
0.608398;0.127930;,
0.614258;0.791016;,
0.608398;0.791016;,
0.583008;0.144531;,
0.577148;0.144531;,
0.583008;0.133789;,
0.577148;0.133789;,
0.551758;0.127930;,
0.588867;0.458984;,
0.562500;0.127930;,
0.598633;0.458984;,
0.551758;0.791016;,
0.562500;0.791016;,
0.598633;0.458984;,
0.588867;0.458984;,
0.562500;0.127930;,
0.551758;0.127930;,
0.562500;0.791016;,
0.551758;0.791016;,
0.624023;0.458984;,
0.619141;0.458984;,
0.624023;0.127930;,
0.619141;0.127930;,
0.624023;0.791016;,
0.619141;0.791016;,
0.587891;0.144531;,
0.583008;0.144531;,
0.587891;0.133789;,
0.583008;0.133789;,
0.619141;0.458984;,
0.614258;0.458984;,
0.619141;0.127930;,
0.614258;0.127930;,
0.619141;0.791016;,
0.614258;0.791016;,
0.583008;0.165039;,
0.577148;0.165039;,
0.583008;0.154297;,
0.577148;0.155792;;
}
}
 }
