xof 0302txt 0032
Header {
 1;
 0;
 1;
}
template Header {
 <3D82AB43-62DA-11cf-AB39-0020AF71E433>
 WORD major;
 WORD minor;
 DWORD flags;
}

template Vector {
 <3D82AB5E-62DA-11cf-AB39-0020AF71E433>
 FLOAT x;
 FLOAT y;
 FLOAT z;
}

template Coords2d {
 <F6F23F44-7686-11cf-8F52-0040333594A3>
 FLOAT u;
 FLOAT v;
}

template Matrix4x4 {
 <F6F23F45-7686-11cf-8F52-0040333594A3>
 array FLOAT matrix[16];
}

template ColorRGBA {
 <35FF44E0-6C7C-11cf-8F52-0040333594A3>
 FLOAT red;
 FLOAT green;
 FLOAT blue;
 FLOAT alpha;
}

template ColorRGB {
 <D3E16E81-7835-11cf-8F52-0040333594A3>
 FLOAT red;
 FLOAT green;
 FLOAT blue;
}

template TextureFilename {
 <A42790E1-7810-11cf-8F52-0040333594A3>
 STRING filename;
}

template Material {
 <3D82AB4D-62DA-11cf-AB39-0020AF71E433>
 ColorRGBA faceColor;
 FLOAT power;
 ColorRGB specularColor;
 ColorRGB emissiveColor;
 [...]
}

template MeshFace {
 <3D82AB5F-62DA-11cf-AB39-0020AF71E433>
 DWORD nFaceVertexIndices;
 array DWORD faceVertexIndices[nFaceVertexIndices];
}

template MeshTextureCoords {
 <F6F23F40-7686-11cf-8F52-0040333594A3>
 DWORD nTextureCoords;
 array Coords2d textureCoords[nTextureCoords];
}

template MeshMaterialList {
 <F6F23F42-7686-11cf-8F52-0040333594A3>
 DWORD nMaterials;
 DWORD nFaceIndexes;
 array DWORD faceIndexes[nFaceIndexes];
 [Material]
}

template MeshNormals {
 <F6F23F43-7686-11cf-8F52-0040333594A3>
 DWORD nNormals;
 array Vector normals[nNormals];
 DWORD nFaceNormals;
 array MeshFace faceNormals[nFaceNormals];
}

template Mesh {
 <3D82AB44-62DA-11cf-AB39-0020AF71E433>
 DWORD nVertices;
 array Vector vertices[nVertices];
 DWORD nFaces;
 array MeshFace faces[nFaces];
 [...]
}

template FrameTransformMatrix {
 <F6F23F41-7686-11cf-8F52-0040333594A3>
 Matrix4x4 frameMatrix;
}

template Frame {
 <3D82AB46-62DA-11cf-AB39-0020AF71E433>
 [...]
}
template FloatKeys {
 <10DD46A9-775B-11cf-8F52-0040333594A3>
 DWORD nValues;
 array FLOAT values[nValues];
}

template TimedFloatKeys {
 <F406B180-7B3B-11cf-8F52-0040333594A3>
 DWORD time;
 FloatKeys tfkeys;
}

template AnimationKey {
 <10DD46A8-775B-11cf-8F52-0040333594A3>
 DWORD keyType;
 DWORD nKeys;
 array TimedFloatKeys keys[nKeys];
}

template AnimationOptions {
 <E2BF56C0-840F-11cf-8F52-0040333594A3>
 DWORD openclosed;
 DWORD positionquality;
}

template Animation {
 <3D82AB4F-62DA-11cf-AB39-0020AF71E433>
 [...]
}

template AnimationSet {
 <3D82AB50-62DA-11cf-AB39-0020AF71E433>
 [Animation]
}

template XSkinMeshHeader {
 <3cf169ce-ff7c-44ab-93c0-f78f62d172e2>
 WORD nMaxSkinWeightsPerVertex;
 WORD nMaxSkinWeightsPerFace;
 WORD nBones;
}

template VertexDuplicationIndices {
 <b8d65549-d7c9-4995-89cf-53a9a8b031e3>
 DWORD nIndices;
 DWORD nOriginalVertices;
 array DWORD indices[nIndices];
}

template SkinWeights {
 <6f0d123b-bad2-4167-a0d0-80224f25fabb>
 STRING transformNodeName;
 DWORD nWeights;
 array DWORD vertexIndices[nWeights];
 array FLOAT weights[nWeights];
 Matrix4x4 matrixOffset;
}
Frame Frm0 {
   FrameTransformMatrix {
1.000000,0.000000,0.000000,0.000000,
0.000000,1.000000,0.000000,0.000000,
0.000000,0.000000,1.000000,0.000000,
0.000000,0.000000,0.000000,1.000000;;
 }
Mesh object1 {
 723;
-5.069467;4.851881;-0.049105;,
-5.074408;4.844389;-0.109916;,
-5.069489;4.836477;-0.049150;,
-5.074408;4.844389;-0.109916;,
-5.077567;4.851895;-0.048990;,
-5.077590;4.836492;-0.049035;,
-5.069489;4.836477;-0.049150;,
-5.077567;4.851895;-0.048990;,
-5.069847;4.585536;-0.049883;,
-5.074786;4.578044;-0.110694;,
-5.069869;4.570133;-0.049928;,
-5.074786;4.578044;-0.110694;,
-5.077946;4.585550;-0.049768;,
-5.077968;4.570147;-0.049813;,
-5.069869;4.570133;-0.049928;,
-5.077946;4.585550;-0.049768;,
-5.070235;4.312731;-0.050679;,
-5.075174;4.305240;-0.111490;,
-5.070257;4.297328;-0.050724;,
-5.075174;4.305240;-0.111490;,
-5.078334;4.312745;-0.050565;,
-5.078356;4.297342;-0.050610;,
-5.070257;4.297328;-0.050724;,
-5.078334;4.312745;-0.050565;,
-5.169652;5.616428;-0.227668;,
-5.134228;5.393966;0.018889;,
-5.139194;5.393975;0.018959;,
-5.134455;5.379689;0.004530;,
-5.169878;5.602150;-0.242027;,
-5.139997;5.379700;0.004303;,
-5.145539;5.379710;0.004076;,
-5.162715;5.600502;0.252680;,
-5.145724;5.394083;-0.010199;,
-5.140759;5.394074;-0.010270;,
-5.162901;5.614875;0.238405;,
-5.172438;5.630198;-0.562019;,
-5.172490;5.594054;-0.562125;,
-5.136366;5.593989;-0.562636;,
-5.136315;5.630135;-0.562530;,
-5.164323;5.628324;0.000308;,
-5.172438;5.630198;-0.562019;,
-5.136315;5.630135;-0.562530;,
-5.128200;5.628260;-0.000202;,
-5.172490;5.594054;-0.562125;,
-5.164374;5.592178;0.000203;,
-5.128252;5.592114;-0.000308;,
-5.136366;5.593989;-0.562636;,
-5.128200;5.628260;-0.000202;,
-5.136315;5.630135;-0.562530;,
-5.136366;5.593989;-0.562636;,
-5.128252;5.592114;-0.000308;,
-5.164374;5.592178;0.000203;,
-5.172490;5.594054;-0.562125;,
-5.172438;5.630198;-0.562019;,
-5.164323;5.628324;0.000308;,
-5.156259;5.590303;0.562530;,
-5.156208;5.626449;0.562636;,
-5.120085;5.626385;0.562125;,
-5.120135;5.590240;0.562020;,
-5.156259;5.590303;0.562530;,
-5.156208;5.626449;0.562636;,
-5.156259;5.590303;0.562530;,
-5.120135;5.590240;0.562020;,
-5.120085;5.626385;0.562125;,
-5.120135;5.590240;0.562020;,
-5.156208;5.626449;0.562636;,
-5.120085;5.626385;0.562125;,
-5.153143;5.796493;-0.446157;,
-5.153249;5.721605;-0.446376;,
-5.186197;5.721788;-0.483339;,
-5.186090;5.796676;-0.483121;,
-5.154223;5.796743;-0.521001;,
-5.154329;5.721855;-0.521220;,
-5.121381;5.721673;-0.484255;,
-5.153249;5.721605;-0.446376;,
-5.153143;5.796493;-0.446157;,
-5.121274;5.796561;-0.484036;,
-5.154223;5.796743;-0.521001;,
-5.154329;5.721855;-0.521220;,
-5.125534;5.793264;0.514856;,
-5.125640;5.718376;0.514638;,
-5.168880;5.718512;0.497193;,
-5.168774;5.793399;0.497412;,
-5.153351;5.718640;0.450187;,
-5.153244;5.793528;0.450406;,
-5.111586;5.793388;0.469357;,
-5.125640;5.718376;0.514638;,
-5.125534;5.793264;0.514856;,
-5.111694;5.718501;0.469138;,
-5.153244;5.793528;0.450406;,
-5.153351;5.718640;0.450187;,
-5.139853;5.706549;0.483009;,
-5.139853;5.706549;0.483009;,
-5.042392;4.843986;-0.116386;,
-5.074747;4.881486;-0.115819;,
-5.075827;4.881736;-0.190662;,
-5.043472;4.844234;-0.191230;,
-5.075827;4.881736;-0.190662;,
-5.074747;4.881486;-0.115819;,
-5.107209;4.844100;-0.115470;,
-5.108289;4.844349;-0.190314;,
-5.074854;4.806598;-0.116037;,
-5.075934;4.806848;-0.190882;,
-5.075934;4.806848;-0.190882;,
-5.074854;4.806598;-0.116037;,
-5.074628;4.844002;-0.103977;,
-5.074628;4.844002;-0.103977;,
-5.076033;4.844327;-0.201325;,
-5.076033;4.844327;-0.201325;,
-5.042772;4.577641;-0.117164;,
-5.075126;4.615142;-0.116597;,
-5.076207;4.615392;-0.191440;,
-5.043852;4.577890;-0.192008;,
-5.076207;4.615392;-0.191440;,
-5.075126;4.615142;-0.116597;,
-5.107588;4.577755;-0.116248;,
-5.108669;4.578004;-0.191092;,
-5.075234;4.540254;-0.116815;,
-5.076313;4.540504;-0.191659;,
-5.076313;4.540504;-0.191659;,
-5.075234;4.540254;-0.116815;,
-5.075006;4.577658;-0.104755;,
-5.075006;4.577658;-0.104755;,
-5.076412;4.577982;-0.202103;,
-5.076412;4.577982;-0.202103;,
-5.043160;4.304836;-0.117960;,
-5.075514;4.342338;-0.117393;,
-5.076595;4.342587;-0.192237;,
-5.044240;4.305085;-0.192805;,
-5.076595;4.342587;-0.192237;,
-5.075514;4.342338;-0.117393;,
-5.107977;4.304950;-0.117045;,
-5.109057;4.305200;-0.191889;,
-5.075621;4.267449;-0.117612;,
-5.076702;4.267698;-0.192456;,
-5.076702;4.267698;-0.192456;,
-5.075621;4.267449;-0.117612;,
-5.075396;4.304853;-0.105552;,
-5.075396;4.304853;-0.105552;,
-5.076800;4.305178;-0.202899;,
-5.076800;4.305178;-0.202899;,
-5.134228;5.393966;0.018889;,
-5.169878;5.602150;-0.242027;,
-5.134228;5.393966;0.018889;,
-5.169652;5.616428;-0.227668;,
-5.140759;5.394074;-0.010270;,
-5.145724;5.394083;-0.010199;,
-5.162901;5.614875;0.238405;,
-5.139997;5.379700;0.004303;,
-5.162715;5.600502;0.252680;,
-5.153807;5.709773;-0.483833;,
-5.153807;5.709773;-0.483833;,
-5.153667;5.807176;-0.483548;,
-5.153667;5.807176;-0.483548;,
-5.139715;5.803952;0.483293;,
-5.139715;5.803952;0.483293;,
-5.149841;5.715898;-0.484453;,
-5.157856;5.715893;-0.478550;,
-5.158023;5.715932;-0.490128;,
-5.157856;5.715893;-0.478550;,
-5.157983;5.627201;-0.478809;,
-5.158149;5.627240;-0.490387;,
-5.158023;5.715932;-0.490128;,
-5.149841;5.715898;-0.484453;,
-5.158023;5.715932;-0.490128;,
-5.158149;5.627240;-0.490387;,
-5.149966;5.627207;-0.484712;,
-5.149966;5.627207;-0.484712;,
-5.157983;5.627201;-0.478809;,
-5.157856;5.715893;-0.478550;,
-5.149841;5.715898;-0.484453;,
-5.135500;5.712482;0.482230;,
-5.143515;5.712477;0.488133;,
-5.143682;5.712516;0.476556;,
-5.143515;5.712477;0.488133;,
-5.143642;5.623785;0.487874;,
-5.143808;5.623823;0.476297;,
-5.143682;5.712516;0.476556;,
-5.135500;5.712482;0.482230;,
-5.143682;5.712516;0.476556;,
-5.143808;5.623823;0.476297;,
-5.135626;5.623790;0.481971;,
-5.135626;5.623790;0.481971;,
-5.143642;5.623785;0.487874;,
-5.143515;5.712477;0.488133;,
-5.135500;5.712482;0.482230;,
-5.015744;1.521439;-0.043682;,
-5.013511;-0.007167;-0.050670;,
-5.015049;1.521203;0.027047;,
-5.012506;-0.007420;0.025408;,
-5.078597;-0.007431;0.064806;,
-5.076105;1.521191;0.064199;,
-5.076105;1.521191;0.064199;,
-5.078597;-0.007431;0.064806;,
-5.145992;-0.007187;0.027642;,
-5.139257;1.521422;0.029031;,
-5.147132;-0.006930;-0.049346;,
-5.140200;1.521659;-0.042119;,
-5.080898;-0.006921;-0.088121;,
-5.078642;1.521667;-0.078158;,
-5.013511;-0.007167;-0.050670;,
-5.015744;1.521439;-0.043682;,
-5.076386;3.050255;-0.068195;,
-5.017977;3.050045;-0.036694;,
-5.020208;4.578651;-0.029706;,
-5.074130;4.578843;-0.058232;,
-5.126335;4.578836;-0.027664;,
-5.133267;3.050248;-0.034892;,
-5.125787;4.578638;0.031807;,
-5.132521;3.050030;0.030419;,
-5.071121;4.578437;0.062985;,
-5.073613;3.049814;0.063592;,
-5.020135;4.578453;0.030326;,
-5.073613;3.049814;0.063592;,
-5.071121;4.578437;0.062985;,
-5.017592;3.049828;0.028686;,
-5.020208;4.578651;-0.029706;,
-5.017977;3.050045;-0.036694;,
-5.078642;1.521667;-0.078158;,
-5.015744;1.521439;-0.043682;,
-5.017977;3.050045;-0.036694;,
-5.076386;3.050255;-0.068195;,
-5.133267;3.050248;-0.034892;,
-5.078642;1.521667;-0.078158;,
-5.076386;3.050255;-0.068195;,
-5.140200;1.521659;-0.042119;,
-5.132521;3.050030;0.030419;,
-5.139257;1.521422;0.029031;,
-5.073613;3.049814;0.063592;,
-5.076105;1.521191;0.064199;,
-5.015049;1.521203;0.027047;,
-5.017592;3.049828;0.028686;,
-5.015744;1.521439;-0.043682;,
-5.017977;3.050045;-0.036694;,
-5.071875;6.107431;-0.048269;,
-5.022441;6.107258;-0.022717;,
-5.022677;6.107078;0.031964;,
-5.119402;6.107425;-0.020437;,
-5.068630;6.107060;0.062379;,
-5.119052;6.107247;0.033196;,
-5.071875;6.107431;-0.048269;,
-5.020208;4.578651;-0.029706;,
-5.022441;6.107258;-0.022717;,
-5.074130;4.578843;-0.058232;,
-5.119402;6.107425;-0.020437;,
-5.126335;4.578836;-0.027664;,
-5.119052;6.107247;0.033196;,
-5.125787;4.578638;0.031807;,
-5.068630;6.107060;0.062379;,
-5.071121;4.578437;0.062985;,
-5.022677;6.107078;0.031964;,
-5.071121;4.578437;0.062985;,
-5.068630;6.107060;0.062379;,
-5.020135;4.578453;0.030326;,
-5.022441;6.107258;-0.022717;,
-5.020208;4.578651;-0.029706;,
0.094789;4.851881;-0.049105;,
0.089850;4.844389;-0.109916;,
0.094767;4.836477;-0.049150;,
0.089850;4.844389;-0.109916;,
0.086690;4.851895;-0.048990;,
0.086668;4.836492;-0.049035;,
0.094767;4.836477;-0.049150;,
0.086690;4.851895;-0.048990;,
0.094410;4.585536;-0.049883;,
0.089471;4.578044;-0.110694;,
0.094388;4.570133;-0.049928;,
0.089471;4.578044;-0.110694;,
0.086310;4.585550;-0.049768;,
0.086288;4.570147;-0.049813;,
0.094388;4.570133;-0.049928;,
0.086310;4.585550;-0.049768;,
0.094022;4.312731;-0.050679;,
0.089083;4.305240;-0.111490;,
0.094000;4.297328;-0.050724;,
0.089083;4.305240;-0.111490;,
0.085922;4.312745;-0.050565;,
0.085900;4.297342;-0.050610;,
0.094000;4.297328;-0.050724;,
0.085922;4.312745;-0.050565;,
-0.005395;5.616428;-0.227668;,
0.030029;5.393966;0.018889;,
0.025063;5.393975;0.018959;,
0.029802;5.379689;0.004530;,
-0.005621;5.602150;-0.242027;,
0.024260;5.379700;0.004303;,
0.018719;5.379710;0.004076;,
0.001541;5.600502;0.252680;,
0.018533;5.394083;-0.010199;,
0.023498;5.394074;-0.010270;,
0.001356;5.614875;0.238405;,
-0.008182;5.630198;-0.562019;,
-0.008233;5.594054;-0.562125;,
0.027890;5.593989;-0.562636;,
0.027941;5.630135;-0.562530;,
-0.000067;5.628324;0.000308;,
-0.008182;5.630198;-0.562019;,
0.027941;5.630135;-0.562530;,
0.036058;5.628260;-0.000202;,
-0.008233;5.594054;-0.562125;,
-0.000118;5.592178;0.000203;,
0.036005;5.592114;-0.000308;,
0.027890;5.593989;-0.562636;,
0.036058;5.628260;-0.000202;,
0.027941;5.630135;-0.562530;,
0.027890;5.593989;-0.562636;,
0.036005;5.592114;-0.000308;,
-0.000118;5.592178;0.000203;,
-0.008233;5.594054;-0.562125;,
-0.008182;5.630198;-0.562019;,
-0.000067;5.628324;0.000308;,
0.007997;5.590303;0.562530;,
0.008049;5.626449;0.562636;,
0.044173;5.626385;0.562125;,
0.044122;5.590240;0.562020;,
0.007997;5.590303;0.562530;,
0.008049;5.626449;0.562636;,
0.007997;5.590303;0.562530;,
0.044122;5.590240;0.562020;,
0.044173;5.626385;0.562125;,
0.044122;5.590240;0.562020;,
0.008049;5.626449;0.562636;,
0.044173;5.626385;0.562125;,
0.011114;5.796493;-0.446157;,
0.011008;5.721605;-0.446376;,
-0.021940;5.721788;-0.483339;,
-0.021834;5.796676;-0.483121;,
0.010035;5.796743;-0.521001;,
0.009927;5.721855;-0.521220;,
0.042877;5.721673;-0.484255;,
0.011008;5.721605;-0.446376;,
0.011114;5.796493;-0.446157;,
0.042983;5.796561;-0.484036;,
0.010035;5.796743;-0.521001;,
0.009927;5.721855;-0.521220;,
0.038724;5.793264;0.514856;,
0.038616;5.718376;0.514638;,
-0.004623;5.718512;0.497193;,
-0.004517;5.793399;0.497412;,
0.010906;5.718640;0.450187;,
0.011013;5.793528;0.450406;,
0.052670;5.793388;0.469357;,
0.038616;5.718376;0.514638;,
0.038724;5.793264;0.514856;,
0.052564;5.718501;0.469138;,
0.011013;5.793528;0.450406;,
0.010906;5.718640;0.450187;,
0.024404;5.706549;0.483009;,
0.024404;5.706549;0.483009;,
0.121865;4.843986;-0.116386;,
0.089510;4.881486;-0.115819;,
0.088431;4.881736;-0.190662;,
0.120784;4.844234;-0.191230;,
0.088431;4.881736;-0.190662;,
0.089510;4.881486;-0.115819;,
0.057048;4.844100;-0.115470;,
0.055967;4.844349;-0.190314;,
0.089402;4.806598;-0.116037;,
0.088323;4.806848;-0.190882;,
0.088323;4.806848;-0.190882;,
0.089402;4.806598;-0.116037;,
0.089630;4.844002;-0.103977;,
0.089630;4.844002;-0.103977;,
0.088224;4.844327;-0.201325;,
0.088224;4.844327;-0.201325;,
0.121485;4.577641;-0.117164;,
0.089130;4.615142;-0.116597;,
0.088050;4.615392;-0.191440;,
0.120406;4.577890;-0.192008;,
0.088050;4.615392;-0.191440;,
0.089130;4.615142;-0.116597;,
0.056669;4.577755;-0.116248;,
0.055589;4.578004;-0.191092;,
0.089024;4.540254;-0.116815;,
0.087944;4.540504;-0.191659;,
0.087944;4.540504;-0.191659;,
0.089024;4.540254;-0.116815;,
0.089250;4.577658;-0.104755;,
0.089250;4.577658;-0.104755;,
0.087845;4.577982;-0.202103;,
0.087845;4.577982;-0.202103;,
0.121097;4.304836;-0.117960;,
0.088742;4.342338;-0.117393;,
0.087662;4.342587;-0.192237;,
0.120016;4.305085;-0.192805;,
0.087662;4.342587;-0.192237;,
0.088742;4.342338;-0.117393;,
0.056280;4.304950;-0.117045;,
0.055200;4.305200;-0.191889;,
0.088636;4.267449;-0.117612;,
0.087556;4.267698;-0.192456;,
0.087556;4.267698;-0.192456;,
0.088636;4.267449;-0.117612;,
0.088862;4.304853;-0.105552;,
0.088862;4.304853;-0.105552;,
0.087457;4.305178;-0.202899;,
0.087457;4.305178;-0.202899;,
0.030029;5.393966;0.018889;,
-0.005621;5.602150;-0.242027;,
0.030029;5.393966;0.018889;,
-0.005395;5.616428;-0.227668;,
0.023498;5.394074;-0.010270;,
0.018533;5.394083;-0.010199;,
0.001356;5.614875;0.238405;,
0.024260;5.379700;0.004303;,
0.001541;5.600502;0.252680;,
0.010450;5.709773;-0.483833;,
0.010450;5.709773;-0.483833;,
0.010589;5.807176;-0.483548;,
0.010589;5.807176;-0.483548;,
0.024543;5.803952;0.483293;,
0.024543;5.803952;0.483293;,
0.014416;5.715898;-0.484453;,
0.006401;5.715893;-0.478550;,
0.006234;5.715932;-0.490128;,
0.006401;5.715893;-0.478550;,
0.006274;5.627201;-0.478809;,
0.006108;5.627240;-0.490387;,
0.006234;5.715932;-0.490128;,
0.014416;5.715898;-0.484453;,
0.006234;5.715932;-0.490128;,
0.006108;5.627240;-0.490387;,
0.014290;5.627207;-0.484712;,
0.014290;5.627207;-0.484712;,
0.006274;5.627201;-0.478809;,
0.006401;5.715893;-0.478550;,
0.014416;5.715898;-0.484453;,
0.028758;5.712482;0.482230;,
0.020742;5.712477;0.488133;,
0.020574;5.712516;0.476556;,
0.020742;5.712477;0.488133;,
0.020616;5.623785;0.487874;,
0.020449;5.623823;0.476297;,
0.020574;5.712516;0.476556;,
0.028758;5.712482;0.482230;,
0.020574;5.712516;0.476556;,
0.020449;5.623823;0.476297;,
0.028631;5.623790;0.481971;,
0.028631;5.623790;0.481971;,
0.020616;5.623785;0.487874;,
0.020742;5.712477;0.488133;,
0.028758;5.712482;0.482230;,
0.148513;1.521439;-0.043682;,
0.150745;-0.007167;-0.050670;,
0.149207;1.521203;0.027047;,
0.151750;-0.007420;0.025408;,
0.085660;-0.007431;0.064806;,
0.088152;1.521191;0.064199;,
0.088152;1.521191;0.064199;,
0.085660;-0.007431;0.064806;,
0.018265;-0.007187;0.027642;,
0.025001;1.521422;0.029031;,
0.017125;-0.006930;-0.049346;,
0.024057;1.521659;-0.042119;,
0.083359;-0.006921;-0.088121;,
0.085615;1.521667;-0.078158;,
0.150745;-0.007167;-0.050670;,
0.148513;1.521439;-0.043682;,
0.087872;3.050255;-0.068195;,
0.146280;3.050045;-0.036694;,
0.144048;4.578651;-0.029706;,
0.090126;4.578843;-0.058232;,
0.037922;4.578836;-0.027664;,
0.030989;3.050248;-0.034892;,
0.038470;4.578638;0.031807;,
0.031735;3.050030;0.030419;,
0.093135;4.578437;0.062985;,
0.090644;3.049814;0.063592;,
0.144122;4.578453;0.030326;,
0.090644;3.049814;0.063592;,
0.093135;4.578437;0.062985;,
0.146664;3.049828;0.028686;,
0.144048;4.578651;-0.029706;,
0.146280;3.050045;-0.036694;,
0.085615;1.521667;-0.078158;,
0.148513;1.521439;-0.043682;,
0.146280;3.050045;-0.036694;,
0.087872;3.050255;-0.068195;,
0.030989;3.050248;-0.034892;,
0.085615;1.521667;-0.078158;,
0.087872;3.050255;-0.068195;,
0.024057;1.521659;-0.042119;,
0.031735;3.050030;0.030419;,
0.025001;1.521422;0.029031;,
0.090644;3.049814;0.063592;,
0.088152;1.521191;0.064199;,
0.149207;1.521203;0.027047;,
0.146664;3.049828;0.028686;,
0.148513;1.521439;-0.043682;,
0.146280;3.050045;-0.036694;,
0.092382;6.107431;-0.048269;,
0.141816;6.107258;-0.022717;,
0.141579;6.107078;0.031964;,
0.044854;6.107425;-0.020437;,
0.095628;6.107060;0.062379;,
0.045204;6.107247;0.033196;,
0.092382;6.107431;-0.048269;,
0.144048;4.578651;-0.029706;,
0.141816;6.107258;-0.022717;,
0.090126;4.578843;-0.058232;,
0.044854;6.107425;-0.020437;,
0.037922;4.578836;-0.027664;,
0.045204;6.107247;0.033196;,
0.038470;4.578638;0.031807;,
0.095628;6.107060;0.062379;,
0.093135;4.578437;0.062985;,
0.141579;6.107078;0.031964;,
0.093135;4.578437;0.062985;,
0.095628;6.107060;0.062379;,
0.144122;4.578453;0.030326;,
0.141816;6.107258;-0.022717;,
0.144048;4.578651;-0.029706;,
-5.168954;5.736976;0.486008;,
-5.170454;5.739202;0.477751;,
-5.166530;5.733376;0.472648;,
-5.164106;5.729775;0.486008;,
-5.162608;5.727550;0.477751;,
0.005145;5.747008;0.486008;,
0.004896;5.749679;0.477751;,
0.005546;5.742685;0.472648;,
0.005948;5.738363;0.486008;,
0.006197;5.735692;0.477751;,
-5.135631;5.772118;0.477751;,
-5.138112;5.771100;0.486008;,
-5.146144;5.767802;0.486008;,
-5.142128;5.769452;0.472648;,
-5.148626;5.766784;0.477751;,
0.005143;5.747008;-0.483921;,
0.004896;5.749679;-0.492178;,
0.005546;5.742685;-0.497281;,
0.005948;5.738363;-0.483921;,
0.006197;5.735692;-0.492178;,
-5.135631;5.772118;-0.492178;,
-5.138112;5.771100;-0.483921;,
-5.146144;5.767802;-0.483921;,
-5.142128;5.769452;-0.497281;,
-5.148626;5.766784;-0.492178;,
0.004896;5.749679;0.477751;,
-0.769291;5.304029;0.477751;,
-0.769918;5.297034;0.472648;,
0.004896;5.749679;0.477751;,
0.005145;5.747008;0.486008;,
-0.769531;5.301357;0.486008;,
-0.769291;5.304029;0.477751;,
0.005948;5.738363;0.486008;,
-0.770305;5.292710;0.486008;,
0.006197;5.735692;0.477751;,
-0.770544;5.290038;0.477751;,
-1.511661;5.044502;0.477751;,
-1.513543;5.037735;0.472648;,
-1.512380;5.041917;0.486008;,
-1.511661;5.044502;0.477751;,
-1.514706;5.033553;0.486008;,
-1.515425;5.030968;0.477751;,
-2.371125;4.946786;0.477751;,
-2.374201;4.940472;0.472648;,
-2.372300;4.944375;0.486008;,
-2.371125;4.946786;0.477751;,
-2.376102;4.936570;0.486008;,
-2.377277;4.934157;0.477751;,
-3.271242;5.013796;0.477751;,
-3.275411;5.008142;0.472648;,
-3.272835;5.011636;0.486008;,
-3.271242;5.013796;0.477751;,
-3.277987;5.004649;0.486008;,
-3.279579;5.002489;0.477751;,
-3.980327;5.123778;0.477751;,
-3.985450;5.118972;0.472648;,
-3.982283;5.121942;0.486008;,
-3.980327;5.123778;0.477751;,
-3.988615;5.116002;0.486008;,
-3.990572;5.114167;0.477751;,
-4.602667;5.399423;0.477751;,
-4.608575;5.395624;0.472648;,
-4.604924;5.397972;0.486008;,
-4.602667;5.399423;0.477751;,
-4.612226;5.393276;0.486008;,
-4.614482;5.391825;0.477751;,
-5.138112;5.771100;0.486008;,
-5.135631;5.772118;0.477751;,
-5.146144;5.767802;0.486008;,
-5.148626;5.766784;0.477751;,
0.004896;5.749679;-0.492178;,
-0.769291;5.304029;-0.492178;,
-0.769918;5.297034;-0.497281;,
0.004896;5.749679;-0.492178;,
0.005143;5.747008;-0.483921;,
-0.769531;5.301357;-0.483921;,
-0.769291;5.304029;-0.492178;,
0.005948;5.738363;-0.483921;,
-0.770305;5.292710;-0.483921;,
0.006197;5.735692;-0.492178;,
-0.770544;5.290038;-0.492178;,
-1.511661;5.044502;-0.492178;,
-1.513543;5.037735;-0.497281;,
-1.512380;5.041917;-0.483921;,
-1.511661;5.044502;-0.492178;,
-1.514706;5.033553;-0.483921;,
-1.515425;5.030968;-0.492178;,
-2.371125;4.946786;-0.492178;,
-2.374201;4.940472;-0.497281;,
-2.372300;4.944375;-0.483921;,
-2.371125;4.946786;-0.492178;,
-2.376102;4.936570;-0.483921;,
-2.377277;4.934157;-0.492178;,
-3.271242;5.013796;-0.492178;,
-3.275411;5.008142;-0.497281;,
-3.272835;5.011636;-0.483921;,
-3.271242;5.013796;-0.492178;,
-3.277987;5.004649;-0.483921;,
-3.279579;5.002489;-0.492178;,
-3.980327;5.123778;-0.492178;,
-3.985450;5.118972;-0.497281;,
-3.982283;5.121942;-0.483921;,
-3.980327;5.123778;-0.492178;,
-3.988615;5.116002;-0.483921;,
-3.990572;5.114167;-0.492178;,
-4.602667;5.399423;-0.492178;,
-4.608575;5.395624;-0.497281;,
-4.604924;5.397972;-0.483921;,
-4.602667;5.399423;-0.492178;,
-4.612226;5.393276;-0.483921;,
-4.614482;5.391825;-0.492178;,
-5.138112;5.771100;-0.483921;,
-5.135631;5.772118;-0.492178;,
-5.146144;5.767802;-0.483921;,
-5.148626;5.766784;-0.492178;,
5.185546;5.742685;0.472648;,
5.184896;5.749679;0.477751;,
4.410708;5.304029;0.477751;,
4.410082;5.297034;0.472648;,
5.184896;5.749679;0.477751;,
5.185144;5.747008;0.486008;,
4.410470;5.301357;0.486008;,
4.410708;5.304029;0.477751;,
5.185948;5.738363;0.486008;,
4.409696;5.292710;0.486008;,
5.186197;5.735692;0.477751;,
4.409456;5.290038;0.477751;,
3.668339;5.044502;0.477751;,
3.666457;5.037735;0.472648;,
3.667620;5.041917;0.486008;,
3.668339;5.044502;0.477751;,
3.665294;5.033553;0.486008;,
3.664575;5.030968;0.477751;,
2.808875;4.946786;0.477751;,
2.805799;4.940472;0.472648;,
2.807700;4.944375;0.486008;,
2.808875;4.946786;0.477751;,
2.803898;4.936570;0.486008;,
2.802723;4.934157;0.477751;,
1.908758;5.013796;0.477751;,
1.904589;5.008142;0.472648;,
1.907165;5.011636;0.486008;,
1.908758;5.013796;0.477751;,
1.902014;5.004649;0.486008;,
1.900421;5.002489;0.477751;,
1.199673;5.123778;0.477751;,
1.194550;5.118972;0.472648;,
1.197717;5.121942;0.486008;,
1.199673;5.123778;0.477751;,
1.191385;5.116002;0.486008;,
1.189428;5.114167;0.477751;,
0.577333;5.399423;0.477751;,
0.571425;5.395624;0.472648;,
0.575076;5.397972;0.486008;,
0.577333;5.399423;0.477751;,
0.567774;5.393276;0.486008;,
0.565518;5.391825;0.477751;,
0.044370;5.772118;0.477751;,
0.037872;5.769452;0.472648;,
0.041888;5.771100;0.486008;,
0.044370;5.772118;0.477751;,
0.033856;5.767802;0.486008;,
0.031374;5.766784;0.477751;,
5.185546;5.742685;-0.497281;,
5.184896;5.749679;-0.492178;,
4.410708;5.304029;-0.492178;,
4.410082;5.297034;-0.497281;,
5.184896;5.749679;-0.492178;,
5.185143;5.747008;-0.483921;,
4.410470;5.301357;-0.483921;,
4.410708;5.304029;-0.492178;,
5.185948;5.738363;-0.483921;,
4.409696;5.292710;-0.483921;,
5.186197;5.735692;-0.492178;,
4.409456;5.290038;-0.492178;,
3.668339;5.044502;-0.492178;,
3.666457;5.037735;-0.497281;,
3.667620;5.041917;-0.483921;,
3.668339;5.044502;-0.492178;,
3.665294;5.033553;-0.483921;,
3.664575;5.030968;-0.492178;,
2.808875;4.946786;-0.492178;,
2.805799;4.940472;-0.497281;,
2.807700;4.944375;-0.483921;,
2.808875;4.946786;-0.492178;,
2.803898;4.936570;-0.483921;,
2.802723;4.934157;-0.492178;,
1.908758;5.013796;-0.492178;,
1.904589;5.008142;-0.497281;,
1.907165;5.011636;-0.483921;,
1.908758;5.013796;-0.492178;,
1.902014;5.004649;-0.483921;,
1.900421;5.002489;-0.492178;,
1.199673;5.123778;-0.492178;,
1.194550;5.118972;-0.497281;,
1.197717;5.121942;-0.483921;,
1.199673;5.123778;-0.492178;,
1.191385;5.116002;-0.483921;,
1.189428;5.114167;-0.492178;,
0.577333;5.399423;-0.492178;,
0.571425;5.395624;-0.497281;,
0.575076;5.397972;-0.483921;,
0.577333;5.399423;-0.492178;,
0.567774;5.393276;-0.483921;,
0.565518;5.391825;-0.492178;,
0.044370;5.772118;-0.492178;,
0.037872;5.769452;-0.497281;,
0.041888;5.771100;-0.483921;,
0.044370;5.772118;-0.492178;,
0.033856;5.767802;-0.483921;,
0.031374;5.766784;-0.492178;;

 683;
3;2,1,0;,
3;5,4,3;,
3;5,3,6;,
3;1,7,0;,
3;10,9,8;,
3;13,12,11;,
3;13,11,14;,
3;9,15,8;,
3;18,17,16;,
3;21,20,19;,
3;21,19,22;,
3;17,23,16;,
3;26,25,24;,
3;29,28,27;,
3;29,31,30;,
3;34,33,32;,
3;37,36,35;,
3;38,37,35;,
3;41,40,39;,
3;42,41,39;,
3;45,44,43;,
3;46,45,43;,
3;49,48,47;,
3;50,49,47;,
3;53,52,51;,
3;54,53,51;,
3;57,56,55;,
3;58,57,55;,
3;54,51,59;,
3;60,54,59;,
3;62,61,44;,
3;45,62,44;,
3;50,47,63;,
3;64,50,63;,
3;42,39,65;,
3;66,42,65;,
3;69,68,67;,
3;70,69,67;,
3;71,69,70;,
3;71,72,69;,
3;75,74,73;,
3;75,73,76;,
3;76,73,77;,
3;73,78,77;,
3;81,80,79;,
3;82,81,79;,
3;83,81,82;,
3;84,83,82;,
3;87,86,85;,
3;86,88,85;,
3;85,88,89;,
3;88,90,89;,
3;81,83,91;,
3;80,81,91;,
3;88,86,92;,
3;90,88,92;,
3;95,94,93;,
3;95,93,96;,
3;99,98,97;,
3;100,99,97;,
3;102,101,99;,
3;102,99,100;,
3;93,104,103;,
3;96,93,103;,
3;93,94,105;,
3;98,99,106;,
3;99,101,106;,
3;104,93,105;,
3;95,96,107;,
3;100,97,108;,
3;102,100,108;,
3;96,103,107;,
3;111,110,109;,
3;111,109,112;,
3;115,114,113;,
3;116,115,113;,
3;118,117,115;,
3;118,115,116;,
3;109,120,119;,
3;112,109,119;,
3;109,110,121;,
3;114,115,122;,
3;115,117,122;,
3;120,109,121;,
3;111,112,123;,
3;116,113,124;,
3;118,116,124;,
3;112,119,123;,
3;127,126,125;,
3;127,125,128;,
3;131,130,129;,
3;132,131,129;,
3;134,133,131;,
3;134,131,132;,
3;125,136,135;,
3;128,125,135;,
3;125,126,137;,
3;130,131,138;,
3;131,133,138;,
3;136,125,137;,
3;127,128,139;,
3;132,129,140;,
3;134,132,140;,
3;128,135,139;,
3;29,27,141;,
3;26,29,141;,
3;29,26,24;,
3;142,29,24;,
3;144,143,27;,
3;144,27,28;,
3;145,29,30;,
3;146,145,30;,
3;30,31,147;,
3;146,30,147;,
3;148,33,34;,
3;148,34,149;,
3;69,72,150;,
3;78,73,151;,
3;73,74,151;,
3;68,69,150;,
3;75,76,152;,
3;76,77,152;,
3;71,70,153;,
3;70,67,153;,
3;87,85,154;,
3;85,89,154;,
3;84,82,155;,
3;82,79,155;,
3;158,157,156;,
3;161,160,159;,
3;162,161,159;,
3;165,164,163;,
3;166,165,163;,
3;169,168,167;,
3;170,169,167;,
3;173,172,171;,
3;176,175,174;,
3;177,176,174;,
3;180,179,178;,
3;181,180,178;,
3;184,183,182;,
3;185,184,182;,
3;188,187,186;,
3;188,189,187;,
3;190,189,188;,
3;191,190,188;,
3;194,193,192;,
3;195,194,192;,
3;196,194,195;,
3;197,196,195;,
3;198,196,197;,
3;199,198,197;,
3;200,198,199;,
3;201,200,199;,
3;204,203,202;,
3;204,202,205;,
3;205,202,206;,
3;202,207,206;,
3;206,207,208;,
3;207,209,208;,
3;208,209,210;,
3;209,211,210;,
3;214,213,212;,
3;213,215,212;,
3;212,215,216;,
3;215,217,216;,
3;220,219,218;,
3;220,218,221;,
3;224,223,222;,
3;223,225,222;,
3;222,225,226;,
3;225,227,226;,
3;226,227,228;,
3;227,229,228;,
3;228,229,230;,
3;228,230,231;,
3;231,230,232;,
3;231,232,233;,
3;236,235,234;,
3;236,234,237;,
3;238,236,237;,
3;239,238,237;,
3;242,241,240;,
3;241,243,240;,
3;240,243,244;,
3;243,245,244;,
3;244,245,246;,
3;245,247,246;,
3;246,247,248;,
3;247,249,248;,
3;252,251,250;,
3;251,253,250;,
3;250,253,254;,
3;253,255,254;,
3;258,257,256;,
3;261,260,259;,
3;261,259,262;,
3;257,263,256;,
3;266,265,264;,
3;269,268,267;,
3;269,267,270;,
3;265,271,264;,
3;274,273,272;,
3;277,276,275;,
3;277,275,278;,
3;273,279,272;,
3;282,281,280;,
3;285,284,283;,
3;285,287,286;,
3;290,289,288;,
3;293,292,291;,
3;294,293,291;,
3;297,296,295;,
3;298,297,295;,
3;301,300,299;,
3;302,301,299;,
3;305,304,303;,
3;306,305,303;,
3;309,308,307;,
3;310,309,307;,
3;313,312,311;,
3;314,313,311;,
3;310,307,315;,
3;316,310,315;,
3;318,317,300;,
3;301,318,300;,
3;306,303,319;,
3;320,306,319;,
3;298,295,321;,
3;322,298,321;,
3;325,324,323;,
3;326,325,323;,
3;327,325,326;,
3;327,328,325;,
3;331,330,329;,
3;331,329,332;,
3;332,329,333;,
3;329,334,333;,
3;337,336,335;,
3;338,337,335;,
3;339,337,338;,
3;340,339,338;,
3;343,342,341;,
3;342,344,341;,
3;341,344,345;,
3;344,346,345;,
3;337,339,347;,
3;336,337,347;,
3;344,342,348;,
3;346,344,348;,
3;351,350,349;,
3;351,349,352;,
3;355,354,353;,
3;356,355,353;,
3;358,357,355;,
3;358,355,356;,
3;349,360,359;,
3;352,349,359;,
3;349,350,361;,
3;354,355,362;,
3;355,357,362;,
3;360,349,361;,
3;351,352,363;,
3;356,353,364;,
3;358,356,364;,
3;352,359,363;,
3;367,366,365;,
3;367,365,368;,
3;371,370,369;,
3;372,371,369;,
3;374,373,371;,
3;374,371,372;,
3;365,376,375;,
3;368,365,375;,
3;365,366,377;,
3;370,371,378;,
3;371,373,378;,
3;376,365,377;,
3;367,368,379;,
3;372,369,380;,
3;374,372,380;,
3;368,375,379;,
3;383,382,381;,
3;383,381,384;,
3;387,386,385;,
3;388,387,385;,
3;390,389,387;,
3;390,387,388;,
3;381,392,391;,
3;384,381,391;,
3;381,382,393;,
3;386,387,394;,
3;387,389,394;,
3;392,381,393;,
3;383,384,395;,
3;388,385,396;,
3;390,388,396;,
3;384,391,395;,
3;285,283,397;,
3;282,285,397;,
3;285,282,280;,
3;398,285,280;,
3;400,399,283;,
3;400,283,284;,
3;401,285,286;,
3;402,401,286;,
3;286,287,403;,
3;402,286,403;,
3;404,289,290;,
3;404,290,405;,
3;325,328,406;,
3;334,329,407;,
3;329,330,407;,
3;324,325,406;,
3;331,332,408;,
3;332,333,408;,
3;327,326,409;,
3;326,323,409;,
3;343,341,410;,
3;341,345,410;,
3;340,338,411;,
3;338,335,411;,
3;414,413,412;,
3;417,416,415;,
3;418,417,415;,
3;421,420,419;,
3;422,421,419;,
3;425,424,423;,
3;426,425,423;,
3;429,428,427;,
3;432,431,430;,
3;433,432,430;,
3;436,435,434;,
3;437,436,434;,
3;440,439,438;,
3;441,440,438;,
3;444,443,442;,
3;444,445,443;,
3;446,445,444;,
3;447,446,444;,
3;450,449,448;,
3;451,450,448;,
3;452,450,451;,
3;453,452,451;,
3;454,452,453;,
3;455,454,453;,
3;456,454,455;,
3;457,456,455;,
3;460,459,458;,
3;460,458,461;,
3;461,458,462;,
3;458,463,462;,
3;462,463,464;,
3;463,465,464;,
3;464,465,466;,
3;465,467,466;,
3;470,469,468;,
3;469,471,468;,
3;468,471,472;,
3;471,473,472;,
3;476,475,474;,
3;476,474,477;,
3;480,479,478;,
3;479,481,478;,
3;478,481,482;,
3;481,483,482;,
3;482,483,484;,
3;483,485,484;,
3;484,485,486;,
3;484,486,487;,
3;487,486,488;,
3;487,488,489;,
3;492,491,490;,
3;492,490,493;,
3;494,492,493;,
3;495,494,493;,
3;498,497,496;,
3;497,499,496;,
3;496,499,500;,
3;499,501,500;,
3;500,501,502;,
3;501,503,502;,
3;502,503,504;,
3;503,505,504;,
3;508,507,506;,
3;507,509,506;,
3;506,509,510;,
3;509,511,510;,
3;514,513,512;,
3;514,512,515;,
3;514,515,516;,
3;519,518,517;,
3;519,517,520;,
3;519,520,521;,
3;524,523,522;,
3;524,522,525;,
3;524,525,526;,
3;529,528,527;,
3;529,527,530;,
3;529,530,531;,
3;534,533,532;,
3;534,532,535;,
3;534,535,536;,
3;538,537,519;,
3;519,539,538;,
3;542,541,540;,
3;540,543,542;,
3;545,544,541;,
3;541,542,545;,
3;547,546,544;,
3;544,545,547;,
3;539,519,546;,
3;546,547,539;,
3;548,538,539;,
3;539,549,548;,
3;550,542,543;,
3;543,551,550;,
3;552,545,542;,
3;542,550,552;,
3;553,547,545;,
3;545,552,553;,
3;549,539,547;,
3;547,553,549;,
3;554,548,549;,
3;549,555,554;,
3;556,550,551;,
3;551,557,556;,
3;558,552,550;,
3;550,556,558;,
3;559,553,552;,
3;552,558,559;,
3;555,549,553;,
3;553,559,555;,
3;560,554,555;,
3;555,561,560;,
3;562,556,557;,
3;557,563,562;,
3;564,558,556;,
3;556,562,564;,
3;565,559,558;,
3;558,564,565;,
3;561,555,559;,
3;559,565,561;,
3;566,560,561;,
3;561,567,566;,
3;568,562,563;,
3;563,569,568;,
3;570,564,562;,
3;562,568,570;,
3;571,565,564;,
3;564,570,571;,
3;567,561,565;,
3;565,571,567;,
3;572,566,567;,
3;567,573,572;,
3;574,568,569;,
3;569,575,574;,
3;576,570,568;,
3;568,574,576;,
3;577,571,570;,
3;570,576,577;,
3;573,567,571;,
3;571,577,573;,
3;522,572,573;,
3;573,525,522;,
3;578,574,575;,
3;575,579,578;,
3;580,576,574;,
3;574,578,580;,
3;581,577,576;,
3;576,580,581;,
3;525,573,577;,
3;577,581,525;,
3;583,582,529;,
3;529,584,583;,
3;587,586,585;,
3;585,588,587;,
3;590,589,586;,
3;586,587,590;,
3;592,591,589;,
3;589,590,592;,
3;584,529,591;,
3;591,592,584;,
3;593,583,584;,
3;584,594,593;,
3;595,587,588;,
3;588,596,595;,
3;597,590,587;,
3;587,595,597;,
3;598,592,590;,
3;590,597,598;,
3;594,584,592;,
3;592,598,594;,
3;599,593,594;,
3;594,600,599;,
3;601,595,596;,
3;596,602,601;,
3;603,597,595;,
3;595,601,603;,
3;604,598,597;,
3;597,603,604;,
3;600,594,598;,
3;598,604,600;,
3;605,599,600;,
3;600,606,605;,
3;607,601,602;,
3;602,608,607;,
3;609,603,601;,
3;601,607,609;,
3;610,604,603;,
3;603,609,610;,
3;606,600,604;,
3;604,610,606;,
3;611,605,606;,
3;606,612,611;,
3;613,607,608;,
3;608,614,613;,
3;615,609,607;,
3;607,613,615;,
3;616,610,609;,
3;609,615,616;,
3;612,606,610;,
3;610,616,612;,
3;617,611,612;,
3;612,618,617;,
3;619,613,614;,
3;614,620,619;,
3;621,615,613;,
3;613,619,621;,
3;622,616,615;,
3;615,621,622;,
3;618,612,616;,
3;616,622,618;,
3;532,617,618;,
3;618,535,532;,
3;623,619,620;,
3;620,624,623;,
3;625,621,619;,
3;619,623,625;,
3;626,622,621;,
3;621,625,626;,
3;535,618,622;,
3;622,626,535;,
3;629,628,627;,
3;627,630,629;,
3;633,632,631;,
3;631,634,633;,
3;636,635,632;,
3;632,633,636;,
3;638,637,635;,
3;635,636,638;,
3;630,627,637;,
3;637,638,630;,
3;639,629,630;,
3;630,640,639;,
3;641,633,634;,
3;634,642,641;,
3;643,636,633;,
3;633,641,643;,
3;644,638,636;,
3;636,643,644;,
3;640,630,638;,
3;638,644,640;,
3;645,639,640;,
3;640,646,645;,
3;647,641,642;,
3;642,648,647;,
3;649,643,641;,
3;641,647,649;,
3;650,644,643;,
3;643,649,650;,
3;646,640,644;,
3;644,650,646;,
3;651,645,646;,
3;646,652,651;,
3;653,647,648;,
3;648,654,653;,
3;655,649,647;,
3;647,653,655;,
3;656,650,649;,
3;649,655,656;,
3;652,646,650;,
3;650,656,652;,
3;657,651,652;,
3;652,658,657;,
3;659,653,654;,
3;654,660,659;,
3;661,655,653;,
3;653,659,661;,
3;662,656,655;,
3;655,661,662;,
3;658,652,656;,
3;656,662,658;,
3;663,657,658;,
3;658,664,663;,
3;665,659,660;,
3;660,666,665;,
3;667,661,659;,
3;659,665,667;,
3;668,662,661;,
3;661,667,668;,
3;664,658,662;,
3;662,668,664;,
3;669,663,664;,
3;664,670,669;,
3;671,665,666;,
3;666,672,671;,
3;673,667,665;,
3;665,671,673;,
3;674,668,667;,
3;667,673,674;,
3;670,664,668;,
3;668,674,670;,
3;677,676,675;,
3;675,678,677;,
3;681,680,679;,
3;679,682,681;,
3;684,683,680;,
3;680,681,684;,
3;686,685,683;,
3;683,684,686;,
3;678,675,685;,
3;685,686,678;,
3;687,677,678;,
3;678,688,687;,
3;689,681,682;,
3;682,690,689;,
3;691,684,681;,
3;681,689,691;,
3;692,686,684;,
3;684,691,692;,
3;688,678,686;,
3;686,692,688;,
3;693,687,688;,
3;688,694,693;,
3;695,689,690;,
3;690,696,695;,
3;697,691,689;,
3;689,695,697;,
3;698,692,691;,
3;691,697,698;,
3;694,688,692;,
3;692,698,694;,
3;699,693,694;,
3;694,700,699;,
3;701,695,696;,
3;696,702,701;,
3;703,697,695;,
3;695,701,703;,
3;704,698,697;,
3;697,703,704;,
3;700,694,698;,
3;698,704,700;,
3;705,699,700;,
3;700,706,705;,
3;707,701,702;,
3;702,708,707;,
3;709,703,701;,
3;701,707,709;,
3;710,704,703;,
3;703,709,710;,
3;706,700,704;,
3;704,710,706;,
3;711,705,706;,
3;706,712,711;,
3;713,707,708;,
3;708,714,713;,
3;715,709,707;,
3;707,713,715;,
3;716,710,709;,
3;709,715,716;,
3;712,706,710;,
3;710,716,712;,
3;717,711,712;,
3;712,718,717;,
3;719,713,714;,
3;714,720,719;,
3;721,715,713;,
3;713,719,721;,
3;722,716,715;,
3;715,721,722;,
3;718,712,716;,
3;716,722,718;;
MeshMaterialList {
 4;
 683;
  0,
  0,
  0,
  0,
  0,
  0,
  0,
  0,
  0,
  0,
  0,
  0,
  0,
  0,
  0,
  0,
  0,
  0,
  0,
  0,
  0,
  0,
  0,
  0,
  0,
  0,
  0,
  0,
  0,
  0,
  0,
  0,
  0,
  0,
  0,
  0,
  1,
  1,
  1,
  1,
  1,
  1,
  1,
  1,
  1,
  1,
  1,
  1,
  1,
  1,
  1,
  1,
  1,
  1,
  1,
  1,
  1,
  1,
  1,
  1,
  1,
  1,
  1,
  1,
  1,
  1,
  1,
  1,
  1,
  1,
  1,
  1,
  1,
  1,
  1,
  1,
  1,
  1,
  1,
  1,
  1,
  1,
  1,
  1,
  1,
  1,
  1,
  1,
  1,
  1,
  1,
  1,
  1,
  1,
  1,
  1,
  1,
  1,
  1,
  1,
  1,
  1,
  1,
  1,
  0,
  0,
  0,
  0,
  0,
  0,
  0,
  0,
  0,
  0,
  0,
  0,
  1,
  1,
  1,
  1,
  1,
  1,
  1,
  1,
  1,
  1,
  1,
  1,
  0,
  0,
  0,
  0,
  0,
  0,
  0,
  0,
  0,
  0,
  0,
  0,
  0,
  0,
  0,
  0,
  0,
  0,
  0,
  0,
  0,
  0,
  0,
  0,
  0,
  0,
  0,
  0,
  0,
  0,
  0,
  0,
  0,
  0,
  0,
  0,
  0,
  0,
  0,
  0,
  0,
  0,
  0,
  0,
  0,
  0,
  0,
  0,
  0,
  0,
  0,
  0,
  0,
  0,
  0,
  0,
  0,
  0,
  0,
  0,
  0,
  0,
  0,
  0,
  0,
  0,
  0,
  0,
  0,
  0,
  0,
  0,
  0,
  0,
  0,
  0,
  0,
  0,
  0,
  0,
  0,
  0,
  0,
  0,
  0,
  0,
  0,
  0,
  0,
  0,
  0,
  0,
  0,
  0,
  0,
  0,
  0,
  0,
  0,
  0,
  0,
  0,
  1,
  1,
  1,
  1,
  1,
  1,
  1,
  1,
  1,
  1,
  1,
  1,
  1,
  1,
  1,
  1,
  1,
  1,
  1,
  1,
  1,
  1,
  1,
  1,
  1,
  1,
  1,
  1,
  1,
  1,
  1,
  1,
  1,
  1,
  1,
  1,
  1,
  1,
  1,
  1,
  1,
  1,
  1,
  1,
  1,
  1,
  1,
  1,
  1,
  1,
  1,
  1,
  1,
  1,
  1,
  1,
  1,
  1,
  1,
  1,
  1,
  1,
  1,
  1,
  1,
  1,
  1,
  1,
  0,
  0,
  0,
  0,
  0,
  0,
  0,
  0,
  0,
  0,
  0,
  0,
  1,
  1,
  1,
  1,
  1,
  1,
  1,
  1,
  1,
  1,
  1,
  1,
  0,
  0,
  0,
  0,
  0,
  0,
  0,
  0,
  0,
  0,
  0,
  0,
  0,
  0,
  0,
  0,
  0,
  0,
  0,
  0,
  0,
  0,
  0,
  0,
  0,
  0,
  0,
  0,
  0,
  0,
  0,
  0,
  0,
  0,
  0,
  0,
  0,
  0,
  0,
  0,
  0,
  0,
  0,
  0,
  0,
  0,
  0,
  0,
  0,
  0,
  0,
  0,
  0,
  0,
  0,
  0,
  0,
  0,
  0,
  0,
  0,
  0,
  0,
  0,
  0,
  0,
  2,
  2,
  2,
  2,
  2,
  2,
  2,
  2,
  2,
  2,
  2,
  2,
  2,
  2,
  2,
  2,
  2,
  2,
  2,
  2,
  2,
  2,
  2,
  2,
  2,
  2,
  2,
  2,
  2,
  2,
  2,
  2,
  2,
  2,
  2,
  2,
  2,
  2,
  2,
  2,
  2,
  2,
  2,
  2,
  2,
  2,
  2,
  2,
  2,
  2,
  2,
  2,
  2,
  2,
  2,
  2,
  2,
  2,
  2,
  2,
  2,
  2,
  2,
  2,
  2,
  2,
  2,
  2,
  2,
  2,
  2,
  2,
  2,
  2,
  2,
  2,
  2,
  2,
  2,
  2,
  2,
  2,
  2,
  2,
  2,
  2,
  2,
  2,
  2,
  2,
  2,
  2,
  2,
  2,
  2,
  2,
  2,
  2,
  2,
  2,
  2,
  2,
  2,
  2,
  2,
  2,
  2,
  2,
  2,
  2,
  2,
  2,
  2,
  2,
  2,
  2,
  2,
  2,
  2,
  2,
  2,
  2,
  2,
  2,
  2,
  2,
  2,
  2,
  2,
  2,
  2,
  2,
  2,
  2,
  2,
  2,
  2,
  2,
  2,
  2,
  2,
  2,
  2,
  2,
  2,
  2,
  2,
  2,
  2,
  2,
  2,
  2,
  2,
  2,
  2,
  2,
  2,
  2,
  2,
  2,
  2,
  2,
  2,
  2,
  2,
  2,
  2,
  2,
  2,
  2,
  2,
  2,
  2,
  2,
  2,
  2,
  2,
  2,
  2,
  2,
  2,
  2,
  2,
  2,
  2,
  2,
  2,
  2,
  2,
  2,
  2,
  2,
  2,
  2,
  2,
  2,
  2,
  2,
  2,
  2,
  2,
  2,
  2,
  2,
  2,
  2,
  2,
  2,
  2,
  2,
  2,
  2,
  2,
  2,
  2,
  2,
  2,
  2,
  2,
  2,
  2,
  2,
  2,
  2,
  2,
  2,
  2,
  2,
  2,
  2,
  2,
  2,
  2,
  2,
  2,
  2,
  2,
  2,
  2,
  2,
  2,
  2,
  2,
  2,
  2,
  2,
  2,
  2,
  2,
  2,
  2,
  2,
  2,
  2,
  2,
  2,
  2,
  2,
  2,
  2,
  2,
  2,
  2,
  2,
  2,
  2,
  2,
  2,
  2,
  2,
  2,
  2,
  2,
  2,
  2,
  2,
  2,
  2,
  2,
  2,
  2,
  2,
  2,
  2,
  2,
  2,
  2,
  2,
  2,
  2,
  2,
  2,
  2,
  2,
  2;;
Material _6_-_Default {
 1.000000;1.000000;1.000000;1.000000;;
8.000000;
 0.000000;0.000000;0.000000;;
 0.000000;0.000000;0.000000;;
TextureFilename {
"garage\WOOD_2.tga";
}
 }
Material _6_-_Default1 {
 1.000000;1.000000;1.000000;1.000000;;
8.000000;
 0.000000;0.000000;0.000000;;
 0.000000;0.000000;0.000000;;
TextureFilename {
"garage\KLIMA_2.tga";
}
 }
Material m_1 {
 1.000000;1.000000;1.000000;1.000000;;
8.000000;
 0.000000;0.000000;0.000000;;
 0.000000;0.000000;0.000000;;
TextureFilename {
"garage\M_1.tga";
}
 }
Material Material {
 0.752941;0.752941;0.752941;1.000000;;
8.000000;
 0.301177;0.301177;0.301177;;
 0.023529;0.023529;0.023529;;
 }
}

 MeshNormals {
 723;
0.701731;0.697944;-0.142993;,
0.701731;0.697944;-0.142993;,
0.996727;-0.001182;-0.080832;,
-0.705633;-0.697047;-0.127306;,
-0.998647;0.001636;-0.051982;,
-0.705633;-0.697047;-0.127306;,
-0.003571;-0.991660;-0.128831;,
-0.000033;0.992497;-0.122267;,
0.701775;0.697904;-0.142976;,
0.701775;0.697904;-0.142976;,
0.996729;-0.001183;-0.080809;,
-0.705611;-0.697071;-0.127303;,
-0.998646;0.001575;-0.051998;,
-0.705611;-0.697071;-0.127303;,
-0.003572;-0.991662;-0.128817;,
0.000084;0.992496;-0.122277;,
0.701745;0.697933;-0.142978;,
0.701745;0.697933;-0.142978;,
0.996729;-0.001215;-0.080805;,
-0.705590;-0.697091;-0.127310;,
-0.998646;0.001574;-0.051998;,
-0.705590;-0.697091;-0.127310;,
-0.003513;-0.991662;-0.128822;,
-0.000033;0.992497;-0.122268;,
-0.882595;0.290272;0.369820;,
0.010700;0.743176;0.669010;,
-0.556655;-0.005605;0.830725;,
0.832360;-0.551485;-0.055145;,
0.710402;-0.468735;-0.524992;,
-0.462299;-0.864326;0.198038;,
-0.643233;-0.720367;-0.259466;,
-0.711970;-0.548741;0.438158;,
-0.008070;0.747392;-0.664335;,
0.687808;0.572128;-0.446755;,
0.881699;0.389491;-0.266276;,
-0.014135;0.002941;-0.999896;,
-0.014136;0.002940;-0.999896;,
-0.014135;0.002941;-0.999896;,
-0.014134;0.002942;-0.999896;,
0.001802;0.999993;0.003308;,
0.001802;0.999993;0.003308;,
0.001802;0.999993;0.003308;,
0.001802;0.999993;0.003308;,
-0.001822;-0.999993;-0.003309;,
-0.001811;-0.999993;-0.003308;,
-0.001820;-0.999993;-0.003308;,
-0.001829;-0.999993;-0.003309;,
0.999895;-0.001378;-0.014434;,
0.999895;-0.001369;-0.014435;,
0.999895;-0.001376;-0.014434;,
0.999895;-0.001369;-0.014435;,
-0.999895;0.001374;0.014434;,
-0.999895;0.001382;0.014435;,
-0.999895;0.001376;0.014434;,
-0.999895;0.001369;0.014434;,
0.014122;-0.002945;0.999896;,
0.014128;-0.002950;0.999896;,
0.014122;-0.002945;0.999896;,
0.014117;-0.002940;0.999896;,
-0.999895;0.001369;0.014435;,
-0.999895;0.001369;0.014435;,
-0.001802;-0.999993;-0.003308;,
-0.001809;-0.999993;-0.003308;,
0.999895;-0.001363;-0.014436;,
0.999895;-0.001343;-0.014437;,
0.001802;0.999993;0.003308;,
0.001802;0.999993;0.003308;,
0.013211;0.502634;0.864398;,
0.009093;-0.692650;0.721217;,
-0.899458;-0.436857;0.011439;,
-0.753140;0.657732;0.012975;,
-0.011428;0.507951;-0.861310;,
-0.011541;-0.688066;-0.725557;,
0.898107;-0.439544;-0.014315;,
0.009093;-0.692650;0.721217;,
0.013211;0.502634;0.864398;,
0.755279;0.655347;-0.008649;,
-0.011428;0.507951;-0.861310;,
-0.011541;-0.688066;-0.725557;,
0.142253;0.559123;0.816790;,
0.553355;-0.546679;0.628443;,
-0.672015;-0.520764;0.526498;,
-0.827716;0.537391;0.161544;,
-0.535987;-0.546955;-0.643085;,
-0.107906;0.570263;-0.814344;,
0.835339;0.525669;-0.160875;,
0.553355;-0.546679;0.628443;,
0.142253;0.559123;0.816790;,
0.689077;-0.509920;-0.514933;,
-0.107906;0.570263;-0.814344;,
-0.535987;-0.546955;-0.643085;,
0.004821;-0.999986;-0.002172;,
0.004821;-0.999986;-0.002172;,
0.905061;-0.002677;0.425273;,
0.010961;0.721115;0.692729;,
-0.005753;0.864456;-0.502676;,
0.744826;0.000808;-0.667258;,
-0.005753;0.864456;-0.502676;,
0.010961;0.721115;0.692729;,
-0.892491;0.000067;0.451066;,
-0.763568;0.003089;-0.645720;,
0.008583;-0.725415;0.688258;,
-0.008557;-0.861220;-0.508160;,
-0.008557;-0.861220;-0.508160;,
0.008583;-0.725415;0.688258;,
0.014151;-0.002975;0.999895;,
0.014151;-0.002975;0.999895;,
-0.014155;0.002973;-0.999895;,
-0.014155;0.002973;-0.999895;,
0.905064;-0.002677;0.425266;,
0.010980;0.721117;0.692726;,
-0.005746;0.864455;-0.502678;,
0.744836;0.000807;-0.667247;,
-0.005746;0.864455;-0.502678;,
0.010980;0.721117;0.692726;,
-0.892489;0.000066;0.451068;,
-0.763563;0.003072;-0.645726;,
0.008592;-0.725415;0.688258;,
-0.008545;-0.861225;-0.508152;,
-0.008545;-0.861225;-0.508152;,
0.008592;-0.725415;0.688258;,
0.014171;-0.002972;0.999895;,
0.014171;-0.002972;0.999895;,
-0.014142;0.002962;-0.999896;,
-0.014142;0.002962;-0.999896;,
0.905063;-0.002673;0.425270;,
0.010972;0.721118;0.692725;,
-0.005745;0.864455;-0.502678;,
0.744835;0.000805;-0.667248;,
-0.005745;0.864455;-0.502678;,
0.010972;0.721118;0.692725;,
-0.892489;0.000064;0.451069;,
-0.763566;0.003087;-0.645722;,
0.008596;-0.725411;0.688263;,
-0.008546;-0.861225;-0.508152;,
-0.008546;-0.861225;-0.508152;,
0.008596;-0.725411;0.688263;,
0.014157;-0.002968;0.999895;,
0.014157;-0.002968;0.999895;,
-0.014148;0.002967;-0.999896;,
-0.014148;0.002967;-0.999896;,
-0.010874;-0.712706;0.701379;,
-0.995952;-0.055377;0.070807;,
0.994344;0.067037;-0.082375;,
0.994344;0.067037;-0.082375;,
0.008076;-0.707964;-0.706202;,
-0.692492;-0.512849;-0.507386;,
-0.998596;-0.043256;-0.030579;,
0.997361;0.065067;0.032214;,
0.997588;0.054966;0.042384;,
-0.001776;-0.999993;-0.003285;,
-0.001776;-0.999993;-0.003285;,
0.001775;0.999993;0.003290;,
0.001775;0.999993;0.003290;,
0.007629;0.999962;0.004323;,
0.007629;0.999962;0.004323;,
0.001872;0.999993;0.003350;,
0.001872;0.999993;0.003350;,
0.001872;0.999993;0.003350;,
-0.999896;0.001383;0.014377;,
-0.999896;0.001388;0.014336;,
-0.999896;0.001383;0.014377;,
-0.999895;0.001377;0.014418;,
0.569900;0.001593;-0.821712;,
0.569912;0.001592;-0.821704;,
0.569900;0.001593;-0.821712;,
0.569889;0.001595;-0.821720;,
0.592974;-0.003196;0.805215;,
0.592940;-0.003200;0.805240;,
0.592974;-0.003196;0.805215;,
0.593009;-0.003191;0.805190;,
0.001755;0.999993;0.003352;,
0.001755;0.999993;0.003352;,
0.001755;0.999993;0.003352;,
-0.999895;0.001380;0.014397;,
-0.999896;0.001388;0.014336;,
-0.999895;0.001380;0.014397;,
-0.999895;0.001372;0.014459;,
0.569897;0.001593;-0.821714;,
0.569885;0.001595;-0.821723;,
0.569897;0.001593;-0.821714;,
0.569910;0.001591;-0.821706;,
0.592987;-0.003197;0.805206;,
0.592963;-0.003200;0.805224;,
0.592987;-0.003197;0.805206;,
0.593011;-0.003194;0.805188;,
0.912197;0.003244;-0.409740;,
0.858229;0.003725;-0.513253;,
0.832315;0.000613;0.554303;,
0.872737;0.000928;0.488190;,
0.207440;0.000211;0.978248;,
-0.095667;0.000599;0.995413;,
-0.095667;0.000599;0.995413;,
0.207440;0.000211;0.978248;,
-0.744831;0.002601;0.667248;,
-0.859017;0.003295;0.511937;,
-0.948679;0.005770;-0.316188;,
-0.870648;0.006259;-0.491866;,
-0.197798;0.006681;-0.980220;,
0.066460;0.006309;-0.997769;,
0.858229;0.003725;-0.513253;,
0.912197;0.003244;-0.409740;,
-0.018871;0.006484;-0.999801;,
0.791450;0.004024;-0.611221;,
0.808459;0.004020;-0.588538;,
-0.132101;0.006656;-0.991214;,
-0.869598;0.006260;-0.493720;,
-0.870175;0.006259;-0.492703;,
-0.862720;0.003313;0.505672;,
-0.860732;0.003303;0.509047;,
0.029086;0.000502;0.999577;,
0.107361;0.000421;0.994220;,
0.876171;0.000800;0.482000;,
0.107361;0.000421;0.994220;,
0.029086;0.000502;0.999577;,
0.949312;0.001173;0.314333;,
0.808459;0.004020;-0.588538;,
0.791450;0.004024;-0.611221;,
0.066460;0.006309;-0.997769;,
0.912197;0.003244;-0.409740;,
0.791450;0.004024;-0.611221;,
-0.018871;0.006484;-0.999801;,
-0.870175;0.006259;-0.492703;,
0.066460;0.006309;-0.997769;,
-0.018871;0.006484;-0.999801;,
-0.870648;0.006259;-0.491866;,
-0.860732;0.003303;0.509047;,
-0.859017;0.003295;0.511937;,
0.107361;0.000421;0.994220;,
-0.095667;0.000599;0.995413;,
0.832315;0.000613;0.554303;,
0.949312;0.001173;0.314333;,
0.912197;0.003244;-0.409740;,
0.791450;0.004024;-0.611221;,
0.001804;0.999993;0.003304;,
0.001803;0.999993;0.003304;,
0.001805;0.999993;0.003301;,
0.001797;0.999993;0.003304;,
0.001794;0.999993;0.003305;,
0.001780;0.999993;0.003313;,
0.157944;0.006060;-0.987429;,
0.808459;0.004020;-0.588538;,
0.940894;0.003006;-0.338689;,
-0.132101;0.006656;-0.991214;,
-0.759996;0.006519;-0.649895;,
-0.869598;0.006260;-0.493720;,
-0.943146;0.003893;0.332355;,
-0.862720;0.003313;0.505672;,
-0.170522;0.000769;0.985354;,
0.029086;0.000502;0.999577;,
0.779552;0.000404;0.626338;,
0.029086;0.000502;0.999577;,
-0.170522;0.000769;0.985354;,
0.876171;0.000800;0.482000;,
0.940894;0.003006;-0.338689;,
0.808459;0.004020;-0.588538;,
0.701735;0.697944;-0.142976;,
0.701735;0.697944;-0.142976;,
0.996729;-0.001185;-0.080806;,
-0.705612;-0.697068;-0.127312;,
-0.998646;0.001577;-0.051997;,
-0.705612;-0.697068;-0.127312;,
-0.003572;-0.991660;-0.128831;,
-0.000033;0.992497;-0.122267;,
0.701776;0.697903;-0.142975;,
0.701776;0.697903;-0.142975;,
0.996729;-0.001185;-0.080806;,
-0.705612;-0.697070;-0.127302;,
-0.998646;0.001577;-0.051997;,
-0.705612;-0.697070;-0.127302;,
-0.003572;-0.991662;-0.128817;,
0.000084;0.992496;-0.122277;,
0.701735;0.697944;-0.142977;,
0.701735;0.697944;-0.142977;,
0.996729;-0.001187;-0.080807;,
-0.705591;-0.697090;-0.127309;,
-0.998646;0.001576;-0.051997;,
-0.705591;-0.697090;-0.127309;,
-0.003513;-0.991662;-0.128821;,
-0.000033;0.992497;-0.122268;,
-0.882608;0.290255;0.369804;,
0.010700;0.743176;0.669010;,
-0.556658;-0.005610;0.830723;,
0.832368;-0.551475;-0.055130;,
0.710422;-0.468721;-0.524977;,
-0.462296;-0.864331;0.198025;,
-0.643232;-0.720368;-0.259466;,
-0.711971;-0.548742;0.438155;,
-0.008072;0.747392;-0.664335;,
0.687803;0.572131;-0.446758;,
0.881697;0.389494;-0.266280;,
-0.014135;0.002941;-0.999896;,
-0.014136;0.002940;-0.999896;,
-0.014135;0.002941;-0.999896;,
-0.014134;0.002942;-0.999896;,
0.001802;0.999993;0.003308;,
0.001802;0.999993;0.003308;,
0.001802;0.999993;0.003308;,
0.001802;0.999993;0.003308;,
-0.001822;-0.999993;-0.003309;,
-0.001811;-0.999993;-0.003308;,
-0.001820;-0.999993;-0.003308;,
-0.001829;-0.999993;-0.003309;,
0.999895;-0.001399;-0.014435;,
0.999895;-0.001376;-0.014437;,
0.999895;-0.001393;-0.014436;,
0.999895;-0.001399;-0.014435;,
-0.999895;0.001376;0.014435;,
-0.999895;0.001376;0.014435;,
-0.999895;0.001376;0.014435;,
-0.999895;0.001376;0.014435;,
0.014122;-0.002945;0.999896;,
0.014127;-0.002950;0.999896;,
0.014122;-0.002945;0.999896;,
0.014117;-0.002940;0.999896;,
-0.999895;0.001376;0.014435;,
-0.999895;0.001376;0.014435;,
-0.001802;-0.999993;-0.003308;,
-0.001809;-0.999993;-0.003308;,
0.999895;-0.001393;-0.014436;,
0.999895;-0.001376;-0.014437;,
0.001802;0.999993;0.003308;,
0.001802;0.999993;0.003308;,
0.013208;0.502634;0.864398;,
0.009082;-0.692647;0.721219;,
-0.899458;-0.436857;0.011435;,
-0.753138;0.657734;0.012969;,
-0.011424;0.507950;-0.861311;,
-0.011550;-0.688063;-0.725559;,
0.898105;-0.439548;-0.014311;,
0.009082;-0.692647;0.721219;,
0.013208;0.502634;0.864398;,
0.755275;0.655351;-0.008643;,
-0.011424;0.507950;-0.861311;,
-0.011550;-0.688063;-0.725559;,
0.142268;0.559124;0.816787;,
0.553353;-0.546678;0.628446;,
-0.672016;-0.520767;0.526495;,
-0.827713;0.537397;0.161542;,
-0.535984;-0.546953;-0.643089;,
-0.107898;0.570264;-0.814344;,
0.835340;0.525666;-0.160879;,
0.553353;-0.546678;0.628446;,
0.142268;0.559124;0.816787;,
0.689079;-0.509919;-0.514929;,
-0.107898;0.570264;-0.814344;,
-0.535984;-0.546953;-0.643089;,
0.004816;-0.999986;-0.002172;,
0.004816;-0.999986;-0.002172;,
0.905062;-0.002678;0.425271;,
0.010971;0.721115;0.692728;,
-0.005740;0.864456;-0.502676;,
0.744834;0.000807;-0.667250;,
-0.005740;0.864456;-0.502676;,
0.010971;0.721115;0.692728;,
-0.892490;0.000068;0.451067;,
-0.763560;0.003090;-0.645729;,
0.008592;-0.725415;0.688258;,
-0.008546;-0.861220;-0.508160;,
-0.008546;-0.861220;-0.508160;,
0.008592;-0.725415;0.688258;,
0.014165;-0.002975;0.999895;,
0.014165;-0.002975;0.999895;,
-0.014146;0.002973;-0.999896;,
-0.014146;0.002973;-0.999896;,
0.905062;-0.002670;0.425271;,
0.010968;0.721116;0.692728;,
-0.005762;0.864455;-0.502677;,
0.744832;0.000808;-0.667251;,
-0.005762;0.864455;-0.502677;,
0.010968;0.721116;0.692728;,
-0.892492;0.000058;0.451063;,
-0.763570;0.003071;-0.645717;,
0.008593;-0.725414;0.688259;,
-0.008552;-0.861225;-0.508151;,
-0.008552;-0.861225;-0.508151;,
0.008593;-0.725414;0.688259;,
0.014163;-0.002972;0.999895;,
0.014163;-0.002972;0.999895;,
-0.014153;0.002962;-0.999895;,
-0.014153;0.002962;-0.999895;,
0.905064;-0.002669;0.425266;,
0.010974;0.721118;0.692725;,
-0.005747;0.864454;-0.502678;,
0.744836;0.000813;-0.667247;,
-0.005747;0.864454;-0.502678;,
0.010974;0.721118;0.692725;,
-0.892488;0.000061;0.451071;,
-0.763566;0.003080;-0.645723;,
0.008600;-0.725411;0.688262;,
-0.008541;-0.861225;-0.508152;,
-0.008541;-0.861225;-0.508152;,
0.008600;-0.725411;0.688262;,
0.014166;-0.002968;0.999895;,
0.014166;-0.002968;0.999895;,
-0.014147;0.002967;-0.999896;,
-0.014147;0.002967;-0.999896;,
-0.010874;-0.712706;0.701379;,
-0.995952;-0.055417;0.070767;,
0.994344;0.067034;-0.082377;,
0.994345;0.067055;-0.082356;,
0.008077;-0.707964;-0.706203;,
-0.692491;-0.512851;-0.507385;,
-0.998596;-0.043260;-0.030579;,
0.997361;0.065072;0.032209;,
0.997588;0.054968;0.042382;,
-0.001782;-0.999993;-0.003285;,
-0.001782;-0.999993;-0.003285;,
0.001775;0.999993;0.003290;,
0.001775;0.999993;0.003290;,
0.007642;0.999961;0.004319;,
0.007642;0.999961;0.004319;,
0.001872;0.999993;0.003350;,
0.001872;0.999993;0.003350;,
0.001872;0.999993;0.003350;,
-0.999895;0.001382;0.014395;,
-0.999896;0.001389;0.014342;,
-0.999895;0.001382;0.014395;,
-0.999895;0.001375;0.014448;,
0.569896;0.001593;-0.821715;,
0.569897;0.001593;-0.821715;,
0.569896;0.001593;-0.821715;,
0.569896;0.001593;-0.821715;,
0.592980;-0.003197;0.805211;,
0.592951;-0.003201;0.805232;,
0.592980;-0.003197;0.805211;,
0.593009;-0.003193;0.805189;,
0.001754;0.999993;0.003352;,
0.001754;0.999993;0.003352;,
0.001754;0.999993;0.003352;,
-0.999895;0.001375;0.014448;,
-0.999895;0.001375;0.014448;,
-0.999895;0.001375;0.014448;,
-0.999895;0.001375;0.014448;,
0.569865;0.001589;-0.821737;,
0.569835;0.001593;-0.821758;,
0.569865;0.001589;-0.821737;,
0.569894;0.001584;-0.821716;,
0.592981;-0.003197;0.805210;,
0.593009;-0.003193;0.805189;,
0.592981;-0.003197;0.805210;,
0.592953;-0.003201;0.805231;,
0.912197;0.003244;-0.409739;,
0.858230;0.003725;-0.513252;,
0.832316;0.000613;0.554302;,
0.872737;0.000928;0.488190;,
0.207442;0.000211;0.978247;,
-0.095666;0.000599;0.995413;,
-0.095666;0.000599;0.995413;,
0.207442;0.000211;0.978247;,
-0.744832;0.002601;0.667247;,
-0.859014;0.003294;0.511942;,
-0.948681;0.005770;-0.316181;,
-0.870651;0.006259;-0.491861;,
-0.197798;0.006681;-0.980220;,
0.066461;0.006309;-0.997769;,
0.858230;0.003725;-0.513252;,
0.912197;0.003244;-0.409739;,
-0.018867;0.006484;-0.999801;,
0.791453;0.004023;-0.611217;,
0.808460;0.004020;-0.588537;,
-0.132101;0.006656;-0.991214;,
-0.869598;0.006260;-0.493720;,
-0.870173;0.006259;-0.492706;,
-0.862719;0.003313;0.505673;,
-0.860732;0.003303;0.509048;,
0.029088;0.000502;0.999577;,
0.107362;0.000421;0.994220;,
0.876170;0.000800;0.482002;,
0.107362;0.000421;0.994220;,
0.029088;0.000502;0.999577;,
0.949311;0.001173;0.314335;,
0.808460;0.004020;-0.588537;,
0.791453;0.004023;-0.611217;,
0.066461;0.006309;-0.997769;,
0.912197;0.003244;-0.409739;,
0.791453;0.004023;-0.611217;,
-0.018867;0.006484;-0.999801;,
-0.870173;0.006259;-0.492706;,
0.066461;0.006309;-0.997769;,
-0.018867;0.006484;-0.999801;,
-0.870651;0.006259;-0.491861;,
-0.860732;0.003303;0.509048;,
-0.859014;0.003294;0.511942;,
0.107362;0.000421;0.994220;,
-0.095666;0.000599;0.995413;,
0.832316;0.000613;0.554302;,
0.949311;0.001173;0.314335;,
0.912197;0.003244;-0.409739;,
0.791453;0.004023;-0.611217;,
0.001804;0.999993;0.003304;,
0.001803;0.999993;0.003304;,
0.001805;0.999993;0.003301;,
0.001797;0.999993;0.003304;,
0.001794;0.999993;0.003305;,
0.001780;0.999993;0.003313;,
0.157944;0.006060;-0.987429;,
0.808460;0.004020;-0.588537;,
0.940895;0.003006;-0.338686;,
-0.132101;0.006656;-0.991214;,
-0.759995;0.006519;-0.649897;,
-0.869598;0.006260;-0.493720;,
-0.943145;0.003893;0.332359;,
-0.862719;0.003313;0.505673;,
-0.170514;0.000769;0.985355;,
0.029088;0.000502;0.999577;,
0.779554;0.000404;0.626335;,
0.029088;0.000502;0.999577;,
-0.170514;0.000769;0.985355;,
0.876170;0.000800;0.482002;,
0.940895;0.003006;-0.338686;,
0.808460;0.004020;-0.588537;,
0.829489;0.558523;0.000010;,
0.829472;0.558548;-0.000000;,
0.829518;0.558480;0.000000;,
0.829541;0.558447;0.000000;,
0.829575;0.558396;-0.000020;,
0.995704;0.092594;-0.000027;,
0.995696;0.092675;-0.000053;,
0.733245;0.235515;-0.637875;,
0.809466;-0.407412;0.422825;,
0.687140;-0.603151;-0.405027;,
0.132791;0.936197;-0.325427;,
0.238336;0.825204;0.512088;,
-0.379702;0.925109;0.000033;,
-0.385660;0.465684;-0.796495;,
-0.379707;0.925107;0.000073;,
0.995701;0.092621;0.000056;,
0.995704;0.092589;0.000066;,
0.733264;0.235537;-0.637846;,
0.809474;-0.407380;0.422840;,
0.687140;-0.603152;-0.405027;,
0.132789;0.936196;-0.325430;,
0.238336;0.825204;0.512089;,
-0.379702;0.925109;0.000033;,
-0.385656;0.465686;-0.796496;,
-0.379707;0.925107;0.000073;,
-0.496587;0.862880;-0.094019;,
-0.391772;0.869255;-0.301514;,
0.019990;0.018386;-0.999631;,
-0.496587;0.862880;-0.094019;,
-0.193100;0.335666;0.921976;,
-0.266866;0.538142;0.799491;,
-0.391772;0.869255;-0.301514;,
0.809466;-0.407412;0.422825;,
0.233608;-0.557111;0.796903;,
0.687140;-0.603151;-0.405027;,
0.403043;-0.868234;-0.289353;,
-0.206102;0.930833;-0.301782;,
0.028389;0.012935;-0.999513;,
-0.155295;0.578745;0.800586;,
-0.206102;0.930833;-0.301782;,
0.111570;-0.591394;0.798627;,
0.219695;-0.930650;-0.292618;,
-0.012690;0.952696;-0.303660;,
0.025254;0.007895;-0.999650;,
-0.030361;0.597442;0.801337;,
-0.012690;0.952696;-0.303660;,
-0.007733;-0.601289;0.798994;,
0.024022;-0.955876;-0.292786;,
0.111213;0.946093;-0.304202;,
0.012509;0.012156;-0.999848;,
0.060610;0.597861;0.799305;,
0.111213;0.946093;-0.304202;,
-0.077945;-0.601453;0.795097;,
-0.108129;-0.952549;-0.284533;,
0.275451;0.913685;-0.298841;,
0.036613;-0.005663;-0.999313;,
0.143516;0.583524;0.799314;,
0.275451;0.913685;-0.298841;,
-0.195723;-0.570241;0.797820;,
-0.261450;-0.920084;-0.291702;,
0.473408;0.827094;-0.302985;,
0.026544;-0.006492;-0.999627;,
0.277243;0.530791;0.800873;,
0.473408;0.827094;-0.302985;,
-0.313251;-0.514044;0.798519;,
-0.465313;-0.835541;-0.292155;,
0.238336;0.825204;0.512088;,
0.132791;0.936197;-0.325427;,
-0.225098;-0.320896;0.919976;,
-0.572627;-0.815954;-0.079478;,
-0.496586;0.862878;-0.094047;,
-0.391772;0.869254;-0.301515;,
0.019990;0.018386;-0.999631;,
-0.496586;0.862878;-0.094047;,
-0.193109;0.335681;0.921969;,
-0.266871;0.538152;0.799482;,
-0.391772;0.869254;-0.301515;,
0.809474;-0.407380;0.422840;,
0.233609;-0.557114;0.796901;,
0.687140;-0.603152;-0.405027;,
0.403043;-0.868234;-0.289355;,
-0.206101;0.930832;-0.301784;,
0.028389;0.012932;-0.999513;,
-0.155296;0.578747;0.800584;,
-0.206101;0.930832;-0.301784;,
0.111571;-0.591397;0.798625;,
0.219695;-0.930648;-0.292623;,
-0.012690;0.952693;-0.303669;,
0.025254;0.007894;-0.999650;,
-0.030361;0.597446;0.801334;,
-0.012690;0.952693;-0.303669;,
-0.007733;-0.601293;0.798991;,
0.024022;-0.955873;-0.292797;,
0.111213;0.946091;-0.304208;,
0.012509;0.012158;-0.999848;,
0.060610;0.597864;0.799303;,
0.111213;0.946091;-0.304208;,
-0.077946;-0.601455;0.795095;,
-0.108129;-0.952547;-0.284538;,
0.275451;0.913685;-0.298844;,
0.036611;-0.005665;-0.999314;,
0.143516;0.583526;0.799313;,
0.275451;0.913685;-0.298844;,
-0.195723;-0.570243;0.797819;,
-0.261449;-0.920082;-0.291709;,
0.473407;0.827093;-0.302990;,
0.026544;-0.006492;-0.999627;,
0.277243;0.530791;0.800873;,
0.473407;0.827093;-0.302990;,
-0.313251;-0.514044;0.798519;,
-0.465312;-0.835540;-0.292162;,
0.238336;0.825204;0.512089;,
0.132789;0.936196;-0.325430;,
-0.225097;-0.320895;0.919977;,
-0.572627;-0.815954;-0.079477;,
-0.137723;0.239277;-0.961134;,
-0.496587;0.862880;-0.094017;,
-0.391772;0.869255;-0.301512;,
0.019991;0.018385;-0.999631;,
-0.496587;0.862880;-0.094017;,
-0.193101;0.335668;0.921976;,
-0.266865;0.538139;0.799494;,
-0.391772;0.869255;-0.301512;,
0.388646;-0.677168;0.624818;,
0.233609;-0.557113;0.796902;,
0.435334;-0.758407;-0.485081;,
0.403042;-0.868233;-0.289357;,
-0.206101;0.930832;-0.301784;,
0.028388;0.012936;-0.999513;,
-0.155295;0.578744;0.800587;,
-0.206101;0.930832;-0.301784;,
0.111570;-0.591395;0.798627;,
0.219695;-0.930649;-0.292619;,
-0.012690;0.952696;-0.303660;,
0.025254;0.007895;-0.999650;,
-0.030361;0.597442;0.801337;,
-0.012690;0.952696;-0.303660;,
-0.007733;-0.601289;0.798994;,
0.024022;-0.955876;-0.292786;,
0.111213;0.946093;-0.304202;,
0.012509;0.012155;-0.999848;,
0.060610;0.597861;0.799305;,
0.111213;0.946093;-0.304202;,
-0.077945;-0.601453;0.795097;,
-0.108129;-0.952549;-0.284531;,
0.275451;0.913686;-0.298840;,
0.036611;-0.005665;-0.999314;,
0.143516;0.583523;0.799315;,
0.275451;0.913686;-0.298840;,
-0.195723;-0.570243;0.797819;,
-0.261450;-0.920084;-0.291702;,
0.473408;0.827096;-0.302981;,
0.026543;-0.006495;-0.999627;,
0.277241;0.530788;0.800876;,
0.473408;0.827096;-0.302981;,
-0.313253;-0.514047;0.798516;,
-0.465313;-0.835541;-0.292155;,
0.497523;0.711070;-0.496840;,
-0.148866;-0.212042;-0.965856;,
0.446035;0.637608;0.628099;,
0.497523;0.711070;-0.496840;,
-0.225100;-0.320899;0.919975;,
-0.572627;-0.815954;-0.079485;,
-0.137724;0.239278;-0.961134;,
-0.496586;0.862878;-0.094039;,
-0.391772;0.869255;-0.301513;,
0.019991;0.018385;-0.999631;,
-0.496586;0.862878;-0.094039;,
-0.193108;0.335679;0.921970;,
-0.266869;0.538147;0.799487;,
-0.391772;0.869255;-0.301513;,
0.388648;-0.677170;0.624815;,
0.233610;-0.557115;0.796900;,
0.435334;-0.758407;-0.485080;,
0.403042;-0.868233;-0.289359;,
-0.206101;0.930832;-0.301786;,
0.028389;0.012932;-0.999513;,
-0.155295;0.578746;0.800585;,
-0.206101;0.930832;-0.301786;,
0.111571;-0.591397;0.798624;,
0.219695;-0.930648;-0.292623;,
-0.012690;0.952693;-0.303669;,
0.025254;0.007894;-0.999650;,
-0.030361;0.597446;0.801334;,
-0.012690;0.952693;-0.303669;,
-0.007733;-0.601293;0.798991;,
0.024022;-0.955873;-0.292796;,
0.111213;0.946091;-0.304208;,
0.012509;0.012157;-0.999848;,
0.060610;0.597864;0.799303;,
0.111213;0.946091;-0.304208;,
-0.077946;-0.601455;0.795095;,
-0.108129;-0.952548;-0.284536;,
0.275451;0.913685;-0.298843;,
0.036610;-0.005668;-0.999314;,
0.143516;0.583526;0.799313;,
0.275451;0.913685;-0.298843;,
-0.195724;-0.570244;0.797818;,
-0.261449;-0.920082;-0.291708;,
0.473407;0.827094;-0.302987;,
0.026542;-0.006494;-0.999627;,
0.277241;0.530788;0.800875;,
0.473407;0.827094;-0.302987;,
-0.313253;-0.514046;0.798517;,
-0.465312;-0.835539;-0.292162;,
0.497521;0.711068;-0.496845;,
-0.148862;-0.212036;-0.965857;,
0.446035;0.637607;0.628101;,
0.497521;0.711068;-0.496845;,
-0.225099;-0.320898;0.919975;,
-0.572627;-0.815954;-0.079484;;

 683;
3;2,1,0;,
3;5,4,3;,
3;5,3,6;,
3;1,7,0;,
3;10,9,8;,
3;13,12,11;,
3;13,11,14;,
3;9,15,8;,
3;18,17,16;,
3;21,20,19;,
3;21,19,22;,
3;17,23,16;,
3;26,25,24;,
3;29,28,27;,
3;29,31,30;,
3;34,33,32;,
3;37,36,35;,
3;38,37,35;,
3;41,40,39;,
3;42,41,39;,
3;45,44,43;,
3;46,45,43;,
3;49,48,47;,
3;50,49,47;,
3;53,52,51;,
3;54,53,51;,
3;57,56,55;,
3;58,57,55;,
3;54,51,59;,
3;60,54,59;,
3;62,61,44;,
3;45,62,44;,
3;50,47,63;,
3;64,50,63;,
3;42,39,65;,
3;66,42,65;,
3;69,68,67;,
3;70,69,67;,
3;71,69,70;,
3;71,72,69;,
3;75,74,73;,
3;75,73,76;,
3;76,73,77;,
3;73,78,77;,
3;81,80,79;,
3;82,81,79;,
3;83,81,82;,
3;84,83,82;,
3;87,86,85;,
3;86,88,85;,
3;85,88,89;,
3;88,90,89;,
3;81,83,91;,
3;80,81,91;,
3;88,86,92;,
3;90,88,92;,
3;95,94,93;,
3;95,93,96;,
3;99,98,97;,
3;100,99,97;,
3;102,101,99;,
3;102,99,100;,
3;93,104,103;,
3;96,93,103;,
3;93,94,105;,
3;98,99,106;,
3;99,101,106;,
3;104,93,105;,
3;95,96,107;,
3;100,97,108;,
3;102,100,108;,
3;96,103,107;,
3;111,110,109;,
3;111,109,112;,
3;115,114,113;,
3;116,115,113;,
3;118,117,115;,
3;118,115,116;,
3;109,120,119;,
3;112,109,119;,
3;109,110,121;,
3;114,115,122;,
3;115,117,122;,
3;120,109,121;,
3;111,112,123;,
3;116,113,124;,
3;118,116,124;,
3;112,119,123;,
3;127,126,125;,
3;127,125,128;,
3;131,130,129;,
3;132,131,129;,
3;134,133,131;,
3;134,131,132;,
3;125,136,135;,
3;128,125,135;,
3;125,126,137;,
3;130,131,138;,
3;131,133,138;,
3;136,125,137;,
3;127,128,139;,
3;132,129,140;,
3;134,132,140;,
3;128,135,139;,
3;29,27,141;,
3;26,29,141;,
3;29,26,24;,
3;142,29,24;,
3;144,143,27;,
3;144,27,28;,
3;145,29,30;,
3;146,145,30;,
3;30,31,147;,
3;146,30,147;,
3;148,33,34;,
3;148,34,149;,
3;69,72,150;,
3;78,73,151;,
3;73,74,151;,
3;68,69,150;,
3;75,76,152;,
3;76,77,152;,
3;71,70,153;,
3;70,67,153;,
3;87,85,154;,
3;85,89,154;,
3;84,82,155;,
3;82,79,155;,
3;158,157,156;,
3;161,160,159;,
3;162,161,159;,
3;165,164,163;,
3;166,165,163;,
3;169,168,167;,
3;170,169,167;,
3;173,172,171;,
3;176,175,174;,
3;177,176,174;,
3;180,179,178;,
3;181,180,178;,
3;184,183,182;,
3;185,184,182;,
3;188,187,186;,
3;188,189,187;,
3;190,189,188;,
3;191,190,188;,
3;194,193,192;,
3;195,194,192;,
3;196,194,195;,
3;197,196,195;,
3;198,196,197;,
3;199,198,197;,
3;200,198,199;,
3;201,200,199;,
3;204,203,202;,
3;204,202,205;,
3;205,202,206;,
3;202,207,206;,
3;206,207,208;,
3;207,209,208;,
3;208,209,210;,
3;209,211,210;,
3;214,213,212;,
3;213,215,212;,
3;212,215,216;,
3;215,217,216;,
3;220,219,218;,
3;220,218,221;,
3;224,223,222;,
3;223,225,222;,
3;222,225,226;,
3;225,227,226;,
3;226,227,228;,
3;227,229,228;,
3;228,229,230;,
3;228,230,231;,
3;231,230,232;,
3;231,232,233;,
3;236,235,234;,
3;236,234,237;,
3;238,236,237;,
3;239,238,237;,
3;242,241,240;,
3;241,243,240;,
3;240,243,244;,
3;243,245,244;,
3;244,245,246;,
3;245,247,246;,
3;246,247,248;,
3;247,249,248;,
3;252,251,250;,
3;251,253,250;,
3;250,253,254;,
3;253,255,254;,
3;258,257,256;,
3;261,260,259;,
3;261,259,262;,
3;257,263,256;,
3;266,265,264;,
3;269,268,267;,
3;269,267,270;,
3;265,271,264;,
3;274,273,272;,
3;277,276,275;,
3;277,275,278;,
3;273,279,272;,
3;282,281,280;,
3;285,284,283;,
3;285,287,286;,
3;290,289,288;,
3;293,292,291;,
3;294,293,291;,
3;297,296,295;,
3;298,297,295;,
3;301,300,299;,
3;302,301,299;,
3;305,304,303;,
3;306,305,303;,
3;309,308,307;,
3;310,309,307;,
3;313,312,311;,
3;314,313,311;,
3;310,307,315;,
3;316,310,315;,
3;318,317,300;,
3;301,318,300;,
3;306,303,319;,
3;320,306,319;,
3;298,295,321;,
3;322,298,321;,
3;325,324,323;,
3;326,325,323;,
3;327,325,326;,
3;327,328,325;,
3;331,330,329;,
3;331,329,332;,
3;332,329,333;,
3;329,334,333;,
3;337,336,335;,
3;338,337,335;,
3;339,337,338;,
3;340,339,338;,
3;343,342,341;,
3;342,344,341;,
3;341,344,345;,
3;344,346,345;,
3;337,339,347;,
3;336,337,347;,
3;344,342,348;,
3;346,344,348;,
3;351,350,349;,
3;351,349,352;,
3;355,354,353;,
3;356,355,353;,
3;358,357,355;,
3;358,355,356;,
3;349,360,359;,
3;352,349,359;,
3;349,350,361;,
3;354,355,362;,
3;355,357,362;,
3;360,349,361;,
3;351,352,363;,
3;356,353,364;,
3;358,356,364;,
3;352,359,363;,
3;367,366,365;,
3;367,365,368;,
3;371,370,369;,
3;372,371,369;,
3;374,373,371;,
3;374,371,372;,
3;365,376,375;,
3;368,365,375;,
3;365,366,377;,
3;370,371,378;,
3;371,373,378;,
3;376,365,377;,
3;367,368,379;,
3;372,369,380;,
3;374,372,380;,
3;368,375,379;,
3;383,382,381;,
3;383,381,384;,
3;387,386,385;,
3;388,387,385;,
3;390,389,387;,
3;390,387,388;,
3;381,392,391;,
3;384,381,391;,
3;381,382,393;,
3;386,387,394;,
3;387,389,394;,
3;392,381,393;,
3;383,384,395;,
3;388,385,396;,
3;390,388,396;,
3;384,391,395;,
3;285,283,397;,
3;282,285,397;,
3;285,282,280;,
3;398,285,280;,
3;400,399,283;,
3;400,283,284;,
3;401,285,286;,
3;402,401,286;,
3;286,287,403;,
3;402,286,403;,
3;404,289,290;,
3;404,290,405;,
3;325,328,406;,
3;334,329,407;,
3;329,330,407;,
3;324,325,406;,
3;331,332,408;,
3;332,333,408;,
3;327,326,409;,
3;326,323,409;,
3;343,341,410;,
3;341,345,410;,
3;340,338,411;,
3;338,335,411;,
3;414,413,412;,
3;417,416,415;,
3;418,417,415;,
3;421,420,419;,
3;422,421,419;,
3;425,424,423;,
3;426,425,423;,
3;429,428,427;,
3;432,431,430;,
3;433,432,430;,
3;436,435,434;,
3;437,436,434;,
3;440,439,438;,
3;441,440,438;,
3;444,443,442;,
3;444,445,443;,
3;446,445,444;,
3;447,446,444;,
3;450,449,448;,
3;451,450,448;,
3;452,450,451;,
3;453,452,451;,
3;454,452,453;,
3;455,454,453;,
3;456,454,455;,
3;457,456,455;,
3;460,459,458;,
3;460,458,461;,
3;461,458,462;,
3;458,463,462;,
3;462,463,464;,
3;463,465,464;,
3;464,465,466;,
3;465,467,466;,
3;470,469,468;,
3;469,471,468;,
3;468,471,472;,
3;471,473,472;,
3;476,475,474;,
3;476,474,477;,
3;480,479,478;,
3;479,481,478;,
3;478,481,482;,
3;481,483,482;,
3;482,483,484;,
3;483,485,484;,
3;484,485,486;,
3;484,486,487;,
3;487,486,488;,
3;487,488,489;,
3;492,491,490;,
3;492,490,493;,
3;494,492,493;,
3;495,494,493;,
3;498,497,496;,
3;497,499,496;,
3;496,499,500;,
3;499,501,500;,
3;500,501,502;,
3;501,503,502;,
3;502,503,504;,
3;503,505,504;,
3;508,507,506;,
3;507,509,506;,
3;506,509,510;,
3;509,511,510;,
3;514,513,512;,
3;514,512,515;,
3;514,515,516;,
3;519,518,517;,
3;519,517,520;,
3;519,520,521;,
3;524,523,522;,
3;524,522,525;,
3;524,525,526;,
3;529,528,527;,
3;529,527,530;,
3;529,530,531;,
3;534,533,532;,
3;534,532,535;,
3;534,535,536;,
3;538,537,519;,
3;519,539,538;,
3;542,541,540;,
3;540,543,542;,
3;545,544,541;,
3;541,542,545;,
3;547,546,544;,
3;544,545,547;,
3;539,519,546;,
3;546,547,539;,
3;548,538,539;,
3;539,549,548;,
3;550,542,543;,
3;543,551,550;,
3;552,545,542;,
3;542,550,552;,
3;553,547,545;,
3;545,552,553;,
3;549,539,547;,
3;547,553,549;,
3;554,548,549;,
3;549,555,554;,
3;556,550,551;,
3;551,557,556;,
3;558,552,550;,
3;550,556,558;,
3;559,553,552;,
3;552,558,559;,
3;555,549,553;,
3;553,559,555;,
3;560,554,555;,
3;555,561,560;,
3;562,556,557;,
3;557,563,562;,
3;564,558,556;,
3;556,562,564;,
3;565,559,558;,
3;558,564,565;,
3;561,555,559;,
3;559,565,561;,
3;566,560,561;,
3;561,567,566;,
3;568,562,563;,
3;563,569,568;,
3;570,564,562;,
3;562,568,570;,
3;571,565,564;,
3;564,570,571;,
3;567,561,565;,
3;565,571,567;,
3;572,566,567;,
3;567,573,572;,
3;574,568,569;,
3;569,575,574;,
3;576,570,568;,
3;568,574,576;,
3;577,571,570;,
3;570,576,577;,
3;573,567,571;,
3;571,577,573;,
3;522,572,573;,
3;573,525,522;,
3;578,574,575;,
3;575,579,578;,
3;580,576,574;,
3;574,578,580;,
3;581,577,576;,
3;576,580,581;,
3;525,573,577;,
3;577,581,525;,
3;583,582,529;,
3;529,584,583;,
3;587,586,585;,
3;585,588,587;,
3;590,589,586;,
3;586,587,590;,
3;592,591,589;,
3;589,590,592;,
3;584,529,591;,
3;591,592,584;,
3;593,583,584;,
3;584,594,593;,
3;595,587,588;,
3;588,596,595;,
3;597,590,587;,
3;587,595,597;,
3;598,592,590;,
3;590,597,598;,
3;594,584,592;,
3;592,598,594;,
3;599,593,594;,
3;594,600,599;,
3;601,595,596;,
3;596,602,601;,
3;603,597,595;,
3;595,601,603;,
3;604,598,597;,
3;597,603,604;,
3;600,594,598;,
3;598,604,600;,
3;605,599,600;,
3;600,606,605;,
3;607,601,602;,
3;602,608,607;,
3;609,603,601;,
3;601,607,609;,
3;610,604,603;,
3;603,609,610;,
3;606,600,604;,
3;604,610,606;,
3;611,605,606;,
3;606,612,611;,
3;613,607,608;,
3;608,614,613;,
3;615,609,607;,
3;607,613,615;,
3;616,610,609;,
3;609,615,616;,
3;612,606,610;,
3;610,616,612;,
3;617,611,612;,
3;612,618,617;,
3;619,613,614;,
3;614,620,619;,
3;621,615,613;,
3;613,619,621;,
3;622,616,615;,
3;615,621,622;,
3;618,612,616;,
3;616,622,618;,
3;532,617,618;,
3;618,535,532;,
3;623,619,620;,
3;620,624,623;,
3;625,621,619;,
3;619,623,625;,
3;626,622,621;,
3;621,625,626;,
3;535,618,622;,
3;622,626,535;,
3;629,628,627;,
3;627,630,629;,
3;633,632,631;,
3;631,634,633;,
3;636,635,632;,
3;632,633,636;,
3;638,637,635;,
3;635,636,638;,
3;630,627,637;,
3;637,638,630;,
3;639,629,630;,
3;630,640,639;,
3;641,633,634;,
3;634,642,641;,
3;643,636,633;,
3;633,641,643;,
3;644,638,636;,
3;636,643,644;,
3;640,630,638;,
3;638,644,640;,
3;645,639,640;,
3;640,646,645;,
3;647,641,642;,
3;642,648,647;,
3;649,643,641;,
3;641,647,649;,
3;650,644,643;,
3;643,649,650;,
3;646,640,644;,
3;644,650,646;,
3;651,645,646;,
3;646,652,651;,
3;653,647,648;,
3;648,654,653;,
3;655,649,647;,
3;647,653,655;,
3;656,650,649;,
3;649,655,656;,
3;652,646,650;,
3;650,656,652;,
3;657,651,652;,
3;652,658,657;,
3;659,653,654;,
3;654,660,659;,
3;661,655,653;,
3;653,659,661;,
3;662,656,655;,
3;655,661,662;,
3;658,652,656;,
3;656,662,658;,
3;663,657,658;,
3;658,664,663;,
3;665,659,660;,
3;660,666,665;,
3;667,661,659;,
3;659,665,667;,
3;668,662,661;,
3;661,667,668;,
3;664,658,662;,
3;662,668,664;,
3;669,663,664;,
3;664,670,669;,
3;671,665,666;,
3;666,672,671;,
3;673,667,665;,
3;665,671,673;,
3;674,668,667;,
3;667,673,674;,
3;670,664,668;,
3;668,674,670;,
3;677,676,675;,
3;675,678,677;,
3;681,680,679;,
3;679,682,681;,
3;684,683,680;,
3;680,681,684;,
3;686,685,683;,
3;683,684,686;,
3;678,675,685;,
3;685,686,678;,
3;687,677,678;,
3;678,688,687;,
3;689,681,682;,
3;682,690,689;,
3;691,684,681;,
3;681,689,691;,
3;692,686,684;,
3;684,691,692;,
3;688,678,686;,
3;686,692,688;,
3;693,687,688;,
3;688,694,693;,
3;695,689,690;,
3;690,696,695;,
3;697,691,689;,
3;689,695,697;,
3;698,692,691;,
3;691,697,698;,
3;694,688,692;,
3;692,698,694;,
3;699,693,694;,
3;694,700,699;,
3;701,695,696;,
3;696,702,701;,
3;703,697,695;,
3;695,701,703;,
3;704,698,697;,
3;697,703,704;,
3;700,694,698;,
3;698,704,700;,
3;705,699,700;,
3;700,706,705;,
3;707,701,702;,
3;702,708,707;,
3;709,703,701;,
3;701,707,709;,
3;710,704,703;,
3;703,709,710;,
3;706,700,704;,
3;704,710,706;,
3;711,705,706;,
3;706,712,711;,
3;713,707,708;,
3;708,714,713;,
3;715,709,707;,
3;707,713,715;,
3;716,710,709;,
3;709,715,716;,
3;712,706,710;,
3;710,716,712;,
3;717,711,712;,
3;712,718,717;,
3;719,713,714;,
3;714,720,719;,
3;721,715,713;,
3;713,719,721;,
3;722,716,715;,
3;715,721,722;,
3;718,712,716;,
3;716,722,718;;
 }
MeshTextureCoords {
 723;
0.537994;0.205622;,
0.507712;0.206846;,
0.537872;0.208139;,
0.507712;0.206846;,
0.508447;0.205620;,
0.508354;0.208136;,
0.537872;0.208139;,
0.508447;0.205620;,
0.535930;0.249135;,
0.507116;0.250359;,
0.535813;0.251652;,
0.507116;0.250359;,
0.506883;0.249133;,
0.506795;0.251650;,
0.535813;0.251652;,
0.506883;0.249133;,
0.533891;0.293704;,
0.506516;0.294928;,
0.533778;0.296221;,
0.506516;0.294928;,
0.505345;0.293702;,
0.505260;0.296218;,
0.533778;0.296221;,
0.505345;0.293702;,
0.444146;0.080716;,
0.159645;0.117060;,
0.165668;0.117059;,
0.198329;0.119393;,
0.447248;0.083048;,
0.203426;0.119391;,
0.207739;0.119389;,
0.042869;0.083318;,
0.246000;0.117041;,
0.245883;0.117042;,
0.045286;0.080970;,
0.476592;0.078466;,
0.476584;0.084371;,
0.485660;0.084382;,
0.485670;0.078477;,
0.224617;0.078773;,
0.476592;0.078466;,
0.485670;0.078477;,
0.208182;0.078783;,
0.476584;0.084371;,
0.224852;0.084678;,
0.208594;0.084688;,
0.485660;0.084382;,
0.208182;0.078783;,
0.485670;0.078477;,
0.485660;0.084382;,
0.208594;0.084688;,
0.224852;0.084678;,
0.476584;0.084371;,
0.476592;0.078466;,
0.224617;0.078773;,
0.018567;0.084984;,
0.018552;0.079079;,
0.009819;0.079089;,
0.009834;0.084994;,
0.018567;0.084984;,
0.018552;0.079079;,
0.018567;0.084984;,
0.009834;0.084994;,
0.009819;0.079089;,
0.009834;0.084994;,
0.018552;0.079079;,
0.009819;0.079089;,
0.766255;0.334779;,
0.766466;0.383367;,
0.802107;0.383249;,
0.801897;0.334660;,
0.838421;0.334616;,
0.838632;0.383205;,
0.604791;0.353394;,
0.641315;0.353438;,
0.641526;0.304850;,
0.605002;0.304806;,
0.569360;0.304687;,
0.569149;0.353276;,
0.569149;0.306945;,
0.569359;0.355533;,
0.586180;0.355445;,
0.585969;0.306857;,
0.631504;0.355362;,
0.631293;0.306774;,
0.794762;0.336793;,
0.838422;0.385462;,
0.838633;0.336874;,
0.794551;0.385381;,
0.776489;0.336703;,
0.776278;0.385291;,
0.599856;0.363207;,
0.807925;0.393136;,
0.619055;0.485142;,
0.619602;0.460811;,
0.547436;0.460649;,
0.546889;0.484981;,
0.908980;0.460649;,
0.836814;0.460811;,
0.836478;0.485068;,
0.908644;0.484906;,
0.837025;0.509400;,
0.909191;0.509238;,
0.547225;0.509238;,
0.619391;0.509400;,
0.631020;0.485131;,
0.825396;0.485131;,
0.537156;0.484921;,
0.919260;0.484921;,
0.618305;0.657951;,
0.618852;0.633620;,
0.546686;0.633458;,
0.546139;0.657789;,
0.909730;0.633458;,
0.837564;0.633620;,
0.837228;0.657877;,
0.909394;0.657715;,
0.837775;0.682209;,
0.909941;0.682047;,
0.546475;0.682047;,
0.618641;0.682209;,
0.630270;0.657940;,
0.826146;0.657940;,
0.536406;0.657730;,
0.920010;0.657730;,
0.617537;0.834952;,
0.618084;0.810620;,
0.545918;0.810458;,
0.545371;0.834790;,
0.910498;0.810458;,
0.838332;0.810620;,
0.837996;0.834877;,
0.910162;0.834716;,
0.838543;0.859209;,
0.910709;0.859047;,
0.545707;0.859047;,
0.617873;0.859209;,
0.629502;0.834940;,
0.826914;0.834940;,
0.535637;0.834730;,
0.920779;0.834730;,
0.159645;0.117060;,
0.447248;0.083048;,
0.159645;0.117060;,
0.444146;0.080716;,
0.245883;0.117042;,
0.246000;0.117041;,
0.045286;0.080970;,
0.203426;0.119391;,
0.042869;0.083318;,
0.802583;0.391044;,
0.605198;0.361116;,
0.605473;0.297918;,
0.802309;0.327847;,
0.808199;0.329939;,
0.599582;0.300010;,
0.479367;0.064465;,
0.476749;0.064466;,
0.477256;0.064460;,
0.476749;0.064466;,
0.476725;0.078956;,
0.477232;0.078950;,
0.477256;0.064460;,
0.479367;0.064465;,
0.477256;0.064460;,
0.477232;0.078950;,
0.479341;0.078955;,
0.479341;0.078955;,
0.476725;0.078956;,
0.476749;0.064466;,
0.479367;0.064465;,
0.015744;0.065023;,
0.017781;0.065024;,
0.018247;0.065018;,
0.017781;0.065024;,
0.017826;0.079514;,
0.018292;0.079508;,
0.018247;0.065018;,
0.015744;0.065023;,
0.018247;0.065018;,
0.018292;0.079508;,
0.015787;0.079513;,
0.015787;0.079513;,
0.017826;0.079514;,
0.017781;0.065024;,
0.015744;0.065023;,
1.153719;0.292391;,
-0.658781;0.292391;,
1.153719;0.384975;,
-0.658781;0.384975;,
-0.658781;0.476275;,
1.153719;0.476275;,
1.153719;0.261958;,
-0.658781;0.261958;,
-0.658781;0.322213;,
1.153719;0.322213;,
-0.658781;0.385219;,
1.153719;0.385219;,
-0.658781;0.447644;,
1.153719;0.447644;,
-0.658781;0.504904;,
1.153719;0.504904;,
-0.658781;0.447644;,
-0.658781;0.504902;,
1.153719;0.504902;,
1.153719;0.447644;,
1.153719;0.384975;,
-0.658781;0.384975;,
1.153719;0.322825;,
-0.658781;0.322825;,
1.153719;0.261958;,
-0.658781;0.261958;,
1.153719;0.384975;,
-0.658781;0.476275;,
1.153719;0.476275;,
-0.658781;0.384975;,
1.153719;0.292391;,
-0.658781;0.292391;,
-0.660490;0.322213;,
-0.660490;0.261958;,
1.155672;0.261958;,
1.155672;0.322213;,
1.153719;0.385219;,
-0.658781;0.322213;,
1.153719;0.322213;,
-0.658781;0.385219;,
1.153719;0.447644;,
-0.658781;0.447644;,
1.153719;0.476275;,
-0.658781;0.476275;,
-0.658781;0.384975;,
1.153719;0.384975;,
-0.658781;0.292391;,
1.153719;0.292391;,
0.996094;0.643555;,
0.946289;0.610352;,
0.864746;0.615723;,
0.973633;0.671387;,
0.853516;0.657227;,
0.918945;0.682617;,
1.153719;0.447644;,
-0.658781;0.504902;,
1.153719;0.504902;,
-0.658781;0.447644;,
1.153719;0.384975;,
-0.658781;0.384975;,
1.153719;0.322825;,
-0.658781;0.322825;,
1.153719;0.261958;,
-0.658781;0.261958;,
1.153719;0.384975;,
-0.658781;0.476275;,
1.153719;0.476275;,
-0.658781;0.384975;,
1.153719;0.292391;,
-0.658781;0.292391;,
0.537994;0.205622;,
0.507712;0.206846;,
0.537872;0.208139;,
0.507712;0.206846;,
0.508447;0.205620;,
0.508354;0.208136;,
0.537872;0.208139;,
0.508447;0.205620;,
0.535930;0.249135;,
0.507116;0.250359;,
0.535813;0.251652;,
0.507116;0.250359;,
0.506883;0.249133;,
0.506795;0.251650;,
0.535813;0.251652;,
0.506883;0.249133;,
0.533891;0.293704;,
0.506516;0.294928;,
0.533778;0.296221;,
0.506516;0.294928;,
0.505345;0.293702;,
0.505260;0.296218;,
0.533778;0.296221;,
0.505345;0.293702;,
0.444146;0.080716;,
0.159645;0.117060;,
0.165668;0.117059;,
0.198329;0.119393;,
0.447248;0.083048;,
0.203426;0.119391;,
0.207739;0.119389;,
0.042869;0.083318;,
0.246000;0.117041;,
0.245883;0.117042;,
0.045286;0.080970;,
0.476592;0.078466;,
0.476584;0.084371;,
0.485660;0.084382;,
0.485670;0.078477;,
0.224617;0.078773;,
0.476592;0.078466;,
0.485670;0.078477;,
0.208182;0.078783;,
0.476584;0.084371;,
0.224852;0.084678;,
0.208594;0.084688;,
0.485660;0.084382;,
0.208182;0.078783;,
0.485670;0.078477;,
0.485660;0.084382;,
0.208594;0.084688;,
0.224852;0.084678;,
0.476584;0.084371;,
0.476592;0.078466;,
0.224617;0.078773;,
0.018567;0.084984;,
0.018552;0.079079;,
0.009819;0.079089;,
0.009834;0.084994;,
0.018567;0.084984;,
0.018552;0.079079;,
0.018567;0.084984;,
0.009834;0.084994;,
0.009819;0.079089;,
0.009834;0.084994;,
0.018552;0.079079;,
0.009819;0.079089;,
0.766255;0.334779;,
0.766466;0.383367;,
0.802107;0.383249;,
0.801897;0.334660;,
0.838421;0.334616;,
0.838632;0.383205;,
0.604791;0.353394;,
0.641315;0.353438;,
0.641526;0.304850;,
0.605002;0.304806;,
0.569360;0.304687;,
0.569149;0.353276;,
0.569149;0.306945;,
0.569359;0.355533;,
0.586180;0.355445;,
0.585969;0.306857;,
0.631504;0.355362;,
0.631293;0.306774;,
0.794762;0.336793;,
0.838422;0.385462;,
0.838633;0.336874;,
0.794551;0.385381;,
0.776489;0.336703;,
0.776278;0.385291;,
0.599856;0.363207;,
0.807925;0.393136;,
0.619055;0.485142;,
0.619602;0.460811;,
0.547436;0.460649;,
0.546889;0.484981;,
0.908980;0.460649;,
0.836814;0.460811;,
0.836478;0.485068;,
0.908644;0.484906;,
0.837025;0.509400;,
0.909191;0.509238;,
0.547225;0.509238;,
0.619391;0.509400;,
0.631020;0.485131;,
0.825396;0.485131;,
0.537156;0.484921;,
0.919260;0.484921;,
0.618305;0.657951;,
0.618852;0.633620;,
0.546686;0.633458;,
0.546139;0.657789;,
0.909730;0.633458;,
0.837564;0.633620;,
0.837228;0.657877;,
0.909394;0.657715;,
0.837775;0.682209;,
0.909941;0.682047;,
0.546475;0.682047;,
0.618641;0.682209;,
0.630270;0.657940;,
0.826146;0.657940;,
0.536406;0.657730;,
0.920010;0.657730;,
0.617537;0.834952;,
0.618084;0.810620;,
0.545918;0.810458;,
0.545371;0.834790;,
0.910498;0.810458;,
0.838332;0.810620;,
0.837996;0.834877;,
0.910162;0.834716;,
0.838543;0.859209;,
0.910709;0.859047;,
0.545707;0.859047;,
0.617873;0.859209;,
0.629502;0.834940;,
0.826914;0.834940;,
0.535637;0.834730;,
0.920779;0.834730;,
0.159645;0.117060;,
0.447248;0.083048;,
0.159645;0.117060;,
0.444146;0.080716;,
0.245883;0.117042;,
0.246000;0.117041;,
0.045286;0.080970;,
0.203426;0.119391;,
0.042869;0.083318;,
0.802583;0.391044;,
0.605198;0.361116;,
0.605473;0.297918;,
0.802309;0.327847;,
0.808199;0.329939;,
0.599582;0.300010;,
0.479367;0.064465;,
0.476749;0.064466;,
0.477256;0.064460;,
0.476749;0.064466;,
0.476725;0.078956;,
0.477232;0.078950;,
0.477256;0.064460;,
0.479367;0.064465;,
0.477256;0.064460;,
0.477232;0.078950;,
0.479341;0.078955;,
0.479341;0.078955;,
0.476725;0.078956;,
0.476749;0.064466;,
0.479367;0.064465;,
0.015744;0.065023;,
0.017781;0.065024;,
0.018247;0.065018;,
0.017781;0.065024;,
0.017826;0.079514;,
0.018292;0.079508;,
0.018247;0.065018;,
0.015744;0.065023;,
0.018247;0.065018;,
0.018292;0.079508;,
0.015787;0.079513;,
0.015787;0.079513;,
0.017826;0.079514;,
0.017781;0.065024;,
0.015744;0.065023;,
1.153719;0.292391;,
-0.658781;0.292391;,
1.153719;0.384975;,
-0.658781;0.384975;,
-0.658781;0.476275;,
1.153719;0.476275;,
1.153719;0.261958;,
-0.658781;0.261958;,
-0.658781;0.322213;,
1.153719;0.322213;,
-0.658781;0.385219;,
1.153719;0.385219;,
-0.658781;0.447644;,
1.153719;0.447644;,
-0.658781;0.504904;,
1.153719;0.504904;,
-0.658781;0.447644;,
-0.658781;0.504902;,
1.153719;0.504902;,
1.153719;0.447644;,
1.153719;0.384975;,
-0.658781;0.384975;,
1.153719;0.322825;,
-0.658781;0.322825;,
1.153719;0.261958;,
-0.658781;0.261958;,
1.153719;0.384975;,
-0.658781;0.476275;,
1.153719;0.476275;,
-0.658781;0.384975;,
1.153719;0.292391;,
-0.658781;0.292391;,
-0.660490;0.322213;,
-0.660490;0.261958;,
1.155672;0.261958;,
1.155672;0.322213;,
1.153719;0.385219;,
-0.658781;0.322213;,
1.153719;0.322213;,
-0.658781;0.385219;,
1.153719;0.447644;,
-0.658781;0.447644;,
1.153719;0.476275;,
-0.658781;0.476275;,
-0.658781;0.384975;,
1.153719;0.384975;,
-0.658781;0.292391;,
1.153719;0.292391;,
0.996094;0.643555;,
0.946289;0.610352;,
0.864746;0.615723;,
0.973633;0.671387;,
0.853516;0.657227;,
0.918945;0.682617;,
1.153719;0.447644;,
-0.658781;0.504902;,
1.153719;0.504902;,
-0.658781;0.447644;,
1.153719;0.384975;,
-0.658781;0.384975;,
1.153719;0.322825;,
-0.658781;0.322825;,
1.153719;0.261958;,
-0.658781;0.261958;,
1.153719;0.384975;,
-0.658781;0.476275;,
1.153719;0.476275;,
-0.658781;0.384975;,
1.153719;0.292391;,
-0.658781;0.292391;,
0.528115;1.000000;,
0.950000;1.000000;,
0.750000;1.000000;,
0.067379;1.000000;,
0.204511;1.000000;,
0.528115;1.000000;,
0.950000;1.000000;,
0.750000;1.000000;,
0.067379;1.000000;,
0.204511;1.000000;,
0.950000;0.000000;,
0.528120;0.000000;,
0.067373;0.000000;,
0.750000;0.000000;,
0.550000;0.000000;,
0.528115;1.000000;,
0.950000;1.000000;,
0.750000;1.000000;,
0.067379;1.000000;,
0.204511;1.000000;,
0.950000;0.000000;,
0.528120;0.000000;,
0.067373;0.000000;,
0.750000;0.000000;,
0.550000;0.000000;,
0.950000;1.000000;,
0.950000;0.857143;,
0.750000;0.857143;,
-0.050000;1.000000;,
0.150000;1.000000;,
0.150000;0.857143;,
-0.050000;0.857143;,
0.350000;1.000000;,
0.350000;0.857143;,
0.550000;1.000000;,
0.550000;0.857143;,
0.950000;0.714286;,
0.750000;0.714286;,
0.150000;0.714286;,
-0.050000;0.714286;,
0.350000;0.714286;,
0.550000;0.714286;,
0.950000;0.571429;,
0.750000;0.571429;,
0.150000;0.571429;,
-0.050000;0.571429;,
0.350000;0.571429;,
0.550000;0.571429;,
0.950000;0.428571;,
0.750000;0.428571;,
0.150000;0.428571;,
-0.050000;0.428571;,
0.350000;0.428571;,
0.550000;0.428571;,
0.950000;0.285714;,
0.750000;0.285714;,
0.150000;0.285714;,
-0.050000;0.285714;,
0.350000;0.285714;,
0.550000;0.285714;,
0.950000;0.142857;,
0.750000;0.142857;,
0.150000;0.142857;,
-0.050000;0.142857;,
0.350000;0.142857;,
0.550000;0.142857;,
0.150000;0.000000;,
-0.050000;0.000000;,
0.350000;0.000000;,
0.550000;0.000000;,
0.950000;1.000000;,
0.950000;0.857143;,
0.750000;0.857143;,
-0.050000;1.000000;,
0.150000;1.000000;,
0.150000;0.857143;,
-0.050000;0.857143;,
0.350000;1.000000;,
0.350000;0.857143;,
0.550000;1.000000;,
0.550000;0.857143;,
0.950000;0.714286;,
0.750000;0.714286;,
0.150000;0.714286;,
-0.050000;0.714286;,
0.350000;0.714286;,
0.550000;0.714286;,
0.950000;0.571429;,
0.750000;0.571429;,
0.150000;0.571429;,
-0.050000;0.571429;,
0.350000;0.571429;,
0.550000;0.571429;,
0.950000;0.428571;,
0.750000;0.428571;,
0.150000;0.428571;,
-0.050000;0.428571;,
0.350000;0.428571;,
0.550000;0.428571;,
0.950000;0.285714;,
0.750000;0.285714;,
0.150000;0.285714;,
-0.050000;0.285714;,
0.350000;0.285714;,
0.550000;0.285714;,
0.950000;0.142857;,
0.750000;0.142857;,
0.150000;0.142857;,
-0.050000;0.142857;,
0.350000;0.142857;,
0.550000;0.142857;,
0.150000;0.000000;,
-0.050000;0.000000;,
0.350000;0.000000;,
0.550000;0.000000;,
0.750000;1.000000;,
0.950000;1.000000;,
0.950000;0.857143;,
0.750000;0.857143;,
-0.050000;1.000000;,
0.150000;1.000000;,
0.150000;0.857143;,
-0.050000;0.857143;,
0.350000;1.000000;,
0.350000;0.857143;,
0.550000;1.000000;,
0.550000;0.857143;,
0.950000;0.714286;,
0.750000;0.714286;,
0.150000;0.714286;,
-0.050000;0.714286;,
0.350000;0.714286;,
0.550000;0.714286;,
0.950000;0.571429;,
0.750000;0.571429;,
0.150000;0.571429;,
-0.050000;0.571429;,
0.350000;0.571429;,
0.550000;0.571429;,
0.950000;0.428571;,
0.750000;0.428571;,
0.150000;0.428571;,
-0.050000;0.428571;,
0.350000;0.428571;,
0.550000;0.428571;,
0.950000;0.285714;,
0.750000;0.285714;,
0.150000;0.285714;,
-0.050000;0.285714;,
0.350000;0.285714;,
0.550000;0.285714;,
0.950000;0.142857;,
0.750000;0.142857;,
0.150000;0.142857;,
-0.050000;0.142857;,
0.350000;0.142857;,
0.550000;0.142857;,
0.950000;0.000000;,
0.750000;0.000000;,
0.150000;0.000000;,
-0.050000;0.000000;,
0.350000;0.000000;,
0.550000;0.000000;,
0.750000;1.000000;,
0.950000;1.000000;,
0.950000;0.857143;,
0.750000;0.857143;,
-0.050000;1.000000;,
0.150000;1.000000;,
0.150000;0.857143;,
-0.050000;0.857143;,
0.350000;1.000000;,
0.350000;0.857143;,
0.550000;1.000000;,
0.550000;0.857143;,
0.950000;0.714286;,
0.750000;0.714286;,
0.150000;0.714286;,
-0.050000;0.714286;,
0.350000;0.714286;,
0.550000;0.714286;,
0.950000;0.571429;,
0.750000;0.571429;,
0.150000;0.571429;,
-0.050000;0.571429;,
0.350000;0.571429;,
0.550000;0.571429;,
0.950000;0.428571;,
0.750000;0.428571;,
0.150000;0.428571;,
-0.050000;0.428571;,
0.350000;0.428571;,
0.550000;0.428571;,
0.950000;0.285714;,
0.750000;0.285714;,
0.150000;0.285714;,
-0.050000;0.285714;,
0.350000;0.285714;,
0.550000;0.285714;,
0.950000;0.142857;,
0.750000;0.142857;,
0.150000;0.142857;,
-0.050000;0.142857;,
0.350000;0.142857;,
0.550000;0.142857;,
0.950000;0.000000;,
0.750000;0.000000;,
0.150000;0.000000;,
-0.050000;-0.006714;,
0.350000;0.000000;,
0.550000;0.000000;;
}
}
 }
