xof 0303txt 0032

// DirectX 8.0 file
// Creator: Ultimate Unwrap3D Pro v3.27
// Website: http://www.unwrap3d.com
// Time: Fri Jun 01 18:47:10 2012

// Start of Templates

template VertexDuplicationIndices {
 <b8d65549-d7c9-4995-89cf-53a9a8b031e3>
 DWORD nIndices;
 DWORD nOriginalVertices;
 array DWORD indices[nIndices];
}

template FVFData {
 <b6e70a0e-8ef9-4e83-94ad-ecc8b0c04897>
 DWORD dwFVF;
 DWORD nDWords;
 array DWORD data[nDWords];
}

template XSkinMeshHeader {
 <3CF169CE-FF7C-44ab-93C0-F78F62D172E2>
 WORD nMaxSkinWeightsPerVertex;
 WORD nMaxSkinWeightsPerFace;
 WORD nBones;
}

template SkinWeights {
 <6F0D123B-BAD2-4167-A0D0-80224F25FABB>
 STRING transformNodeName;
 DWORD nWeights;
 array DWORD vertexIndices[nWeights];
 array FLOAT weights[nWeights];
 Matrix4x4 matrixOffset;
}

template AnimTicksPerSecond {
 <9E415A43-7BA6-4a73-8743-B73D47E88476>
 DWORD AnimTicksPerSecond;
}

// Start of Frames

Frame barrier_metal {
   FrameTransformMatrix {
    1.000000, 0.000000, 0.000000, 0.000000,
    0.000000, 1.000000, 0.000000, 0.000000,
    0.000000, 0.000000, 1.000000, 0.000000,
    0.000000, 0.000000, 0.000000, 1.000000;;
   }

   Mesh barrier_metal {
    302;
    1.345000; 1.005000; 0.032000;,
    1.356000; 1.021000; 0.000000;,
    1.231000; 1.070000; 0.000000;,
    1.231000; 1.051000; 0.032000;,
    1.327000; 0.973000; 0.032000;,
    1.231000; 1.014000; 0.032000;,
    1.319000; 0.957000; 0.000000;,
    1.231000; 0.995000; 0.000000;,
    1.327000; 0.973000; -0.032000;,
    1.319000; 0.957000; 0.000000;,
    1.231000; 0.995000; 0.000000;,
    1.231000; 1.014000; -0.032000;,
    1.345000; 1.005000; -0.032000;,
    1.231000; 1.051000; -0.032000;,
    1.472000; 0.810000; 0.032000;,
    1.491000; 0.810000; 0.000000;,
    1.442000; 0.936000; 0.000000;,
    1.426000; 0.925000; 0.032000;,
    1.435000; 0.810000; 0.032000;,
    1.394000; 0.906000; 0.032000;,
    1.416000; 0.810000; 0.000000;,
    1.377000; 0.898000; 0.000000;,
    1.435000; 0.810000; -0.032000;,
    1.416000; 0.810000; 0.000000;,
    1.377000; 0.898000; 0.000000;,
    1.394000; 0.906000; -0.032000;,
    1.472000; 0.810000; -0.032000;,
    1.426000; 0.925000; -0.032000;,
    -1.421000; 0.925000; 0.032000;,
    -1.437000; 0.936000; 0.000000;,
    -1.486000; 0.810000; 0.000000;,
    -1.467000; 0.810000; 0.032000;,
    -1.389000; 0.906000; 0.032000;,
    -1.430000; 0.810000; 0.032000;,
    -1.372000; 0.898000; 0.000000;,
    -1.411000; 0.810000; 0.000000;,
    -1.389000; 0.906000; -0.032000;,
    -1.372000; 0.898000; 0.000000;,
    -1.411000; 0.810000; 0.000000;,
    -1.430000; 0.810000; -0.032000;,
    -1.421000; 0.925000; -0.032000;,
    -1.467000; 0.810000; -0.032000;,
    -1.225000; 1.051000; 0.032000;,
    -1.225000; 1.070000; 0.000000;,
    -1.351000; 1.021000; 0.000000;,
    -1.340000; 1.005000; 0.032000;,
    -1.225000; 1.014000; 0.032000;,
    -1.322000; 0.973000; 0.032000;,
    -1.225000; 0.995000; 0.000000;,
    -1.314000; 0.956000; 0.000000;,
    -1.225000; 1.014000; -0.032000;,
    -1.225000; 0.995000; 0.000000;,
    -1.314000; 0.956000; 0.000000;,
    -1.322000; 0.973000; -0.032000;,
    -1.225000; 1.051000; -0.032000;,
    -1.340000; 1.005000; -0.032000;,
    1.472000; 0.023000; 0.032000;,
    1.491000; 0.023000; -0.000000;,
    1.491000; 0.810000; 0.000000;,
    1.472000; 0.810000; 0.032000;,
    1.435000; 0.023000; 0.032000;,
    1.435000; 0.810000; 0.032000;,
    1.416000; 0.023000; -0.000000;,
    1.416000; 0.810000; 0.000000;,
    1.435000; 0.023000; -0.032000;,
    1.416000; 0.023000; -0.000000;,
    1.416000; 0.810000; 0.000000;,
    1.435000; 0.810000; -0.032000;,
    1.472000; 0.023000; -0.032000;,
    1.472000; 0.810000; -0.032000;,
    -1.486000; 0.023000; -0.000000;,
    -1.467000; 0.023000; 0.032000;,
    -1.467000; 0.810000; 0.032000;,
    -1.486000; 0.810000; 0.000000;,
    -1.430000; 0.023000; 0.032000;,
    -1.430000; 0.810000; 0.032000;,
    -1.411000; 0.023000; -0.000000;,
    -1.411000; 0.810000; 0.000000;,
    -1.411000; 0.023000; -0.000000;,
    -1.430000; 0.023000; -0.032000;,
    -1.430000; 0.810000; -0.032000;,
    -1.411000; 0.810000; 0.000000;,
    -1.467000; 0.023000; -0.032000;,
    -1.467000; 0.810000; -0.032000;,
    1.405000; 0.023000; 0.407000;,
    1.502000; 0.023000; 0.407000;,
    1.472000; 0.023000; 0.032000;,
    1.435000; 0.023000; 0.032000;,
    1.416000; 0.023000; -0.000000;,
    1.435000; 0.023000; -0.032000;,
    1.405000; 0.023000; -0.407000;,
    1.502000; 0.023000; -0.407000;,
    1.472000; 0.023000; -0.032000;,
    1.491000; 0.023000; -0.000000;,
    -1.500000; 0.023000; 0.407000;,
    -1.397000; 0.023000; 0.407000;,
    -1.430000; 0.023000; 0.032000;,
    -1.467000; 0.023000; 0.032000;,
    -1.397000; 0.023000; -0.407000;,
    -1.430000; 0.023000; -0.032000;,
    -1.411000; 0.023000; -0.000000;,
    -1.500000; 0.023000; -0.407000;,
    -1.467000; 0.023000; -0.032000;,
    -1.486000; 0.023000; -0.000000;,
    1.405000; 0.000000; 0.407000;,
    1.502000; 0.000000; 0.407000;,
    1.405000; 0.000000; -0.407000;,
    1.405000; 0.000000; 0.407000;,
    1.502000; 0.000000; -0.407000;,
    1.405000; 0.000000; -0.407000;,
    1.502000; 0.000000; 0.407000;,
    1.502000; 0.000000; -0.407000;,
    -1.500000; 0.000000; 0.407000;,
    -1.397000; 0.000000; 0.407000;,
    -1.397000; 0.000000; 0.407000;,
    -1.397000; 0.000000; -0.407000;,
    -1.397000; 0.000000; -0.407000;,
    -1.500000; 0.000000; -0.407000;,
    -1.500000; 0.000000; -0.407000;,
    -1.500000; 0.000000; 0.407000;,
    1.405000; 0.000000; 0.407000;,
    1.405000; 0.000000; -0.407000;,
    -1.500000; 0.000000; 0.407000;,
    -1.500000; 0.000000; -0.407000;,
    -1.430000; 0.333000; -0.000000;,
    -1.430000; 0.314000; 0.032000;,
    1.435000; 0.314000; 0.032000;,
    1.435000; 0.333000; -0.000000;,
    -1.430000; 0.277000; 0.032000;,
    1.435000; 0.277000; 0.032000;,
    -1.430000; 0.277000; 0.032000;,
    -1.430000; 0.258000; -0.000000;,
    1.435000; 0.258000; -0.000000;,
    1.435000; 0.277000; 0.032000;,
    -1.430000; 0.277000; -0.032000;,
    1.435000; 0.277000; -0.032000;,
    -1.430000; 0.314000; -0.032000;,
    1.435000; 0.314000; -0.032000;,
    0.139000; 1.017000; 0.026000;,
    0.113000; 1.017000; 0.000000;,
    0.113000; 0.311000; -0.000000;,
    0.139000; 0.311000; 0.026000;,
    0.166000; 1.017000; 0.000000;,
    0.139000; 1.017000; 0.026000;,
    0.139000; 0.311000; 0.026000;,
    0.166000; 0.311000; -0.000000;,
    0.139000; 1.017000; -0.027000;,
    0.139000; 0.311000; -0.027000;,
    -0.178000; 1.017000; 0.026000;,
    -0.205000; 1.017000; 0.000000;,
    -0.205000; 0.311000; -0.000000;,
    -0.178000; 0.311000; 0.026000;,
    -0.152000; 1.017000; 0.000000;,
    -0.178000; 1.017000; 0.026000;,
    -0.178000; 0.311000; 0.026000;,
    -0.152000; 0.311000; -0.000000;,
    -0.178000; 1.017000; -0.027000;,
    -0.178000; 0.311000; -0.027000;,
    -0.506000; 1.017000; 0.026000;,
    -0.532000; 1.017000; 0.000000;,
    -0.532000; 0.311000; -0.000000;,
    -0.506000; 0.311000; 0.026000;,
    -0.479000; 1.017000; 0.000000;,
    -0.506000; 1.017000; 0.026000;,
    -0.506000; 0.311000; 0.026000;,
    -0.479000; 0.311000; -0.000000;,
    -0.506000; 1.017000; -0.027000;,
    -0.506000; 0.311000; -0.027000;,
    -0.824000; 1.017000; 0.026000;,
    -0.850000; 1.017000; 0.000000;,
    -0.850000; 0.311000; -0.000000;,
    -0.824000; 0.311000; 0.026000;,
    -0.797000; 1.017000; 0.000000;,
    -0.824000; 1.017000; 0.026000;,
    -0.824000; 0.311000; 0.026000;,
    -0.797000; 0.311000; -0.000000;,
    -0.824000; 1.017000; -0.027000;,
    -0.824000; 0.311000; -0.027000;,
    -1.162000; 1.017000; 0.026000;,
    -1.188000; 1.017000; 0.000000;,
    -1.188000; 0.311000; -0.000000;,
    -1.162000; 0.311000; 0.026000;,
    -1.135000; 1.017000; 0.000000;,
    -1.162000; 1.017000; 0.026000;,
    -1.162000; 0.311000; 0.026000;,
    -1.135000; 0.311000; -0.000000;,
    -1.162000; 1.017000; -0.027000;,
    -1.162000; 0.311000; -0.027000;,
    1.169000; 1.017000; 0.026000;,
    1.142000; 1.017000; 0.000000;,
    1.142000; 0.311000; -0.000000;,
    1.169000; 0.311000; 0.026000;,
    1.195000; 1.017000; 0.000000;,
    1.169000; 1.017000; 0.026000;,
    1.169000; 0.311000; 0.026000;,
    1.195000; 0.311000; -0.000000;,
    1.169000; 1.017000; -0.027000;,
    1.169000; 0.311000; -0.027000;,
    0.815000; 1.017000; 0.026000;,
    0.788000; 1.017000; 0.000000;,
    0.788000; 0.311000; -0.000000;,
    0.815000; 0.311000; 0.026000;,
    0.841000; 1.017000; 0.000000;,
    0.815000; 1.017000; 0.026000;,
    0.815000; 0.311000; 0.026000;,
    0.841000; 0.311000; -0.000000;,
    0.815000; 1.017000; -0.027000;,
    0.815000; 0.311000; -0.027000;,
    0.466000; 1.017000; 0.026000;,
    0.440000; 1.017000; 0.000000;,
    0.440000; 0.311000; -0.000000;,
    0.466000; 0.311000; 0.026000;,
    0.493000; 1.017000; 0.000000;,
    0.466000; 1.017000; 0.026000;,
    0.466000; 0.311000; 0.026000;,
    0.493000; 0.311000; -0.000000;,
    0.466000; 1.017000; -0.027000;,
    0.466000; 0.311000; -0.027000;,
    1.499000; 0.755000; 0.007000;,
    1.501000; 0.758000; 0.000000;,
    1.482000; 0.763000; 0.000000;,
    1.482000; 0.759000; 0.007000;,
    1.495000; 0.748000; 0.007000;,
    1.482000; 0.752000; 0.007000;,
    1.493000; 0.745000; -0.000000;,
    1.482000; 0.748000; 0.000000;,
    1.495000; 0.748000; -0.007000;,
    1.493000; 0.745000; -0.000000;,
    1.482000; 0.748000; 0.000000;,
    1.482000; 0.752000; -0.007000;,
    1.499000; 0.755000; -0.007000;,
    1.482000; 0.759000; -0.007000;,
    1.516000; 0.726000; 0.007000;,
    1.520000; 0.726000; -0.000000;,
    1.513000; 0.745000; -0.000000;,
    1.510000; 0.743000; 0.007000;,
    1.508000; 0.726000; 0.007000;,
    1.503000; 0.739000; 0.007000;,
    1.505000; 0.726000; -0.000000;,
    1.500000; 0.737000; -0.000000;,
    1.508000; 0.726000; -0.007000;,
    1.505000; 0.726000; -0.000000;,
    1.500000; 0.737000; -0.000000;,
    1.503000; 0.739000; -0.007000;,
    1.516000; 0.726000; -0.007000;,
    1.510000; 0.743000; -0.007000;,
    1.516000; 0.564000; 0.007000;,
    1.520000; 0.564000; -0.000000;,
    1.508000; 0.564000; 0.007000;,
    1.505000; 0.564000; -0.000000;,
    1.508000; 0.564000; -0.007000;,
    1.505000; 0.564000; -0.000000;,
    1.516000; 0.564000; -0.007000;,
    -1.509000; 0.592000; -0.019000;,
    -1.520000; 0.592000; -0.000000;,
    -1.520000; 0.711000; -0.000000;,
    -1.509000; 0.711000; -0.019000;,
    -1.474000; 0.592000; -0.019000;,
    -1.474000; 0.711000; -0.019000;,
    -1.509000; 0.592000; 0.019000;,
    -1.474000; 0.592000; 0.019000;,
    -1.474000; 0.711000; 0.019000;,
    -1.509000; 0.711000; 0.019000;,
    -1.512000; 0.711000; -0.000000;,
    -1.505000; 0.711000; -0.012000;,
    -1.509000; 0.711000; -0.019000;,
    -1.520000; 0.711000; -0.000000;,
    -1.505000; 0.592000; -0.012000;,
    -1.512000; 0.592000; -0.000000;,
    -1.520000; 0.592000; -0.000000;,
    -1.509000; 0.592000; -0.019000;,
    -1.478000; 0.711000; -0.012000;,
    -1.474000; 0.711000; -0.019000;,
    -1.478000; 0.592000; -0.012000;,
    -1.474000; 0.592000; -0.019000;,
    -1.478000; 0.711000; 0.012000;,
    -1.505000; 0.711000; 0.012000;,
    -1.509000; 0.711000; 0.019000;,
    -1.474000; 0.711000; 0.019000;,
    -1.505000; 0.592000; 0.012000;,
    -1.478000; 0.592000; 0.012000;,
    -1.474000; 0.592000; 0.019000;,
    -1.509000; 0.592000; 0.019000;,
    -1.478000; 0.592000; -0.012000;,
    -1.478000; 0.711000; -0.012000;,
    -1.474000; 0.592000; 0.019000;,
    -1.478000; 0.592000; 0.012000;,
    -1.478000; 0.711000; 0.012000;,
    -1.474000; 0.711000; 0.019000;,
    -1.512000; 0.592000; -0.000000;,
    -1.505000; 0.592000; -0.012000;,
    -1.505000; 0.711000; -0.012000;,
    -1.512000; 0.711000; -0.000000;,
    -1.478000; 0.592000; -0.012000;,
    -1.478000; 0.711000; -0.012000;,
    -1.505000; 0.592000; 0.012000;,
    -1.505000; 0.711000; 0.012000;,
    1.512000; 0.556000; -0.000000;,
    1.512000; 0.556000; -0.000000;,
    1.512000; 0.556000; -0.000000;,
    1.512000; 0.556000; -0.000000;,
    1.512000; 0.556000; -0.000000;;
    166;
    4;0, 1, 2, 3;,
    4;4, 0, 3, 5;,
    4;6, 4, 5, 7;,
    4;8, 9, 10, 11;,
    4;12, 8, 11, 13;,
    4;1, 12, 13, 2;,
    4;14, 15, 16, 17;,
    4;18, 14, 17, 19;,
    4;20, 18, 19, 21;,
    4;22, 23, 24, 25;,
    4;26, 22, 25, 27;,
    4;15, 26, 27, 16;,
    4;28, 29, 30, 31;,
    4;32, 28, 31, 33;,
    4;34, 32, 33, 35;,
    4;36, 37, 38, 39;,
    4;40, 36, 39, 41;,
    4;29, 40, 41, 30;,
    4;42, 43, 44, 45;,
    4;46, 42, 45, 47;,
    4;48, 46, 47, 49;,
    4;50, 51, 52, 53;,
    4;54, 50, 53, 55;,
    4;43, 54, 55, 44;,
    4;43, 42, 3, 2;,
    4;42, 46, 5, 3;,
    4;46, 48, 7, 5;,
    4;51, 50, 11, 10;,
    4;50, 54, 13, 11;,
    4;54, 43, 2, 13;,
    4;56, 57, 58, 59;,
    4;60, 56, 59, 61;,
    4;62, 60, 61, 63;,
    4;64, 65, 66, 67;,
    4;68, 64, 67, 69;,
    4;57, 68, 69, 58;,
    4;70, 71, 72, 73;,
    4;71, 74, 75, 72;,
    4;74, 76, 77, 75;,
    4;78, 79, 80, 81;,
    4;79, 82, 83, 80;,
    4;82, 70, 73, 83;,
    4;84, 85, 86, 87;,
    3;88, 89, 90;,
    3;84, 88, 90;,
    4;91, 90, 89, 92;,
    3;91, 92, 93;,
    3;85, 91, 93;,
    4;94, 95, 96, 97;,
    3;98, 99, 100;,
    3;95, 98, 100;,
    4;98, 101, 102, 99;,
    3;103, 102, 101;,
    3;94, 103, 101;,
    4;104, 105, 85, 84;,
    4;106, 107, 84, 90;,
    4;108, 109, 90, 91;,
    4;110, 111, 91, 85;,
    4;112, 113, 95, 94;,
    4;114, 115, 98, 95;,
    4;116, 117, 101, 98;,
    4;118, 119, 94, 101;,
    4;120, 121, 111, 110;,
    4;122, 123, 115, 114;,
    4;16, 1, 0, 17;,
    4;17, 0, 4, 19;,
    4;19, 4, 6, 21;,
    4;24, 9, 8, 25;,
    4;25, 8, 12, 27;,
    4;27, 12, 1, 16;,
    4;44, 29, 28, 45;,
    4;45, 28, 32, 47;,
    4;47, 32, 34, 49;,
    4;52, 37, 36, 53;,
    4;53, 36, 40, 55;,
    4;55, 40, 29, 44;,
    4;124, 125, 126, 127;,
    4;125, 128, 129, 126;,
    4;130, 131, 132, 133;,
    4;131, 134, 135, 132;,
    4;134, 136, 137, 135;,
    4;136, 124, 127, 137;,
    4;138, 139, 140, 141;,
    4;142, 143, 144, 145;,
    4;146, 142, 145, 147;,
    4;139, 146, 147, 140;,
    4;148, 149, 150, 151;,
    4;152, 153, 154, 155;,
    4;156, 152, 155, 157;,
    4;149, 156, 157, 150;,
    4;158, 159, 160, 161;,
    4;162, 163, 164, 165;,
    4;166, 162, 165, 167;,
    4;159, 166, 167, 160;,
    4;168, 169, 170, 171;,
    4;172, 173, 174, 175;,
    4;176, 172, 175, 177;,
    4;169, 176, 177, 170;,
    4;178, 179, 180, 181;,
    4;182, 183, 184, 185;,
    4;186, 182, 185, 187;,
    4;179, 186, 187, 180;,
    4;188, 189, 190, 191;,
    4;192, 193, 194, 195;,
    4;196, 192, 195, 197;,
    4;189, 196, 197, 190;,
    4;198, 199, 200, 201;,
    4;202, 203, 204, 205;,
    4;206, 202, 205, 207;,
    4;199, 206, 207, 200;,
    4;208, 209, 210, 211;,
    4;212, 213, 214, 215;,
    4;216, 212, 215, 217;,
    4;209, 216, 217, 210;,
    4;218, 219, 220, 221;,
    4;222, 218, 221, 223;,
    4;224, 222, 223, 225;,
    4;226, 227, 228, 229;,
    4;230, 226, 229, 231;,
    4;219, 230, 231, 220;,
    4;232, 233, 234, 235;,
    4;236, 232, 235, 237;,
    4;238, 236, 237, 239;,
    4;240, 241, 242, 243;,
    4;244, 240, 243, 245;,
    4;233, 244, 245, 234;,
    4;246, 247, 233, 232;,
    4;248, 246, 232, 236;,
    4;249, 248, 236, 238;,
    4;250, 251, 241, 240;,
    4;252, 250, 240, 244;,
    4;247, 252, 244, 233;,
    4;234, 219, 218, 235;,
    4;235, 218, 222, 237;,
    4;237, 222, 224, 239;,
    4;242, 227, 226, 243;,
    4;243, 226, 230, 245;,
    4;245, 230, 219, 234;,
    4;253, 254, 255, 256;,
    4;257, 253, 256, 258;,
    4;259, 260, 261, 262;,
    4;254, 259, 262, 255;,
    4;263, 264, 265, 266;,
    4;267, 268, 269, 270;,
    4;264, 271, 272, 265;,
    4;273, 267, 270, 274;,
    4;275, 276, 277, 278;,
    4;279, 280, 281, 282;,
    4;276, 263, 266, 277;,
    4;268, 279, 282, 269;,
    4;283, 257, 258, 284;,
    4;285, 286, 287, 288;,
    4;289, 290, 291, 292;,
    4;290, 293, 294, 291;,
    4;286, 295, 296, 287;,
    4;295, 289, 292, 296;,
    3;93, 86, 85;,
    3;87, 88, 84;,
    3;97, 103, 94;,
    3;100, 96, 95;,
    3;247, 246, 297;,
    3;246, 248, 298;,
    3;248, 249, 298;,
    3;251, 250, 299;,
    3;250, 252, 300;,
    3;252, 247, 301;;

   MeshNormals {
    302;
    0.267573; 0.407178; 0.873276;,
    0.546997; 0.837135; 0.000261;,
    0.188237; 0.982124; 0.000252;,
    0.093045; 0.479087; 0.872822;,
    -0.281242; -0.413975; 0.865753;,
    -0.100484; -0.482297; 0.870225;,
    -0.489192; -0.720066; 0.492134;,
    -0.175825; -0.843909; 0.506856;,
    -0.281754; -0.412765; -0.866164;,
    -0.490468; -0.718528; -0.493110;,
    -0.174153; -0.844374; -0.506658;,
    -0.099551; -0.482669; -0.870127;,
    0.265370; 0.408449; -0.873354;,
    0.090795; 0.480096; -0.872504;,
    0.472164; 0.188866; 0.861041;,
    0.930250; 0.366925; -0.000803;,
    0.835596; 0.549345; -0.000406;,
    0.411576; 0.271933; 0.869861;,
    -0.467482; -0.207179; 0.859382;,
    -0.415156; -0.284577; 0.864096;,
    -0.803492; -0.356091; 0.477075;,
    -0.720573; -0.493930; 0.486629;,
    -0.469266; -0.200415; -0.860013;,
    -0.807150; -0.344720; -0.479247;,
    -0.725106; -0.485416; -0.488459;,
    -0.417442; -0.279453; -0.864666;,
    0.473314; 0.184067; -0.861449;,
    0.412208; 0.269646; -0.870273;,
    -0.405452; 0.268915; 0.873667;,
    -0.834658; 0.550768; 0.000241;,
    -0.930252; 0.366922; 0.000486;,
    -0.459870; 0.183948; 0.868724;,
    0.408718; -0.281222; 0.868253;,
    0.454269; -0.201324; 0.867818;,
    0.712832; -0.490471; 0.501308;,
    0.788446; -0.349425; 0.506217;,
    0.410234; -0.278219; -0.868506;,
    0.715919; -0.485534; -0.501714;,
    0.793184; -0.338757; -0.506067;,
    0.457022; -0.195187; -0.867775;,
    -0.406553; 0.266905; -0.873771;,
    -0.462011; 0.179671; -0.868484;,
    -0.094424; 0.485690; 0.869016;,
    -0.188414; 0.982090; -0.000412;,
    -0.544296; 0.838893; -0.000421;,
    -0.269653; 0.413360; 0.869724;,
    0.102536; -0.484043; 0.869016;,
    0.283549; -0.415481; 0.864277;,
    0.179196; -0.845935; 0.502277;,
    0.492300; -0.721360; 0.487114;,
    0.099265; -0.484725; -0.869016;,
    0.173419; -0.846825; -0.502805;,
    0.487178; -0.723812; -0.488625;,
    0.280324; -0.416485; -0.864846;,
    -0.092025; 0.486150; -0.869017;,
    -0.267224; 0.414100; -0.870122;,
    0.494702; 0.000000; 0.869063;,
    1.000000; 0.000000; 0.000000;,
    1.000000; 0.000000; 0.000000;,
    0.494702; 0.000000; 0.869063;,
    -0.494702; -0.000000; 0.869063;,
    -0.494702; -0.000000; 0.869063;,
    -0.859854; -0.000000; 0.510540;,
    -0.859854; -0.000000; 0.510540;,
    -0.494702; 0.000000; -0.869063;,
    -0.859854; 0.000000; -0.510540;,
    -0.859854; 0.000000; -0.510540;,
    -0.494702; 0.000000; -0.869063;,
    0.494702; 0.000000; -0.869063;,
    0.494702; 0.000000; -0.869063;,
    -1.000000; -0.000000; 0.000000;,
    -0.494702; -0.000000; 0.869063;,
    -0.494702; -0.000000; 0.869063;,
    -1.000000; -0.000000; 0.000000;,
    0.494702; 0.000000; 0.869063;,
    0.494702; 0.000000; 0.869063;,
    0.859854; 0.000000; 0.510540;,
    0.859854; 0.000000; 0.510540;,
    0.859854; 0.000000; -0.510540;,
    0.494702; 0.000000; -0.869063;,
    0.494702; 0.000000; -0.869063;,
    0.859854; 0.000000; -0.510540;,
    -0.494702; 0.000000; -0.869063;,
    -0.494702; 0.000000; -0.869063;,
    -0.301511; 0.904534; 0.301511;,
    0.301511; 0.904534; 0.301511;,
    0.000000; 1.000000; 0.000000;,
    0.000000; 1.000000; 0.000000;,
    0.000000; 1.000000; 0.000000;,
    0.000000; 1.000000; 0.000000;,
    -0.301511; 0.904534; -0.301511;,
    0.301511; 0.904534; -0.301511;,
    0.000000; 1.000000; 0.000000;,
    0.000000; 1.000000; 0.000000;,
    -0.301511; 0.904534; 0.301511;,
    0.301511; 0.904534; 0.301511;,
    0.000000; 1.000000; 0.000000;,
    0.000000; 1.000000; 0.000000;,
    0.301511; 0.904534; -0.301511;,
    0.000000; 1.000000; 0.000000;,
    0.000000; 1.000000; 0.000000;,
    -0.301511; 0.904534; -0.301511;,
    0.000000; 1.000000; 0.000000;,
    0.000000; 1.000000; 0.000000;,
    0.000000; 0.000000; 1.000000;,
    0.000000; 0.000000; 1.000000;,
    -1.000000; 0.000000; 0.000000;,
    -1.000000; 0.000000; 0.000000;,
    0.000000; 0.000000; -1.000000;,
    0.000000; 0.000000; -1.000000;,
    0.707107; -0.707107; 0.000000;,
    0.707107; -0.707107; 0.000000;,
    0.000000; 0.000000; 1.000000;,
    0.000000; 0.000000; 1.000000;,
    0.707107; -0.707107; 0.000000;,
    0.707107; -0.707107; 0.000000;,
    0.000000; 0.000000; -1.000000;,
    0.000000; 0.000000; -1.000000;,
    -1.000000; 0.000000; 0.000000;,
    -1.000000; 0.000000; 0.000000;,
    0.000000; -1.000000; 0.000000;,
    0.000000; -1.000000; 0.000000;,
    0.000000; -1.000000; 0.000000;,
    0.000000; -1.000000; 0.000000;,
    0.000000; 1.000000; 0.000000;,
    0.000000; 0.494703; 0.869062;,
    0.000000; 0.494703; 0.869062;,
    0.000000; 1.000000; 0.000000;,
    0.000000; 0.000000; 1.000000;,
    0.000000; 0.000000; 1.000000;,
    0.000000; -0.859855; 0.510539;,
    0.000000; -1.000000; 0.000000;,
    0.000000; -1.000000; 0.000000;,
    0.000000; -0.859855; 0.510539;,
    0.000000; -0.494702; -0.869062;,
    0.000000; -0.494702; -0.869062;,
    0.000000; 0.494703; -0.869062;,
    0.000000; 0.494703; -0.869062;,
    -0.707107; 0.000000; 0.707107;,
    -0.999955; 0.000000; 0.009433;,
    -0.999955; 0.000000; 0.009433;,
    -0.707107; 0.000000; 0.707107;,
    0.999955; -0.000000; 0.009433;,
    0.693642; -0.000000; 0.720320;,
    0.693642; -0.000000; 0.720320;,
    0.999955; -0.000000; 0.009433;,
    -0.009433; 0.000000; -0.999955;,
    -0.009433; 0.000000; -0.999955;,
    -0.693642; 0.000000; 0.720320;,
    -0.999955; 0.000000; 0.009433;,
    -0.999955; 0.000000; 0.009433;,
    -0.693642; 0.000000; 0.720320;,
    0.999955; -0.000000; 0.009433;,
    0.707107; -0.000000; 0.707107;,
    0.707107; -0.000000; 0.707107;,
    0.999955; -0.000000; 0.009433;,
    0.009433; 0.000000; -0.999955;,
    0.009433; 0.000000; -0.999955;,
    -0.707107; 0.000000; 0.707106;,
    -0.999955; 0.000000; 0.009433;,
    -0.999955; 0.000000; 0.009433;,
    -0.707107; 0.000000; 0.707106;,
    0.999955; -0.000000; 0.009433;,
    0.693642; -0.000000; 0.720320;,
    0.693642; -0.000000; 0.720320;,
    0.999955; -0.000000; 0.009433;,
    -0.009433; 0.000000; -0.999955;,
    -0.009433; 0.000000; -0.999955;,
    -0.707107; 0.000000; 0.707107;,
    -0.999955; 0.000000; 0.009433;,
    -0.999955; 0.000000; 0.009433;,
    -0.707107; 0.000000; 0.707107;,
    0.999955; -0.000000; 0.009433;,
    0.693642; -0.000000; 0.720320;,
    0.693642; -0.000000; 0.720320;,
    0.999955; -0.000000; 0.009433;,
    -0.009433; 0.000000; -0.999955;,
    -0.009433; 0.000000; -0.999955;,
    -0.707107; 0.000000; 0.707107;,
    -0.999955; 0.000000; 0.009433;,
    -0.999955; 0.000000; 0.009433;,
    -0.707107; 0.000000; 0.707107;,
    0.999955; -0.000000; 0.009433;,
    0.693642; -0.000000; 0.720320;,
    0.693642; -0.000000; 0.720320;,
    0.999955; -0.000000; 0.009433;,
    -0.009432; 0.000000; -0.999955;,
    -0.009432; 0.000000; -0.999955;,
    -0.693642; 0.000000; 0.720320;,
    -0.999955; 0.000000; 0.009433;,
    -0.999955; 0.000000; 0.009433;,
    -0.693642; 0.000000; 0.720320;,
    0.999955; -0.000000; 0.009433;,
    0.707107; -0.000000; 0.707107;,
    0.707107; -0.000000; 0.707107;,
    0.999955; -0.000000; 0.009433;,
    0.009432; 0.000000; -0.999955;,
    0.009432; 0.000000; -0.999955;,
    -0.693642; 0.000000; 0.720320;,
    -0.999955; 0.000000; 0.009433;,
    -0.999955; 0.000000; 0.009433;,
    -0.693642; 0.000000; 0.720320;,
    0.999955; -0.000000; 0.009433;,
    0.707107; -0.000000; 0.707106;,
    0.707107; -0.000000; 0.707106;,
    0.999955; -0.000000; 0.009433;,
    0.009433; 0.000000; -0.999955;,
    0.009433; 0.000000; -0.999955;,
    -0.707107; 0.000000; 0.707107;,
    -0.999955; 0.000000; 0.009433;,
    -0.999955; 0.000000; 0.009433;,
    -0.707107; 0.000000; 0.707107;,
    0.999955; -0.000000; 0.009433;,
    0.693642; -0.000000; 0.720320;,
    0.693642; -0.000000; 0.720320;,
    0.999955; -0.000000; 0.009433;,
    -0.009433; 0.000000; -0.999955;,
    -0.009433; 0.000000; -0.999955;,
    0.256457; 0.441094; 0.860038;,
    0.509181; 0.860659; -0.001024;,
    0.241774; 0.970331; -0.001844;,
    0.121774; 0.517544; 0.846947;,
    -0.268220; -0.433656; 0.860233;,
    -0.139346; -0.510950; 0.848241;,
    -0.466518; -0.754263; 0.462005;,
    -0.236398; -0.866817; 0.439026;,
    -0.277206; -0.428448; -0.859994;,
    -0.481559; -0.744295; -0.462738;,
    -0.263707; -0.857046; -0.442640;,
    -0.155249; -0.504557; -0.849306;,
    0.263360; 0.437555; -0.859760;,
    0.134910; 0.512661; -0.847926;,
    0.494541; 0.085315; 0.864957;,
    0.984843; 0.173445; 0.000526;,
    0.854555; 0.519360; 0.000466;,
    0.436353; 0.263723; 0.860259;,
    -0.535899; -0.116896; 0.836151;,
    -0.452611; -0.292188; 0.842478;,
    -0.901209; -0.196581; 0.386235;,
    -0.765024; -0.493870; 0.413316;,
    -0.539723; -0.100736; -0.835794;,
    -0.905910; -0.169082; -0.388250;,
    -0.779164; -0.466309; -0.418880;,
    -0.459314; -0.274887; -0.844670;,
    0.493922; 0.088770; -0.864963;,
    0.435941; 0.266418; -0.859638;,
    0.460910; -0.397470; 0.793461;,
    0.918593; -0.395205; 0.000000;,
    -0.508437; -0.399578; 0.762777;,
    -0.866933; -0.332235; 0.371545;,
    -0.508437; -0.399578; -0.762777;,
    -0.866933; -0.332235; -0.371545;,
    0.460910; -0.397470; -0.793461;,
    -0.499483; 0.000000; -0.866324;,
    -1.000000; -0.000000; 0.000000;,
    -1.000000; -0.000000; 0.000000;,
    -0.499483; 0.000000; -0.866324;,
    0.864909; 0.000000; -0.501929;,
    0.864909; 0.000000; -0.501929;,
    -0.499483; -0.000000; 0.866324;,
    0.000000; 0.000000; 1.000000;,
    0.000000; 0.000000; 1.000000;,
    -0.499483; -0.000000; 0.866324;,
    0.000000; 1.000000; 0.000000;,
    0.000000; 1.000000; 0.000000;,
    0.000000; 1.000000; 0.000000;,
    0.000000; 1.000000; 0.000000;,
    0.000000; -1.000000; 0.000000;,
    0.000000; -1.000000; 0.000000;,
    0.000000; -1.000000; 0.000000;,
    0.000000; -1.000000; 0.000000;,
    0.000000; 1.000000; 0.000000;,
    0.000000; 1.000000; 0.000000;,
    0.000000; -1.000000; 0.000000;,
    0.000000; -1.000000; 0.000000;,
    0.000000; 1.000000; 0.000000;,
    0.000000; 1.000000; 0.000000;,
    0.000000; 1.000000; 0.000000;,
    0.000000; 1.000000; 0.000000;,
    0.000000; -1.000000; 0.000000;,
    0.000000; -1.000000; 0.000000;,
    0.000000; -1.000000; 0.000000;,
    0.000000; -1.000000; 0.000000;,
    0.868246; 0.000000; 0.496134;,
    0.868246; 0.000000; 0.496134;,
    0.868246; 0.000000; -0.496134;,
    0.501929; 0.000000; -0.864909;,
    0.501929; 0.000000; -0.864909;,
    0.868246; 0.000000; -0.496134;,
    1.000000; -0.000000; 0.000000;,
    0.498062; -0.000000; 0.867142;,
    0.498062; -0.000000; 0.867142;,
    1.000000; -0.000000; 0.000000;,
    0.000000; 0.000000; 1.000000;,
    0.000000; 0.000000; 1.000000;,
    0.498062; 0.000000; -0.867142;,
    0.498062; 0.000000; -0.867142;,
    0.655613; -0.655608; 0.374631;,
    -0.395027; -0.708849; 0.584369;,
    -0.716233; -0.626726; -0.306959;,
    0.000000; -0.658507; -0.752575;,
    0.655613; -0.655608; -0.374631;;
    166;
    4;0, 1, 2, 3;,
    4;4, 0, 3, 5;,
    4;6, 4, 5, 7;,
    4;8, 9, 10, 11;,
    4;12, 8, 11, 13;,
    4;1, 12, 13, 2;,
    4;14, 15, 16, 17;,
    4;18, 14, 17, 19;,
    4;20, 18, 19, 21;,
    4;22, 23, 24, 25;,
    4;26, 22, 25, 27;,
    4;15, 26, 27, 16;,
    4;28, 29, 30, 31;,
    4;32, 28, 31, 33;,
    4;34, 32, 33, 35;,
    4;36, 37, 38, 39;,
    4;40, 36, 39, 41;,
    4;29, 40, 41, 30;,
    4;42, 43, 44, 45;,
    4;46, 42, 45, 47;,
    4;48, 46, 47, 49;,
    4;50, 51, 52, 53;,
    4;54, 50, 53, 55;,
    4;43, 54, 55, 44;,
    4;43, 42, 3, 2;,
    4;42, 46, 5, 3;,
    4;46, 48, 7, 5;,
    4;51, 50, 11, 10;,
    4;50, 54, 13, 11;,
    4;54, 43, 2, 13;,
    4;56, 57, 58, 59;,
    4;60, 56, 59, 61;,
    4;62, 60, 61, 63;,
    4;64, 65, 66, 67;,
    4;68, 64, 67, 69;,
    4;57, 68, 69, 58;,
    4;70, 71, 72, 73;,
    4;71, 74, 75, 72;,
    4;74, 76, 77, 75;,
    4;78, 79, 80, 81;,
    4;79, 82, 83, 80;,
    4;82, 70, 73, 83;,
    4;84, 85, 86, 87;,
    3;88, 89, 90;,
    3;84, 88, 90;,
    4;91, 90, 89, 92;,
    3;91, 92, 93;,
    3;85, 91, 93;,
    4;94, 95, 96, 97;,
    3;98, 99, 100;,
    3;95, 98, 100;,
    4;98, 101, 102, 99;,
    3;103, 102, 101;,
    3;94, 103, 101;,
    4;104, 105, 85, 84;,
    4;106, 107, 84, 90;,
    4;108, 109, 90, 91;,
    4;110, 111, 91, 85;,
    4;112, 113, 95, 94;,
    4;114, 115, 98, 95;,
    4;116, 117, 101, 98;,
    4;118, 119, 94, 101;,
    4;120, 121, 111, 110;,
    4;122, 123, 115, 114;,
    4;16, 1, 0, 17;,
    4;17, 0, 4, 19;,
    4;19, 4, 6, 21;,
    4;24, 9, 8, 25;,
    4;25, 8, 12, 27;,
    4;27, 12, 1, 16;,
    4;44, 29, 28, 45;,
    4;45, 28, 32, 47;,
    4;47, 32, 34, 49;,
    4;52, 37, 36, 53;,
    4;53, 36, 40, 55;,
    4;55, 40, 29, 44;,
    4;124, 125, 126, 127;,
    4;125, 128, 129, 126;,
    4;130, 131, 132, 133;,
    4;131, 134, 135, 132;,
    4;134, 136, 137, 135;,
    4;136, 124, 127, 137;,
    4;138, 139, 140, 141;,
    4;142, 143, 144, 145;,
    4;146, 142, 145, 147;,
    4;139, 146, 147, 140;,
    4;148, 149, 150, 151;,
    4;152, 153, 154, 155;,
    4;156, 152, 155, 157;,
    4;149, 156, 157, 150;,
    4;158, 159, 160, 161;,
    4;162, 163, 164, 165;,
    4;166, 162, 165, 167;,
    4;159, 166, 167, 160;,
    4;168, 169, 170, 171;,
    4;172, 173, 174, 175;,
    4;176, 172, 175, 177;,
    4;169, 176, 177, 170;,
    4;178, 179, 180, 181;,
    4;182, 183, 184, 185;,
    4;186, 182, 185, 187;,
    4;179, 186, 187, 180;,
    4;188, 189, 190, 191;,
    4;192, 193, 194, 195;,
    4;196, 192, 195, 197;,
    4;189, 196, 197, 190;,
    4;198, 199, 200, 201;,
    4;202, 203, 204, 205;,
    4;206, 202, 205, 207;,
    4;199, 206, 207, 200;,
    4;208, 209, 210, 211;,
    4;212, 213, 214, 215;,
    4;216, 212, 215, 217;,
    4;209, 216, 217, 210;,
    4;218, 219, 220, 221;,
    4;222, 218, 221, 223;,
    4;224, 222, 223, 225;,
    4;226, 227, 228, 229;,
    4;230, 226, 229, 231;,
    4;219, 230, 231, 220;,
    4;232, 233, 234, 235;,
    4;236, 232, 235, 237;,
    4;238, 236, 237, 239;,
    4;240, 241, 242, 243;,
    4;244, 240, 243, 245;,
    4;233, 244, 245, 234;,
    4;246, 247, 233, 232;,
    4;248, 246, 232, 236;,
    4;249, 248, 236, 238;,
    4;250, 251, 241, 240;,
    4;252, 250, 240, 244;,
    4;247, 252, 244, 233;,
    4;234, 219, 218, 235;,
    4;235, 218, 222, 237;,
    4;237, 222, 224, 239;,
    4;242, 227, 226, 243;,
    4;243, 226, 230, 245;,
    4;245, 230, 219, 234;,
    4;253, 254, 255, 256;,
    4;257, 253, 256, 258;,
    4;259, 260, 261, 262;,
    4;254, 259, 262, 255;,
    4;263, 264, 265, 266;,
    4;267, 268, 269, 270;,
    4;264, 271, 272, 265;,
    4;273, 267, 270, 274;,
    4;275, 276, 277, 278;,
    4;279, 280, 281, 282;,
    4;276, 263, 266, 277;,
    4;268, 279, 282, 269;,
    4;283, 257, 258, 284;,
    4;285, 286, 287, 288;,
    4;289, 290, 291, 292;,
    4;290, 293, 294, 291;,
    4;286, 295, 296, 287;,
    4;295, 289, 292, 296;,
    3;93, 86, 85;,
    3;87, 88, 84;,
    3;97, 103, 94;,
    3;100, 96, 95;,
    3;247, 246, 297;,
    3;246, 248, 298;,
    3;248, 249, 298;,
    3;251, 250, 299;,
    3;250, 252, 300;,
    3;252, 247, 301;;
   }

   MeshTextureCoords {
    302;
    0.868000; 0.501000;,
    0.868000; 0.440000;,
    0.787000; 0.440000;,
    0.787000; 0.501000;,
    0.868000; 0.556000;,
    0.788000; 0.556000;,
    0.868000; 0.596000;,
    0.788000; 0.596000;,
    0.869000; 0.324000;,
    0.870000; 0.283000;,
    0.791000; 0.283000;,
    0.789000; 0.324000;,
    0.869000; 0.378000;,
    0.788000; 0.378000;,
    0.998000; 0.501000;,
    1.000000; 0.440000;,
    0.939000; 0.440000;,
    0.939000; 0.501000;,
    0.996000; 0.556000;,
    0.937000; 0.556000;,
    0.994000; 0.596000;,
    0.937000; 0.596000;,
    0.997000; 0.324000;,
    0.996000; 0.283000;,
    0.939000; 0.283000;,
    0.939000; 0.324000;,
    0.999000; 0.378000;,
    0.939000; 0.378000;,
    0.061000; 0.501000;,
    0.061000; 0.440000;,
    0.000000; 0.440000;,
    0.001000; 0.501000;,
    0.061000; 0.556000;,
    0.003000; 0.556000;,
    0.061000; 0.596000;,
    0.004000; 0.596000;,
    0.063000; 0.324000;,
    0.064000; 0.283000;,
    0.006000; 0.283000;,
    0.005000; 0.324000;,
    0.062000; 0.378000;,
    0.002000; 0.378000;,
    0.213000; 0.501000;,
    0.214000; 0.440000;,
    0.132000; 0.440000;,
    0.131000; 0.501000;,
    0.211000; 0.556000;,
    0.131000; 0.556000;,
    0.210000; 0.596000;,
    0.130000; 0.596000;,
    0.213000; 0.324000;,
    0.212000; 0.283000;,
    0.132000; 0.283000;,
    0.132000; 0.324000;,
    0.213000; 0.378000;,
    0.132000; 0.378000;,
    0.391000; 0.836000;,
    0.392000; 0.774000;,
    0.208000; 0.774000;,
    0.207000; 0.836000;,
    0.389000; 0.890000;,
    0.204000; 0.890000;,
    0.387000; 0.930000;,
    0.203000; 0.930000;,
    0.390000; 0.658000;,
    0.389000; 0.618000;,
    0.205000; 0.618000;,
    0.206000; 0.658000;,
    0.391000; 0.712000;,
    0.208000; 0.712000;,
    0.003000; 0.774000;,
    0.003000; 0.836000;,
    0.187000; 0.836000;,
    0.186000; 0.774000;,
    0.005000; 0.890000;,
    0.189000; 0.890000;,
    0.006000; 0.930000;,
    0.190000; 0.930000;,
    0.008000; 0.618000;,
    0.006000; 0.658000;,
    0.191000; 0.658000;,
    0.192000; 0.618000;,
    0.004000; 0.712000;,
    0.188000; 0.712000;,
    0.986000; 0.154000;,
    0.986000; 0.206000;,
    0.886000; 0.190000;,
    0.886000; 0.170000;,
    0.877000; 0.160000;,
    0.868000; 0.170000;,
    0.768000; 0.154000;,
    0.768000; 0.206000;,
    0.868000; 0.190000;,
    0.877000; 0.200000;,
    0.986000; 0.012000;,
    0.986000; 0.067000;,
    0.886000; 0.050000;,
    0.886000; 0.030000;,
    0.768000; 0.067000;,
    0.868000; 0.050000;,
    0.877000; 0.060000;,
    0.768000; 0.012000;,
    0.868000; 0.030000;,
    0.877000; 0.020000;,
    0.993000; 0.154000;,
    0.993000; 0.206000;,
    0.768000; 0.139000;,
    0.986000; 0.139000;,
    0.762000; 0.206000;,
    0.762000; 0.154000;,
    0.986000; 0.221000;,
    0.768000; 0.221000;,
    0.993000; 0.012000;,
    0.993000; 0.067000;,
    0.986000; 0.079000;,
    0.768000; 0.079000;,
    0.762000; 0.067000;,
    0.762000; 0.012000;,
    0.768000; 0.000000;,
    0.986000; 0.000000;,
    0.986000; 0.272000;,
    0.768000; 0.272000;,
    0.986000; 0.137000;,
    0.768000; 0.137000;,
    0.000000; 0.088000;,
    0.000000; 0.042000;,
    0.752000; 0.042000;,
    0.752000; 0.088000;,
    0.000000; 0.003000;,
    0.752000; 0.003000;,
    0.000000; 0.264000;,
    0.000000; 0.218000;,
    0.752000; 0.218000;,
    0.752000; 0.264000;,
    0.000000; 0.172000;,
    0.752000; 0.172000;,
    0.000000; 0.134000;,
    0.752000; 0.134000;,
    0.403000; 0.737000;,
    0.403000; 0.706000;,
    0.550000; 0.706000;,
    0.550000; 0.737000;,
    0.403000; 0.643000;,
    0.403000; 0.612000;,
    0.550000; 0.612000;,
    0.550000; 0.643000;,
    0.403000; 0.674000;,
    0.550000; 0.674000;,
    0.700000; 0.737000;,
    0.700000; 0.706000;,
    0.848000; 0.706000;,
    0.848000; 0.737000;,
    0.700000; 0.643000;,
    0.700000; 0.612000;,
    0.848000; 0.612000;,
    0.848000; 0.643000;,
    0.700000; 0.674000;,
    0.848000; 0.674000;,
    0.700000; 0.868000;,
    0.700000; 0.837000;,
    0.848000; 0.837000;,
    0.848000; 0.868000;,
    0.700000; 0.774000;,
    0.700000; 0.743000;,
    0.848000; 0.743000;,
    0.848000; 0.774000;,
    0.700000; 0.805000;,
    0.848000; 0.805000;,
    0.849000; 0.737000;,
    0.849000; 0.706000;,
    0.996000; 0.706000;,
    0.996000; 0.737000;,
    0.849000; 0.643000;,
    0.849000; 0.612000;,
    0.996000; 0.612000;,
    0.996000; 0.643000;,
    0.849000; 0.675000;,
    0.996000; 0.675000;,
    0.849000; 0.868000;,
    0.849000; 0.837000;,
    0.996000; 0.837000;,
    0.996000; 0.868000;,
    0.849000; 0.774000;,
    0.849000; 0.743000;,
    0.996000; 0.743000;,
    0.996000; 0.774000;,
    0.849000; 0.805000;,
    0.996000; 0.805000;,
    0.402000; 0.868000;,
    0.402000; 0.837000;,
    0.550000; 0.837000;,
    0.550000; 0.868000;,
    0.402000; 0.774000;,
    0.402000; 0.743000;,
    0.550000; 0.743000;,
    0.550000; 0.774000;,
    0.402000; 0.805000;,
    0.550000; 0.805000;,
    0.551000; 0.737000;,
    0.551000; 0.706000;,
    0.699000; 0.706000;,
    0.699000; 0.737000;,
    0.551000; 0.643000;,
    0.551000; 0.612000;,
    0.699000; 0.612000;,
    0.699000; 0.643000;,
    0.551000; 0.675000;,
    0.699000; 0.675000;,
    0.551000; 0.868000;,
    0.551000; 0.837000;,
    0.699000; 0.837000;,
    0.699000; 0.868000;,
    0.551000; 0.774000;,
    0.551000; 0.743000;,
    0.699000; 0.743000;,
    0.699000; 0.774000;,
    0.551000; 0.805000;,
    0.699000; 0.805000;,
    0.037000; 0.978000;,
    0.038000; 0.966000;,
    0.014000; 0.966000;,
    0.014000; 0.978000;,
    0.037000; 0.989000;,
    0.014000; 0.989000;,
    0.038000; 0.997000;,
    0.014000; 0.997000;,
    0.038000; 0.943000;,
    0.038000; 0.935000;,
    0.015000; 0.935000;,
    0.015000; 0.943000;,
    0.038000; 0.954000;,
    0.014000; 0.954000;,
    0.075000; 0.978000;,
    0.076000; 0.966000;,
    0.058000; 0.966000;,
    0.058000; 0.978000;,
    0.075000; 0.989000;,
    0.058000; 0.989000;,
    0.074000; 0.997000;,
    0.057000; 0.997000;,
    0.075000; 0.943000;,
    0.075000; 0.935000;,
    0.058000; 0.935000;,
    0.058000; 0.943000;,
    0.076000; 0.954000;,
    0.058000; 0.954000;,
    0.130000; 0.978000;,
    0.130000; 0.966000;,
    0.130000; 0.989000;,
    0.130000; 0.997000;,
    0.130000; 0.943000;,
    0.130000; 0.935000;,
    0.130000; 0.954000;,
    0.591000; 0.931000;,
    0.591000; 0.951000;,
    0.515000; 0.951000;,
    0.515000; 0.931000;,
    0.591000; 0.895000;,
    0.515000; 0.895000;,
    0.591000; 0.970000;,
    0.591000; 0.999000;,
    0.515000; 0.999000;,
    0.515000; 0.970000;,
    0.622000; 0.980000;,
    0.626000; 0.990000;,
    0.624000; 0.996000;,
    0.618000; 0.980000;,
    0.603000; 0.991000;,
    0.600000; 0.980000;,
    0.596000; 0.980000;,
    0.601000; 0.996000;,
    0.639000; 0.990000;,
    0.641000; 0.996000;,
    0.617000; 0.991000;,
    0.619000; 0.996000;,
    0.639000; 0.969000;,
    0.626000; 0.969000;,
    0.624000; 0.963000;,
    0.641000; 0.963000;,
    0.603000; 0.969000;,
    0.617000; 0.969000;,
    0.619000; 0.964000;,
    0.601000; 0.964000;,
    0.591000; 0.886000;,
    0.515000; 0.886000;,
    0.514000; 1.000000;,
    0.514000; 0.993000;,
    0.438000; 0.993000;,
    0.438000; 1.000000;,
    0.514000; 0.960000;,
    0.514000; 0.947000;,
    0.438000; 0.947000;,
    0.438000; 0.960000;,
    0.513000; 0.918000;,
    0.437000; 0.918000;,
    0.514000; 0.972000;,
    0.438000; 0.972000;,
    0.134000; 0.972000;,
    0.134000; 0.988000;,
    0.134000; 0.940000;,
    0.134000; 0.947000;,
    0.134000; 0.958000;;
   }

   FVFData {
    258;
    604;
    0,
    1065353216,
    0,
    1065353216,
    0,
    1065353216,
    0,
    1065353216,
    0,
    1065353216,
    0,
    1065353216,
    0,
    1065353216,
    0,
    1065353216,
    0,
    1065353216,
    0,
    1065353216,
    0,
    1065353216,
    0,
    1065353216,
    0,
    1065353216,
    0,
    1065353216,
    0,
    1065353216,
    0,
    1065353216,
    0,
    1065353216,
    0,
    1065353216,
    0,
    1065353216,
    0,
    1065353216,
    0,
    1065353216,
    0,
    1065353216,
    0,
    1065353216,
    0,
    1065353216,
    0,
    1065353216,
    0,
    1065353216,
    0,
    1065353216,
    0,
    1065353216,
    0,
    1065353216,
    0,
    1065353216,
    0,
    1065353216,
    0,
    1065353216,
    0,
    1065353216,
    0,
    1065353216,
    0,
    1065353216,
    0,
    1065353216,
    0,
    1065353216,
    0,
    1065353216,
    0,
    1065353216,
    0,
    1065353216,
    0,
    1065353216,
    0,
    1065353216,
    0,
    1065353216,
    0,
    1065353216,
    0,
    1065353216,
    0,
    1065353216,
    0,
    1065353216,
    0,
    1065353216,
    0,
    1065353216,
    0,
    1065353216,
    0,
    1065353216,
    0,
    1065353216,
    0,
    1065353216,
    0,
    1065353216,
    0,
    1065353216,
    0,
    1065353216,
    0,
    1065353216,
    0,
    1065353216,
    0,
    1065353216,
    0,
    1065353216,
    0,
    1065353216,
    0,
    1065353216,
    0,
    1065353216,
    0,
    1065353216,
    0,
    1065353216,
    0,
    1065353216,
    0,
    1065353216,
    0,
    1065353216,
    0,
    1065353216,
    0,
    1065353216,
    0,
    1065353216,
    0,
    1065353216,
    0,
    1065353216,
    0,
    1065353216,
    0,
    1065353216,
    0,
    1065353216,
    0,
    1065353216,
    0,
    1065353216,
    0,
    1065353216,
    0,
    1065353216,
    0,
    1065353216,
    0,
    1065353216,
    0,
    1065353216,
    0,
    1065353216,
    0,
    1065353216,
    0,
    1065353216,
    0,
    1065353216,
    0,
    1065353216,
    0,
    1065353216,
    0,
    1065353216,
    0,
    1065353216,
    0,
    1065353216,
    0,
    1065353216,
    0,
    1065353216,
    0,
    1065353216,
    0,
    1065353216,
    0,
    1065353216,
    0,
    1065353216,
    0,
    1065353216,
    0,
    1065353216,
    0,
    1065353216,
    0,
    1065353216,
    0,
    1065353216,
    0,
    1065353216,
    0,
    1065353216,
    0,
    1065353216,
    0,
    1065353216,
    0,
    1065353216,
    0,
    1065353216,
    0,
    1065353216,
    0,
    1065353216,
    0,
    1065353216,
    0,
    1065353216,
    0,
    1065353216,
    0,
    1065353216,
    0,
    1065353216,
    0,
    1065353216,
    0,
    1065353216,
    0,
    1065353216,
    0,
    1065353216,
    0,
    1065353216,
    0,
    1065353216,
    0,
    1065353216,
    0,
    1065353216,
    0,
    1065353216,
    0,
    1065353216,
    0,
    1065353216,
    0,
    1065353216,
    0,
    1065353216,
    0,
    1065353216,
    0,
    1065353216,
    0,
    1065353216,
    0,
    1065353216,
    0,
    1065353216,
    0,
    1065353216,
    0,
    1065353216,
    0,
    1065353216,
    0,
    1065353216,
    0,
    1065353216,
    0,
    1065353216,
    0,
    1065353216,
    0,
    1065353216,
    0,
    1065353216,
    0,
    1065353216,
    0,
    1065353216,
    0,
    1065353216,
    0,
    1065353216,
    0,
    1065353216,
    0,
    1065353216,
    0,
    1065353216,
    0,
    1065353216,
    0,
    1065353216,
    0,
    1065353216,
    0,
    1065353216,
    0,
    1065353216,
    0,
    1065353216,
    0,
    1065353216,
    0,
    1065353216,
    0,
    1065353216,
    0,
    1065353216,
    0,
    1065353216,
    0,
    1065353216,
    0,
    1065353216,
    0,
    1065353216,
    0,
    1065353216,
    0,
    1065353216,
    0,
    1065353216,
    0,
    1065353216,
    0,
    1065353216,
    0,
    1065353216,
    0,
    1065353216,
    0,
    1065353216,
    0,
    1065353216,
    0,
    1065353216,
    0,
    1065353216,
    0,
    1065353216,
    0,
    1065353216,
    0,
    1065353216,
    0,
    1065353216,
    0,
    1065353216,
    0,
    1065353216,
    0,
    1065353216,
    0,
    1065353216,
    0,
    1065353216,
    0,
    1065353216,
    0,
    1065353216,
    0,
    1065353216,
    0,
    1065353216,
    0,
    1065353216,
    0,
    1065353216,
    0,
    1065353216,
    0,
    1065353216,
    0,
    1065353216,
    0,
    1065353216,
    0,
    1065353216,
    0,
    1065353216,
    0,
    1065353216,
    0,
    1065353216,
    0,
    1065353216,
    0,
    1065353216,
    0,
    1065353216,
    0,
    1065353216,
    0,
    1065353216,
    0,
    1065353216,
    0,
    1065353216,
    0,
    1065353216,
    0,
    1065353216,
    0,
    1065353216,
    0,
    1065353216,
    0,
    1065353216,
    0,
    1065353216,
    0,
    1065353216,
    0,
    1065353216,
    0,
    1065353216,
    0,
    1065353216,
    0,
    1065353216,
    0,
    1065353216,
    0,
    1065353216,
    0,
    1065353216,
    0,
    1065353216,
    0,
    1065353216,
    0,
    1065353216,
    0,
    1065353216,
    0,
    1065353216,
    0,
    1065353216,
    0,
    1065353216,
    0,
    1065353216,
    0,
    1065353216,
    0,
    1065353216,
    0,
    1065353216,
    0,
    1065353216,
    0,
    1065353216,
    0,
    1065353216,
    0,
    1065353216,
    0,
    1065353216,
    0,
    1065353216,
    0,
    1065353216,
    0,
    1065353216,
    0,
    1065353216,
    0,
    1065353216,
    0,
    1065353216,
    0,
    1065353216,
    0,
    1065353216,
    0,
    1065353216,
    0,
    1065353216,
    0,
    1065353216,
    0,
    1065353216,
    0,
    1065353216,
    0,
    1065353216,
    0,
    1065353216,
    0,
    1065353216,
    0,
    1065353216,
    0,
    1065353216,
    0,
    1065353216,
    0,
    1065353216,
    0,
    1065353216,
    0,
    1065353216,
    0,
    1065353216,
    0,
    1065353216,
    0,
    1065353216,
    0,
    1065353216,
    0,
    1065353216,
    0,
    1065353216,
    0,
    1065353216,
    0,
    1065353216,
    0,
    1065353216,
    0,
    1065353216,
    0,
    1065353216,
    0,
    1065353216,
    0,
    1065353216,
    0,
    1065353216,
    0,
    1065353216,
    0,
    1065353216,
    0,
    1065353216,
    0,
    1065353216,
    0,
    1065353216,
    0,
    1065353216,
    0,
    1065353216,
    0,
    1065353216,
    0,
    1065353216,
    0,
    1065353216,
    0,
    1065353216,
    0,
    1065353216,
    0,
    1065353216,
    0,
    1065353216,
    0,
    1065353216,
    0,
    1065353216,
    0,
    1065353216,
    0,
    1065353216,
    0,
    1065353216,
    0,
    1065353216,
    0,
    1065353216,
    0,
    1065353216,
    0,
    1065353216,
    0,
    1065353216,
    0,
    1065353216,
    0,
    1065353216,
    0,
    1065353216,
    0,
    1065353216,
    0,
    1065353216,
    0,
    1065353216,
    0,
    1065353216;
   }

   MeshMaterialList {
    1;
    166;
    0,
    0,
    0,
    0,
    0,
    0,
    0,
    0,
    0,
    0,
    0,
    0,
    0,
    0,
    0,
    0,
    0,
    0,
    0,
    0,
    0,
    0,
    0,
    0,
    0,
    0,
    0,
    0,
    0,
    0,
    0,
    0,
    0,
    0,
    0,
    0,
    0,
    0,
    0,
    0,
    0,
    0,
    0,
    0,
    0,
    0,
    0,
    0,
    0,
    0,
    0,
    0,
    0,
    0,
    0,
    0,
    0,
    0,
    0,
    0,
    0,
    0,
    0,
    0,
    0,
    0,
    0,
    0,
    0,
    0,
    0,
    0,
    0,
    0,
    0,
    0,
    0,
    0,
    0,
    0,
    0,
    0,
    0,
    0,
    0,
    0,
    0,
    0,
    0,
    0,
    0,
    0,
    0,
    0,
    0,
    0,
    0,
    0,
    0,
    0,
    0,
    0,
    0,
    0,
    0,
    0,
    0,
    0,
    0,
    0,
    0,
    0,
    0,
    0,
    0,
    0,
    0,
    0,
    0,
    0,
    0,
    0,
    0,
    0,
    0,
    0,
    0,
    0,
    0,
    0,
    0,
    0,
    0,
    0,
    0,
    0,
    0,
    0,
    0,
    0,
    0,
    0,
    0,
    0,
    0,
    0,
    0,
    0,
    0,
    0,
    0,
    0,
    0,
    0,
    0,
    0,
    0,
    0,
    0,
    0,
    0,
    0,
    0,
    0,
    0,
    0;

    Material barriermetal {
     0.690000; 0.690000; 0.690000; 1.000000;;
     128.000000;
     0.000000; 0.000000; 0.000000;;
     0.000000; 0.000000; 0.000000;;

     TextureFilename {
      "D:\\new packs\\test\\barriermetal_diffuse.tga";
     }
    }

   }
  }
}
