xof 0303txt 0032

// DirectX 8.0 file
// Creator: Ultimate Unwrap3D Pro v3.27
// Website: http://www.unwrap3d.com
// Time: Fri Jun 01 18:47:00 2012

// Start of Templates

template VertexDuplicationIndices {
 <b8d65549-d7c9-4995-89cf-53a9a8b031e3>
 DWORD nIndices;
 DWORD nOriginalVertices;
 array DWORD indices[nIndices];
}

template FVFData {
 <b6e70a0e-8ef9-4e83-94ad-ecc8b0c04897>
 DWORD dwFVF;
 DWORD nDWords;
 array DWORD data[nDWords];
}

template XSkinMeshHeader {
 <3CF169CE-FF7C-44ab-93C0-F78F62D172E2>
 WORD nMaxSkinWeightsPerVertex;
 WORD nMaxSkinWeightsPerFace;
 WORD nBones;
}

template SkinWeights {
 <6F0D123B-BAD2-4167-A0D0-80224F25FABB>
 STRING transformNodeName;
 DWORD nWeights;
 array DWORD vertexIndices[nWeights];
 array FLOAT weights[nWeights];
 Matrix4x4 matrixOffset;
}

template AnimTicksPerSecond {
 <9E415A43-7BA6-4a73-8743-B73D47E88476>
 DWORD AnimTicksPerSecond;
}

// Start of Frames

Frame Body {
   FrameTransformMatrix {
    1.000000, 0.000000, 0.000000, 0.000000,
    0.000000, 1.000000, 0.000000, 0.000000,
    0.000000, 0.000000, 1.000000, 0.000000,
    0.000000, 0.000000, 0.000000, 1.000000;;
   }

   Mesh staticMesh {
    112;
    -0.725000; 0.000000; -0.330000;,
    -0.725000; 0.000000; 0.330000;,
    -1.500000; 0.000000; 0.330000;,
    -1.500000; 0.000000; -0.330000;,
    -0.475000; 0.063000; -0.330000;,
    -0.475000; 0.063000; 0.330000;,
    -0.725000; 0.063000; 0.330000;,
    -0.725000; 0.063000; -0.330000;,
    0.475000; 0.000000; -0.330000;,
    0.475000; 0.000000; 0.330000;,
    -0.475000; 0.000000; 0.330000;,
    -0.475000; 0.000000; -0.330000;,
    0.725000; 0.063000; -0.330000;,
    0.725000; 0.063000; 0.330000;,
    0.475000; 0.063000; 0.330000;,
    0.475000; 0.063000; -0.330000;,
    1.500000; 0.000000; -0.330000;,
    1.500000; 0.000000; 0.330000;,
    0.725000; 0.000000; 0.330000;,
    0.725000; 0.000000; -0.330000;,
    -0.600000; 0.757000; -0.093000;,
    -1.469000; 0.757000; -0.093000;,
    -1.469000; 0.757000; 0.093000;,
    -0.600000; 0.757000; 0.093000;,
    0.600000; 0.757000; -0.093000;,
    0.600000; 0.757000; 0.093000;,
    1.469000; 0.757000; -0.093000;,
    1.469000; 0.757000; 0.093000;,
    -0.725000; 0.063000; 0.330000;,
    -0.725000; 0.100000; 0.330000;,
    -1.500000; 0.000000; 0.330000;,
    -0.725000; 0.000000; 0.330000;,
    0.475000; 0.063000; 0.330000;,
    0.475000; 0.100000; 0.330000;,
    -0.475000; 0.000000; 0.330000;,
    0.475000; 0.000000; 0.330000;,
    -0.475000; 0.063000; 0.330000;,
    -0.475000; 0.100000; 0.330000;,
    1.500000; 0.100000; 0.330000;,
    0.725000; 0.063000; 0.330000;,
    0.725000; 0.000000; 0.330000;,
    1.500000; 0.000000; 0.330000;,
    1.500000; 0.100000; -0.330000;,
    1.500000; 0.100000; 0.330000;,
    1.500000; 0.000000; 0.330000;,
    1.500000; 0.000000; -0.330000;,
    0.725000; 0.063000; -0.330000;,
    0.725000; 0.100000; -0.330000;,
    1.500000; 0.000000; -0.330000;,
    0.725000; 0.000000; -0.330000;,
    -0.475000; 0.063000; -0.330000;,
    -0.475000; 0.100000; -0.330000;,
    0.475000; 0.000000; -0.330000;,
    -0.475000; 0.000000; -0.330000;,
    0.475000; 0.063000; -0.330000;,
    0.475000; 0.100000; -0.330000;,
    -1.500000; 0.100000; -0.330000;,
    -0.725000; 0.063000; -0.330000;,
    -0.725000; 0.000000; -0.330000;,
    -1.500000; 0.000000; -0.330000;,
    -1.500000; 0.100000; 0.330000;,
    -1.500000; 0.100000; -0.330000;,
    -1.500000; 0.000000; -0.330000;,
    -1.500000; 0.000000; 0.330000;,
    -0.600000; 0.280000; 0.178000;,
    -1.500000; 0.280000; 0.178000;,
    -1.500000; 0.100000; 0.330000;,
    0.600000; 0.280000; 0.178000;,
    1.500000; 0.280000; 0.178000;,
    0.725000; 0.100000; 0.330000;,
    1.500000; 0.280000; -0.178000;,
    1.500000; 0.280000; 0.178000;,
    0.600000; 0.280000; -0.178000;,
    1.500000; 0.280000; -0.178000;,
    1.500000; 0.100000; -0.330000;,
    -0.600000; 0.280000; -0.178000;,
    -1.500000; 0.280000; -0.178000;,
    -0.725000; 0.100000; -0.330000;,
    -1.500000; 0.280000; 0.178000;,
    -1.500000; 0.280000; -0.178000;,
    -0.600000; 0.730000; 0.129000;,
    -1.500000; 0.730000; 0.129000;,
    0.600000; 0.730000; 0.129000;,
    1.500000; 0.730000; 0.129000;,
    1.500000; 0.730000; -0.129000;,
    1.500000; 0.730000; 0.129000;,
    0.600000; 0.730000; -0.129000;,
    1.500000; 0.730000; -0.129000;,
    -0.600000; 0.730000; -0.129000;,
    -1.500000; 0.730000; -0.129000;,
    -1.500000; 0.730000; 0.129000;,
    -1.500000; 0.730000; -0.129000;,
    1.500000; 0.730000; 0.129000;,
    1.500000; 0.730000; -0.129000;,
    -1.500000; 0.730000; -0.129000;,
    -1.500000; 0.730000; 0.129000;,
    -0.725000; 0.063000; -0.330000;,
    -0.725000; 0.063000; 0.330000;,
    -0.725000; 0.000000; 0.330000;,
    -0.725000; 0.000000; -0.330000;,
    -0.475000; 0.063000; 0.330000;,
    -0.475000; 0.063000; -0.330000;,
    -0.475000; 0.000000; -0.330000;,
    -0.475000; 0.000000; 0.330000;,
    0.475000; 0.063000; -0.330000;,
    0.475000; 0.063000; 0.330000;,
    0.475000; 0.000000; 0.330000;,
    0.475000; 0.000000; -0.330000;,
    0.725000; 0.063000; 0.330000;,
    0.725000; 0.063000; -0.330000;,
    0.725000; 0.000000; -0.330000;,
    0.725000; 0.000000; 0.330000;;
    58;
    4;0, 1, 2, 3;,
    4;4, 5, 6, 7;,
    4;8, 9, 10, 11;,
    4;12, 13, 14, 15;,
    4;16, 17, 18, 19;,
    4;20, 21, 22, 23;,
    4;24, 20, 23, 25;,
    4;26, 24, 25, 27;,
    4;28, 29, 30, 31;,
    4;32, 33, 34, 35;,
    4;36, 34, 33, 37;,
    4;38, 39, 40, 41;,
    4;42, 43, 44, 45;,
    4;46, 47, 48, 49;,
    4;50, 51, 52, 53;,
    4;54, 52, 51, 55;,
    4;56, 57, 58, 59;,
    4;60, 61, 62, 63;,
    4;64, 65, 66, 29;,
    4;67, 64, 37, 33;,
    4;68, 67, 69, 38;,
    4;70, 71, 43, 42;,
    4;72, 73, 74, 47;,
    4;75, 72, 55, 51;,
    4;76, 75, 77, 56;,
    4;78, 79, 61, 60;,
    4;80, 81, 65, 64;,
    4;82, 80, 64, 67;,
    4;83, 82, 67, 68;,
    4;84, 85, 71, 70;,
    4;86, 87, 73, 72;,
    4;88, 86, 72, 75;,
    4;89, 88, 75, 76;,
    4;90, 91, 79, 78;,
    4;23, 22, 81, 80;,
    4;25, 23, 80, 82;,
    4;27, 25, 82, 83;,
    4;26, 27, 92, 93;,
    4;24, 26, 87, 86;,
    4;20, 24, 86, 88;,
    4;21, 20, 88, 89;,
    4;22, 21, 94, 95;,
    4;28, 36, 37, 29;,
    4;32, 39, 69, 33;,
    4;46, 54, 55, 47;,
    4;50, 57, 77, 51;,
    4;96, 97, 98, 99;,
    4;100, 101, 102, 103;,
    4;104, 105, 106, 107;,
    4;108, 109, 110, 111;,
    3;30, 29, 66;,
    3;38, 69, 39;,
    3;48, 47, 74;,
    3;56, 77, 57;,
    3;29, 37, 64;,
    3;33, 69, 67;,
    3;47, 55, 72;,
    3;51, 77, 75;;

   MeshNormals {
    112;
    0.577350; -0.577350; -0.577350;,
    0.707107; -0.707107; 0.000000;,
    -0.577350; -0.577350; 0.577350;,
    -0.577350; -0.577350; -0.577350;,
    -0.577350; -0.577350; -0.577350;,
    -0.577350; -0.577350; 0.577350;,
    0.577350; -0.577350; 0.577350;,
    0.301511; -0.301511; -0.904534;,
    0.707107; -0.707107; 0.000000;,
    0.707107; -0.707107; 0.000000;,
    -0.707107; -0.707107; 0.000000;,
    -0.707107; -0.707107; 0.000000;,
    -0.577350; -0.577350; -0.577350;,
    -0.301511; -0.301511; 0.904534;,
    0.577350; -0.577350; 0.577350;,
    0.577350; -0.577350; -0.577350;,
    0.577350; -0.577350; -0.577350;,
    0.577350; -0.577350; 0.577350;,
    -0.577350; -0.577350; 0.577350;,
    -0.707107; -0.707107; 0.000000;,
    0.000000; 0.948683; -0.316228;,
    -0.242841; 0.944358; -0.221847;,
    -0.242841; 0.944358; 0.221847;,
    0.000000; 0.948683; 0.316228;,
    0.000000; 0.948683; -0.316228;,
    0.000000; 0.948683; 0.316228;,
    0.242841; 0.944358; -0.221847;,
    0.242841; 0.944358; 0.221847;,
    0.577350; -0.577350; 0.577350;,
    0.000000; 0.343489; 0.939157;,
    -0.577350; -0.577350; 0.577350;,
    0.707107; -0.707107; 0.000000;,
    0.577350; -0.577350; 0.577350;,
    0.000000; 0.454620; 0.890685;,
    -0.707107; -0.707107; 0.000000;,
    0.707107; -0.707107; 0.000000;,
    -0.577350; -0.577350; 0.577350;,
    0.000000; 0.454620; 0.890685;,
    0.576005; 0.185814; 0.796048;,
    -0.301511; -0.301511; 0.904534;,
    -0.577350; -0.577350; 0.577350;,
    0.577350; -0.577350; 0.577350;,
    0.728934; 0.235147; -0.642931;,
    0.576005; 0.185814; 0.796048;,
    0.577350; -0.577350; 0.577350;,
    0.577350; -0.577350; -0.577350;,
    -0.577350; -0.577350; -0.577350;,
    0.000000; 0.343489; -0.939157;,
    0.577350; -0.577350; -0.577350;,
    -0.707107; -0.707107; 0.000000;,
    -0.577350; -0.577350; -0.577350;,
    0.000000; 0.454620; -0.890685;,
    0.707107; -0.707107; 0.000000;,
    -0.707107; -0.707107; 0.000000;,
    0.577350; -0.577350; -0.577350;,
    0.000000; 0.454620; -0.890685;,
    -0.576005; 0.185814; -0.796048;,
    0.301511; -0.301511; -0.904534;,
    0.577350; -0.577350; -0.577350;,
    -0.577350; -0.577350; -0.577350;,
    -0.728934; 0.235147; 0.642931;,
    -0.576005; 0.185814; -0.796048;,
    -0.577350; -0.577350; -0.577350;,
    -0.577350; -0.577350; 0.577350;,
    0.000000; 0.449195; 0.893434;,
    -0.722688; 0.272247; 0.635298;,
    -0.728934; 0.235147; 0.642931;,
    0.000000; 0.449195; 0.893434;,
    0.722688; 0.272247; 0.635298;,
    0.000000; 0.343489; 0.939157;,
    0.722688; 0.272247; -0.635298;,
    0.722688; 0.272247; 0.635298;,
    0.000000; 0.449195; -0.893434;,
    0.722688; 0.272247; -0.635298;,
    0.728934; 0.235147; -0.642931;,
    0.000000; 0.449195; -0.893434;,
    -0.722688; 0.272247; -0.635298;,
    0.000000; 0.343489; -0.939157;,
    -0.722688; 0.272247; 0.635298;,
    -0.722688; 0.272247; -0.635298;,
    0.000000; 0.495038; 0.868872;,
    -0.583957; 0.585913; 0.561872;,
    0.000000; 0.495038; 0.868871;,
    0.583957; 0.585913; 0.561872;,
    0.583957; 0.585913; -0.561872;,
    0.583957; 0.585913; 0.561872;,
    0.000000; 0.495038; -0.868872;,
    0.583957; 0.585913; -0.561872;,
    0.000000; 0.495038; -0.868871;,
    -0.583957; 0.585913; -0.561872;,
    -0.583957; 0.585913; 0.561872;,
    -0.583957; 0.585913; -0.561872;,
    0.583957; 0.585913; 0.561872;,
    0.583957; 0.585913; -0.561872;,
    -0.583957; 0.585913; -0.561872;,
    -0.583957; 0.585913; 0.561872;,
    0.301511; -0.301511; -0.904534;,
    0.577350; -0.577350; 0.577350;,
    0.707107; -0.707107; 0.000000;,
    0.577350; -0.577350; -0.577350;,
    -0.577350; -0.577350; 0.577350;,
    -0.577350; -0.577350; -0.577350;,
    -0.707107; -0.707107; 0.000000;,
    -0.707107; -0.707107; 0.000000;,
    0.577350; -0.577350; -0.577350;,
    0.577350; -0.577350; 0.577350;,
    0.707107; -0.707107; 0.000000;,
    0.707107; -0.707107; 0.000000;,
    -0.301511; -0.301511; 0.904534;,
    -0.577350; -0.577350; -0.577350;,
    -0.707107; -0.707107; 0.000000;,
    -0.577350; -0.577350; 0.577350;;
    58;
    4;0, 1, 2, 3;,
    4;4, 5, 6, 7;,
    4;8, 9, 10, 11;,
    4;12, 13, 14, 15;,
    4;16, 17, 18, 19;,
    4;20, 21, 22, 23;,
    4;24, 20, 23, 25;,
    4;26, 24, 25, 27;,
    4;28, 29, 30, 31;,
    4;32, 33, 34, 35;,
    4;36, 34, 33, 37;,
    4;38, 39, 40, 41;,
    4;42, 43, 44, 45;,
    4;46, 47, 48, 49;,
    4;50, 51, 52, 53;,
    4;54, 52, 51, 55;,
    4;56, 57, 58, 59;,
    4;60, 61, 62, 63;,
    4;64, 65, 66, 29;,
    4;67, 64, 37, 33;,
    4;68, 67, 69, 38;,
    4;70, 71, 43, 42;,
    4;72, 73, 74, 47;,
    4;75, 72, 55, 51;,
    4;76, 75, 77, 56;,
    4;78, 79, 61, 60;,
    4;80, 81, 65, 64;,
    4;82, 80, 64, 67;,
    4;83, 82, 67, 68;,
    4;84, 85, 71, 70;,
    4;86, 87, 73, 72;,
    4;88, 86, 72, 75;,
    4;89, 88, 75, 76;,
    4;90, 91, 79, 78;,
    4;23, 22, 81, 80;,
    4;25, 23, 80, 82;,
    4;27, 25, 82, 83;,
    4;26, 27, 92, 93;,
    4;24, 26, 87, 86;,
    4;20, 24, 86, 88;,
    4;21, 20, 88, 89;,
    4;22, 21, 94, 95;,
    4;28, 36, 37, 29;,
    4;32, 39, 69, 33;,
    4;46, 54, 55, 47;,
    4;50, 57, 77, 51;,
    4;96, 97, 98, 99;,
    4;100, 101, 102, 103;,
    4;104, 105, 106, 107;,
    4;108, 109, 110, 111;,
    3;30, 29, 66;,
    3;38, 69, 39;,
    3;48, 47, 74;,
    3;56, 77, 57;,
    3;29, 37, 64;,
    3;33, 69, 67;,
    3;47, 55, 72;,
    3;51, 77, 75;;
   }

   MeshTextureCoords {
    112;
    0.258000; 0.864000;,
    0.258000; 0.999000;,
    0.000000; 0.999000;,
    0.000000; 0.864000;,
    0.342000; 0.864000;,
    0.342000; 0.999000;,
    0.258000; 0.999000;,
    0.258000; 0.864000;,
    0.658000; 0.864000;,
    0.658000; 0.999000;,
    0.342000; 0.999000;,
    0.342000; 0.864000;,
    0.742000; 0.864000;,
    0.742000; 0.999000;,
    0.658000; 0.999000;,
    0.658000; 0.864000;,
    1.000000; 0.864000;,
    1.000000; 0.999000;,
    0.742000; 0.999000;,
    0.742000; 0.864000;,
    0.298000; 0.517000;,
    0.010000; 0.517000;,
    0.010000; 0.579000;,
    0.298000; 0.579000;,
    0.700000; 0.517000;,
    0.700000; 0.579000;,
    0.990000; 0.517000;,
    0.990000; 0.579000;,
    0.258000; 0.843000;,
    0.258000; 0.831000;,
    0.000000; 0.864000;,
    0.258000; 0.864000;,
    0.658000; 0.843000;,
    0.658000; 0.831000;,
    0.342000; 0.864000;,
    0.658000; 0.864000;,
    0.342000; 0.843000;,
    0.342000; 0.831000;,
    1.000000; 0.831000;,
    0.742000; 0.843000;,
    0.742000; 0.864000;,
    1.000000; 0.864000;,
    0.476000; 0.002000;,
    0.476000; 0.222000;,
    0.509000; 0.222000;,
    0.509000; 0.002000;,
    0.742000; 0.254000;,
    0.742000; 0.266000;,
    1.000000; 0.233000;,
    0.742000; 0.233000;,
    0.342000; 0.254000;,
    0.342000; 0.266000;,
    0.658000; 0.233000;,
    0.342000; 0.233000;,
    0.658000; 0.254000;,
    0.658000; 0.266000;,
    0.000000; 0.266000;,
    0.258000; 0.254000;,
    0.258000; 0.233000;,
    0.000000; 0.233000;,
    0.224000; 0.222000;,
    0.224000; 0.002000;,
    0.258000; 0.002000;,
    0.258000; 0.222000;,
    0.298000; 0.751000;,
    0.000000; 0.751000;,
    0.000000; 0.831000;,
    0.700000; 0.751000;,
    1.000000; 0.751000;,
    0.742000; 0.831000;,
    0.416000; 0.053000;,
    0.416000; 0.172000;,
    0.700000; 0.342000;,
    1.000000; 0.342000;,
    1.000000; 0.266000;,
    0.298000; 0.342000;,
    0.000000; 0.342000;,
    0.258000; 0.266000;,
    0.164000; 0.172000;,
    0.164000; 0.053000;,
    0.298000; 0.601000;,
    0.000000; 0.601000;,
    0.700000; 0.601000;,
    1.000000; 0.601000;,
    0.266000; 0.069000;,
    0.266000; 0.155000;,
    0.700000; 0.492000;,
    1.000000; 0.492000;,
    0.298000; 0.492000;,
    0.000000; 0.492000;,
    0.014000; 0.155000;,
    0.014000; 0.069000;,
    1.000000; 0.591000;,
    1.000000; 0.505000;,
    0.000000; 0.505000;,
    0.000000; 0.591000;,
    0.516000; 0.002000;,
    0.516000; 0.222000;,
    0.537000; 0.222000;,
    0.537000; 0.002000;,
    0.565000; 0.222000;,
    0.565000; 0.002000;,
    0.587000; 0.002000;,
    0.587000; 0.222000;,
    0.592000; 0.002000;,
    0.592000; 0.222000;,
    0.613000; 0.222000;,
    0.613000; 0.002000;,
    0.542000; 0.222000;,
    0.542000; 0.002000;,
    0.563000; 0.002000;,
    0.563000; 0.222000;;
   }

   FVFData {
    258;
    224;
    0,
    1065353216,
    0,
    1065353216,
    0,
    1065353216,
    0,
    1065353216,
    0,
    1065353216,
    0,
    1065353216,
    0,
    1065353216,
    0,
    1065353216,
    0,
    1065353216,
    0,
    1065353216,
    0,
    1065353216,
    0,
    1065353216,
    0,
    1065353216,
    0,
    1065353216,
    0,
    1065353216,
    0,
    1065353216,
    0,
    1065353216,
    0,
    1065353216,
    0,
    1065353216,
    0,
    1065353216,
    0,
    1065353216,
    0,
    1065353216,
    0,
    1065353216,
    0,
    1065353216,
    0,
    1065353216,
    0,
    1065353216,
    0,
    1065353216,
    0,
    1065353216,
    0,
    1065353216,
    0,
    1065353216,
    0,
    1065353216,
    0,
    1065353216,
    0,
    1065353216,
    0,
    1065353216,
    0,
    1065353216,
    0,
    1065353216,
    0,
    1065353216,
    0,
    1065353216,
    0,
    1065353216,
    0,
    1065353216,
    0,
    1065353216,
    0,
    1065353216,
    0,
    1065353216,
    0,
    1065353216,
    0,
    1065353216,
    0,
    1065353216,
    0,
    1065353216,
    0,
    1065353216,
    0,
    1065353216,
    0,
    1065353216,
    0,
    1065353216,
    0,
    1065353216,
    0,
    1065353216,
    0,
    1065353216,
    0,
    1065353216,
    0,
    1065353216,
    0,
    1065353216,
    0,
    1065353216,
    0,
    1065353216,
    0,
    1065353216,
    0,
    1065353216,
    0,
    1065353216,
    0,
    1065353216,
    0,
    1065353216,
    0,
    1065353216,
    0,
    1065353216,
    0,
    1065353216,
    0,
    1065353216,
    0,
    1065353216,
    0,
    1065353216,
    0,
    1065353216,
    0,
    1065353216,
    0,
    1065353216,
    0,
    1065353216,
    0,
    1065353216,
    0,
    1065353216,
    0,
    1065353216,
    0,
    1065353216,
    0,
    1065353216,
    0,
    1065353216,
    0,
    1065353216,
    0,
    1065353216,
    0,
    1065353216,
    0,
    1065353216,
    0,
    1065353216,
    0,
    1065353216,
    0,
    1065353216,
    0,
    1065353216,
    0,
    1065353216,
    0,
    1065353216,
    0,
    1065353216,
    0,
    1065353216,
    0,
    1065353216,
    0,
    1065353216,
    0,
    1065353216,
    0,
    1065353216,
    0,
    1065353216,
    0,
    1065353216,
    0,
    1065353216,
    0,
    1065353216,
    0,
    1065353216,
    0,
    1065353216,
    0,
    1065353216,
    0,
    1065353216,
    0,
    1065353216,
    0,
    1065353216,
    0,
    1065353216,
    0,
    1065353216,
    0,
    1065353216,
    0,
    1065353216,
    0,
    1065353216,
    0,
    1065353216;
   }

   MeshMaterialList {
    1;
    58;
    0,
    0,
    0,
    0,
    0,
    0,
    0,
    0,
    0,
    0,
    0,
    0,
    0,
    0,
    0,
    0,
    0,
    0,
    0,
    0,
    0,
    0,
    0,
    0,
    0,
    0,
    0,
    0,
    0,
    0,
    0,
    0,
    0,
    0,
    0,
    0,
    0,
    0,
    0,
    0,
    0,
    0,
    0,
    0,
    0,
    0,
    0,
    0,
    0,
    0,
    0,
    0,
    0,
    0,
    0,
    0,
    0,
    0;

    Material barrierconcrete {
     0.588000; 0.588000; 0.588000; 1.000000;;
     128.000000;
     0.000000; 0.000000; 0.000000;;
     0.000000; 0.000000; 0.000000;;

     TextureFilename {
      "D:\\new packs\\test\\barrierconcrete_diffuse.tga";
     }
    }

   }
  }
}
