xof 0303txt 0032

// DirectX 8.0 file
// Creator: Ultimate Unwrap3D Pro v3.27
// Website: http://www.unwrap3d.com
// Time: Fri Jun 01 18:47:20 2012

// Start of Templates

template VertexDuplicationIndices {
 <b8d65549-d7c9-4995-89cf-53a9a8b031e3>
 DWORD nIndices;
 DWORD nOriginalVertices;
 array DWORD indices[nIndices];
}

template FVFData {
 <b6e70a0e-8ef9-4e83-94ad-ecc8b0c04897>
 DWORD dwFVF;
 DWORD nDWords;
 array DWORD data[nDWords];
}

template XSkinMeshHeader {
 <3CF169CE-FF7C-44ab-93C0-F78F62D172E2>
 WORD nMaxSkinWeightsPerVertex;
 WORD nMaxSkinWeightsPerFace;
 WORD nBones;
}

template SkinWeights {
 <6F0D123B-BAD2-4167-A0D0-80224F25FABB>
 STRING transformNodeName;
 DWORD nWeights;
 array DWORD vertexIndices[nWeights];
 array FLOAT weights[nWeights];
 Matrix4x4 matrixOffset;
}

template AnimTicksPerSecond {
 <9E415A43-7BA6-4a73-8743-B73D47E88476>
 DWORD AnimTicksPerSecond;
}

// Start of Frames

Frame barrier_smallwooden {
   FrameTransformMatrix {
    1.000000, 0.000000, 0.000000, 0.000000,
    0.000000, 1.000000, 0.000000, 0.000000,
    0.000000, 0.000000, 1.000000, 0.000000,
    0.000000, 0.000000, 0.000000, 1.000000;;
   }

   Mesh barrier_smallwooden {
    102;
    0.298500; 0.000000; 0.229500;,
    0.348500; 0.000000; 0.229500;,
    0.348500; 1.000000; -0.000500;,
    0.298500; 1.000000; -0.000500;,
    0.348500; 0.000000; 0.179500;,
    0.348500; 0.802000; -0.000500;,
    0.348500; 0.000000; 0.179500;,
    0.298500; 0.000000; 0.179500;,
    0.298500; 0.802000; -0.000500;,
    0.348500; 0.802000; -0.000500;,
    0.348500; 0.000000; -0.229500;,
    0.298500; 0.000000; -0.229500;,
    0.298500; 1.000000; -0.000500;,
    0.348500; 1.000000; -0.000500;,
    0.298500; 0.000000; -0.179500;,
    0.298500; 0.802000; -0.000500;,
    0.298500; 0.000000; -0.179500;,
    0.348500; 0.000000; -0.179500;,
    0.348500; 0.802000; -0.000500;,
    0.298500; 0.802000; -0.000500;,
    -0.365500; 0.000000; 0.229500;,
    -0.315500; 0.000000; 0.229500;,
    -0.315500; 1.000000; -0.000500;,
    -0.365500; 1.000000; -0.000500;,
    -0.315500; 0.000000; 0.179500;,
    -0.315500; 0.802000; -0.000500;,
    -0.315500; 0.000000; 0.179500;,
    -0.365500; 0.000000; 0.179500;,
    -0.365500; 0.802000; -0.000500;,
    -0.315500; 0.802000; -0.000500;,
    -0.315500; 0.000000; -0.229500;,
    -0.365500; 0.000000; -0.229500;,
    -0.365500; 1.000000; -0.000500;,
    -0.315500; 1.000000; -0.000500;,
    -0.365500; 0.000000; -0.179500;,
    -0.365500; 0.802000; -0.000500;,
    -0.365500; 0.000000; -0.179500;,
    -0.315500; 0.000000; -0.179500;,
    -0.315500; 0.802000; -0.000500;,
    -0.365500; 0.802000; -0.000500;,
    -0.387500; 0.747000; 0.074500;,
    -0.387500; 0.744000; 0.058500;,
    0.387500; 0.744000; 0.058500;,
    0.387500; 0.747000; 0.074500;,
    -0.387500; 0.944000; 0.028500;,
    0.387500; 0.944000; 0.028500;,
    0.387500; 0.940000; 0.013500;,
    -0.387500; 0.940000; 0.013500;,
    0.387500; 0.744000; 0.058500;,
    0.387500; 0.940000; 0.013500;,
    0.387500; 0.744000; 0.058500;,
    -0.387500; 0.744000; 0.058500;,
    -0.387500; 0.940000; 0.013500;,
    0.387500; 0.940000; 0.013500;,
    -0.387500; 0.744000; 0.058500;,
    -0.387500; 0.940000; 0.013500;,
    -0.387500; 0.459000; 0.140500;,
    -0.387500; 0.455000; 0.125500;,
    0.387500; 0.455000; 0.125500;,
    0.387500; 0.459000; 0.140500;,
    -0.387500; 0.655000; 0.094500;,
    0.387500; 0.655000; 0.094500;,
    0.387500; 0.651000; 0.079500;,
    -0.387500; 0.651000; 0.079500;,
    0.387500; 0.455000; 0.125500;,
    0.387500; 0.651000; 0.079500;,
    -0.387500; 0.651000; 0.079500;,
    0.387500; 0.651000; 0.079500;,
    -0.387500; 0.455000; 0.125500;,
    -0.387500; 0.651000; 0.079500;,
    0.387500; 0.747000; -0.075500;,
    0.387500; 0.744000; -0.059500;,
    -0.387500; 0.744000; -0.059500;,
    -0.387500; 0.747000; -0.075500;,
    0.387500; 0.944000; -0.029500;,
    -0.387500; 0.944000; -0.029500;,
    -0.387500; 0.940000; -0.014500;,
    0.387500; 0.940000; -0.014500;,
    -0.387500; 0.744000; -0.059500;,
    -0.387500; 0.940000; -0.014500;,
    -0.387500; 0.744000; -0.059500;,
    0.387500; 0.744000; -0.059500;,
    0.387500; 0.940000; -0.014500;,
    -0.387500; 0.940000; -0.014500;,
    0.387500; 0.744000; -0.059500;,
    0.387500; 0.940000; -0.014500;,
    0.387500; 0.459000; -0.141500;,
    0.387500; 0.455000; -0.126500;,
    -0.387500; 0.455000; -0.126500;,
    -0.387500; 0.459000; -0.141500;,
    0.387500; 0.655000; -0.095500;,
    -0.387500; 0.655000; -0.095500;,
    -0.387500; 0.651000; -0.080500;,
    0.387500; 0.651000; -0.080500;,
    -0.387500; 0.455000; -0.126500;,
    -0.387500; 0.651000; -0.080500;,
    -0.387500; 0.455000; -0.126500;,
    0.387500; 0.455000; -0.126500;,
    0.387500; 0.651000; -0.080500;,
    -0.387500; 0.651000; -0.080500;,
    0.387500; 0.455000; -0.126500;,
    0.387500; 0.651000; -0.080500;;
    40;
    4;0, 1, 2, 3;,
    4;1, 4, 5, 2;,
    4;6, 7, 8, 9;,
    4;7, 0, 3, 8;,
    4;10, 11, 12, 13;,
    4;11, 14, 15, 12;,
    4;16, 17, 18, 19;,
    4;17, 10, 13, 18;,
    4;20, 21, 22, 23;,
    4;21, 24, 25, 22;,
    4;26, 27, 28, 29;,
    4;27, 20, 23, 28;,
    4;30, 31, 32, 33;,
    4;31, 34, 35, 32;,
    4;36, 37, 38, 39;,
    4;37, 30, 33, 38;,
    4;40, 41, 42, 43;,
    4;44, 45, 46, 47;,
    4;40, 43, 45, 44;,
    4;43, 48, 49, 45;,
    4;50, 51, 52, 53;,
    4;54, 40, 44, 55;,
    4;56, 57, 58, 59;,
    4;60, 61, 62, 63;,
    4;56, 59, 61, 60;,
    4;59, 64, 65, 61;,
    4;58, 57, 66, 67;,
    4;68, 56, 60, 69;,
    4;70, 71, 72, 73;,
    4;74, 75, 76, 77;,
    4;70, 73, 75, 74;,
    4;73, 78, 79, 75;,
    4;80, 81, 82, 83;,
    4;84, 70, 74, 85;,
    4;86, 87, 88, 89;,
    4;90, 91, 92, 93;,
    4;86, 89, 91, 90;,
    4;89, 94, 95, 91;,
    4;96, 97, 98, 99;,
    4;100, 86, 90, 101;;

   MeshNormals {
    102;
    -0.707107; 0.158496; 0.689115;,
    0.707107; 0.158496; 0.689115;,
    0.707107; 0.158496; 0.689115;,
    -0.707107; 0.158496; 0.689115;,
    1.000000; 0.000000; 0.000000;,
    1.000000; 0.000000; 0.000000;,
    0.000000; -0.218991; -0.975727;,
    -0.707107; -0.154850; -0.689943;,
    -0.707107; -0.154850; -0.689943;,
    0.000000; -0.218991; -0.975727;,
    0.707107; 0.157842; -0.689265;,
    -0.707107; 0.157842; -0.689265;,
    -0.707107; 0.157842; -0.689265;,
    0.707107; 0.157842; -0.689265;,
    -1.000000; 0.000000; 0.000000;,
    -1.000000; 0.000000; 0.000000;,
    0.000000; -0.217832; 0.975986;,
    0.707107; -0.154031; 0.690126;,
    0.707107; -0.154031; 0.690126;,
    0.000000; -0.217832; 0.975986;,
    -0.707107; 0.158496; 0.689115;,
    0.707107; 0.158496; 0.689115;,
    0.707107; 0.158496; 0.689115;,
    -0.707107; 0.158496; 0.689115;,
    1.000000; 0.000000; 0.000000;,
    1.000000; 0.000000; 0.000000;,
    0.000000; -0.218991; -0.975727;,
    -0.707107; -0.154850; -0.689943;,
    -0.707107; -0.154850; -0.689943;,
    0.000000; -0.218991; -0.975727;,
    0.707107; 0.157842; -0.689265;,
    -0.707107; 0.157842; -0.689265;,
    -0.707107; 0.157842; -0.689265;,
    0.707107; 0.157842; -0.689265;,
    -1.000000; 0.000000; 0.000000;,
    -1.000000; 0.000000; 0.000000;,
    0.000000; -0.217832; 0.975986;,
    0.707107; -0.154031; 0.690126;,
    0.707107; -0.154031; 0.690126;,
    0.000000; -0.217832; 0.975986;,
    -0.586015; -0.442726; 0.678661;,
    0.000000; -0.982872; 0.184290;,
    0.000000; -0.982872; 0.184290;,
    0.586015; -0.442726; 0.678661;,
    -0.583450; 0.696419; 0.417835;,
    0.583450; 0.696419; 0.417835;,
    0.000000; 0.966236; -0.257660;,
    0.000000; 0.966236; -0.257660;,
    1.000000; 0.000000; 0.000000;,
    1.000000; 0.000000; 0.000000;,
    0.000000; -0.223770; -0.974642;,
    0.000000; -0.223770; -0.974642;,
    0.000000; -0.223770; -0.974642;,
    0.000000; -0.223770; -0.974642;,
    -1.000000; 0.000000; 0.000000;,
    -1.000000; 0.000000; 0.000000;,
    -0.571648; -0.421733; 0.703818;,
    0.000000; -0.857793; -0.513996;,
    0.000000; -0.857793; -0.513996;,
    0.571648; -0.421733; 0.703818;,
    -0.583227; 0.696793; 0.417523;,
    0.583227; 0.696793; 0.417523;,
    0.000000; 0.966235; -0.257663;,
    0.000000; 0.966235; -0.257663;,
    1.000000; 0.000000; 0.000000;,
    1.000000; 0.000000; 0.000000;,
    0.000000; -0.228486; -0.973547;,
    0.000000; -0.228486; -0.973547;,
    -1.000000; 0.000000; 0.000000;,
    -1.000000; 0.000000; 0.000000;,
    0.586015; -0.442726; -0.678661;,
    0.000000; -0.982872; -0.184290;,
    0.000000; -0.982872; -0.184290;,
    -0.586015; -0.442726; -0.678661;,
    0.583450; 0.696419; -0.417835;,
    -0.583450; 0.696419; -0.417835;,
    0.000000; 0.966236; 0.257660;,
    0.000000; 0.966236; 0.257660;,
    -1.000000; 0.000000; 0.000000;,
    -1.000000; 0.000000; 0.000000;,
    0.000000; -0.223770; 0.974642;,
    0.000000; -0.223770; 0.974642;,
    0.000000; -0.223770; 0.974642;,
    0.000000; -0.223770; 0.974642;,
    1.000000; 0.000000; 0.000000;,
    1.000000; 0.000000; 0.000000;,
    0.571648; -0.421733; -0.703818;,
    0.000000; -0.966235; -0.257661;,
    0.000000; -0.966235; -0.257661;,
    -0.571648; -0.421733; -0.703818;,
    0.583227; 0.696793; -0.417523;,
    -0.583227; 0.696793; -0.417523;,
    0.000000; 0.966235; 0.257663;,
    0.000000; 0.966235; 0.257663;,
    -1.000000; 0.000000; 0.000000;,
    -1.000000; 0.000000; 0.000000;,
    0.000000; -0.228486; 0.973547;,
    0.000000; -0.228486; 0.973547;,
    0.000000; -0.228486; 0.973547;,
    0.000000; -0.228486; 0.973547;,
    1.000000; 0.000000; 0.000000;,
    1.000000; 0.000000; 0.000000;;
    40;
    4;0, 1, 2, 3;,
    4;1, 4, 5, 2;,
    4;6, 7, 8, 9;,
    4;7, 0, 3, 8;,
    4;10, 11, 12, 13;,
    4;11, 14, 15, 12;,
    4;16, 17, 18, 19;,
    4;17, 10, 13, 18;,
    4;20, 21, 22, 23;,
    4;21, 24, 25, 22;,
    4;26, 27, 28, 29;,
    4;27, 20, 23, 28;,
    4;30, 31, 32, 33;,
    4;31, 34, 35, 32;,
    4;36, 37, 38, 39;,
    4;37, 30, 33, 38;,
    4;40, 41, 42, 43;,
    4;44, 45, 46, 47;,
    4;40, 43, 45, 44;,
    4;43, 48, 49, 45;,
    4;50, 51, 52, 53;,
    4;54, 40, 44, 55;,
    4;56, 57, 58, 59;,
    4;60, 61, 62, 63;,
    4;56, 59, 61, 60;,
    4;59, 64, 65, 61;,
    4;58, 57, 66, 67;,
    4;68, 56, 60, 69;,
    4;70, 71, 72, 73;,
    4;74, 75, 76, 77;,
    4;70, 73, 75, 74;,
    4;73, 78, 79, 75;,
    4;80, 81, 82, 83;,
    4;84, 70, 74, 85;,
    4;86, 87, 88, 89;,
    4;90, 91, 92, 93;,
    4;86, 89, 91, 90;,
    4;89, 94, 95, 91;,
    4;96, 97, 98, 99;,
    4;100, 86, 90, 101;;
   }

   MeshTextureCoords {
    102;
    0.093000; 0.999000;,
    0.138000; 0.999000;,
    0.138000; 0.145000;,
    0.093000; 0.145000;,
    0.184000; 0.999000;,
    0.184000; 0.312000;,
    0.002000; 0.999000;,
    0.047000; 0.999000;,
    0.047000; 0.312000;,
    0.002000; 0.312000;,
    0.282000; 0.999000;,
    0.327000; 0.999000;,
    0.327000; 0.145000;,
    0.282000; 0.145000;,
    0.372000; 0.999000;,
    0.372000; 0.312000;,
    0.191000; 0.999000;,
    0.236000; 0.999000;,
    0.236000; 0.312000;,
    0.191000; 0.312000;,
    0.282000; 0.999000;,
    0.327000; 0.999000;,
    0.327000; 0.145000;,
    0.282000; 0.145000;,
    0.372000; 0.999000;,
    0.372000; 0.312000;,
    0.191000; 0.999000;,
    0.236000; 0.999000;,
    0.236000; 0.312000;,
    0.191000; 0.312000;,
    0.093000; 0.999000;,
    0.138000; 0.999000;,
    0.138000; 0.145000;,
    0.093000; 0.145000;,
    0.184000; 0.999000;,
    0.184000; 0.312000;,
    0.002000; 0.999000;,
    0.047000; 0.999000;,
    0.047000; 0.312000;,
    0.002000; 0.312000;,
    0.796000; 0.031000;,
    0.775000; 0.031000;,
    0.775000; 0.975000;,
    0.796000; 0.975000;,
    0.979000; 0.031000;,
    0.979000; 0.975000;,
    0.999000; 0.975000;,
    0.999000; 0.031000;,
    0.796000; 0.995000;,
    0.979000; 0.995000;,
    0.549000; 0.975000;,
    0.549000; 0.031000;,
    0.379000; 0.031000;,
    0.379000; 0.975000;,
    0.796000; 0.007000;,
    0.979000; 0.007000;,
    0.568000; 0.031000;,
    0.547000; 0.031000;,
    0.547000; 0.975000;,
    0.568000; 0.975000;,
    0.751000; 0.031000;,
    0.751000; 0.975000;,
    0.771000; 0.975000;,
    0.771000; 0.031000;,
    0.568000; 0.995000;,
    0.751000; 0.995000;,
    0.377000; 0.031000;,
    0.377000; 0.975000;,
    0.568000; 0.007000;,
    0.751000; 0.007000;,
    0.796000; 0.031000;,
    0.775000; 0.031000;,
    0.775000; 0.975000;,
    0.796000; 0.975000;,
    0.979000; 0.031000;,
    0.979000; 0.975000;,
    0.999000; 0.975000;,
    0.999000; 0.031000;,
    0.796000; 0.995000;,
    0.979000; 0.995000;,
    0.549000; 0.975000;,
    0.549000; 0.031000;,
    0.379000; 0.031000;,
    0.379000; 0.975000;,
    0.796000; 0.007000;,
    0.979000; 0.007000;,
    0.796000; 0.031000;,
    0.775000; 0.031000;,
    0.775000; 0.975000;,
    0.796000; 0.975000;,
    0.979000; 0.031000;,
    0.979000; 0.975000;,
    0.999000; 0.975000;,
    0.999000; 0.031000;,
    0.796000; 0.995000;,
    0.979000; 0.995000;,
    0.549000; 0.975000;,
    0.549000; 0.031000;,
    0.379000; 0.031000;,
    0.379000; 0.975000;,
    0.796000; 0.007000;,
    0.979000; 0.007000;;
   }

   FVFData {
    258;
    204;
    0,
    1065353216,
    0,
    1065353216,
    0,
    1065353216,
    0,
    1065353216,
    0,
    1065353216,
    0,
    1065353216,
    0,
    1065353216,
    0,
    1065353216,
    0,
    1065353216,
    0,
    1065353216,
    0,
    1065353216,
    0,
    1065353216,
    0,
    1065353216,
    0,
    1065353216,
    0,
    1065353216,
    0,
    1065353216,
    0,
    1065353216,
    0,
    1065353216,
    0,
    1065353216,
    0,
    1065353216,
    0,
    1065353216,
    0,
    1065353216,
    0,
    1065353216,
    0,
    1065353216,
    0,
    1065353216,
    0,
    1065353216,
    0,
    1065353216,
    0,
    1065353216,
    0,
    1065353216,
    0,
    1065353216,
    0,
    1065353216,
    0,
    1065353216,
    0,
    1065353216,
    0,
    1065353216,
    0,
    1065353216,
    0,
    1065353216,
    0,
    1065353216,
    0,
    1065353216,
    0,
    1065353216,
    0,
    1065353216,
    0,
    1065353216,
    0,
    1065353216,
    0,
    1065353216,
    0,
    1065353216,
    0,
    1065353216,
    0,
    1065353216,
    0,
    1065353216,
    0,
    1065353216,
    0,
    1065353216,
    0,
    1065353216,
    0,
    1065353216,
    0,
    1065353216,
    0,
    1065353216,
    0,
    1065353216,
    0,
    1065353216,
    0,
    1065353216,
    0,
    1065353216,
    0,
    1065353216,
    0,
    1065353216,
    0,
    1065353216,
    0,
    1065353216,
    0,
    1065353216,
    0,
    1065353216,
    0,
    1065353216,
    0,
    1065353216,
    0,
    1065353216,
    0,
    1065353216,
    0,
    1065353216,
    0,
    1065353216,
    0,
    1065353216,
    0,
    1065353216,
    0,
    1065353216,
    0,
    1065353216,
    0,
    1065353216,
    0,
    1065353216,
    0,
    1065353216,
    0,
    1065353216,
    0,
    1065353216,
    0,
    1065353216,
    0,
    1065353216,
    0,
    1065353216,
    0,
    1065353216,
    0,
    1065353216,
    0,
    1065353216,
    0,
    1065353216,
    0,
    1065353216,
    0,
    1065353216,
    0,
    1065353216,
    0,
    1065353216,
    0,
    1065353216,
    0,
    1065353216,
    0,
    1065353216,
    0,
    1065353216,
    0,
    1065353216,
    0,
    1065353216,
    0,
    1065353216,
    0,
    1065353216,
    0,
    1065353216,
    0,
    1065353216,
    0,
    1065353216,
    0,
    1065353216,
    0,
    1065353216;
   }

   MeshMaterialList {
    1;
    40;
    0,
    0,
    0,
    0,
    0,
    0,
    0,
    0,
    0,
    0,
    0,
    0,
    0,
    0,
    0,
    0,
    0,
    0,
    0,
    0,
    0,
    0,
    0,
    0,
    0,
    0,
    0,
    0,
    0,
    0,
    0,
    0,
    0,
    0,
    0,
    0,
    0,
    0,
    0,
    0;

    Material barrierconstruction_Smoothing {
     0.588000; 0.588000; 0.588000; 1.000000;;
     128.000000;
     0.000000; 0.000000; 0.000000;;
     0.000000; 0.000000; 0.000000;;

     TextureFilename {
      "D:\\new packs\\test\\barrierconstruction_diffuse.tga";
     }
    }

   }
  }
}
