xof 0303txt 0032

// DirectX 8.0 file
// Creator: Ultimate Unwrap3D Pro v3.27
// Website: http://www.unwrap3d.com
// Time: Fri Jun 01 18:47:30 2012

// Start of Templates

template VertexDuplicationIndices {
 <b8d65549-d7c9-4995-89cf-53a9a8b031e3>
 DWORD nIndices;
 DWORD nOriginalVertices;
 array DWORD indices[nIndices];
}

template FVFData {
 <b6e70a0e-8ef9-4e83-94ad-ecc8b0c04897>
 DWORD dwFVF;
 DWORD nDWords;
 array DWORD data[nDWords];
}

template XSkinMeshHeader {
 <3CF169CE-FF7C-44ab-93C0-F78F62D172E2>
 WORD nMaxSkinWeightsPerVertex;
 WORD nMaxSkinWeightsPerFace;
 WORD nBones;
}

template SkinWeights {
 <6F0D123B-BAD2-4167-A0D0-80224F25FABB>
 STRING transformNodeName;
 DWORD nWeights;
 array DWORD vertexIndices[nWeights];
 array FLOAT weights[nWeights];
 Matrix4x4 matrixOffset;
}

template AnimTicksPerSecond {
 <9E415A43-7BA6-4a73-8743-B73D47E88476>
 DWORD AnimTicksPerSecond;
}

// Start of Frames

Frame barrier_wooden {
   FrameTransformMatrix {
    1.000000, 0.000000, 0.000000, 0.000000,
    0.000000, 1.000000, 0.000000, 0.000000,
    0.000000, 0.000000, 1.000000, 0.000000,
    0.000000, 0.000000, 0.000000, 1.000000;;
   }

   Mesh barrier_wooden {
    167;
    -0.014500; 0.808000; 0.025000;,
    -1.716500; 0.808000; 0.025000;,
    -1.716500; 0.808000; -0.023000;,
    -0.014500; 0.808000; -0.023000;,
    -1.716500; 0.953000; -0.023000;,
    -1.716500; 0.953000; 0.025000;,
    -0.014500; 0.953000; 0.025000;,
    -0.014500; 0.953000; -0.023000;,
    -1.716500; 0.953000; 0.025000;,
    -1.716500; 0.808000; 0.025000;,
    -0.014500; 0.808000; 0.025000;,
    -0.014500; 0.953000; 0.025000;,
    1.716500; 0.953000; -0.023000;,
    1.716500; 0.953000; 0.025000;,
    1.716500; 0.808000; 0.025000;,
    1.716500; 0.808000; -0.023000;,
    1.716500; 0.953000; -0.023000;,
    1.716500; 0.808000; -0.023000;,
    -0.014500; 0.808000; -0.023000;,
    -0.014500; 0.953000; -0.023000;,
    -1.716500; 0.953000; 0.025000;,
    -1.716500; 0.953000; -0.023000;,
    -1.716500; 0.808000; 0.025000;,
    -1.387500; 0.696000; 0.236000;,
    -1.436500; 0.696000; 0.236000;,
    -1.436500; 0.696000; -0.225000;,
    -1.387500; 0.696000; -0.225000;,
    -1.387500; 0.800000; 0.160000;,
    -1.387500; 0.800000; -0.148000;,
    -1.436500; 0.800000; -0.148000;,
    -1.436500; 0.800000; 0.160000;,
    -1.436500; 0.800000; 0.160000;,
    -1.436500; 0.800000; -0.148000;,
    -1.436500; 0.696000; -0.225000;,
    -1.436500; 0.696000; 0.236000;,
    -1.387500; 0.800000; 0.160000;,
    -1.436500; 0.800000; 0.160000;,
    -1.436500; 0.696000; 0.236000;,
    -1.387500; 0.696000; 0.236000;,
    -1.387500; 0.800000; -0.148000;,
    -1.387500; 0.800000; 0.160000;,
    -1.387500; 0.696000; 0.236000;,
    -1.387500; 0.696000; -0.225000;,
    -1.436500; 0.800000; -0.148000;,
    -1.387500; 0.800000; -0.148000;,
    -1.387500; 0.696000; -0.225000;,
    -1.436500; 0.696000; -0.225000;,
    -1.439500; 0.001000; 0.636000;,
    -1.487500; 0.001000; 0.636000;,
    -1.487500; 0.806000; 0.026000;,
    -1.439500; 0.806000; 0.026000;,
    -1.439500; 0.000000; 0.765000;,
    -1.439500; 0.990000; 0.025000;,
    -1.487500; 0.990000; 0.025000;,
    -1.487500; 0.000000; 0.765000;,
    -1.487500; 0.000000; 0.765000;,
    -1.487500; 0.990000; 0.025000;,
    -1.487500; 0.806000; 0.026000;,
    -1.487500; 0.001000; 0.636000;,
    -1.439500; 0.000000; 0.765000;,
    -1.487500; 0.000000; 0.765000;,
    -1.487500; 0.001000; 0.636000;,
    -1.439500; 0.001000; 0.636000;,
    -1.439500; 0.990000; 0.025000;,
    -1.439500; 0.000000; 0.765000;,
    -1.439500; 0.001000; 0.636000;,
    -1.439500; 0.806000; 0.026000;,
    -1.487500; 0.990000; 0.025000;,
    -1.439500; 0.990000; 0.025000;,
    -1.487500; 0.001000; -0.636000;,
    -1.439500; 0.001000; -0.636000;,
    -1.439500; 0.806000; -0.026000;,
    -1.487500; 0.806000; -0.026000;,
    -1.487500; 0.000000; -0.765000;,
    -1.487500; 0.990000; -0.025000;,
    -1.439500; 0.990000; -0.025000;,
    -1.439500; 0.000000; -0.765000;,
    -1.439500; 0.000000; -0.765000;,
    -1.439500; 0.990000; -0.025000;,
    -1.439500; 0.806000; -0.026000;,
    -1.439500; 0.001000; -0.636000;,
    -1.487500; 0.000000; -0.765000;,
    -1.439500; 0.000000; -0.765000;,
    -1.439500; 0.001000; -0.636000;,
    -1.487500; 0.001000; -0.636000;,
    -1.487500; 0.990000; -0.025000;,
    -1.487500; 0.000000; -0.765000;,
    -1.487500; 0.001000; -0.636000;,
    -1.487500; 0.806000; -0.026000;,
    -1.439500; 0.990000; -0.025000;,
    -1.487500; 0.990000; -0.025000;,
    1.363500; 0.696000; 0.236000;,
    1.314500; 0.696000; 0.236000;,
    1.314500; 0.696000; -0.225000;,
    1.363500; 0.696000; -0.225000;,
    1.363500; 0.800000; 0.160000;,
    1.363500; 0.800000; -0.148000;,
    1.314500; 0.800000; -0.148000;,
    1.314500; 0.800000; 0.160000;,
    1.314500; 0.800000; 0.160000;,
    1.314500; 0.800000; -0.148000;,
    1.314500; 0.696000; -0.225000;,
    1.314500; 0.696000; 0.236000;,
    1.363500; 0.800000; 0.160000;,
    1.314500; 0.800000; 0.160000;,
    1.314500; 0.696000; 0.236000;,
    1.363500; 0.696000; 0.236000;,
    1.363500; 0.800000; -0.148000;,
    1.363500; 0.800000; 0.160000;,
    1.363500; 0.696000; 0.236000;,
    1.363500; 0.696000; -0.225000;,
    1.314500; 0.800000; -0.148000;,
    1.363500; 0.800000; -0.148000;,
    1.363500; 0.696000; -0.225000;,
    1.314500; 0.696000; -0.225000;,
    1.413500; 0.001000; 0.636000;,
    1.365500; 0.001000; 0.636000;,
    1.365500; 0.806000; 0.026000;,
    1.413500; 0.806000; 0.026000;,
    1.413500; 0.000000; 0.765000;,
    1.413500; 0.990000; 0.025000;,
    1.365500; 0.990000; 0.025000;,
    1.365500; 0.000000; 0.765000;,
    1.365500; 0.000000; 0.765000;,
    1.365500; 0.990000; 0.025000;,
    1.365500; 0.806000; 0.026000;,
    1.365500; 0.001000; 0.636000;,
    1.413500; 0.000000; 0.765000;,
    1.365500; 0.000000; 0.765000;,
    1.365500; 0.001000; 0.636000;,
    1.413500; 0.001000; 0.636000;,
    1.413500; 0.990000; 0.025000;,
    1.413500; 0.000000; 0.765000;,
    1.413500; 0.001000; 0.636000;,
    1.413500; 0.806000; 0.026000;,
    1.365500; 0.990000; 0.025000;,
    1.413500; 0.990000; 0.025000;,
    1.365500; 0.001000; -0.636000;,
    1.413500; 0.001000; -0.636000;,
    1.413500; 0.806000; -0.026000;,
    1.365500; 0.806000; -0.026000;,
    1.365500; 0.000000; -0.765000;,
    1.365500; 0.990000; -0.025000;,
    1.413500; 0.990000; -0.025000;,
    1.413500; 0.000000; -0.765000;,
    1.413500; 0.000000; -0.765000;,
    1.413500; 0.990000; -0.025000;,
    1.413500; 0.806000; -0.026000;,
    1.413500; 0.001000; -0.636000;,
    1.365500; 0.000000; -0.765000;,
    1.413500; 0.000000; -0.765000;,
    1.413500; 0.001000; -0.636000;,
    1.365500; 0.001000; -0.636000;,
    1.365500; 0.990000; -0.025000;,
    1.365500; 0.000000; -0.765000;,
    1.365500; 0.001000; -0.636000;,
    1.365500; 0.806000; -0.026000;,
    1.413500; 0.990000; -0.025000;,
    1.365500; 0.990000; -0.025000;,
    1.716500; 0.808000; -0.023000;,
    1.716500; 0.808000; 0.025000;,
    1.716500; 0.953000; 0.025000;,
    1.716500; 0.953000; -0.023000;,
    1.716500; 0.808000; 0.025000;,
    1.716500; 0.953000; 0.025000;,
    -1.716500; 0.808000; -0.023000;,
    -1.716500; 0.953000; -0.023000;;
    46;
    4;0, 1, 2, 3;,
    4;4, 5, 6, 7;,
    4;8, 9, 10, 11;,
    4;12, 13, 14, 15;,
    4;16, 17, 18, 19;,
    4;20, 21, 2, 22;,
    4;23, 24, 25, 26;,
    4;27, 28, 29, 30;,
    4;31, 32, 33, 34;,
    4;35, 36, 37, 38;,
    4;39, 40, 41, 42;,
    4;43, 44, 45, 46;,
    4;47, 48, 49, 50;,
    4;51, 52, 53, 54;,
    4;55, 56, 57, 58;,
    4;59, 60, 61, 62;,
    4;63, 64, 65, 66;,
    4;67, 68, 50, 49;,
    4;69, 70, 71, 72;,
    4;73, 74, 75, 76;,
    4;77, 78, 79, 80;,
    4;81, 82, 83, 84;,
    4;85, 86, 87, 88;,
    4;89, 90, 72, 71;,
    4;91, 92, 93, 94;,
    4;95, 96, 97, 98;,
    4;99, 100, 101, 102;,
    4;103, 104, 105, 106;,
    4;107, 108, 109, 110;,
    4;111, 112, 113, 114;,
    4;115, 116, 117, 118;,
    4;119, 120, 121, 122;,
    4;123, 124, 125, 126;,
    4;127, 128, 129, 130;,
    4;131, 132, 133, 134;,
    4;135, 136, 118, 117;,
    4;137, 138, 139, 140;,
    4;141, 142, 143, 144;,
    4;145, 146, 147, 148;,
    4;149, 150, 151, 152;,
    4;153, 154, 155, 156;,
    4;157, 158, 140, 139;,
    4;0, 3, 159, 160;,
    4;7, 6, 161, 162;,
    4;11, 10, 163, 164;,
    4;19, 18, 165, 166;;

   MeshNormals {
    167;
    0.000000; -1.000000; 0.000000;,
    0.000000; -1.000000; 0.000000;,
    -0.707107; -0.707107; 0.000000;,
    0.000000; -1.000000; 0.000000;,
    0.000000; 1.000000; 0.000000;,
    0.000000; 1.000000; 0.000000;,
    0.000000; 1.000000; 0.000000;,
    0.000000; 1.000000; 0.000000;,
    0.000000; 0.000000; 1.000000;,
    0.000000; 0.000000; 1.000000;,
    0.000000; 0.000000; 1.000000;,
    0.000000; 0.000000; 1.000000;,
    1.000000; 0.000000; 0.000000;,
    1.000000; 0.000000; 0.000000;,
    1.000000; 0.000000; 0.000000;,
    1.000000; 0.000000; 0.000000;,
    0.000000; 0.000000; -1.000000;,
    0.000000; 0.000000; -1.000000;,
    0.000000; 0.000000; -1.000000;,
    0.000000; 0.000000; -1.000000;,
    -1.000000; 0.000000; 0.000000;,
    -1.000000; 0.000000; 0.000000;,
    -1.000000; 0.000000; 0.000000;,
    0.000000; -1.000000; 0.000000;,
    0.000000; -1.000000; 0.000000;,
    0.000000; -1.000000; 0.000000;,
    0.000000; -1.000000; 0.000000;,
    0.000000; 1.000000; 0.000000;,
    0.000000; 1.000000; 0.000000;,
    0.000000; 1.000000; 0.000000;,
    0.000000; 1.000000; 0.000000;,
    -1.000000; 0.000000; 0.000000;,
    -1.000000; 0.000000; 0.000000;,
    -1.000000; 0.000000; 0.000000;,
    -1.000000; 0.000000; 0.000000;,
    0.000000; 0.590017; 0.807391;,
    0.000000; 0.590017; 0.807391;,
    0.000000; 0.590017; 0.807391;,
    0.000000; 0.590017; 0.807391;,
    1.000000; 0.000000; 0.000000;,
    1.000000; 0.000000; 0.000000;,
    1.000000; 0.000000; 0.000000;,
    1.000000; 0.000000; 0.000000;,
    0.000000; 0.595043; -0.803694;,
    0.000000; 0.595043; -0.803694;,
    0.000000; 0.595043; -0.803694;,
    0.000000; 0.595043; -0.803694;,
    0.000000; -0.603953; -0.797020;,
    0.000000; -0.603953; -0.797020;,
    0.000000; -0.321150; -0.947029;,
    0.000000; -0.321150; -0.947029;,
    0.000000; 0.598705; 0.800970;,
    0.000000; 0.598705; 0.800970;,
    0.000000; 0.598705; 0.800970;,
    0.000000; 0.598705; 0.800970;,
    -1.000000; 0.000000; 0.000000;,
    -1.000000; 0.000000; 0.000000;,
    -1.000000; 0.000000; 0.000000;,
    -1.000000; 0.000000; 0.000000;,
    0.000000; -0.999970; -0.007752;,
    0.000000; -0.999970; -0.007752;,
    0.000000; -0.999970; -0.007752;,
    0.000000; -0.999970; -0.007752;,
    1.000000; 0.000000; 0.000000;,
    1.000000; 0.000000; 0.000000;,
    1.000000; 0.000000; 0.000000;,
    1.000000; 0.000000; 0.000000;,
    0.000000; -0.005435; -0.999985;,
    0.000000; -0.005435; -0.999985;,
    0.000000; -0.603953; 0.797020;,
    0.000000; -0.603953; 0.797020;,
    0.000000; -0.321150; 0.947029;,
    0.000000; -0.321150; 0.947029;,
    0.000000; 0.598705; -0.800970;,
    0.000000; 0.598705; -0.800970;,
    0.000000; 0.598705; -0.800970;,
    0.000000; 0.598705; -0.800970;,
    1.000000; 0.000000; 0.000000;,
    1.000000; 0.000000; 0.000000;,
    1.000000; 0.000000; 0.000000;,
    1.000000; 0.000000; 0.000000;,
    0.000000; -0.999970; 0.007752;,
    0.000000; -0.999970; 0.007752;,
    0.000000; -0.999970; 0.007752;,
    0.000000; -0.999970; 0.007752;,
    -1.000000; 0.000000; 0.000000;,
    -1.000000; 0.000000; 0.000000;,
    -1.000000; 0.000000; 0.000000;,
    -1.000000; 0.000000; 0.000000;,
    0.000000; -0.005435; 0.999985;,
    0.000000; -0.005435; 0.999985;,
    0.000000; -1.000000; 0.000000;,
    0.000000; -1.000000; 0.000000;,
    0.000000; -1.000000; 0.000000;,
    0.000000; -1.000000; 0.000000;,
    0.000000; 1.000000; 0.000000;,
    0.000000; 1.000000; 0.000000;,
    0.000000; 1.000000; 0.000000;,
    0.000000; 1.000000; 0.000000;,
    -1.000000; 0.000000; 0.000000;,
    -1.000000; 0.000000; 0.000000;,
    -1.000000; 0.000000; 0.000000;,
    -1.000000; 0.000000; 0.000000;,
    0.000000; 0.590017; 0.807391;,
    0.000000; 0.590017; 0.807391;,
    0.000000; 0.590017; 0.807391;,
    0.000000; 0.590017; 0.807391;,
    1.000000; 0.000000; 0.000000;,
    1.000000; 0.000000; 0.000000;,
    1.000000; 0.000000; 0.000000;,
    1.000000; 0.000000; 0.000000;,
    0.000000; 0.595043; -0.803694;,
    0.000000; 0.595043; -0.803694;,
    0.000000; 0.595043; -0.803694;,
    0.000000; 0.595043; -0.803694;,
    0.000000; -0.603953; -0.797020;,
    0.000000; -0.603953; -0.797020;,
    0.000000; -0.321150; -0.947029;,
    0.000000; -0.321150; -0.947029;,
    0.000000; 0.598705; 0.800970;,
    0.000000; 0.598705; 0.800970;,
    0.000000; 0.598705; 0.800970;,
    0.000000; 0.598705; 0.800970;,
    -1.000000; 0.000000; 0.000000;,
    -1.000000; 0.000000; 0.000000;,
    -1.000000; 0.000000; 0.000000;,
    -1.000000; 0.000000; 0.000000;,
    0.000000; -0.999970; -0.007752;,
    0.000000; -0.999970; -0.007752;,
    0.000000; -0.999970; -0.007752;,
    0.000000; -0.999970; -0.007752;,
    1.000000; 0.000000; 0.000000;,
    1.000000; 0.000000; 0.000000;,
    1.000000; 0.000000; 0.000000;,
    1.000000; 0.000000; 0.000000;,
    0.000000; -0.005435; -0.999985;,
    0.000000; -0.005435; -0.999985;,
    0.000000; -0.603953; 0.797020;,
    0.000000; -0.603953; 0.797020;,
    0.000000; -0.321150; 0.947029;,
    0.000000; -0.321150; 0.947029;,
    0.000000; 0.598705; -0.800970;,
    0.000000; 0.598705; -0.800970;,
    0.000000; 0.598705; -0.800970;,
    0.000000; 0.598705; -0.800970;,
    1.000000; 0.000000; 0.000000;,
    1.000000; 0.000000; 0.000000;,
    1.000000; 0.000000; 0.000000;,
    1.000000; 0.000000; 0.000000;,
    0.000000; -0.999970; 0.007752;,
    0.000000; -0.999970; 0.007752;,
    0.000000; -0.999970; 0.007752;,
    0.000000; -0.999970; 0.007752;,
    -1.000000; 0.000000; 0.000000;,
    -1.000000; 0.000000; 0.000000;,
    -1.000000; 0.000000; 0.000000;,
    -1.000000; 0.000000; 0.000000;,
    0.000000; -0.005435; 0.999985;,
    0.000000; -0.005435; 0.999985;,
    0.000000; -1.000000; 0.000000;,
    0.000000; -1.000000; 0.000000;,
    0.000000; 1.000000; 0.000000;,
    0.000000; 1.000000; 0.000000;,
    0.000000; 0.000000; 1.000000;,
    0.000000; 0.000000; 1.000000;,
    0.000000; 0.000000; -1.000000;,
    0.000000; 0.000000; -1.000000;;
    46;
    4;0, 1, 2, 3;,
    4;4, 5, 6, 7;,
    4;8, 9, 10, 11;,
    4;12, 13, 14, 15;,
    4;16, 17, 18, 19;,
    4;20, 21, 2, 22;,
    4;23, 24, 25, 26;,
    4;27, 28, 29, 30;,
    4;31, 32, 33, 34;,
    4;35, 36, 37, 38;,
    4;39, 40, 41, 42;,
    4;43, 44, 45, 46;,
    4;47, 48, 49, 50;,
    4;51, 52, 53, 54;,
    4;55, 56, 57, 58;,
    4;59, 60, 61, 62;,
    4;63, 64, 65, 66;,
    4;67, 68, 50, 49;,
    4;69, 70, 71, 72;,
    4;73, 74, 75, 76;,
    4;77, 78, 79, 80;,
    4;81, 82, 83, 84;,
    4;85, 86, 87, 88;,
    4;89, 90, 72, 71;,
    4;91, 92, 93, 94;,
    4;95, 96, 97, 98;,
    4;99, 100, 101, 102;,
    4;103, 104, 105, 106;,
    4;107, 108, 109, 110;,
    4;111, 112, 113, 114;,
    4;115, 116, 117, 118;,
    4;119, 120, 121, 122;,
    4;123, 124, 125, 126;,
    4;127, 128, 129, 130;,
    4;131, 132, 133, 134;,
    4;135, 136, 118, 117;,
    4;137, 138, 139, 140;,
    4;141, 142, 143, 144;,
    4;145, 146, 147, 148;,
    4;149, 150, 151, 152;,
    4;153, 154, 155, 156;,
    4;157, 158, 140, 139;,
    4;0, 3, 159, 160;,
    4;7, 6, 161, 162;,
    4;11, 10, 163, 164;,
    4;19, 18, 165, 166;;
   }

   MeshTextureCoords {
    167;
    0.507000; 0.515000;,
    0.013000; 0.515000;,
    0.013000; 0.451000;,
    0.507000; 0.451000;,
    0.013000; 0.194000;,
    0.013000; 0.258000;,
    0.507000; 0.258000;,
    0.507000; 0.194000;,
    0.013000; 0.000000;,
    0.013000; 0.192000;,
    0.506000; 0.192000;,
    0.506000; 0.000000;,
    0.013000; 0.002000;,
    0.000000; 0.002000;,
    0.000000; 0.194000;,
    0.013000; 0.194000;,
    0.013000; 0.258000;,
    0.013000; 0.450000;,
    0.506000; 0.450000;,
    0.506000; 0.258000;,
    0.000000; 0.259000;,
    0.013000; 0.259000;,
    0.000000; 0.451000;,
    0.343000; 0.917000;,
    0.343000; 0.853000;,
    0.465000; 0.853000;,
    0.465000; 0.917000;,
    0.365000; 0.992000;,
    0.447000; 0.992000;,
    0.447000; 0.928000;,
    0.365000; 0.928000;,
    0.361000; 0.691000;,
    0.442000; 0.691000;,
    0.462000; 0.830000;,
    0.341000; 0.830000;,
    0.415000; 0.917000;,
    0.415000; 0.853000;,
    0.387000; 0.853000;,
    0.387000; 0.917000;,
    0.429000; 0.539000;,
    0.348000; 0.539000;,
    0.328000; 0.678000;,
    0.450000; 0.678000;,
    0.415000; 0.853000;,
    0.415000; 0.917000;,
    0.387000; 0.917000;,
    0.387000; 0.853000;,
    0.034000; 1.000000;,
    0.034000; 0.936000;,
    0.246000; 0.936000;,
    0.246000; 1.000000;,
    0.075000; 0.922000;,
    0.336000; 0.922000;,
    0.336000; 0.857000;,
    0.075000; 0.857000;,
    0.017000; 0.689000;,
    0.343000; 0.691000;,
    0.304000; 0.835000;,
    0.038000; 0.824000;,
    0.034000; 0.922000;,
    0.034000; 0.857000;,
    0.068000; 0.857000;,
    0.068000; 0.922000;,
    0.343000; 0.539000;,
    0.017000; 0.537000;,
    0.038000; 0.672000;,
    0.304000; 0.683000;,
    0.295000; 0.936000;,
    0.295000; 1.000000;,
    0.034000; 1.000000;,
    0.034000; 0.936000;,
    0.246000; 0.936000;,
    0.246000; 1.000000;,
    0.075000; 0.922000;,
    0.336000; 0.922000;,
    0.336000; 0.857000;,
    0.075000; 0.857000;,
    0.017000; 0.538000;,
    0.343000; 0.540000;,
    0.304000; 0.684000;,
    0.038000; 0.674000;,
    0.034000; 0.922000;,
    0.034000; 0.857000;,
    0.068000; 0.857000;,
    0.068000; 0.922000;,
    0.343000; 0.689000;,
    0.017000; 0.688000;,
    0.038000; 0.823000;,
    0.304000; 0.833000;,
    0.295000; 0.936000;,
    0.295000; 1.000000;,
    0.343000; 0.917000;,
    0.343000; 0.853000;,
    0.465000; 0.853000;,
    0.465000; 0.917000;,
    0.365000; 0.992000;,
    0.447000; 0.992000;,
    0.447000; 0.928000;,
    0.365000; 0.928000;,
    0.361000; 0.691000;,
    0.442000; 0.691000;,
    0.462000; 0.830000;,
    0.341000; 0.830000;,
    0.415000; 0.917000;,
    0.415000; 0.853000;,
    0.387000; 0.853000;,
    0.387000; 0.917000;,
    0.429000; 0.539000;,
    0.348000; 0.539000;,
    0.328000; 0.678000;,
    0.450000; 0.678000;,
    0.415000; 0.853000;,
    0.415000; 0.917000;,
    0.387000; 0.917000;,
    0.387000; 0.853000;,
    0.034000; 1.000000;,
    0.034000; 0.936000;,
    0.246000; 0.936000;,
    0.246000; 1.000000;,
    0.075000; 0.922000;,
    0.336000; 0.922000;,
    0.336000; 0.857000;,
    0.075000; 0.857000;,
    0.017000; 0.536000;,
    0.343000; 0.538000;,
    0.304000; 0.682000;,
    0.038000; 0.671000;,
    0.034000; 0.922000;,
    0.034000; 0.857000;,
    0.068000; 0.857000;,
    0.068000; 0.922000;,
    0.343000; 0.689000;,
    0.017000; 0.688000;,
    0.038000; 0.823000;,
    0.304000; 0.833000;,
    0.295000; 0.936000;,
    0.295000; 1.000000;,
    0.034000; 1.000000;,
    0.034000; 0.936000;,
    0.246000; 0.936000;,
    0.246000; 1.000000;,
    0.075000; 0.922000;,
    0.336000; 0.922000;,
    0.336000; 0.857000;,
    0.075000; 0.857000;,
    0.017000; 0.689000;,
    0.343000; 0.691000;,
    0.304000; 0.835000;,
    0.038000; 0.824000;,
    0.034000; 0.922000;,
    0.034000; 0.857000;,
    0.068000; 0.857000;,
    0.068000; 0.922000;,
    0.343000; 0.539000;,
    0.017000; 0.537000;,
    0.038000; 0.672000;,
    0.304000; 0.683000;,
    0.295000; 0.936000;,
    0.295000; 1.000000;,
    1.000000; 0.451000;,
    1.000000; 0.515000;,
    1.000000; 0.258000;,
    1.000000; 0.194000;,
    1.000000; 0.192000;,
    1.000000; 0.000000;,
    1.000000; 0.450000;,
    1.000000; 0.258000;;
   }

   FVFData {
    258;
    334;
    0,
    1065353216,
    0,
    1065353216,
    0,
    1065353216,
    0,
    1065353216,
    0,
    1065353216,
    0,
    1065353216,
    0,
    1065353216,
    0,
    1065353216,
    0,
    1065353216,
    0,
    1065353216,
    0,
    1065353216,
    0,
    1065353216,
    0,
    1065353216,
    0,
    1065353216,
    0,
    1065353216,
    0,
    1065353216,
    0,
    1065353216,
    0,
    1065353216,
    0,
    1065353216,
    0,
    1065353216,
    0,
    1065353216,
    0,
    1065353216,
    0,
    1065353216,
    0,
    1065353216,
    0,
    1065353216,
    0,
    1065353216,
    0,
    1065353216,
    0,
    1065353216,
    0,
    1065353216,
    0,
    1065353216,
    0,
    1065353216,
    0,
    1065353216,
    0,
    1065353216,
    0,
    1065353216,
    0,
    1065353216,
    0,
    1065353216,
    0,
    1065353216,
    0,
    1065353216,
    0,
    1065353216,
    0,
    1065353216,
    0,
    1065353216,
    0,
    1065353216,
    0,
    1065353216,
    0,
    1065353216,
    0,
    1065353216,
    0,
    1065353216,
    0,
    1065353216,
    0,
    1065353216,
    0,
    1065353216,
    0,
    1065353216,
    0,
    1065353216,
    0,
    1065353216,
    0,
    1065353216,
    0,
    1065353216,
    0,
    1065353216,
    0,
    1065353216,
    0,
    1065353216,
    0,
    1065353216,
    0,
    1065353216,
    0,
    1065353216,
    0,
    1065353216,
    0,
    1065353216,
    0,
    1065353216,
    0,
    1065353216,
    0,
    1065353216,
    0,
    1065353216,
    0,
    1065353216,
    0,
    1065353216,
    0,
    1065353216,
    0,
    1065353216,
    0,
    1065353216,
    0,
    1065353216,
    0,
    1065353216,
    0,
    1065353216,
    0,
    1065353216,
    0,
    1065353216,
    0,
    1065353216,
    0,
    1065353216,
    0,
    1065353216,
    0,
    1065353216,
    0,
    1065353216,
    0,
    1065353216,
    0,
    1065353216,
    0,
    1065353216,
    0,
    1065353216,
    0,
    1065353216,
    0,
    1065353216,
    0,
    1065353216,
    0,
    1065353216,
    0,
    1065353216,
    0,
    1065353216,
    0,
    1065353216,
    0,
    1065353216,
    0,
    1065353216,
    0,
    1065353216,
    0,
    1065353216,
    0,
    1065353216,
    0,
    1065353216,
    0,
    1065353216,
    0,
    1065353216,
    0,
    1065353216,
    0,
    1065353216,
    0,
    1065353216,
    0,
    1065353216,
    0,
    1065353216,
    0,
    1065353216,
    0,
    1065353216,
    0,
    1065353216,
    0,
    1065353216,
    0,
    1065353216,
    0,
    1065353216,
    0,
    1065353216,
    0,
    1065353216,
    0,
    1065353216,
    0,
    1065353216,
    0,
    1065353216,
    0,
    1065353216,
    0,
    1065353216,
    0,
    1065353216,
    0,
    1065353216,
    0,
    1065353216,
    0,
    1065353216,
    0,
    1065353216,
    0,
    1065353216,
    0,
    1065353216,
    0,
    1065353216,
    0,
    1065353216,
    0,
    1065353216,
    0,
    1065353216,
    0,
    1065353216,
    0,
    1065353216,
    0,
    1065353216,
    0,
    1065353216,
    0,
    1065353216,
    0,
    1065353216,
    0,
    1065353216,
    0,
    1065353216,
    0,
    1065353216,
    0,
    1065353216,
    0,
    1065353216,
    0,
    1065353216,
    0,
    1065353216,
    0,
    1065353216,
    0,
    1065353216,
    0,
    1065353216,
    0,
    1065353216,
    0,
    1065353216,
    0,
    1065353216,
    0,
    1065353216,
    0,
    1065353216,
    0,
    1065353216,
    0,
    1065353216,
    0,
    1065353216,
    0,
    1065353216,
    0,
    1065353216,
    0,
    1065353216,
    0,
    1065353216,
    0,
    1065353216,
    0,
    1065353216,
    0,
    1065353216,
    0,
    1065353216,
    0,
    1065353216,
    0,
    1065353216,
    0,
    1065353216,
    0,
    1065353216,
    0,
    1065353216,
    0,
    1065353216;
   }

   MeshMaterialList {
    1;
    46;
    0,
    0,
    0,
    0,
    0,
    0,
    0,
    0,
    0,
    0,
    0,
    0,
    0,
    0,
    0,
    0,
    0,
    0,
    0,
    0,
    0,
    0,
    0,
    0,
    0,
    0,
    0,
    0,
    0,
    0,
    0,
    0,
    0,
    0,
    0,
    0,
    0,
    0,
    0,
    0,
    0,
    0,
    0,
    0,
    0,
    0;

    Material barrierwooden_Smoothing {
     0.588000; 0.588000; 0.588000; 1.000000;;
     128.000000;
     0.000000; 0.000000; 0.000000;;
     0.000000; 0.000000; 0.000000;;

     TextureFilename {
      "D:\\new packs\\test\\barrierwooden_diffuse.tga";
     }
    }

   }
  }
}
