xof 0303txt 0032

// DirectX 8.0 file
// Creator: Ultimate Unwrap3D Pro v3.27
// Website: http://www.unwrap3d.com
// Time: Fri Jun 01 18:47:40 2012

// Start of Templates

template VertexDuplicationIndices {
 <b8d65549-d7c9-4995-89cf-53a9a8b031e3>
 DWORD nIndices;
 DWORD nOriginalVertices;
 array DWORD indices[nIndices];
}

template FVFData {
 <b6e70a0e-8ef9-4e83-94ad-ecc8b0c04897>
 DWORD dwFVF;
 DWORD nDWords;
 array DWORD data[nDWords];
}

template XSkinMeshHeader {
 <3CF169CE-FF7C-44ab-93C0-F78F62D172E2>
 WORD nMaxSkinWeightsPerVertex;
 WORD nMaxSkinWeightsPerFace;
 WORD nBones;
}

template SkinWeights {
 <6F0D123B-BAD2-4167-A0D0-80224F25FABB>
 STRING transformNodeName;
 DWORD nWeights;
 array DWORD vertexIndices[nWeights];
 array FLOAT weights[nWeights];
 Matrix4x4 matrixOffset;
}

template AnimTicksPerSecond {
 <9E415A43-7BA6-4a73-8743-B73D47E88476>
 DWORD AnimTicksPerSecond;
}

// Start of Frames

Frame busstop {
   FrameTransformMatrix {
    1.000000, 0.000000, 0.000000, 0.000000,
    0.000000, 1.000000, 0.000000, 0.000000,
    0.000000, 0.000000, 1.000000, 0.000000,
    0.000000, 0.000000, 0.000000, 1.000000;;
   }

   Mesh busstop {
    434;
    -1.704000; 0.000000; -0.496500;,
    -1.704000; 0.000000; -0.598500;,
    -1.603000; 0.000000; -0.598500;,
    -1.603000; 0.000000; -0.496500;,
    -1.704000; 2.330000; -0.496500;,
    -1.603000; 2.330000; -0.496500;,
    -1.603000; 2.330000; -0.598500;,
    -1.704000; 2.330000; -0.598500;,
    -1.704000; 2.330000; -0.598500;,
    -1.603000; 2.330000; -0.598500;,
    -1.603000; 0.000000; -0.598500;,
    -1.704000; 0.000000; -0.598500;,
    -1.704000; 2.330000; -0.496500;,
    -1.704000; 0.000000; -0.496500;,
    -1.603000; 2.330000; -0.496500;,
    -1.603000; 0.000000; -0.496500;,
    -1.603000; 2.330000; -0.496500;,
    -1.603000; 0.000000; -0.496500;,
    -1.704000; 0.000000; 0.602500;,
    -1.704000; 0.000000; 0.501500;,
    -1.603000; 0.000000; 0.501500;,
    -1.603000; 0.000000; 0.602500;,
    -1.704000; 2.330000; 0.602500;,
    -1.603000; 2.330000; 0.602500;,
    -1.603000; 2.330000; 0.501500;,
    -1.704000; 2.330000; 0.501500;,
    -1.704000; 2.330000; 0.501500;,
    -1.603000; 2.330000; 0.501500;,
    -1.603000; 0.000000; 0.501500;,
    -1.704000; 0.000000; 0.501500;,
    -1.704000; 2.330000; 0.602500;,
    -1.704000; 0.000000; 0.602500;,
    -1.603000; 2.330000; 0.602500;,
    -1.603000; 0.000000; 0.602500;,
    -1.603000; 2.330000; 0.501500;,
    -1.603000; 0.000000; 0.501500;,
    -1.695000; 0.334000; -0.498500;,
    -1.638000; 0.334000; -0.498500;,
    -1.638000; 0.334000; 0.504500;,
    -1.695000; 0.334000; 0.504500;,
    -1.695000; 0.435000; -0.498500;,
    -1.695000; 0.334000; -0.498500;,
    -1.695000; 0.334000; 0.504500;,
    -1.695000; 0.435000; 0.504500;,
    -1.638000; 0.435000; -0.498500;,
    -1.638000; 0.435000; 0.504500;,
    -1.648000; 0.483000; 0.454500;,
    -1.648000; 2.280000; 0.454500;,
    -1.648000; 2.330000; 0.504500;,
    -1.648000; 0.433000; 0.504500;,
    -1.648000; 0.483000; -0.448500;,
    -1.648000; 0.483000; 0.454500;,
    -1.648000; 0.433000; 0.504500;,
    -1.648000; 0.433000; -0.498500;,
    -1.648000; 2.280000; -0.448500;,
    -1.648000; 0.483000; -0.448500;,
    -1.648000; 0.433000; -0.498500;,
    -1.648000; 2.330000; -0.498500;,
    -1.648000; 2.280000; 0.454500;,
    -1.648000; 2.280000; -0.448500;,
    -1.648000; 2.330000; -0.498500;,
    -1.648000; 2.330000; 0.504500;,
    -1.679000; 0.483000; 0.454500;,
    -1.679000; 2.280000; 0.454500;,
    -1.679000; 0.483000; -0.448500;,
    -1.679000; 0.483000; 0.454500;,
    -1.679000; 2.280000; -0.448500;,
    -1.679000; 0.483000; -0.448500;,
    -1.679000; 2.280000; 0.454500;,
    -1.679000; 2.280000; -0.448500;,
    -1.679000; 0.433000; 0.504500;,
    -1.679000; 2.330000; 0.504500;,
    -1.679000; 0.433000; -0.498500;,
    -1.679000; 0.433000; 0.504500;,
    -1.679000; 2.330000; -0.498500;,
    -1.679000; 0.433000; -0.498500;,
    -1.679000; 2.330000; 0.504500;,
    -1.679000; 2.330000; -0.498500;,
    -1.667000; 2.282000; -0.498500;,
    -1.667000; 0.434000; -0.498500;,
    -1.667000; 0.434000; 0.504500;,
    -1.667000; 2.282000; 0.504500;,
    -0.502000; 0.000000; 0.598500;,
    -0.604000; 0.000000; 0.598500;,
    -0.604000; 0.000000; 0.497500;,
    -0.502000; 0.000000; 0.497500;,
    -0.502000; 2.330000; 0.598500;,
    -0.502000; 2.330000; 0.497500;,
    -0.604000; 2.330000; 0.497500;,
    -0.604000; 2.330000; 0.598500;,
    -0.604000; 2.330000; 0.598500;,
    -0.604000; 2.330000; 0.497500;,
    -0.604000; 0.000000; 0.497500;,
    -0.604000; 0.000000; 0.598500;,
    -0.502000; 2.330000; 0.598500;,
    -0.502000; 0.000000; 0.598500;,
    -0.502000; 2.330000; 0.497500;,
    -0.502000; 0.000000; 0.497500;,
    -0.604000; 2.330000; 0.497500;,
    -0.604000; 0.000000; 0.497500;,
    -1.603000; 0.334000; 0.589500;,
    -1.603000; 0.334000; 0.532500;,
    -0.600000; 0.334000; 0.532500;,
    -0.600000; 0.334000; 0.589500;,
    -1.603000; 0.435000; 0.589500;,
    -1.603000; 0.334000; 0.589500;,
    -0.600000; 0.334000; 0.589500;,
    -0.600000; 0.435000; 0.589500;,
    -1.603000; 0.435000; 0.532500;,
    -0.600000; 0.435000; 0.532500;,
    -0.650000; 0.483000; 0.542500;,
    -0.650000; 2.280000; 0.542500;,
    -0.600000; 2.330000; 0.542500;,
    -0.600000; 0.433000; 0.542500;,
    -1.553000; 0.483000; 0.542500;,
    -0.650000; 0.483000; 0.542500;,
    -0.600000; 0.433000; 0.542500;,
    -1.603000; 0.433000; 0.542500;,
    -1.553000; 2.280000; 0.542500;,
    -1.553000; 0.483000; 0.542500;,
    -1.603000; 0.433000; 0.542500;,
    -1.603000; 2.330000; 0.542500;,
    -0.650000; 2.280000; 0.542500;,
    -1.553000; 2.280000; 0.542500;,
    -1.603000; 2.330000; 0.542500;,
    -0.600000; 2.330000; 0.542500;,
    -0.650000; 0.483000; 0.573500;,
    -0.650000; 2.280000; 0.573500;,
    -1.553000; 0.483000; 0.573500;,
    -0.650000; 0.483000; 0.573500;,
    -1.553000; 2.280000; 0.573500;,
    -1.553000; 0.483000; 0.573500;,
    -0.650000; 2.280000; 0.573500;,
    -1.553000; 2.280000; 0.573500;,
    -0.600000; 0.433000; 0.573500;,
    -0.600000; 2.330000; 0.573500;,
    -1.603000; 0.433000; 0.573500;,
    -0.600000; 0.433000; 0.573500;,
    -1.603000; 2.330000; 0.573500;,
    -1.603000; 0.433000; 0.573500;,
    -0.600000; 2.330000; 0.573500;,
    -1.603000; 2.330000; 0.573500;,
    -1.603000; 2.282000; 0.561500;,
    -1.603000; 0.434000; 0.561500;,
    -0.600000; 0.434000; 0.561500;,
    -0.600000; 2.282000; 0.561500;,
    0.597000; 0.000000; 0.598500;,
    0.496000; 0.000000; 0.598500;,
    0.496000; 0.000000; 0.497500;,
    0.597000; 0.000000; 0.497500;,
    0.597000; 2.330000; 0.598500;,
    0.597000; 2.330000; 0.497500;,
    0.496000; 2.330000; 0.497500;,
    0.496000; 2.330000; 0.598500;,
    0.496000; 2.330000; 0.598500;,
    0.496000; 2.330000; 0.497500;,
    0.496000; 0.000000; 0.497500;,
    0.496000; 0.000000; 0.598500;,
    0.597000; 2.330000; 0.598500;,
    0.597000; 0.000000; 0.598500;,
    0.597000; 2.330000; 0.497500;,
    0.597000; 0.000000; 0.497500;,
    0.496000; 2.330000; 0.497500;,
    0.496000; 0.000000; 0.497500;,
    -0.504000; 0.334000; 0.589500;,
    -0.504000; 0.334000; 0.532500;,
    0.499000; 0.334000; 0.532500;,
    0.499000; 0.334000; 0.589500;,
    -0.504000; 0.435000; 0.589500;,
    -0.504000; 0.334000; 0.589500;,
    0.499000; 0.334000; 0.589500;,
    0.499000; 0.435000; 0.589500;,
    -0.504000; 0.435000; 0.532500;,
    0.499000; 0.435000; 0.532500;,
    0.449000; 0.483000; 0.542500;,
    0.449000; 2.280000; 0.542500;,
    0.499000; 2.330000; 0.542500;,
    0.499000; 0.433000; 0.542500;,
    -0.454000; 0.483000; 0.542500;,
    0.449000; 0.483000; 0.542500;,
    0.499000; 0.433000; 0.542500;,
    -0.504000; 0.433000; 0.542500;,
    -0.454000; 2.280000; 0.542500;,
    -0.454000; 0.483000; 0.542500;,
    -0.504000; 0.433000; 0.542500;,
    -0.504000; 2.330000; 0.542500;,
    0.449000; 2.280000; 0.542500;,
    -0.454000; 2.280000; 0.542500;,
    -0.504000; 2.330000; 0.542500;,
    0.499000; 2.330000; 0.542500;,
    0.449000; 0.483000; 0.573500;,
    0.449000; 2.280000; 0.573500;,
    -0.454000; 0.483000; 0.573500;,
    0.449000; 0.483000; 0.573500;,
    -0.454000; 2.280000; 0.573500;,
    -0.454000; 0.483000; 0.573500;,
    0.449000; 2.280000; 0.573500;,
    -0.454000; 2.280000; 0.573500;,
    0.499000; 0.433000; 0.573500;,
    0.499000; 2.330000; 0.573500;,
    -0.504000; 0.433000; 0.573500;,
    0.499000; 0.433000; 0.573500;,
    -0.504000; 2.330000; 0.573500;,
    -0.504000; 0.433000; 0.573500;,
    0.499000; 2.330000; 0.573500;,
    -0.504000; 2.330000; 0.573500;,
    -0.504000; 2.282000; 0.561500;,
    -0.504000; 0.434000; 0.561500;,
    0.499000; 0.434000; 0.561500;,
    0.499000; 2.282000; 0.561500;,
    1.695000; 0.000000; 0.598500;,
    1.594000; 0.000000; 0.598500;,
    1.594000; 0.000000; 0.497500;,
    1.695000; 0.000000; 0.497500;,
    1.695000; 2.330000; 0.598500;,
    1.695000; 2.330000; 0.497500;,
    1.594000; 2.330000; 0.497500;,
    1.594000; 2.330000; 0.598500;,
    1.594000; 2.330000; 0.598500;,
    1.594000; 2.330000; 0.497500;,
    1.594000; 0.000000; 0.497500;,
    1.594000; 0.000000; 0.598500;,
    1.695000; 2.330000; 0.598500;,
    1.695000; 0.000000; 0.598500;,
    1.695000; 2.330000; 0.497500;,
    1.695000; 0.000000; 0.497500;,
    1.594000; 2.330000; 0.497500;,
    1.594000; 0.000000; 0.497500;,
    0.595000; 0.334000; 0.589500;,
    0.595000; 0.334000; 0.532500;,
    1.598000; 0.334000; 0.532500;,
    1.598000; 0.334000; 0.589500;,
    0.595000; 0.435000; 0.589500;,
    0.595000; 0.334000; 0.589500;,
    1.598000; 0.334000; 0.589500;,
    1.598000; 0.435000; 0.589500;,
    0.595000; 0.435000; 0.532500;,
    1.598000; 0.435000; 0.532500;,
    1.548000; 0.483000; 0.542500;,
    1.548000; 2.280000; 0.542500;,
    1.598000; 2.330000; 0.542500;,
    1.598000; 0.433000; 0.542500;,
    0.645000; 0.483000; 0.542500;,
    1.548000; 0.483000; 0.542500;,
    1.598000; 0.433000; 0.542500;,
    0.595000; 0.433000; 0.542500;,
    0.645000; 2.280000; 0.542500;,
    0.645000; 0.483000; 0.542500;,
    0.595000; 0.433000; 0.542500;,
    0.595000; 2.330000; 0.542500;,
    1.548000; 2.280000; 0.542500;,
    0.645000; 2.280000; 0.542500;,
    0.595000; 2.330000; 0.542500;,
    1.598000; 2.330000; 0.542500;,
    1.548000; 0.483000; 0.573500;,
    1.548000; 2.280000; 0.573500;,
    0.645000; 0.483000; 0.573500;,
    1.548000; 0.483000; 0.573500;,
    0.645000; 2.280000; 0.573500;,
    0.645000; 0.483000; 0.573500;,
    1.548000; 2.280000; 0.573500;,
    0.645000; 2.280000; 0.573500;,
    1.598000; 0.433000; 0.573500;,
    1.598000; 2.330000; 0.573500;,
    0.595000; 0.433000; 0.573500;,
    1.598000; 0.433000; 0.573500;,
    0.595000; 2.330000; 0.573500;,
    0.595000; 0.433000; 0.573500;,
    1.598000; 2.330000; 0.573500;,
    0.595000; 2.330000; 0.573500;,
    0.595000; 2.282000; 0.561500;,
    0.595000; 0.434000; 0.561500;,
    1.598000; 0.434000; 0.561500;,
    1.598000; 2.282000; 0.561500;,
    1.694000; 0.000000; -0.598500;,
    1.694000; 0.000000; -0.497500;,
    1.593000; 0.000000; -0.497500;,
    1.593000; 0.000000; -0.598500;,
    1.694000; 2.330000; -0.598500;,
    1.593000; 2.330000; -0.598500;,
    1.593000; 2.330000; -0.497500;,
    1.694000; 2.330000; -0.497500;,
    1.694000; 2.330000; -0.497500;,
    1.593000; 2.330000; -0.497500;,
    1.593000; 0.000000; -0.497500;,
    1.694000; 0.000000; -0.497500;,
    1.694000; 2.330000; -0.598500;,
    1.694000; 0.000000; -0.598500;,
    1.593000; 2.330000; -0.598500;,
    1.593000; 0.000000; -0.598500;,
    1.593000; 2.330000; -0.497500;,
    1.593000; 0.000000; -0.497500;,
    1.685000; 0.334000; 0.501500;,
    1.628000; 0.334000; 0.501500;,
    1.628000; 0.334000; -0.500500;,
    1.685000; 0.334000; -0.500500;,
    1.685000; 0.435000; 0.501500;,
    1.685000; 0.334000; 0.501500;,
    1.685000; 0.334000; -0.500500;,
    1.685000; 0.435000; -0.500500;,
    1.628000; 0.435000; 0.501500;,
    1.628000; 0.435000; -0.500500;,
    1.638000; 0.483000; -0.450500;,
    1.638000; 2.280000; -0.450500;,
    1.638000; 2.330000; -0.500500;,
    1.638000; 0.433000; -0.500500;,
    1.638000; 0.483000; 0.451500;,
    1.638000; 0.483000; -0.450500;,
    1.638000; 0.433000; -0.500500;,
    1.638000; 0.433000; 0.501500;,
    1.638000; 2.280000; 0.451500;,
    1.638000; 0.483000; 0.451500;,
    1.638000; 0.433000; 0.501500;,
    1.638000; 2.330000; 0.501500;,
    1.638000; 2.280000; -0.450500;,
    1.638000; 2.280000; 0.451500;,
    1.638000; 2.330000; 0.501500;,
    1.638000; 2.330000; -0.500500;,
    1.669000; 0.483000; -0.450500;,
    1.669000; 2.280000; -0.450500;,
    1.669000; 0.483000; 0.451500;,
    1.669000; 0.483000; -0.450500;,
    1.669000; 2.280000; 0.451500;,
    1.669000; 0.483000; 0.451500;,
    1.669000; 2.280000; -0.450500;,
    1.669000; 2.280000; 0.451500;,
    1.669000; 0.433000; -0.500500;,
    1.669000; 2.330000; -0.500500;,
    1.669000; 0.433000; 0.501500;,
    1.669000; 0.433000; -0.500500;,
    1.669000; 2.330000; 0.501500;,
    1.669000; 0.433000; 0.501500;,
    1.669000; 2.330000; -0.500500;,
    1.669000; 2.330000; 0.501500;,
    1.657000; 2.282000; 0.501500;,
    1.657000; 0.434000; 0.501500;,
    1.657000; 0.434000; -0.500500;,
    1.657000; 2.282000; -0.500500;,
    -1.559000; 2.347000; 0.461500;,
    -1.559000; 2.347000; -0.461500;,
    1.559000; 2.347000; -0.461500;,
    1.559000; 2.347000; 0.461500;,
    -1.739000; 2.467000; -0.641500;,
    1.739000; 2.467000; -0.641500;,
    1.739000; 2.329000; -0.641500;,
    -1.739000; 2.329000; -0.641500;,
    -1.739000; 2.467000; 0.641500;,
    -1.739000; 2.467000; -0.641500;,
    -1.739000; 2.329000; -0.641500;,
    -1.739000; 2.329000; 0.641500;,
    1.739000; 2.467000; 0.641500;,
    -1.739000; 2.467000; 0.641500;,
    -1.739000; 2.329000; 0.641500;,
    1.739000; 2.329000; 0.641500;,
    1.739000; 2.467000; -0.641500;,
    1.739000; 2.467000; 0.641500;,
    1.739000; 2.329000; 0.641500;,
    1.739000; 2.329000; -0.641500;,
    1.589000; 2.329000; 0.491500;,
    1.589000; 2.329000; -0.491500;,
    -1.589000; 2.329000; 0.491500;,
    1.589000; 2.329000; 0.491500;,
    -1.589000; 2.329000; -0.491500;,
    -1.589000; 2.329000; 0.491500;,
    1.589000; 2.329000; -0.491500;,
    -1.589000; 2.329000; -0.491500;,
    1.559000; 2.347000; 0.461500;,
    1.559000; 2.347000; -0.461500;,
    -1.559000; 2.347000; 0.461500;,
    1.559000; 2.347000; 0.461500;,
    -1.559000; 2.347000; -0.461500;,
    -1.559000; 2.347000; 0.461500;,
    1.559000; 2.347000; -0.461500;,
    -1.559000; 2.347000; -0.461500;,
    -1.687000; 2.467000; -0.611500;,
    1.687000; 2.467000; -0.611500;,
    -1.709000; 2.467000; 0.583500;,
    -1.709000; 2.467000; -0.582500;,
    1.687000; 2.467000; 0.611500;,
    -1.687000; 2.467000; 0.611500;,
    1.709000; 2.467000; -0.582500;,
    1.709000; 2.467000; 0.583500;,
    -1.597000; 2.597000; -0.452500;,
    1.597000; 2.597000; -0.452500;,
    1.687000; 2.467000; -0.611500;,
    -1.687000; 2.467000; -0.611500;,
    -1.619000; 2.597000; 0.420500;,
    -1.619000; 2.597000; -0.419500;,
    -1.709000; 2.467000; -0.582500;,
    -1.709000; 2.467000; 0.583500;,
    1.597000; 2.597000; 0.452500;,
    -1.597000; 2.597000; 0.452500;,
    -1.687000; 2.467000; 0.611500;,
    1.687000; 2.467000; 0.611500;,
    1.619000; 2.597000; -0.419500;,
    1.619000; 2.597000; 0.420500;,
    1.709000; 2.467000; 0.583500;,
    1.709000; 2.467000; -0.582500;,
    -1.496000; 2.715000; -0.210500;,
    1.496000; 2.715000; -0.210500;,
    -1.517000; 2.715000; 0.166500;,
    -1.517000; 2.715000; -0.166500;,
    1.496000; 2.715000; 0.210500;,
    -1.496000; 2.715000; 0.210500;,
    1.517000; 2.715000; -0.166500;,
    1.517000; 2.715000; 0.166500;,
    -1.418000; 2.749000; 0.000500;,
    1.418000; 2.749000; 0.000500;,
    1.459000; 2.740000; 0.000500;,
    -1.459000; 2.740000; 0.000500;,
    1.650000; 2.282000; 0.501500;,
    1.650000; 2.282000; -0.500500;,
    1.650000; 0.434000; -0.500500;,
    1.650000; 0.434000; 0.501500;,
    -1.662000; 2.282000; -0.498500;,
    -1.662000; 2.282000; 0.504500;,
    -1.662000; 0.434000; 0.504500;,
    -1.662000; 0.434000; -0.498500;,
    -1.603000; 2.282000; 0.552500;,
    -0.600000; 2.282000; 0.552500;,
    -0.600000; 0.434000; 0.552500;,
    -1.603000; 0.434000; 0.552500;,
    -0.504000; 2.282000; 0.552500;,
    0.499000; 2.282000; 0.552500;,
    0.499000; 0.434000; 0.552500;,
    -0.504000; 0.434000; 0.552500;,
    0.595000; 2.282000; 0.552500;,
    1.598000; 2.282000; 0.552500;,
    1.598000; 0.434000; 0.552500;,
    0.595000; 0.434000; 0.552500;,
    1.709000; 2.467000; -0.582500;,
    -1.709000; 2.467000; -0.582500;,
    -1.709000; 2.467000; 0.583500;,
    1.709000; 2.467000; 0.583500;;
    171;
    4;0, 1, 2, 3;,
    4;4, 5, 6, 7;,
    4;8, 9, 10, 11;,
    4;12, 8, 11, 13;,
    4;14, 12, 13, 15;,
    4;9, 16, 17, 10;,
    4;18, 19, 20, 21;,
    4;22, 23, 24, 25;,
    4;26, 27, 28, 29;,
    4;30, 26, 29, 31;,
    4;32, 30, 31, 33;,
    4;34, 32, 33, 35;,
    4;36, 37, 38, 39;,
    4;40, 41, 42, 43;,
    4;44, 40, 43, 45;,
    4;37, 44, 45, 38;,
    4;46, 47, 48, 49;,
    4;50, 51, 52, 53;,
    4;54, 55, 56, 57;,
    4;58, 59, 60, 61;,
    4;62, 63, 47, 46;,
    4;64, 65, 51, 50;,
    4;66, 67, 55, 54;,
    4;68, 69, 59, 58;,
    4;62, 70, 71, 63;,
    4;64, 72, 73, 65;,
    4;66, 74, 75, 67;,
    4;68, 76, 77, 69;,
    4;78, 79, 80, 81;,
    4;82, 83, 84, 85;,
    4;86, 87, 88, 89;,
    4;90, 91, 92, 93;,
    4;94, 90, 93, 95;,
    4;96, 94, 95, 97;,
    4;98, 96, 97, 99;,
    4;100, 101, 102, 103;,
    4;104, 105, 106, 107;,
    4;108, 104, 107, 109;,
    4;101, 108, 109, 102;,
    4;110, 111, 112, 113;,
    4;114, 115, 116, 117;,
    4;118, 119, 120, 121;,
    4;122, 123, 124, 125;,
    4;126, 127, 111, 110;,
    4;128, 129, 115, 114;,
    4;130, 131, 119, 118;,
    4;132, 133, 123, 122;,
    4;126, 134, 135, 127;,
    4;128, 136, 137, 129;,
    4;130, 138, 139, 131;,
    4;132, 140, 141, 133;,
    4;142, 143, 144, 145;,
    4;146, 147, 148, 149;,
    4;150, 151, 152, 153;,
    4;154, 155, 156, 157;,
    4;158, 154, 157, 159;,
    4;160, 158, 159, 161;,
    4;162, 160, 161, 163;,
    4;164, 165, 166, 167;,
    4;168, 169, 170, 171;,
    4;172, 168, 171, 173;,
    4;165, 172, 173, 166;,
    4;174, 175, 176, 177;,
    4;178, 179, 180, 181;,
    4;182, 183, 184, 185;,
    4;186, 187, 188, 189;,
    4;190, 191, 175, 174;,
    4;192, 193, 179, 178;,
    4;194, 195, 183, 182;,
    4;196, 197, 187, 186;,
    4;190, 198, 199, 191;,
    4;192, 200, 201, 193;,
    4;194, 202, 203, 195;,
    4;196, 204, 205, 197;,
    4;206, 207, 208, 209;,
    4;210, 211, 212, 213;,
    4;214, 215, 216, 217;,
    4;218, 219, 220, 221;,
    4;222, 218, 221, 223;,
    4;224, 222, 223, 225;,
    4;226, 224, 225, 227;,
    4;228, 229, 230, 231;,
    4;232, 233, 234, 235;,
    4;236, 232, 235, 237;,
    4;229, 236, 237, 230;,
    4;238, 239, 240, 241;,
    4;242, 243, 244, 245;,
    4;246, 247, 248, 249;,
    4;250, 251, 252, 253;,
    4;254, 255, 239, 238;,
    4;256, 257, 243, 242;,
    4;258, 259, 247, 246;,
    4;260, 261, 251, 250;,
    4;254, 262, 263, 255;,
    4;256, 264, 265, 257;,
    4;258, 266, 267, 259;,
    4;260, 268, 269, 261;,
    4;270, 271, 272, 273;,
    4;274, 275, 276, 277;,
    4;278, 279, 280, 281;,
    4;282, 283, 284, 285;,
    4;286, 282, 285, 287;,
    4;288, 286, 287, 289;,
    4;290, 288, 289, 291;,
    4;292, 293, 294, 295;,
    4;296, 297, 298, 299;,
    4;300, 296, 299, 301;,
    4;293, 300, 301, 294;,
    4;302, 303, 304, 305;,
    4;306, 307, 308, 309;,
    4;310, 311, 312, 313;,
    4;314, 315, 316, 317;,
    4;318, 319, 303, 302;,
    4;320, 321, 307, 306;,
    4;322, 323, 311, 310;,
    4;324, 325, 315, 314;,
    4;318, 326, 327, 319;,
    4;320, 328, 329, 321;,
    4;322, 330, 331, 323;,
    4;324, 332, 333, 325;,
    4;334, 335, 336, 337;,
    4;338, 339, 340, 341;,
    4;342, 343, 344, 345;,
    4;346, 347, 348, 349;,
    4;350, 351, 352, 353;,
    4;354, 355, 356, 357;,
    4;358, 359, 357, 356;,
    4;360, 361, 353, 352;,
    4;362, 363, 349, 348;,
    4;364, 365, 345, 344;,
    4;366, 367, 359, 358;,
    4;368, 369, 361, 360;,
    4;370, 371, 363, 362;,
    4;372, 373, 365, 364;,
    4;374, 375, 343, 342;,
    4;376, 377, 347, 346;,
    4;378, 379, 351, 350;,
    4;380, 381, 355, 354;,
    4;382, 383, 384, 385;,
    4;386, 387, 388, 389;,
    4;390, 391, 392, 393;,
    4;394, 395, 396, 397;,
    4;398, 399, 383, 382;,
    4;400, 401, 387, 386;,
    4;402, 403, 391, 390;,
    4;404, 405, 395, 394;,
    4;406, 407, 399, 398;,
    4;407, 406, 403, 402;,
    4;383, 394, 397, 384;,
    4;387, 382, 385, 388;,
    4;391, 386, 389, 392;,
    4;395, 390, 393, 396;,
    4;399, 404, 394, 383;,
    4;401, 398, 382, 387;,
    4;403, 400, 386, 391;,
    4;405, 402, 390, 395;,
    4;407, 408, 404, 399;,
    4;409, 406, 398, 401;,
    4;406, 409, 400, 403;,
    4;408, 407, 402, 405;,
    4;410, 411, 412, 413;,
    4;414, 415, 416, 417;,
    4;418, 419, 420, 421;,
    4;422, 423, 424, 425;,
    4;426, 427, 428, 429;,
    3;401, 400, 409;,
    3;405, 404, 408;,
    3;343, 375, 430;,
    3;342, 431, 374;,
    3;351, 379, 432;,
    3;350, 433, 378;;

   MeshNormals {
    434;
    0.000000; -1.000000; 0.000000;,
    0.000000; -1.000000; 0.000000;,
    0.000000; -1.000000; 0.000000;,
    0.000000; -1.000000; 0.000000;,
    0.000000; 1.000000; 0.000000;,
    0.000000; 1.000000; 0.000000;,
    0.000000; 1.000000; 0.000000;,
    0.000000; 1.000000; 0.000000;,
    -0.707107; 0.000000; -0.707107;,
    0.707107; 0.000000; -0.707107;,
    0.707107; 0.000000; -0.707107;,
    -0.707107; 0.000000; -0.707107;,
    -0.707107; 0.000000; 0.707107;,
    -0.707107; 0.000000; 0.707107;,
    0.000000; 0.000000; 1.000000;,
    0.000000; 0.000000; 1.000000;,
    1.000000; 0.000000; 0.000000;,
    1.000000; 0.000000; 0.000000;,
    0.000000; -1.000000; 0.000000;,
    0.000000; -1.000000; 0.000000;,
    0.000000; -1.000000; 0.000000;,
    0.000000; -1.000000; 0.000000;,
    0.000000; 1.000000; 0.000000;,
    0.000000; 1.000000; 0.000000;,
    0.000000; 1.000000; 0.000000;,
    0.000000; 1.000000; 0.000000;,
    -0.707107; 0.000000; -0.707107;,
    0.000000; 0.000000; -1.000000;,
    0.000000; 0.000000; -1.000000;,
    -0.707107; 0.000000; -0.707107;,
    -0.707107; 0.000000; 0.707107;,
    -0.707107; 0.000000; 0.707107;,
    0.707107; 0.000000; 0.707107;,
    0.707107; 0.000000; 0.707107;,
    1.000000; 0.000000; 0.000000;,
    1.000000; 0.000000; 0.000000;,
    0.000000; -1.000000; 0.000000;,
    0.707107; -0.707107; 0.000000;,
    0.707107; -0.707107; 0.000000;,
    0.000000; -1.000000; 0.000000;,
    -0.707107; 0.707107; 0.000000;,
    -1.000000; 0.000000; 0.000000;,
    -1.000000; 0.000000; 0.000000;,
    -0.707107; 0.707107; 0.000000;,
    0.707107; 0.707107; 0.000000;,
    0.707107; 0.707107; 0.000000;,
    0.707107; 0.000000; -0.707107;,
    0.707107; 0.000000; -0.707107;,
    1.000000; 0.000000; 0.000000;,
    1.000000; 0.000000; 0.000000;,
    0.707107; 0.707107; 0.000000;,
    0.707107; 0.707107; 0.000000;,
    1.000000; 0.000000; 0.000000;,
    1.000000; 0.000000; 0.000000;,
    0.707107; 0.000000; 0.707107;,
    0.707107; 0.000000; 0.707107;,
    1.000000; 0.000000; 0.000000;,
    1.000000; 0.000000; 0.000000;,
    0.707107; -0.707107; 0.000000;,
    0.707107; -0.707107; 0.000000;,
    1.000000; 0.000000; 0.000000;,
    1.000000; 0.000000; 0.000000;,
    -0.707107; 0.000000; -0.707107;,
    -0.707107; 0.000000; -0.707107;,
    -0.707107; 0.707107; 0.000000;,
    -0.707107; 0.707107; 0.000000;,
    -0.707107; 0.000000; 0.707107;,
    -0.707107; 0.000000; 0.707107;,
    -0.707107; -0.707107; 0.000000;,
    -0.707107; -0.707107; 0.000000;,
    -1.000000; 0.000000; 0.000000;,
    -1.000000; 0.000000; 0.000000;,
    -1.000000; 0.000000; 0.000000;,
    -1.000000; 0.000000; 0.000000;,
    -1.000000; 0.000000; 0.000000;,
    -1.000000; 0.000000; 0.000000;,
    -1.000000; 0.000000; 0.000000;,
    -1.000000; 0.000000; 0.000000;,
    -1.000000; 0.000000; 0.000000;,
    -1.000000; 0.000000; 0.000000;,
    -1.000000; 0.000000; 0.000000;,
    -1.000000; 0.000000; 0.000000;,
    0.000000; -1.000000; 0.000000;,
    0.000000; -1.000000; 0.000000;,
    0.000000; -1.000000; 0.000000;,
    0.000000; -1.000000; 0.000000;,
    0.000000; 1.000000; 0.000000;,
    0.000000; 1.000000; 0.000000;,
    0.000000; 1.000000; 0.000000;,
    0.000000; 1.000000; 0.000000;,
    -0.707107; 0.000000; 0.707107;,
    -1.000000; 0.000000; 0.000000;,
    -1.000000; 0.000000; 0.000000;,
    -0.707107; 0.000000; 0.707107;,
    0.707107; 0.000000; 0.707107;,
    0.707107; 0.000000; 0.707107;,
    0.707107; 0.000000; -0.707107;,
    0.707107; 0.000000; -0.707107;,
    0.000000; 0.000000; -1.000000;,
    0.000000; 0.000000; -1.000000;,
    0.000000; -1.000000; 0.000000;,
    0.000000; -0.707107; -0.707107;,
    0.000000; -0.707107; -0.707107;,
    0.000000; -1.000000; 0.000000;,
    0.000000; 0.707107; 0.707107;,
    0.000000; 0.000000; 1.000000;,
    0.000000; 0.000000; 1.000000;,
    0.000000; 0.707107; 0.707107;,
    0.000000; 0.707107; -0.707107;,
    0.000000; 0.707107; -0.707107;,
    -0.707107; 0.000000; -0.707107;,
    -0.707107; 0.000000; -0.707107;,
    0.000000; 0.000000; -1.000000;,
    0.000000; 0.000000; -1.000000;,
    0.000000; 0.707107; -0.707107;,
    0.000000; 0.707107; -0.707107;,
    0.000000; 0.000000; -1.000000;,
    0.000000; 0.000000; -1.000000;,
    0.707107; 0.000000; -0.707107;,
    0.707107; 0.000000; -0.707107;,
    0.000000; 0.000000; -1.000000;,
    0.000000; 0.000000; -1.000000;,
    0.000000; -0.707107; -0.707107;,
    0.000000; -0.707107; -0.707107;,
    0.000000; 0.000000; -1.000000;,
    0.000000; 0.000000; -1.000000;,
    -0.707107; 0.000000; 0.707107;,
    -0.707107; 0.000000; 0.707107;,
    0.000000; 0.707107; 0.707107;,
    0.000000; 0.707107; 0.707107;,
    0.707107; 0.000000; 0.707107;,
    0.707107; 0.000000; 0.707107;,
    0.000000; -0.707107; 0.707107;,
    0.000000; -0.707107; 0.707107;,
    0.000000; 0.000000; 1.000000;,
    0.000000; 0.000000; 1.000000;,
    0.000000; 0.000000; 1.000000;,
    0.000000; 0.000000; 1.000000;,
    0.000000; 0.000000; 1.000000;,
    0.000000; 0.000000; 1.000000;,
    0.000000; 0.000000; 1.000000;,
    0.000000; 0.000000; 1.000000;,
    0.000000; 0.000000; 1.000000;,
    0.000000; 0.000000; 1.000000;,
    0.000000; 0.000000; 1.000000;,
    0.000000; 0.000000; 1.000000;,
    0.000000; -1.000000; 0.000000;,
    0.000000; -1.000000; 0.000000;,
    0.000000; -1.000000; 0.000000;,
    0.000000; -1.000000; 0.000000;,
    0.000000; 1.000000; 0.000000;,
    0.000000; 1.000000; 0.000000;,
    0.000000; 1.000000; 0.000000;,
    0.000000; 1.000000; 0.000000;,
    -0.707107; 0.000000; 0.707107;,
    -1.000000; 0.000000; 0.000000;,
    -1.000000; 0.000000; 0.000000;,
    -0.707107; 0.000000; 0.707107;,
    0.707107; 0.000000; 0.707107;,
    0.707107; 0.000000; 0.707107;,
    0.707107; 0.000000; -0.707107;,
    0.707107; 0.000000; -0.707107;,
    0.000000; 0.000000; -1.000000;,
    0.000000; 0.000000; -1.000000;,
    0.000000; -1.000000; 0.000000;,
    0.000000; -0.707107; -0.707107;,
    0.000000; -0.707107; -0.707107;,
    0.000000; -1.000000; 0.000000;,
    0.000000; 0.707107; 0.707107;,
    0.000000; 0.000000; 1.000000;,
    0.000000; 0.000000; 1.000000;,
    0.000000; 0.707107; 0.707107;,
    0.000000; 0.707107; -0.707107;,
    0.000000; 0.707107; -0.707107;,
    -0.707107; 0.000000; -0.707107;,
    -0.707107; 0.000000; -0.707107;,
    0.000000; 0.000000; -1.000000;,
    0.000000; 0.000000; -1.000000;,
    0.000000; 0.707107; -0.707107;,
    0.000000; 0.707107; -0.707107;,
    0.000000; 0.000000; -1.000000;,
    0.000000; 0.000000; -1.000000;,
    0.707107; 0.000000; -0.707107;,
    0.707107; 0.000000; -0.707107;,
    0.000000; 0.000000; -1.000000;,
    0.000000; 0.000000; -1.000000;,
    0.000000; -0.707107; -0.707107;,
    0.000000; -0.707107; -0.707107;,
    0.000000; 0.000000; -1.000000;,
    0.000000; 0.000000; -1.000000;,
    -0.707107; 0.000000; 0.707107;,
    -0.707107; 0.000000; 0.707107;,
    0.000000; 0.707107; 0.707107;,
    0.000000; 0.707107; 0.707107;,
    0.707107; 0.000000; 0.707107;,
    0.707107; 0.000000; 0.707107;,
    0.000000; -0.707107; 0.707107;,
    0.000000; -0.707107; 0.707107;,
    0.000000; 0.000000; 1.000000;,
    0.000000; 0.000000; 1.000000;,
    0.000000; 0.000000; 1.000000;,
    0.000000; 0.000000; 1.000000;,
    0.000000; 0.000000; 1.000000;,
    0.000000; 0.000000; 1.000000;,
    0.000000; 0.000000; 1.000000;,
    0.000000; 0.000000; 1.000000;,
    0.000000; 0.000000; 1.000000;,
    0.000000; 0.000000; 1.000000;,
    0.000000; 0.000000; 1.000000;,
    0.000000; 0.000000; 1.000000;,
    0.000000; -1.000000; 0.000000;,
    0.000000; -1.000000; 0.000000;,
    0.000000; -1.000000; 0.000000;,
    0.000000; -1.000000; 0.000000;,
    0.000000; 1.000000; 0.000000;,
    0.000000; 1.000000; 0.000000;,
    0.000000; 1.000000; 0.000000;,
    0.000000; 1.000000; 0.000000;,
    -0.707107; 0.000000; 0.707107;,
    -1.000000; 0.000000; 0.000000;,
    -1.000000; 0.000000; 0.000000;,
    -0.707107; 0.000000; 0.707107;,
    0.707107; 0.000000; 0.707107;,
    0.707107; 0.000000; 0.707107;,
    0.707107; 0.000000; -0.707107;,
    0.707107; 0.000000; -0.707107;,
    0.000000; 0.000000; -1.000000;,
    0.000000; 0.000000; -1.000000;,
    0.000000; -1.000000; 0.000000;,
    0.000000; -0.707107; -0.707107;,
    0.000000; -0.707107; -0.707107;,
    0.000000; -1.000000; 0.000000;,
    0.000000; 0.707107; 0.707107;,
    0.000000; 0.000000; 1.000000;,
    0.000000; 0.000000; 1.000000;,
    0.000000; 0.707107; 0.707107;,
    0.000000; 0.707107; -0.707107;,
    0.000000; 0.707107; -0.707107;,
    -0.707107; 0.000000; -0.707107;,
    -0.707107; 0.000000; -0.707107;,
    0.000000; 0.000000; -1.000000;,
    0.000000; 0.000000; -1.000000;,
    0.000000; 0.707107; -0.707107;,
    0.000000; 0.707107; -0.707107;,
    0.000000; 0.000000; -1.000000;,
    0.000000; 0.000000; -1.000000;,
    0.707107; 0.000000; -0.707107;,
    0.707107; 0.000000; -0.707107;,
    0.000000; 0.000000; -1.000000;,
    0.000000; 0.000000; -1.000000;,
    0.000000; -0.707107; -0.707107;,
    0.000000; -0.707107; -0.707107;,
    0.000000; 0.000000; -1.000000;,
    0.000000; 0.000000; -1.000000;,
    -0.707107; 0.000000; 0.707107;,
    -0.707107; 0.000000; 0.707107;,
    0.000000; 0.707107; 0.707107;,
    0.000000; 0.707107; 0.707107;,
    0.707107; 0.000000; 0.707107;,
    0.707107; 0.000000; 0.707107;,
    0.000000; -0.707107; 0.707107;,
    0.000000; -0.707107; 0.707107;,
    0.000000; 0.000000; 1.000000;,
    0.000000; 0.000000; 1.000000;,
    0.000000; 0.000000; 1.000000;,
    0.000000; 0.000000; 1.000000;,
    0.000000; 0.000000; 1.000000;,
    0.000000; 0.000000; 1.000000;,
    0.000000; 0.000000; 1.000000;,
    0.000000; 0.000000; 1.000000;,
    0.000000; 0.000000; 1.000000;,
    0.000000; 0.000000; 1.000000;,
    0.000000; 0.000000; 1.000000;,
    0.000000; 0.000000; 1.000000;,
    0.000000; -1.000000; 0.000000;,
    0.000000; -1.000000; 0.000000;,
    0.000000; -1.000000; 0.000000;,
    0.000000; -1.000000; 0.000000;,
    0.000000; 1.000000; 0.000000;,
    0.000000; 1.000000; 0.000000;,
    0.000000; 1.000000; 0.000000;,
    0.000000; 1.000000; 0.000000;,
    0.707107; 0.000000; 0.707107;,
    0.000000; 0.000000; 1.000000;,
    0.000000; 0.000000; 1.000000;,
    0.707107; 0.000000; 0.707107;,
    0.707107; 0.000000; -0.707107;,
    0.707107; 0.000000; -0.707107;,
    -0.707107; 0.000000; -0.707107;,
    -0.707107; 0.000000; -0.707107;,
    -1.000000; 0.000000; 0.000000;,
    -1.000000; 0.000000; 0.000000;,
    0.000000; -1.000000; 0.000000;,
    -0.707107; -0.707107; 0.000000;,
    -0.707107; -0.707107; 0.000000;,
    0.000000; -1.000000; 0.000000;,
    0.707107; 0.707107; 0.000000;,
    1.000000; 0.000000; 0.000000;,
    1.000000; 0.000000; 0.000000;,
    0.707107; 0.707107; 0.000000;,
    -0.707107; 0.707107; 0.000000;,
    -0.707107; 0.707107; 0.000000;,
    -0.707107; 0.000000; 0.707107;,
    -0.707107; 0.000000; 0.707107;,
    -1.000000; 0.000000; 0.000000;,
    -1.000000; 0.000000; 0.000000;,
    -0.707107; 0.707107; 0.000000;,
    -0.707107; 0.707107; 0.000000;,
    -1.000000; 0.000000; 0.000000;,
    -1.000000; 0.000000; 0.000000;,
    -0.707107; 0.000000; -0.707107;,
    -0.707107; 0.000000; -0.707107;,
    -1.000000; 0.000000; 0.000000;,
    -1.000000; 0.000000; 0.000000;,
    -0.707107; -0.707107; 0.000000;,
    -0.707107; -0.707107; 0.000000;,
    -1.000000; 0.000000; 0.000000;,
    -1.000000; 0.000000; 0.000000;,
    0.707107; 0.000000; 0.707107;,
    0.707107; 0.000000; 0.707107;,
    0.707107; 0.707107; 0.000000;,
    0.707107; 0.707107; 0.000000;,
    0.707107; 0.000000; -0.707107;,
    0.707107; 0.000000; -0.707107;,
    0.707107; -0.707107; 0.000000;,
    0.707107; -0.707107; 0.000000;,
    1.000000; 0.000000; 0.000000;,
    1.000000; 0.000000; 0.000000;,
    1.000000; 0.000000; 0.000000;,
    1.000000; 0.000000; 0.000000;,
    1.000000; 0.000000; 0.000000;,
    1.000000; 0.000000; 0.000000;,
    1.000000; 0.000000; 0.000000;,
    1.000000; 0.000000; 0.000000;,
    1.000000; 0.000000; 0.000000;,
    1.000000; 0.000000; 0.000000;,
    1.000000; 0.000000; 0.000000;,
    1.000000; 0.000000; 0.000000;,
    0.000000; -1.000000; 0.000000;,
    0.000000; -1.000000; 0.000000;,
    0.000000; -1.000000; 0.000000;,
    0.000000; -1.000000; 0.000000;,
    0.000000; 0.894427; -0.447214;,
    0.000000; 0.894427; -0.447214;,
    0.000000; -0.707107; -0.707107;,
    0.000000; -0.707107; -0.707107;,
    -0.707107; 0.707107; 0.000000;,
    -0.707107; 0.707107; 0.000000;,
    -0.707107; -0.707107; 0.000000;,
    -0.707107; -0.707107; 0.000000;,
    0.000000; 0.894427; 0.447214;,
    0.000000; 0.894427; 0.447214;,
    0.000000; -0.707107; 0.707107;,
    0.000000; -0.707107; 0.707107;,
    0.707107; 0.707107; 0.000000;,
    0.707107; 0.707107; 0.000000;,
    0.707107; -0.707107; 0.000000;,
    0.707107; -0.707107; 0.000000;,
    -0.266935; -0.963714; 0.000000;,
    -0.266935; -0.963714; 0.000000;,
    0.000000; -0.963715; -0.266935;,
    0.000000; -0.963715; -0.266935;,
    0.266935; -0.963714; 0.000000;,
    0.266935; -0.963714; 0.000000;,
    0.000000; -0.963715; 0.266935;,
    0.000000; -0.963715; 0.266935;,
    -0.514499; -0.857491; 0.000000;,
    -0.514499; -0.857491; 0.000000;,
    0.000000; -0.857491; -0.514498;,
    0.000000; -0.857491; -0.514498;,
    0.514499; -0.857491; 0.000000;,
    0.514499; -0.857491; 0.000000;,
    0.000000; -0.857491; 0.514498;,
    0.000000; -0.857491; 0.514498;,
    0.000000; 1.000000; 0.000000;,
    0.000000; 1.000000; 0.000000;,
    0.000000; 1.000000; 0.000000;,
    0.000000; 1.000000; 0.000000;,
    0.000000; 1.000000; 0.000000;,
    0.000000; 1.000000; 0.000000;,
    0.000000; 1.000000; 0.000000;,
    0.000000; 1.000000; 0.000000;,
    -0.253834; 0.868095; -0.426590;,
    0.257646; 0.865877; -0.428806;,
    0.271529; 0.814688; -0.512402;,
    -0.269182; 0.816523; -0.510716;,
    -0.658716; 0.737700; 0.147959;,
    -0.657013; 0.739895; -0.144533;,
    -0.691053; 0.700722; -0.177296;,
    -0.690186; 0.700379; 0.181966;,
    0.251581; 0.868200; 0.427709;,
    -0.255590; 0.865869; 0.430051;,
    -0.267356; 0.814616; 0.514705;,
    0.265007; 0.816475; 0.512971;,
    0.660181; 0.736707; -0.146366;,
    0.655379; 0.741052; 0.146015;,
    0.688176; 0.702735; 0.180489;,
    0.693048; 0.698387; -0.178717;,
    -0.172629; 0.958166; -0.228291;,
    0.175207; 0.956988; -0.231252;,
    -0.472829; 0.877727; 0.077641;,
    -0.470273; 0.879353; -0.074707;,
    0.172423; 0.958158; 0.228480;,
    -0.175200; 0.956922; 0.231530;,
    0.472831; 0.877734; -0.077546;,
    0.470078; 0.879456; 0.074727;,
    -0.108375; 0.994108; 0.001883;,
    0.108375; 0.994109; -0.001307;,
    0.276113; 0.961123; -0.001976;,
    -0.276112; 0.961123; 0.002244;,
    -1.000000; 0.000000; 0.000000;,
    -1.000000; 0.000000; 0.000000;,
    -1.000000; 0.000000; 0.000000;,
    -1.000000; 0.000000; 0.000000;,
    1.000000; 0.000000; 0.000000;,
    1.000000; 0.000000; 0.000000;,
    1.000000; 0.000000; 0.000000;,
    1.000000; 0.000000; 0.000000;,
    0.000000; 0.000000; -1.000000;,
    0.000000; 0.000000; -1.000000;,
    0.000000; 0.000000; -1.000000;,
    0.000000; 0.000000; -1.000000;,
    0.000000; 0.000000; -1.000000;,
    0.000000; 0.000000; -1.000000;,
    0.000000; 0.000000; -1.000000;,
    0.000000; 0.000000; -1.000000;,
    0.000000; 0.000000; -1.000000;,
    0.000000; 0.000000; -1.000000;,
    0.000000; 0.000000; -1.000000;,
    0.000000; 0.000000; -1.000000;,
    0.000000; 1.000000; 0.000000;,
    0.000000; 1.000000; 0.000000;,
    0.000000; 1.000000; 0.000000;,
    0.000000; 1.000000; 0.000000;;
    171;
    4;0, 1, 2, 3;,
    4;4, 5, 6, 7;,
    4;8, 9, 10, 11;,
    4;12, 8, 11, 13;,
    4;14, 12, 13, 15;,
    4;9, 16, 17, 10;,
    4;18, 19, 20, 21;,
    4;22, 23, 24, 25;,
    4;26, 27, 28, 29;,
    4;30, 26, 29, 31;,
    4;32, 30, 31, 33;,
    4;34, 32, 33, 35;,
    4;36, 37, 38, 39;,
    4;40, 41, 42, 43;,
    4;44, 40, 43, 45;,
    4;37, 44, 45, 38;,
    4;46, 47, 48, 49;,
    4;50, 51, 52, 53;,
    4;54, 55, 56, 57;,
    4;58, 59, 60, 61;,
    4;62, 63, 47, 46;,
    4;64, 65, 51, 50;,
    4;66, 67, 55, 54;,
    4;68, 69, 59, 58;,
    4;62, 70, 71, 63;,
    4;64, 72, 73, 65;,
    4;66, 74, 75, 67;,
    4;68, 76, 77, 69;,
    4;78, 79, 80, 81;,
    4;82, 83, 84, 85;,
    4;86, 87, 88, 89;,
    4;90, 91, 92, 93;,
    4;94, 90, 93, 95;,
    4;96, 94, 95, 97;,
    4;98, 96, 97, 99;,
    4;100, 101, 102, 103;,
    4;104, 105, 106, 107;,
    4;108, 104, 107, 109;,
    4;101, 108, 109, 102;,
    4;110, 111, 112, 113;,
    4;114, 115, 116, 117;,
    4;118, 119, 120, 121;,
    4;122, 123, 124, 125;,
    4;126, 127, 111, 110;,
    4;128, 129, 115, 114;,
    4;130, 131, 119, 118;,
    4;132, 133, 123, 122;,
    4;126, 134, 135, 127;,
    4;128, 136, 137, 129;,
    4;130, 138, 139, 131;,
    4;132, 140, 141, 133;,
    4;142, 143, 144, 145;,
    4;146, 147, 148, 149;,
    4;150, 151, 152, 153;,
    4;154, 155, 156, 157;,
    4;158, 154, 157, 159;,
    4;160, 158, 159, 161;,
    4;162, 160, 161, 163;,
    4;164, 165, 166, 167;,
    4;168, 169, 170, 171;,
    4;172, 168, 171, 173;,
    4;165, 172, 173, 166;,
    4;174, 175, 176, 177;,
    4;178, 179, 180, 181;,
    4;182, 183, 184, 185;,
    4;186, 187, 188, 189;,
    4;190, 191, 175, 174;,
    4;192, 193, 179, 178;,
    4;194, 195, 183, 182;,
    4;196, 197, 187, 186;,
    4;190, 198, 199, 191;,
    4;192, 200, 201, 193;,
    4;194, 202, 203, 195;,
    4;196, 204, 205, 197;,
    4;206, 207, 208, 209;,
    4;210, 211, 212, 213;,
    4;214, 215, 216, 217;,
    4;218, 219, 220, 221;,
    4;222, 218, 221, 223;,
    4;224, 222, 223, 225;,
    4;226, 224, 225, 227;,
    4;228, 229, 230, 231;,
    4;232, 233, 234, 235;,
    4;236, 232, 235, 237;,
    4;229, 236, 237, 230;,
    4;238, 239, 240, 241;,
    4;242, 243, 244, 245;,
    4;246, 247, 248, 249;,
    4;250, 251, 252, 253;,
    4;254, 255, 239, 238;,
    4;256, 257, 243, 242;,
    4;258, 259, 247, 246;,
    4;260, 261, 251, 250;,
    4;254, 262, 263, 255;,
    4;256, 264, 265, 257;,
    4;258, 266, 267, 259;,
    4;260, 268, 269, 261;,
    4;270, 271, 272, 273;,
    4;274, 275, 276, 277;,
    4;278, 279, 280, 281;,
    4;282, 283, 284, 285;,
    4;286, 282, 285, 287;,
    4;288, 286, 287, 289;,
    4;290, 288, 289, 291;,
    4;292, 293, 294, 295;,
    4;296, 297, 298, 299;,
    4;300, 296, 299, 301;,
    4;293, 300, 301, 294;,
    4;302, 303, 304, 305;,
    4;306, 307, 308, 309;,
    4;310, 311, 312, 313;,
    4;314, 315, 316, 317;,
    4;318, 319, 303, 302;,
    4;320, 321, 307, 306;,
    4;322, 323, 311, 310;,
    4;324, 325, 315, 314;,
    4;318, 326, 327, 319;,
    4;320, 328, 329, 321;,
    4;322, 330, 331, 323;,
    4;324, 332, 333, 325;,
    4;334, 335, 336, 337;,
    4;338, 339, 340, 341;,
    4;342, 343, 344, 345;,
    4;346, 347, 348, 349;,
    4;350, 351, 352, 353;,
    4;354, 355, 356, 357;,
    4;358, 359, 357, 356;,
    4;360, 361, 353, 352;,
    4;362, 363, 349, 348;,
    4;364, 365, 345, 344;,
    4;366, 367, 359, 358;,
    4;368, 369, 361, 360;,
    4;370, 371, 363, 362;,
    4;372, 373, 365, 364;,
    4;374, 375, 343, 342;,
    4;376, 377, 347, 346;,
    4;378, 379, 351, 350;,
    4;380, 381, 355, 354;,
    4;382, 383, 384, 385;,
    4;386, 387, 388, 389;,
    4;390, 391, 392, 393;,
    4;394, 395, 396, 397;,
    4;398, 399, 383, 382;,
    4;400, 401, 387, 386;,
    4;402, 403, 391, 390;,
    4;404, 405, 395, 394;,
    4;406, 407, 399, 398;,
    4;407, 406, 403, 402;,
    4;383, 394, 397, 384;,
    4;387, 382, 385, 388;,
    4;391, 386, 389, 392;,
    4;395, 390, 393, 396;,
    4;399, 404, 394, 383;,
    4;401, 398, 382, 387;,
    4;403, 400, 386, 391;,
    4;405, 402, 390, 395;,
    4;407, 408, 404, 399;,
    4;409, 406, 398, 401;,
    4;406, 409, 400, 403;,
    4;408, 407, 402, 405;,
    4;410, 411, 412, 413;,
    4;414, 415, 416, 417;,
    4;418, 419, 420, 421;,
    4;422, 423, 424, 425;,
    4;426, 427, 428, 429;,
    3;401, 400, 409;,
    3;405, 404, 408;,
    3;343, 375, 430;,
    3;342, 431, 374;,
    3;351, 379, 432;,
    3;350, 433, 378;;
   }

   MeshTextureCoords {
    434;
    0.029000; 0.460000;,
    0.029000; 0.436000;,
    0.050000; 0.436000;,
    0.050000; 0.460000;,
    0.004000; 0.460000;,
    0.026000; 0.460000;,
    0.026000; 0.437000;,
    0.004000; 0.437000;,
    0.052000; 0.461000;,
    0.076000; 0.461000;,
    0.076000; 0.998000;,
    0.052000; 0.998000;,
    0.027000; 0.461000;,
    0.027000; 0.998000;,
    0.003000; 0.461000;,
    0.003000; 0.998000;,
    0.100000; 0.461000;,
    0.100000; 0.998000;,
    0.130000; 0.460000;,
    0.130000; 0.436000;,
    0.151000; 0.436000;,
    0.151000; 0.460000;,
    0.105000; 0.460000;,
    0.127000; 0.460000;,
    0.127000; 0.437000;,
    0.105000; 0.437000;,
    0.128000; 0.461000;,
    0.104000; 0.461000;,
    0.104000; 0.998000;,
    0.128000; 0.998000;,
    0.153000; 0.461000;,
    0.153000; 0.998000;,
    0.177000; 0.461000;,
    0.177000; 0.998000;,
    0.201000; 0.461000;,
    0.201000; 0.998000;,
    0.214000; 0.240000;,
    0.214000; 0.251000;,
    0.005000; 0.251000;,
    0.005000; 0.240000;,
    0.214000; 0.284000;,
    0.214000; 0.305000;,
    0.005000; 0.305000;,
    0.005000; 0.284000;,
    0.214000; 0.274000;,
    0.005000; 0.274000;,
    0.354000; 0.986000;,
    0.354000; 0.592000;,
    0.366000; 0.581000;,
    0.366000; 0.997000;,
    0.317000; 0.986000;,
    0.317000; 0.788000;,
    0.306000; 0.777000;,
    0.306000; 0.997000;,
    0.382000; 0.592000;,
    0.382000; 0.986000;,
    0.371000; 0.997000;,
    0.371000; 0.581000;,
    0.318000; 0.566000;,
    0.318000; 0.764000;,
    0.307000; 0.775000;,
    0.307000; 0.555000;,
    0.348000; 0.986000;,
    0.348000; 0.592000;,
    0.324000; 0.986000;,
    0.324000; 0.788000;,
    0.390000; 0.592000;,
    0.390000; 0.986000;,
    0.325000; 0.566000;,
    0.325000; 0.764000;,
    0.337000; 0.997000;,
    0.337000; 0.581000;,
    0.334000; 0.997000;,
    0.334000; 0.777000;,
    0.400000; 0.581000;,
    0.400000; 0.997000;,
    0.335000; 0.555000;,
    0.335000; 0.775000;,
    0.410000; 0.628000;,
    0.410000; 0.997000;,
    0.602000; 0.997000;,
    0.602000; 0.628000;,
    0.230000; 0.460000;,
    0.230000; 0.436000;,
    0.252000; 0.436000;,
    0.252000; 0.460000;,
    0.206000; 0.460000;,
    0.228000; 0.460000;,
    0.228000; 0.437000;,
    0.206000; 0.437000;,
    0.229000; 0.461000;,
    0.205000; 0.461000;,
    0.205000; 0.998000;,
    0.229000; 0.998000;,
    0.253000; 0.461000;,
    0.253000; 0.998000;,
    0.277000; 0.461000;,
    0.277000; 0.998000;,
    0.302000; 0.461000;,
    0.302000; 0.998000;,
    0.214000; 0.308000;,
    0.214000; 0.319000;,
    0.005000; 0.319000;,
    0.005000; 0.308000;,
    0.214000; 0.352000;,
    0.214000; 0.373000;,
    0.005000; 0.373000;,
    0.005000; 0.352000;,
    0.214000; 0.342000;,
    0.005000; 0.342000;,
    0.354000; 0.986000;,
    0.354000; 0.592000;,
    0.366000; 0.581000;,
    0.366000; 0.997000;,
    0.317000; 0.986000;,
    0.317000; 0.788000;,
    0.306000; 0.777000;,
    0.306000; 0.997000;,
    0.382000; 0.592000;,
    0.382000; 0.986000;,
    0.371000; 0.997000;,
    0.371000; 0.581000;,
    0.318000; 0.566000;,
    0.318000; 0.764000;,
    0.307000; 0.775000;,
    0.307000; 0.555000;,
    0.348000; 0.986000;,
    0.348000; 0.592000;,
    0.324000; 0.986000;,
    0.324000; 0.788000;,
    0.390000; 0.592000;,
    0.390000; 0.986000;,
    0.325000; 0.566000;,
    0.325000; 0.764000;,
    0.337000; 0.997000;,
    0.337000; 0.581000;,
    0.334000; 0.997000;,
    0.334000; 0.777000;,
    0.400000; 0.581000;,
    0.400000; 0.997000;,
    0.335000; 0.555000;,
    0.335000; 0.775000;,
    0.996000; 0.628000;,
    0.996000; 0.997000;,
    0.805000; 0.997000;,
    0.805000; 0.628000;,
    0.230000; 0.460000;,
    0.230000; 0.436000;,
    0.251000; 0.436000;,
    0.251000; 0.460000;,
    0.205000; 0.460000;,
    0.227000; 0.460000;,
    0.227000; 0.437000;,
    0.205000; 0.437000;,
    0.229000; 0.461000;,
    0.204000; 0.461000;,
    0.204000; 0.998000;,
    0.229000; 0.998000;,
    0.253000; 0.461000;,
    0.253000; 0.998000;,
    0.277000; 0.461000;,
    0.277000; 0.998000;,
    0.301000; 0.461000;,
    0.301000; 0.998000;,
    0.214000; 0.173000;,
    0.214000; 0.184000;,
    0.005000; 0.184000;,
    0.005000; 0.173000;,
    0.214000; 0.217000;,
    0.214000; 0.238000;,
    0.005000; 0.238000;,
    0.005000; 0.217000;,
    0.214000; 0.207000;,
    0.005000; 0.207000;,
    0.354000; 0.986000;,
    0.354000; 0.592000;,
    0.366000; 0.581000;,
    0.366000; 0.997000;,
    0.317000; 0.986000;,
    0.317000; 0.788000;,
    0.306000; 0.777000;,
    0.306000; 0.997000;,
    0.382000; 0.592000;,
    0.382000; 0.986000;,
    0.371000; 0.997000;,
    0.371000; 0.581000;,
    0.318000; 0.566000;,
    0.318000; 0.764000;,
    0.307000; 0.775000;,
    0.307000; 0.555000;,
    0.348000; 0.986000;,
    0.348000; 0.592000;,
    0.324000; 0.986000;,
    0.324000; 0.788000;,
    0.390000; 0.592000;,
    0.390000; 0.986000;,
    0.325000; 0.566000;,
    0.325000; 0.764000;,
    0.337000; 0.997000;,
    0.337000; 0.581000;,
    0.334000; 0.997000;,
    0.334000; 0.777000;,
    0.400000; 0.581000;,
    0.400000; 0.997000;,
    0.335000; 0.555000;,
    0.335000; 0.775000;,
    0.797000; 0.628000;,
    0.797000; 0.997000;,
    0.605000; 0.997000;,
    0.605000; 0.628000;,
    0.129000; 0.460000;,
    0.129000; 0.436000;,
    0.151000; 0.436000;,
    0.151000; 0.460000;,
    0.105000; 0.460000;,
    0.127000; 0.460000;,
    0.127000; 0.437000;,
    0.105000; 0.437000;,
    0.128000; 0.461000;,
    0.104000; 0.461000;,
    0.104000; 0.998000;,
    0.128000; 0.998000;,
    0.152000; 0.461000;,
    0.152000; 0.998000;,
    0.176000; 0.461000;,
    0.176000; 0.998000;,
    0.201000; 0.461000;,
    0.201000; 0.998000;,
    0.214000; 0.240000;,
    0.214000; 0.251000;,
    0.005000; 0.251000;,
    0.005000; 0.240000;,
    0.214000; 0.284000;,
    0.214000; 0.305000;,
    0.005000; 0.305000;,
    0.005000; 0.284000;,
    0.214000; 0.274000;,
    0.005000; 0.274000;,
    0.354000; 0.986000;,
    0.354000; 0.592000;,
    0.366000; 0.581000;,
    0.366000; 0.997000;,
    0.317000; 0.986000;,
    0.317000; 0.788000;,
    0.306000; 0.777000;,
    0.306000; 0.997000;,
    0.382000; 0.592000;,
    0.382000; 0.986000;,
    0.371000; 0.997000;,
    0.371000; 0.581000;,
    0.318000; 0.566000;,
    0.318000; 0.764000;,
    0.307000; 0.775000;,
    0.307000; 0.555000;,
    0.348000; 0.986000;,
    0.348000; 0.592000;,
    0.324000; 0.986000;,
    0.324000; 0.788000;,
    0.390000; 0.592000;,
    0.390000; 0.986000;,
    0.325000; 0.566000;,
    0.325000; 0.764000;,
    0.337000; 0.997000;,
    0.337000; 0.581000;,
    0.334000; 0.997000;,
    0.334000; 0.777000;,
    0.400000; 0.581000;,
    0.400000; 0.997000;,
    0.335000; 0.555000;,
    0.335000; 0.775000;,
    0.995000; 0.628000;,
    0.995000; 0.997000;,
    0.803000; 0.997000;,
    0.803000; 0.628000;,
    0.029000; 0.460000;,
    0.029000; 0.436000;,
    0.050000; 0.436000;,
    0.050000; 0.460000;,
    0.004000; 0.460000;,
    0.026000; 0.460000;,
    0.026000; 0.437000;,
    0.004000; 0.437000;,
    0.027000; 0.461000;,
    0.003000; 0.461000;,
    0.003000; 0.998000;,
    0.027000; 0.998000;,
    0.052000; 0.461000;,
    0.052000; 0.998000;,
    0.076000; 0.461000;,
    0.076000; 0.998000;,
    0.100000; 0.461000;,
    0.100000; 0.998000;,
    0.214000; 0.308000;,
    0.214000; 0.319000;,
    0.005000; 0.319000;,
    0.005000; 0.308000;,
    0.214000; 0.352000;,
    0.214000; 0.373000;,
    0.005000; 0.373000;,
    0.005000; 0.352000;,
    0.214000; 0.342000;,
    0.005000; 0.342000;,
    0.354000; 0.986000;,
    0.354000; 0.592000;,
    0.366000; 0.581000;,
    0.366000; 0.997000;,
    0.317000; 0.986000;,
    0.317000; 0.788000;,
    0.306000; 0.777000;,
    0.306000; 0.997000;,
    0.382000; 0.592000;,
    0.382000; 0.986000;,
    0.371000; 0.997000;,
    0.371000; 0.581000;,
    0.318000; 0.566000;,
    0.318000; 0.764000;,
    0.307000; 0.775000;,
    0.307000; 0.555000;,
    0.348000; 0.986000;,
    0.348000; 0.592000;,
    0.324000; 0.986000;,
    0.324000; 0.788000;,
    0.390000; 0.592000;,
    0.390000; 0.986000;,
    0.325000; 0.566000;,
    0.325000; 0.764000;,
    0.337000; 0.997000;,
    0.337000; 0.581000;,
    0.334000; 0.997000;,
    0.334000; 0.777000;,
    0.400000; 0.581000;,
    0.400000; 0.997000;,
    0.335000; 0.555000;,
    0.335000; 0.775000;,
    0.796000; 0.628000;,
    0.796000; 0.997000;,
    0.605000; 0.997000;,
    0.605000; 0.628000;,
    0.998000; 0.448000;,
    0.998000; 0.616000;,
    0.412000; 0.616000;,
    0.412000; 0.448000;,
    0.995000; 0.092000;,
    0.272000; 0.092000;,
    0.272000; 0.121000;,
    0.995000; 0.121000;,
    0.270000; 0.092000;,
    0.003000; 0.092000;,
    0.003000; 0.121000;,
    0.270000; 0.121000;,
    0.273000; 0.014000;,
    0.995000; 0.014000;,
    0.995000; 0.042000;,
    0.273000; 0.042000;,
    0.005000; 0.014000;,
    0.271000; 0.014000;,
    0.271000; 0.042000;,
    0.005000; 0.042000;,
    0.240000; 0.074000;,
    0.036000; 0.074000;,
    0.964000; 0.074000;,
    0.304000; 0.074000;,
    0.034000; 0.153000;,
    0.238000; 0.153000;,
    0.303000; 0.152000;,
    0.963000; 0.152000;,
    0.234000; 0.080000;,
    0.042000; 0.080000;,
    0.958000; 0.080000;,
    0.310000; 0.080000;,
    0.041000; 0.159000;,
    0.232000; 0.159000;,
    0.310000; 0.159000;,
    0.957000; 0.159000;,
    0.984000; 0.086000;,
    0.283000; 0.086000;,
    0.257000; 0.086000;,
    0.015000; 0.086000;,
    0.284000; 0.007000;,
    0.985000; 0.007000;,
    0.017000; 0.007000;,
    0.259000; 0.007000;,
    0.973000; 0.403000;,
    0.307000; 0.403000;,
    0.289000; 0.438000;,
    0.992000; 0.438000;,
    0.978000; 0.208000;,
    0.978000; 0.395000;,
    0.997000; 0.432000;,
    0.997000; 0.171000;,
    0.307000; 0.201000;,
    0.973000; 0.201000;,
    0.992000; 0.165000;,
    0.289000; 0.165000;,
    0.303000; 0.395000;,
    0.303000; 0.208000;,
    0.284000; 0.171000;,
    0.284000; 0.432000;,
    0.952000; 0.349000;,
    0.328000; 0.349000;,
    0.957000; 0.264000;,
    0.957000; 0.339000;,
    0.328000; 0.255000;,
    0.952000; 0.255000;,
    0.324000; 0.339000;,
    0.324000; 0.264000;,
    0.936000; 0.302000;,
    0.345000; 0.302000;,
    0.336000; 0.302000;,
    0.944000; 0.302000;,
    0.796000; 0.628000;,
    0.605000; 0.628000;,
    0.605000; 0.997000;,
    0.796000; 0.997000;,
    0.410000; 0.628000;,
    0.602000; 0.628000;,
    0.602000; 0.997000;,
    0.410000; 0.997000;,
    0.996000; 0.628000;,
    0.805000; 0.628000;,
    0.805000; 0.997000;,
    0.996000; 0.997000;,
    0.797000; 0.628000;,
    0.605000; 0.628000;,
    0.605000; 0.997000;,
    0.797000; 0.997000;,
    0.995000; 0.628000;,
    0.803000; 0.628000;,
    0.803000; 0.997000;,
    0.995000; 0.997000;,
    0.278000; 0.080000;,
    0.988000; 0.080000;,
    0.989000; 0.002000;,
    0.279000; 0.002000;;
   }

   FVFData {
    258;
    868;
    0,
    1065353216,
    0,
    1065353216,
    0,
    1065353216,
    0,
    1065353216,
    0,
    1065353216,
    0,
    1065353216,
    0,
    1065353216,
    0,
    1065353216,
    0,
    1065353216,
    0,
    1065353216,
    0,
    1065353216,
    0,
    1065353216,
    0,
    1065353216,
    0,
    1065353216,
    0,
    1065353216,
    0,
    1065353216,
    0,
    1065353216,
    0,
    1065353216,
    0,
    1065353216,
    0,
    1065353216,
    0,
    1065353216,
    0,
    1065353216,
    0,
    1065353216,
    0,
    1065353216,
    0,
    1065353216,
    0,
    1065353216,
    0,
    1065353216,
    0,
    1065353216,
    0,
    1065353216,
    0,
    1065353216,
    0,
    1065353216,
    0,
    1065353216,
    0,
    1065353216,
    0,
    1065353216,
    0,
    1065353216,
    0,
    1065353216,
    0,
    1065353216,
    0,
    1065353216,
    0,
    1065353216,
    0,
    1065353216,
    0,
    1065353216,
    0,
    1065353216,
    0,
    1065353216,
    0,
    1065353216,
    0,
    1065353216,
    0,
    1065353216,
    0,
    1065353216,
    0,
    1065353216,
    0,
    1065353216,
    0,
    1065353216,
    0,
    1065353216,
    0,
    1065353216,
    0,
    1065353216,
    0,
    1065353216,
    0,
    1065353216,
    0,
    1065353216,
    0,
    1065353216,
    0,
    1065353216,
    0,
    1065353216,
    0,
    1065353216,
    0,
    1065353216,
    0,
    1065353216,
    0,
    1065353216,
    0,
    1065353216,
    0,
    1065353216,
    0,
    1065353216,
    0,
    1065353216,
    0,
    1065353216,
    0,
    1065353216,
    0,
    1065353216,
    0,
    1065353216,
    0,
    1065353216,
    0,
    1065353216,
    0,
    1065353216,
    0,
    1065353216,
    0,
    1065353216,
    0,
    1065353216,
    0,
    1065353216,
    0,
    1065353216,
    0,
    1065353216,
    0,
    1065353216,
    0,
    1065353216,
    0,
    1065353216,
    0,
    1065353216,
    0,
    1065353216,
    0,
    1065353216,
    0,
    1065353216,
    0,
    1065353216,
    0,
    1065353216,
    0,
    1065353216,
    0,
    1065353216,
    0,
    1065353216,
    0,
    1065353216,
    0,
    1065353216,
    0,
    1065353216,
    0,
    1065353216,
    0,
    1065353216,
    0,
    1065353216,
    0,
    1065353216,
    0,
    1065353216,
    0,
    1065353216,
    0,
    1065353216,
    0,
    1065353216,
    0,
    1065353216,
    0,
    1065353216,
    0,
    1065353216,
    0,
    1065353216,
    0,
    1065353216,
    0,
    1065353216,
    0,
    1065353216,
    0,
    1065353216,
    0,
    1065353216,
    0,
    1065353216,
    0,
    1065353216,
    0,
    1065353216,
    0,
    1065353216,
    0,
    1065353216,
    0,
    1065353216,
    0,
    1065353216,
    0,
    1065353216,
    0,
    1065353216,
    0,
    1065353216,
    0,
    1065353216,
    0,
    1065353216,
    0,
    1065353216,
    0,
    1065353216,
    0,
    1065353216,
    0,
    1065353216,
    0,
    1065353216,
    0,
    1065353216,
    0,
    1065353216,
    0,
    1065353216,
    0,
    1065353216,
    0,
    1065353216,
    0,
    1065353216,
    0,
    1065353216,
    0,
    1065353216,
    0,
    1065353216,
    0,
    1065353216,
    0,
    1065353216,
    0,
    1065353216,
    0,
    1065353216,
    0,
    1065353216,
    0,
    1065353216,
    0,
    1065353216,
    0,
    1065353216,
    0,
    1065353216,
    0,
    1065353216,
    0,
    1065353216,
    0,
    1065353216,
    0,
    1065353216,
    0,
    1065353216,
    0,
    1065353216,
    0,
    1065353216,
    0,
    1065353216,
    0,
    1065353216,
    0,
    1065353216,
    0,
    1065353216,
    0,
    1065353216,
    0,
    1065353216,
    0,
    1065353216,
    0,
    1065353216,
    0,
    1065353216,
    0,
    1065353216,
    0,
    1065353216,
    0,
    1065353216,
    0,
    1065353216,
    0,
    1065353216,
    0,
    1065353216,
    0,
    1065353216,
    0,
    1065353216,
    0,
    1065353216,
    0,
    1065353216,
    0,
    1065353216,
    0,
    1065353216,
    0,
    1065353216,
    0,
    1065353216,
    0,
    1065353216,
    0,
    1065353216,
    0,
    1065353216,
    0,
    1065353216,
    0,
    1065353216,
    0,
    1065353216,
    0,
    1065353216,
    0,
    1065353216,
    0,
    1065353216,
    0,
    1065353216,
    0,
    1065353216,
    0,
    1065353216,
    0,
    1065353216,
    0,
    1065353216,
    0,
    1065353216,
    0,
    1065353216,
    0,
    1065353216,
    0,
    1065353216,
    0,
    1065353216,
    0,
    1065353216,
    0,
    1065353216,
    0,
    1065353216,
    0,
    1065353216,
    0,
    1065353216,
    0,
    1065353216,
    0,
    1065353216,
    0,
    1065353216,
    0,
    1065353216,
    0,
    1065353216,
    0,
    1065353216,
    0,
    1065353216,
    0,
    1065353216,
    0,
    1065353216,
    0,
    1065353216,
    0,
    1065353216,
    0,
    1065353216,
    0,
    1065353216,
    0,
    1065353216,
    0,
    1065353216,
    0,
    1065353216,
    0,
    1065353216,
    0,
    1065353216,
    0,
    1065353216,
    0,
    1065353216,
    0,
    1065353216,
    0,
    1065353216,
    0,
    1065353216,
    0,
    1065353216,
    0,
    1065353216,
    0,
    1065353216,
    0,
    1065353216,
    0,
    1065353216,
    0,
    1065353216,
    0,
    1065353216,
    0,
    1065353216,
    0,
    1065353216,
    0,
    1065353216,
    0,
    1065353216,
    0,
    1065353216,
    0,
    1065353216,
    0,
    1065353216,
    0,
    1065353216,
    0,
    1065353216,
    0,
    1065353216,
    0,
    1065353216,
    0,
    1065353216,
    0,
    1065353216,
    0,
    1065353216,
    0,
    1065353216,
    0,
    1065353216,
    0,
    1065353216,
    0,
    1065353216,
    0,
    1065353216,
    0,
    1065353216,
    0,
    1065353216,
    0,
    1065353216,
    0,
    1065353216,
    0,
    1065353216,
    0,
    1065353216,
    0,
    1065353216,
    0,
    1065353216,
    0,
    1065353216,
    0,
    1065353216,
    0,
    1065353216,
    0,
    1065353216,
    0,
    1065353216,
    0,
    1065353216,
    0,
    1065353216,
    0,
    1065353216,
    0,
    1065353216,
    0,
    1065353216,
    0,
    1065353216,
    0,
    1065353216,
    0,
    1065353216,
    0,
    1065353216,
    0,
    1065353216,
    0,
    1065353216,
    0,
    1065353216,
    0,
    1065353216,
    0,
    1065353216,
    0,
    1065353216,
    0,
    1065353216,
    0,
    1065353216,
    0,
    1065353216,
    0,
    1065353216,
    0,
    1065353216,
    0,
    1065353216,
    0,
    1065353216,
    0,
    1065353216,
    0,
    1065353216,
    0,
    1065353216,
    0,
    1065353216,
    0,
    1065353216,
    0,
    1065353216,
    0,
    1065353216,
    0,
    1065353216,
    0,
    1065353216,
    0,
    1065353216,
    0,
    1065353216,
    0,
    1065353216,
    0,
    1065353216,
    0,
    1065353216,
    0,
    1065353216,
    0,
    1065353216,
    0,
    1065353216,
    0,
    1065353216,
    0,
    1065353216,
    0,
    1065353216,
    0,
    1065353216,
    0,
    1065353216,
    0,
    1065353216,
    0,
    1065353216,
    0,
    1065353216,
    0,
    1065353216,
    0,
    1065353216,
    0,
    1065353216,
    0,
    1065353216,
    0,
    1065353216,
    0,
    1065353216,
    0,
    1065353216,
    0,
    1065353216,
    0,
    1065353216,
    0,
    1065353216,
    0,
    1065353216,
    0,
    1065353216,
    0,
    1065353216,
    0,
    1065353216,
    0,
    1065353216,
    0,
    1065353216,
    0,
    1065353216,
    0,
    1065353216,
    0,
    1065353216,
    0,
    1065353216,
    0,
    1065353216,
    0,
    1065353216,
    0,
    1065353216,
    0,
    1065353216,
    0,
    1065353216,
    0,
    1065353216,
    0,
    1065353216,
    0,
    1065353216,
    0,
    1065353216,
    0,
    1065353216,
    0,
    1065353216,
    0,
    1065353216,
    0,
    1065353216,
    0,
    1065353216,
    0,
    1065353216,
    0,
    1065353216,
    0,
    1065353216,
    0,
    1065353216,
    0,
    1065353216,
    0,
    1065353216,
    0,
    1065353216,
    0,
    1065353216,
    0,
    1065353216,
    0,
    1065353216,
    0,
    1065353216,
    0,
    1065353216,
    0,
    1065353216,
    0,
    1065353216,
    0,
    1065353216,
    0,
    1065353216,
    0,
    1065353216,
    0,
    1065353216,
    0,
    1065353216,
    0,
    1065353216,
    0,
    1065353216,
    0,
    1065353216,
    0,
    1065353216,
    0,
    1065353216,
    0,
    1065353216,
    0,
    1065353216,
    0,
    1065353216,
    0,
    1065353216,
    0,
    1065353216,
    0,
    1065353216,
    0,
    1065353216,
    0,
    1065353216,
    0,
    1065353216,
    0,
    1065353216,
    0,
    1065353216,
    0,
    1065353216,
    0,
    1065353216,
    0,
    1065353216,
    0,
    1065353216,
    0,
    1065353216,
    0,
    1065353216,
    0,
    1065353216,
    0,
    1065353216,
    0,
    1065353216,
    0,
    1065353216,
    0,
    1065353216,
    0,
    1065353216,
    0,
    1065353216,
    0,
    1065353216,
    0,
    1065353216,
    0,
    1065353216,
    0,
    1065353216,
    0,
    1065353216,
    0,
    1065353216,
    0,
    1065353216,
    0,
    1065353216,
    0,
    1065353216,
    0,
    1065353216,
    0,
    1065353216,
    0,
    1065353216,
    0,
    1065353216,
    0,
    1065353216,
    0,
    1065353216,
    0,
    1065353216,
    0,
    1065353216,
    0,
    1065353216,
    0,
    1065353216,
    0,
    1065353216,
    0,
    1065353216,
    0,
    1065353216,
    0,
    1065353216,
    0,
    1065353216,
    0,
    1065353216,
    0,
    1065353216,
    0,
    1065353216,
    0,
    1065353216,
    0,
    1065353216,
    0,
    1065353216,
    0,
    1065353216,
    0,
    1065353216,
    0,
    1065353216,
    0,
    1065353216,
    0,
    1065353216,
    0,
    1065353216,
    0,
    1065353216,
    0,
    1065353216,
    0,
    1065353216,
    0,
    1065353216,
    0,
    1065353216,
    0,
    1065353216;
   }

   MeshMaterialList {
    1;
    171;
    0,
    0,
    0,
    0,
    0,
    0,
    0,
    0,
    0,
    0,
    0,
    0,
    0,
    0,
    0,
    0,
    0,
    0,
    0,
    0,
    0,
    0,
    0,
    0,
    0,
    0,
    0,
    0,
    0,
    0,
    0,
    0,
    0,
    0,
    0,
    0,
    0,
    0,
    0,
    0,
    0,
    0,
    0,
    0,
    0,
    0,
    0,
    0,
    0,
    0,
    0,
    0,
    0,
    0,
    0,
    0,
    0,
    0,
    0,
    0,
    0,
    0,
    0,
    0,
    0,
    0,
    0,
    0,
    0,
    0,
    0,
    0,
    0,
    0,
    0,
    0,
    0,
    0,
    0,
    0,
    0,
    0,
    0,
    0,
    0,
    0,
    0,
    0,
    0,
    0,
    0,
    0,
    0,
    0,
    0,
    0,
    0,
    0,
    0,
    0,
    0,
    0,
    0,
    0,
    0,
    0,
    0,
    0,
    0,
    0,
    0,
    0,
    0,
    0,
    0,
    0,
    0,
    0,
    0,
    0,
    0,
    0,
    0,
    0,
    0,
    0,
    0,
    0,
    0,
    0,
    0,
    0,
    0,
    0,
    0,
    0,
    0,
    0,
    0,
    0,
    0,
    0,
    0,
    0,
    0,
    0,
    0,
    0,
    0,
    0,
    0,
    0,
    0,
    0,
    0,
    0,
    0,
    0,
    0,
    0,
    0,
    0,
    0,
    0,
    0,
    0,
    0,
    0,
    0,
    0,
    0;

    Material orig_trafficlightgreen {
     0.588000; 0.588000; 0.588000; 1.000000;;
     128.000000;
     0.000000; 0.000000; 0.000000;;
     0.000000; 0.000000; 0.000000;;

     TextureFilename {
      "D:\\new packs\\test\\busstop_diffuse.tga";
     }
    }

   }
  }
}
