xof 0303txt 0032

// DirectX 8.0 file
// Creator: Ultimate Unwrap3D Pro v3.27
// Website: http://www.unwrap3d.com
// Time: Fri Jun 01 18:47:50 2012

// Start of Templates

template VertexDuplicationIndices {
 <b8d65549-d7c9-4995-89cf-53a9a8b031e3>
 DWORD nIndices;
 DWORD nOriginalVertices;
 array DWORD indices[nIndices];
}

template FVFData {
 <b6e70a0e-8ef9-4e83-94ad-ecc8b0c04897>
 DWORD dwFVF;
 DWORD nDWords;
 array DWORD data[nDWords];
}

template XSkinMeshHeader {
 <3CF169CE-FF7C-44ab-93C0-F78F62D172E2>
 WORD nMaxSkinWeightsPerVertex;
 WORD nMaxSkinWeightsPerFace;
 WORD nBones;
}

template SkinWeights {
 <6F0D123B-BAD2-4167-A0D0-80224F25FABB>
 STRING transformNodeName;
 DWORD nWeights;
 array DWORD vertexIndices[nWeights];
 array FLOAT weights[nWeights];
 Matrix4x4 matrixOffset;
}

template AnimTicksPerSecond {
 <9E415A43-7BA6-4a73-8743-B73D47E88476>
 DWORD AnimTicksPerSecond;
}

// Start of Frames

Frame dumpster {
   FrameTransformMatrix {
    1.000000, 0.000000, 0.000000, 0.000000,
    0.000000, 1.000000, 0.000000, 0.000000,
    0.000000, 0.000000, 1.000000, 0.000000,
    0.000000, 0.000000, 0.000000, 1.000000;;
   }

   Mesh dumpster {
    352;
    -0.992000; 0.000000; 0.751000;,
    -0.992000; 0.000000; -0.464000;,
    -0.878000; 0.000000; -0.464000;,
    -0.878000; 0.000000; 0.751000;,
    -0.861000; 0.075000; 0.751000;,
    -0.861000; 0.075000; -0.464000;,
    0.880000; 0.076000; -0.464000;,
    0.880000; 0.076000; 0.751000;,
    0.890000; 0.001000; 0.751000;,
    0.890000; 0.001000; -0.464000;,
    1.019000; 0.001000; -0.464000;,
    1.019000; 0.001000; 0.751000;,
    -0.987000; 0.106000; 0.686000;,
    0.993000; 0.106000; 0.686000;,
    0.993000; 0.106000; -0.439000;,
    -0.987000; 0.106000; -0.439000;,
    -0.861000; 0.075000; 0.751000;,
    0.880000; 0.076000; 0.751000;,
    1.029000; 0.352000; 0.751000;,
    -1.009000; 0.353000; 0.751000;,
    1.076000; 0.683000; 0.971000;,
    -1.070000; 0.683000; 0.971000;,
    1.076000; 0.972000; 0.971000;,
    -1.070000; 0.972000; 0.971000;,
    1.076000; 1.415000; 0.971000;,
    -1.070000; 1.415000; 0.971000;,
    -1.109000; 1.436000; 1.009000;,
    1.113000; 1.436000; 1.009000;,
    1.113000; 1.488000; 1.009000;,
    -1.109000; 1.488000; 1.009000;,
    1.029000; 0.076000; 0.751000;,
    1.029000; 0.076000; -0.464000;,
    1.029000; 0.352000; -0.464000;,
    1.029000; 0.352000; 0.751000;,
    1.076000; 0.683000; -0.464000;,
    1.076000; 0.683000; 0.971000;,
    1.076000; 0.972000; 0.971000;,
    1.076000; 0.972000; -0.464000;,
    1.076000; 1.415000; -0.464000;,
    1.076000; 1.415000; 0.971000;,
    1.113000; 1.436000; 1.009000;,
    1.116000; 1.436000; -0.503000;,
    1.116000; 1.488000; -0.503000;,
    1.113000; 1.488000; 1.009000;,
    0.880000; 0.076000; -0.464000;,
    -0.861000; 0.075000; -0.464000;,
    -1.009000; 0.353000; -0.464000;,
    1.029000; 0.352000; -0.464000;,
    -1.070000; 0.683000; -0.464000;,
    1.076000; 0.683000; -0.464000;,
    -1.070000; 0.972000; -0.464000;,
    1.076000; 0.972000; -0.464000;,
    -1.070000; 1.415000; -0.464000;,
    1.076000; 1.415000; -0.464000;,
    1.116000; 1.436000; -0.503000;,
    -1.108000; 1.436000; -0.502000;,
    -1.108000; 1.488000; -0.502000;,
    1.116000; 1.488000; -0.503000;,
    -1.009000; 0.075000; -0.464000;,
    -1.009000; 0.075000; 0.751000;,
    -1.009000; 0.353000; 0.751000;,
    -1.009000; 0.353000; -0.464000;,
    -1.070000; 0.683000; 0.971000;,
    -1.070000; 0.683000; -0.464000;,
    -1.164000; 0.927000; -0.450000;,
    -1.164000; 0.750000; -0.450000;,
    -1.164000; 0.750000; -0.424000;,
    -1.164000; 0.927000; -0.424000;,
    -1.070000; 0.972000; -0.464000;,
    -1.070000; 0.972000; 0.971000;,
    -1.070000; 1.415000; 0.971000;,
    -1.070000; 1.415000; -0.464000;,
    -1.108000; 1.436000; -0.502000;,
    -1.109000; 1.436000; 1.009000;,
    -1.109000; 1.488000; 1.009000;,
    -1.108000; 1.488000; -0.502000;,
    -1.077000; 0.685000; -0.450000;,
    -1.077000; 0.685000; -0.424000;,
    -1.164000; 0.927000; 0.959000;,
    -1.077000; 0.974000; 0.959000;,
    -1.077000; 0.974000; 0.929000;,
    -1.164000; 0.927000; 0.929000;,
    -0.992000; 0.000000; -0.464000;,
    -0.992000; 0.000000; 0.751000;,
    -0.861000; 0.075000; -0.464000;,
    -0.861000; 0.075000; 0.751000;,
    -0.878000; 0.000000; 0.751000;,
    -0.878000; 0.000000; -0.464000;,
    -1.009000; 0.075000; 0.751000;,
    -0.992000; 0.000000; 0.751000;,
    -0.878000; 0.000000; 0.751000;,
    0.880000; 0.076000; 0.751000;,
    0.880000; 0.076000; -0.464000;,
    0.890000; 0.001000; -0.464000;,
    0.890000; 0.001000; 0.751000;,
    1.019000; 0.001000; 0.751000;,
    1.019000; 0.001000; -0.464000;,
    1.029000; 0.076000; 0.751000;,
    0.890000; 0.001000; 0.751000;,
    1.019000; 0.001000; 0.751000;,
    -1.009000; 0.075000; -0.464000;,
    -0.878000; 0.000000; -0.464000;,
    -0.992000; 0.000000; -0.464000;,
    1.029000; 0.076000; -0.464000;,
    1.019000; 0.001000; -0.464000;,
    0.890000; 0.001000; -0.464000;,
    -1.151000; 0.921000; -0.450000;,
    -1.151000; 0.756000; -0.450000;,
    -1.164000; 0.750000; 0.959000;,
    -1.151000; 0.756000; 0.958000;,
    -1.151000; 0.921000; 0.958000;,
    -1.077000; 0.974000; 0.959000;,
    -1.077000; 0.921000; 0.958000;,
    -1.077000; 0.685000; 0.959000;,
    -1.077000; 0.756000; 0.958000;,
    -1.077000; 0.685000; -0.450000;,
    -1.077000; 0.756000; -0.450000;,
    -1.077000; 0.974000; -0.450000;,
    -1.077000; 0.921000; -0.450000;,
    -1.077000; 0.921000; 0.958000;,
    -1.151000; 0.921000; 0.958000;,
    -1.151000; 0.921000; -0.450000;,
    -1.077000; 0.921000; -0.450000;,
    -1.151000; 0.756000; 0.958000;,
    -1.151000; 0.756000; -0.450000;,
    -1.077000; 0.756000; 0.958000;,
    -1.077000; 0.756000; -0.450000;,
    -1.070000; 1.510000; 0.971000;,
    -1.070000; 1.510000; -0.464000;,
    1.076000; 1.510000; 0.971000;,
    -1.070000; 1.510000; 0.971000;,
    1.076000; 1.510000; -0.464000;,
    1.076000; 1.510000; 0.971000;,
    -1.070000; 1.510000; -0.464000;,
    1.076000; 1.510000; -0.464000;,
    -1.048000; 1.512000; 0.948000;,
    -1.048000; 1.512000; -0.442000;,
    1.054000; 1.512000; 0.948000;,
    -1.048000; 1.512000; 0.948000;,
    1.054000; 1.512000; -0.442000;,
    1.054000; 1.512000; 0.948000;,
    -1.048000; 1.512000; -0.442000;,
    1.054000; 1.512000; -0.442000;,
    -1.048000; 1.512000; -0.442000;,
    -1.048000; 1.512000; 0.948000;,
    -1.048000; 0.683000; 0.948000;,
    -1.048000; 0.683000; -0.442000;,
    -1.048000; 1.512000; 0.948000;,
    1.054000; 1.512000; 0.948000;,
    1.054000; 0.683000; 0.948000;,
    -1.048000; 0.683000; 0.948000;,
    1.054000; 1.512000; 0.948000;,
    1.054000; 1.512000; -0.442000;,
    1.054000; 0.683000; -0.442000;,
    1.054000; 0.683000; 0.948000;,
    1.054000; 1.512000; -0.442000;,
    -1.048000; 1.512000; -0.442000;,
    -1.048000; 0.683000; -0.442000;,
    1.054000; 0.683000; -0.442000;,
    -0.987000; 0.352000; 0.686000;,
    -0.987000; 0.352000; -0.439000;,
    0.993000; 0.352000; 0.686000;,
    -0.987000; 0.352000; 0.686000;,
    0.993000; 0.352000; -0.439000;,
    0.993000; 0.352000; 0.686000;,
    -0.987000; 0.352000; -0.439000;,
    0.993000; 0.352000; -0.439000;,
    -0.987000; 0.106000; 0.686000;,
    -0.987000; 0.106000; -0.439000;,
    0.993000; 0.106000; 0.686000;,
    -0.987000; 0.106000; 0.686000;,
    0.993000; 0.106000; -0.439000;,
    0.993000; 0.106000; 0.686000;,
    -0.987000; 0.106000; -0.439000;,
    0.993000; 0.106000; -0.439000;,
    -0.004000; 1.511000; -0.487000;,
    -0.004000; 1.511000; 0.960000;,
    -1.040000; 1.511000; 0.960000;,
    -1.040000; 1.511000; -0.487000;,
    -0.983000; 1.644000; -0.373000;,
    -0.983000; 1.625000; 0.837000;,
    -0.061000; 1.625000; 0.837000;,
    -0.061000; 1.644000; -0.373000;,
    -1.040000; 1.511000; 0.960000;,
    -0.004000; 1.511000; 0.960000;,
    -0.004000; 1.539000; 0.960000;,
    -1.040000; 1.539000; 0.960000;,
    -0.004000; 1.511000; -0.487000;,
    -1.040000; 1.511000; -0.487000;,
    -1.040000; 1.539000; -0.487000;,
    -0.004000; 1.539000; -0.487000;,
    -0.004000; 1.511000; 0.960000;,
    -0.004000; 1.511000; -0.487000;,
    -0.004000; 1.539000; -0.487000;,
    -0.004000; 1.539000; 0.960000;,
    -1.040000; 1.511000; -0.487000;,
    -1.040000; 1.511000; 0.960000;,
    -1.040000; 1.539000; 0.960000;,
    -1.040000; 1.539000; -0.487000;,
    -0.043000; 1.558000; 0.920000;,
    -1.001000; 1.558000; 0.920000;,
    -1.001000; 1.558000; 0.920000;,
    -1.001000; 1.558000; -0.446000;,
    -1.001000; 1.558000; -0.446000;,
    -0.043000; 1.558000; -0.446000;,
    -0.043000; 1.558000; -0.446000;,
    -0.043000; 1.558000; 0.920000;,
    -1.164000; 0.750000; 0.929000;,
    -1.077000; 0.750000; -0.424000;,
    -1.077000; 0.750000; 0.929000;,
    -1.077000; 0.974000; -0.424000;,
    -1.077000; 0.974000; -0.450000;,
    -1.077000; 0.927000; 0.929000;,
    -1.077000; 0.927000; -0.424000;,
    -1.077000; 0.685000; 0.929000;,
    -1.077000; 0.685000; 0.959000;,
    -1.052000; 1.552000; -0.459000;,
    -1.041000; 1.551000; -0.459000;,
    -1.041000; 1.551000; -0.483000;,
    -1.052000; 1.552000; -0.483000;,
    -1.041000; 1.551000; -0.483000;,
    -1.041000; 1.551000; -0.459000;,
    -1.041000; 1.488000; -0.443000;,
    -1.041000; 1.488000; -0.499000;,
    -1.052000; 1.552000; -0.483000;,
    -1.041000; 1.551000; -0.483000;,
    -1.041000; 1.488000; -0.499000;,
    -1.052000; 1.489000; -0.499000;,
    -1.052000; 1.552000; -0.459000;,
    -1.052000; 1.552000; -0.483000;,
    -1.052000; 1.489000; -0.499000;,
    -1.052000; 1.489000; -0.443000;,
    -1.041000; 1.551000; -0.459000;,
    -1.052000; 1.552000; -0.459000;,
    -1.052000; 1.489000; -0.443000;,
    -1.041000; 1.488000; -0.443000;,
    1.164000; 0.927000; -0.450000;,
    1.164000; 0.927000; -0.424000;,
    1.164000; 0.750000; -0.424000;,
    1.164000; 0.750000; -0.450000;,
    1.077000; 0.685000; -0.424000;,
    1.077000; 0.685000; -0.450000;,
    1.164000; 0.927000; 0.959000;,
    1.164000; 0.927000; 0.929000;,
    1.077000; 0.974000; 0.929000;,
    1.077000; 0.974000; 0.959000;,
    1.151000; 0.756000; -0.450000;,
    1.151000; 0.921000; -0.450000;,
    1.151000; 0.921000; 0.958000;,
    1.151000; 0.756000; 0.958000;,
    1.164000; 0.750000; 0.959000;,
    1.077000; 0.974000; 0.959000;,
    1.077000; 0.921000; 0.958000;,
    1.077000; 0.756000; 0.958000;,
    1.077000; 0.685000; 0.959000;,
    1.077000; 0.685000; -0.450000;,
    1.077000; 0.756000; -0.450000;,
    1.077000; 0.921000; -0.450000;,
    1.077000; 0.974000; -0.450000;,
    1.077000; 0.921000; 0.958000;,
    1.077000; 0.921000; -0.450000;,
    1.151000; 0.921000; -0.450000;,
    1.151000; 0.921000; 0.958000;,
    1.151000; 0.756000; -0.450000;,
    1.151000; 0.756000; 0.958000;,
    1.077000; 0.756000; -0.450000;,
    1.077000; 0.756000; 0.958000;,
    1.164000; 0.750000; 0.929000;,
    1.077000; 0.750000; 0.929000;,
    1.077000; 0.750000; -0.424000;,
    1.077000; 0.974000; -0.450000;,
    1.077000; 0.974000; -0.424000;,
    1.077000; 0.927000; -0.424000;,
    1.077000; 0.927000; 0.929000;,
    1.077000; 0.685000; 0.959000;,
    1.077000; 0.685000; 0.929000;,
    1.044000; 1.525000; -0.450000;,
    1.044000; 2.884000; -0.945000;,
    0.008000; 2.884000; -0.945000;,
    0.008000; 1.525000; -0.450000;,
    0.065000; 1.586000; -0.614000;,
    0.065000; 2.729000; -1.009000;,
    0.987000; 2.729000; -1.009000;,
    0.987000; 1.586000; -0.614000;,
    0.008000; 2.884000; -0.945000;,
    1.044000; 2.884000; -0.945000;,
    1.044000; 2.875000; -0.971000;,
    0.008000; 2.875000; -0.971000;,
    1.044000; 1.525000; -0.450000;,
    0.008000; 1.525000; -0.450000;,
    0.008000; 1.515000; -0.476000;,
    1.044000; 1.515000; -0.476000;,
    1.044000; 2.884000; -0.945000;,
    1.044000; 1.525000; -0.450000;,
    1.044000; 1.515000; -0.476000;,
    1.044000; 2.875000; -0.971000;,
    0.008000; 1.525000; -0.450000;,
    0.008000; 2.884000; -0.945000;,
    0.008000; 2.875000; -0.971000;,
    0.008000; 1.515000; -0.476000;,
    1.005000; 2.830000; -0.975000;,
    0.047000; 2.830000; -0.975000;,
    0.047000; 2.830000; -0.975000;,
    0.047000; 1.547000; -0.508000;,
    0.047000; 1.547000; -0.508000;,
    1.005000; 1.547000; -0.508000;,
    1.005000; 1.547000; -0.508000;,
    1.005000; 2.830000; -0.975000;,
    1.045000; 1.552000; -0.459000;,
    1.057000; 1.551000; -0.459000;,
    1.057000; 1.551000; -0.483000;,
    1.045000; 1.552000; -0.483000;,
    1.057000; 1.551000; -0.483000;,
    1.057000; 1.551000; -0.459000;,
    1.057000; 1.488000; -0.443000;,
    1.057000; 1.488000; -0.499000;,
    1.045000; 1.552000; -0.483000;,
    1.057000; 1.551000; -0.483000;,
    1.057000; 1.488000; -0.499000;,
    1.045000; 1.489000; -0.499000;,
    1.045000; 1.552000; -0.459000;,
    1.045000; 1.552000; -0.483000;,
    1.045000; 1.489000; -0.499000;,
    1.045000; 1.489000; -0.443000;,
    1.057000; 1.551000; -0.459000;,
    1.045000; 1.552000; -0.459000;,
    1.045000; 1.489000; -0.443000;,
    1.057000; 1.488000; -0.443000;,
    -1.077000; 0.974000; -0.424000;,
    -1.164000; 0.927000; -0.424000;,
    -1.077000; 0.927000; -0.424000;,
    -1.164000; 0.927000; 0.929000;,
    -1.077000; 0.974000; 0.929000;,
    -1.077000; 0.927000; 0.929000;,
    -1.164000; 0.750000; -0.424000;,
    -1.077000; 0.685000; -0.424000;,
    -1.077000; 0.750000; -0.424000;,
    -1.077000; 0.685000; 0.929000;,
    -1.164000; 0.750000; 0.929000;,
    -1.077000; 0.750000; 0.929000;,
    1.077000; 0.974000; -0.424000;,
    1.077000; 0.927000; -0.424000;,
    1.164000; 0.927000; -0.424000;,
    1.164000; 0.927000; 0.929000;,
    1.077000; 0.927000; 0.929000;,
    1.077000; 0.974000; 0.929000;,
    1.164000; 0.750000; -0.424000;,
    1.077000; 0.750000; -0.424000;,
    1.077000; 0.685000; -0.424000;,
    1.077000; 0.685000; 0.929000;,
    1.077000; 0.750000; 0.929000;,
    1.164000; 0.750000; 0.929000;;
    142;
    4;0, 1, 2, 3;,
    4;4, 5, 6, 7;,
    4;8, 9, 10, 11;,
    4;12, 13, 14, 15;,
    4;16, 17, 18, 19;,
    4;19, 18, 20, 21;,
    4;21, 20, 22, 23;,
    4;23, 22, 24, 25;,
    4;26, 27, 28, 29;,
    4;30, 31, 32, 33;,
    4;33, 32, 34, 35;,
    4;36, 37, 38, 39;,
    4;40, 41, 42, 43;,
    4;44, 45, 46, 47;,
    4;47, 46, 48, 49;,
    4;49, 48, 50, 51;,
    4;51, 50, 52, 53;,
    4;54, 55, 56, 57;,
    4;58, 59, 60, 61;,
    4;61, 60, 62, 63;,
    4;64, 65, 66, 67;,
    4;68, 69, 70, 71;,
    4;72, 73, 74, 75;,
    4;65, 76, 77, 66;,
    4;78, 79, 80, 81;,
    4;59, 58, 82, 83;,
    4;84, 85, 86, 87;,
    4;16, 88, 89, 90;,
    4;91, 92, 93, 94;,
    4;31, 30, 95, 96;,
    4;97, 17, 98, 99;,
    4;100, 45, 101, 102;,
    4;44, 103, 104, 105;,
    4;65, 64, 106, 107;,
    4;78, 108, 109, 110;,
    4;111, 78, 110, 112;,
    4;108, 113, 114, 109;,
    4;115, 65, 107, 116;,
    4;64, 117, 118, 106;,
    4;119, 120, 121, 122;,
    4;120, 123, 124, 121;,
    4;123, 125, 126, 124;,
    4;127, 128, 75, 74;,
    4;129, 130, 29, 28;,
    4;131, 132, 43, 42;,
    4;133, 134, 57, 56;,
    4;25, 24, 27, 26;,
    4;39, 38, 41, 40;,
    4;53, 52, 55, 54;,
    4;71, 70, 73, 72;,
    4;128, 127, 135, 136;,
    4;130, 129, 137, 138;,
    4;132, 131, 139, 140;,
    4;134, 133, 141, 142;,
    4;143, 144, 145, 146;,
    4;147, 148, 149, 150;,
    4;151, 152, 153, 154;,
    4;155, 156, 157, 158;,
    4;146, 145, 159, 160;,
    4;150, 149, 161, 162;,
    4;154, 153, 163, 164;,
    4;158, 157, 165, 166;,
    4;160, 159, 167, 168;,
    4;162, 161, 169, 170;,
    4;164, 163, 171, 172;,
    4;166, 165, 173, 174;,
    4;175, 176, 177, 178;,
    4;179, 180, 181, 182;,
    4;183, 184, 185, 186;,
    4;187, 188, 189, 190;,
    4;191, 192, 193, 194;,
    4;195, 196, 197, 198;,
    4;186, 185, 199, 200;,
    4;198, 197, 201, 202;,
    4;190, 189, 203, 204;,
    4;194, 193, 205, 206;,
    4;200, 199, 181, 180;,
    4;202, 201, 180, 179;,
    4;204, 203, 179, 182;,
    4;206, 205, 182, 181;,
    4;35, 34, 37, 36;,
    4;63, 62, 69, 68;,
    4;67, 66, 207, 81;,
    4;66, 208, 209, 207;,
    4;67, 210, 211, 64;,
    4;81, 212, 213, 67;,
    4;81, 207, 108, 78;,
    4;207, 214, 215, 108;,
    4;216, 217, 218, 219;,
    4;220, 221, 222, 223;,
    4;224, 225, 226, 227;,
    4;228, 229, 230, 231;,
    4;232, 233, 234, 235;,
    4;236, 237, 238, 239;,
    4;239, 238, 240, 241;,
    4;242, 243, 244, 245;,
    4;239, 246, 247, 236;,
    4;242, 248, 249, 250;,
    4;251, 252, 248, 242;,
    4;250, 249, 253, 254;,
    4;255, 256, 246, 239;,
    4;236, 247, 257, 258;,
    4;259, 260, 261, 262;,
    4;262, 261, 263, 264;,
    4;264, 263, 265, 266;,
    4;237, 243, 267, 238;,
    4;238, 267, 268, 269;,
    4;237, 236, 270, 271;,
    4;243, 237, 272, 273;,
    4;243, 242, 250, 267;,
    4;267, 250, 274, 275;,
    4;276, 277, 278, 279;,
    4;280, 281, 282, 283;,
    4;284, 285, 286, 287;,
    4;288, 289, 290, 291;,
    4;292, 293, 294, 295;,
    4;296, 297, 298, 299;,
    4;287, 286, 300, 301;,
    4;299, 298, 302, 303;,
    4;291, 290, 304, 305;,
    4;295, 294, 306, 307;,
    4;301, 300, 282, 281;,
    4;303, 302, 281, 280;,
    4;305, 304, 280, 283;,
    4;307, 306, 283, 282;,
    4;308, 309, 310, 311;,
    4;312, 313, 314, 315;,
    4;316, 317, 318, 319;,
    4;320, 321, 322, 323;,
    4;324, 325, 326, 327;,
    3;88, 16, 19;,
    3;17, 97, 18;,
    3;103, 44, 47;,
    3;45, 100, 46;,
    3;328, 329, 330;,
    3;331, 332, 333;,
    3;334, 335, 336;,
    3;337, 338, 339;,
    3;340, 341, 342;,
    3;343, 344, 345;,
    3;346, 347, 348;,
    3;349, 350, 351;;

   MeshNormals {
    352;
    0.000000; -1.000000; 0.000000;,
    0.000000; -1.000000; 0.000000;,
    0.000000; -1.000000; 0.000000;,
    0.000000; -1.000000; 0.000000;,
    0.000574; -1.000000; 0.000000;,
    0.000574; -1.000000; 0.000000;,
    0.000574; -1.000000; 0.000000;,
    0.000574; -1.000000; 0.000000;,
    0.000000; -1.000000; 0.000000;,
    0.000000; -1.000000; 0.000000;,
    0.000000; -1.000000; 0.000000;,
    0.000000; -1.000000; 0.000000;,
    0.000000; 1.000000; 0.000000;,
    0.000000; 1.000000; 0.000000;,
    0.000000; 1.000000; 0.000000;,
    0.000000; 1.000000; 0.000000;,
    0.000000; 0.000000; 1.000000;,
    0.000000; 0.000000; 1.000000;,
    -0.000094; -0.192226; 0.981351;,
    -0.000094; -0.192226; 0.981351;,
    -0.000142; -0.289804; 0.957086;,
    -0.000142; -0.289804; 0.957086;,
    0.000000; 0.000000; 1.000000;,
    0.000000; 0.000000; 1.000000;,
    0.000000; -0.508091; 0.861303;,
    0.000000; -0.508091; 0.861303;,
    0.000000; -0.508091; 0.861303;,
    0.000000; -0.508091; 0.861303;,
    0.000000; 0.499482; 0.866324;,
    0.000000; 0.499482; 0.866324;,
    0.997805; -0.066227; 0.000000;,
    0.997805; -0.066227; 0.000000;,
    0.997514; -0.070467; 0.000000;,
    0.997514; -0.070467; 0.000000;,
    0.997514; -0.070467; 0.000000;,
    0.997514; -0.070467; 0.000000;,
    1.000000; 0.000000; 0.000000;,
    1.000000; 0.000000; 0.000000;,
    0.864177; -0.503187; 0.000000;,
    0.864177; -0.503187; 0.000000;,
    0.864177; -0.503187; 0.001148;,
    0.864177; -0.503187; 0.001148;,
    0.860789; 0.508961; 0.001152;,
    0.860789; 0.508961; 0.001152;,
    0.000000; 0.000000; -1.000000;,
    0.000000; 0.000000; -1.000000;,
    0.000000; 0.000000; -1.000000;,
    0.000000; 0.000000; -1.000000;,
    0.000000; 0.000000; -1.000000;,
    0.000000; 0.000000; -1.000000;,
    0.000000; 0.000000; -1.000000;,
    0.000000; 0.000000; -1.000000;,
    0.000000; -0.512787; -0.858516;,
    0.000000; -0.512787; -0.858516;,
    -0.000262; -0.512787; -0.858516;,
    -0.000262; -0.512787; -0.858516;,
    -0.000260; 0.499482; -0.866324;,
    -0.000260; 0.499482; -0.866324;,
    -0.993796; -0.111220; 0.000000;,
    -0.993796; -0.111220; 0.000000;,
    -0.995827; -0.091265; 0.000000;,
    -0.995827; -0.091265; 0.000000;,
    -0.995827; -0.091265; 0.000000;,
    -0.995827; -0.091265; 0.000000;,
    -0.559591; 0.333720; -0.758610;,
    -0.595857; -0.298615; -0.745509;,
    -0.821878; -0.569664; 0.000000;,
    -0.796381; 0.604795; 0.000000;,
    -1.000000; 0.000000; 0.000000;,
    -1.000000; 0.000000; 0.000000;,
    -0.861303; -0.508091; 0.000000;,
    -0.861303; -0.508091; 0.000000;,
    -0.861303; -0.508091; -0.000384;,
    -0.861303; -0.508091; -0.000384;,
    -0.863516; 0.504321; -0.000383;,
    -0.863516; 0.504321; -0.000383;,
    -0.598526; -0.801104; 0.000000;,
    -0.598526; -0.801104; 0.000000;,
    -0.538151; 0.333708; 0.773972;,
    -0.475305; 0.879821; 0.000000;,
    -0.475305; 0.879821; 0.000000;,
    -0.796381; 0.604795; 0.000000;,
    -0.975260; -0.221060; 0.000000;,
    -0.975260; -0.221060; 0.000000;,
    0.975260; -0.221059; 0.000000;,
    0.975260; -0.221059; 0.000000;,
    0.975260; -0.221059; 0.000000;,
    0.975260; -0.221059; 0.000000;,
    0.000000; 0.000000; 1.000000;,
    0.000000; 0.000000; 1.000000;,
    0.000000; 0.000000; 1.000000;,
    -0.991228; -0.132164; 0.000000;,
    -0.991228; -0.132164; 0.000000;,
    -0.991228; -0.132164; 0.000000;,
    -0.991228; -0.132164; 0.000000;,
    0.991228; -0.132164; 0.000000;,
    0.991228; -0.132164; 0.000000;,
    0.000000; 0.000000; 1.000000;,
    0.000000; 0.000000; 1.000000;,
    0.000000; 0.000000; 1.000000;,
    0.000000; 0.000000; -1.000000;,
    0.000000; 0.000000; -1.000000;,
    0.000000; 0.000000; -1.000000;,
    0.000000; 0.000000; -1.000000;,
    0.000000; 0.000000; -1.000000;,
    0.000000; 0.000000; -1.000000;,
    0.000000; 0.000000; -1.000000;,
    0.000000; 0.000000; -1.000000;,
    -0.569885; -0.285115; 0.770675;,
    0.062089; 0.031742; 0.997566;,
    0.043472; -0.009438; 0.999010;,
    0.010191; -0.018864; 0.999770;,
    0.010191; -0.018864; 0.999770;,
    0.047402; 0.063446; 0.996859;,
    0.047402; 0.063446; 0.996859;,
    0.000000; 0.000000; -1.000000;,
    0.000000; 0.000000; -1.000000;,
    0.000000; 0.000000; -1.000000;,
    0.000000; 0.000000; -1.000000;,
    0.000000; -1.000000; 0.000000;,
    0.707107; -0.707107; 0.000000;,
    0.707107; -0.707107; 0.000000;,
    0.000000; -1.000000; 0.000000;,
    0.707107; 0.707107; 0.000000;,
    0.707107; 0.707107; 0.000000;,
    0.000000; 1.000000; 0.000000;,
    0.000000; 1.000000; 0.000000;,
    -0.297557; 0.954704; 0.000000;,
    -0.297557; 0.954704; 0.000000;,
    0.000000; 0.953617; 0.301024;,
    0.000000; 0.953617; 0.301024;,
    0.292415; 0.956292; 0.000000;,
    0.292415; 0.956292; 0.000000;,
    0.000000; 0.953025; -0.302893;,
    0.000000; 0.953025; -0.302893;,
    -0.090534; 0.995893; 0.000000;,
    -0.090534; 0.995893; 0.000000;,
    0.000000; 0.996241; 0.086629;,
    0.000000; 0.996241; 0.086629;,
    0.090535; 0.995893; 0.000000;,
    0.090535; 0.995893; 0.000000;,
    0.000000; 0.995893; -0.090535;,
    0.000000; 0.995893; -0.090535;,
    1.000000; 0.000000; 0.000000;,
    1.000000; 0.000000; 0.000000;,
    0.995851; 0.090997; 0.000000;,
    0.995851; 0.090997; 0.000000;,
    0.000000; 0.000000; -1.000000;,
    0.000000; 0.000000; -1.000000;,
    0.000000; 0.328562; -0.944482;,
    0.000000; 0.328562; -0.944482;,
    -1.000000; 0.000000; 0.000000;,
    -1.000000; 0.000000; 0.000000;,
    -0.995851; 0.090997; 0.000000;,
    -0.995851; 0.090997; 0.000000;,
    0.000000; 0.000000; 1.000000;,
    0.000000; 0.000000; 1.000000;,
    0.000000; 0.004532; 0.999990;,
    0.000000; 0.004532; 0.999990;,
    0.995851; 0.090997; 0.000000;,
    0.995851; 0.090997; 0.000000;,
    0.000000; 0.328562; -0.944482;,
    0.000000; 0.328562; -0.944482;,
    -0.995851; 0.090997; 0.000000;,
    -0.995851; 0.090997; 0.000000;,
    0.000000; 0.004532; 0.999990;,
    0.000000; 0.004532; 0.999990;,
    1.000000; 0.000000; 0.000000;,
    1.000000; 0.000000; 0.000000;,
    0.000000; 0.000000; -1.000000;,
    0.000000; 0.000000; -1.000000;,
    -1.000000; 0.000000; 0.000000;,
    -1.000000; 0.000000; 0.000000;,
    0.000000; 0.000000; 1.000000;,
    0.000000; 0.000000; 1.000000;,
    0.000000; -1.000000; 0.000000;,
    0.000000; -1.000000; 0.000000;,
    0.000000; -1.000000; 0.000000;,
    0.000000; -1.000000; 0.000000;,
    -0.440156; 0.832777; -0.335776;,
    -0.424989; 0.860952; 0.279545;,
    0.411860; 0.868899; 0.274566;,
    0.426606; 0.842151; -0.329832;,
    0.000000; 0.000000; 1.000000;,
    0.000000; 0.000000; 1.000000;,
    0.000000; 0.534296; 0.845298;,
    0.000000; 0.534296; 0.845298;,
    0.000000; 0.000000; -1.000000;,
    0.000000; 0.000000; -1.000000;,
    0.000000; 0.538303; -0.842751;,
    0.000000; 0.538303; -0.842751;,
    1.000000; 0.000000; 0.000000;,
    1.000000; 0.000000; 0.000000;,
    0.847929; 0.530109; 0.000000;,
    0.847929; 0.530109; 0.000000;,
    -1.000000; 0.000000; 0.000000;,
    -1.000000; 0.000000; 0.000000;,
    -0.847929; 0.530109; 0.000000;,
    -0.847929; 0.530109; 0.000000;,
    0.000000; 0.846569; 0.532279;,
    0.000000; 0.846569; 0.532279;,
    -0.788831; 0.614610; 0.000000;,
    -0.788831; 0.614610; 0.000000;,
    0.000000; 0.795802; -0.605556;,
    0.000000; 0.795802; -0.605556;,
    0.771272; 0.636506; 0.000000;,
    0.771272; 0.636506; 0.000000;,
    -0.821878; -0.569664; 0.000000;,
    0.000000; -1.000000; 0.000000;,
    0.000000; -1.000000; 0.000000;,
    -0.475305; 0.879821; 0.000000;,
    -0.475305; 0.879821; 0.000000;,
    0.000000; 1.000000; 0.000000;,
    0.000000; 1.000000; 0.000000;,
    -0.598526; -0.801104; 0.000000;,
    -0.598526; -0.801104; 0.000000;,
    0.090540; 0.995893; 0.000000;,
    0.090540; 0.995893; 0.000000;,
    0.090540; 0.995893; 0.000000;,
    0.090540; 0.995893; 0.000000;,
    1.000000; 0.000000; 0.000000;,
    1.000000; 0.000000; 0.000000;,
    1.000000; 0.000000; 0.000000;,
    1.000000; 0.000000; 0.000000;,
    0.022373; 0.246092; -0.968988;,
    0.022373; 0.246092; -0.968988;,
    0.022373; 0.246092; -0.968988;,
    0.022373; 0.246092; -0.968988;,
    -1.000000; 0.000000; 0.000000;,
    -1.000000; 0.000000; 0.000000;,
    -1.000000; 0.000000; 0.000000;,
    -1.000000; 0.000000; 0.000000;,
    0.022373; 0.246092; 0.968988;,
    0.022373; 0.246092; 0.968988;,
    0.022373; 0.246092; 0.968988;,
    0.022373; 0.246092; 0.968988;,
    0.559591; 0.333720; -0.758610;,
    0.796381; 0.604795; 0.000000;,
    0.821878; -0.569664; 0.000000;,
    0.595857; -0.298615; -0.745509;,
    0.598526; -0.801104; 0.000000;,
    0.598526; -0.801104; 0.000000;,
    0.538151; 0.333708; 0.773972;,
    0.796381; 0.604795; 0.000000;,
    0.475305; 0.879821; 0.000000;,
    0.475305; 0.879821; 0.000000;,
    0.000000; 0.000000; -1.000000;,
    0.000000; 0.000000; -1.000000;,
    -0.043472; -0.009438; 0.999010;,
    -0.062089; 0.031742; 0.997566;,
    0.569885; -0.285115; 0.770675;,
    -0.010191; -0.018864; 0.999770;,
    -0.010191; -0.018864; 0.999770;,
    -0.047402; 0.063446; 0.996859;,
    -0.047402; 0.063446; 0.996859;,
    0.000000; 0.000000; -1.000000;,
    0.000000; 0.000000; -1.000000;,
    0.000000; 0.000000; -1.000000;,
    0.000000; 0.000000; -1.000000;,
    0.000000; -1.000000; 0.000000;,
    0.000000; -1.000000; 0.000000;,
    -0.707107; -0.707107; 0.000000;,
    -0.707107; -0.707107; 0.000000;,
    -0.707107; 0.707107; 0.000000;,
    -0.707107; 0.707107; 0.000000;,
    0.000000; 1.000000; 0.000000;,
    0.000000; 1.000000; 0.000000;,
    0.821878; -0.569664; 0.000000;,
    0.000000; -1.000000; 0.000000;,
    0.000000; -1.000000; 0.000000;,
    0.475305; 0.879821; 0.000000;,
    0.475305; 0.879821; 0.000000;,
    0.000000; 1.000000; 0.000000;,
    0.000000; 1.000000; 0.000000;,
    0.598526; -0.801104; 0.000000;,
    0.598526; -0.801104; 0.000000;,
    0.000000; 0.342243; 0.939612;,
    0.000000; 0.342243; 0.939612;,
    0.000000; 0.342243; 0.939612;,
    0.000000; 0.342243; 0.939612;,
    -0.440528; -0.600764; -0.667096;,
    -0.424782; -0.033607; -0.904671;,
    0.411065; -0.041290; -0.910670;,
    0.426355; -0.598279; -0.678442;,
    0.000000; 0.944985; -0.327113;,
    0.000000; 0.944985; -0.327113;,
    0.000000; 0.615565; -0.788086;,
    0.000000; 0.615565; -0.788086;,
    0.000000; -0.933346; 0.358979;,
    0.000000; -0.933346; 0.358979;,
    0.000000; -0.978216; -0.207592;,
    0.000000; -0.978216; -0.207592;,
    1.000000; 0.000000; 0.000000;,
    1.000000; 0.000000; 0.000000;,
    0.848749; -0.180859; -0.496905;,
    0.848749; -0.180859; -0.496905;,
    -1.000000; 0.000000; 0.000000;,
    -1.000000; 0.000000; 0.000000;,
    -0.848617; -0.180931; -0.497104;,
    -0.848617; -0.180931; -0.497104;,
    0.000000; 0.205219; -0.978716;,
    0.000000; 0.205219; -0.978716;,
    -0.789820; -0.209776; -0.576349;,
    -0.789820; -0.209776; -0.576349;,
    0.000000; -0.842453; -0.538769;,
    0.000000; -0.842453; -0.538769;,
    0.771652; -0.217543; -0.597685;,
    0.771652; -0.217543; -0.597685;,
    0.083049; 0.996546; 0.000000;,
    0.083049; 0.996546; 0.000000;,
    0.083049; 0.996546; 0.000000;,
    0.083049; 0.996546; 0.000000;,
    1.000000; 0.000000; 0.000000;,
    1.000000; 0.000000; 0.000000;,
    1.000000; 0.000000; 0.000000;,
    1.000000; 0.000000; 0.000000;,
    0.020509; 0.246102; -0.969027;,
    0.020509; 0.246102; -0.969027;,
    0.020509; 0.246102; -0.969027;,
    0.020509; 0.246102; -0.969027;,
    -1.000000; 0.000000; 0.000000;,
    -1.000000; 0.000000; 0.000000;,
    -1.000000; 0.000000; 0.000000;,
    -1.000000; 0.000000; 0.000000;,
    0.020509; 0.246102; 0.969027;,
    0.020509; 0.246102; 0.969027;,
    0.020509; 0.246102; 0.969027;,
    0.020509; 0.246102; 0.969027;,
    0.000000; 0.000000; 1.000000;,
    0.000000; 0.000000; 1.000000;,
    0.000000; 0.000000; 1.000000;,
    0.000000; 0.000000; -1.000000;,
    0.000000; 0.000000; -1.000000;,
    0.000000; 0.000000; -1.000000;,
    0.000000; 0.000000; 1.000000;,
    0.000000; 0.000000; 1.000000;,
    0.000000; 0.000000; 1.000000;,
    0.000000; 0.000000; -1.000000;,
    0.000000; 0.000000; -1.000000;,
    0.000000; 0.000000; -1.000000;,
    0.000000; 0.000000; 1.000000;,
    0.000000; 0.000000; 1.000000;,
    0.000000; 0.000000; 1.000000;,
    0.000000; 0.000000; -1.000000;,
    0.000000; 0.000000; -1.000000;,
    0.000000; 0.000000; -1.000000;,
    0.000000; 0.000000; 1.000000;,
    0.000000; 0.000000; 1.000000;,
    0.000000; 0.000000; 1.000000;,
    0.000000; 0.000000; -1.000000;,
    0.000000; 0.000000; -1.000000;,
    0.000000; 0.000000; -1.000000;;
    142;
    4;0, 1, 2, 3;,
    4;4, 5, 6, 7;,
    4;8, 9, 10, 11;,
    4;12, 13, 14, 15;,
    4;16, 17, 18, 19;,
    4;19, 18, 20, 21;,
    4;21, 20, 22, 23;,
    4;23, 22, 24, 25;,
    4;26, 27, 28, 29;,
    4;30, 31, 32, 33;,
    4;33, 32, 34, 35;,
    4;36, 37, 38, 39;,
    4;40, 41, 42, 43;,
    4;44, 45, 46, 47;,
    4;47, 46, 48, 49;,
    4;49, 48, 50, 51;,
    4;51, 50, 52, 53;,
    4;54, 55, 56, 57;,
    4;58, 59, 60, 61;,
    4;61, 60, 62, 63;,
    4;64, 65, 66, 67;,
    4;68, 69, 70, 71;,
    4;72, 73, 74, 75;,
    4;65, 76, 77, 66;,
    4;78, 79, 80, 81;,
    4;59, 58, 82, 83;,
    4;84, 85, 86, 87;,
    4;16, 88, 89, 90;,
    4;91, 92, 93, 94;,
    4;31, 30, 95, 96;,
    4;97, 17, 98, 99;,
    4;100, 45, 101, 102;,
    4;44, 103, 104, 105;,
    4;65, 64, 106, 107;,
    4;78, 108, 109, 110;,
    4;111, 78, 110, 112;,
    4;108, 113, 114, 109;,
    4;115, 65, 107, 116;,
    4;64, 117, 118, 106;,
    4;119, 120, 121, 122;,
    4;120, 123, 124, 121;,
    4;123, 125, 126, 124;,
    4;127, 128, 75, 74;,
    4;129, 130, 29, 28;,
    4;131, 132, 43, 42;,
    4;133, 134, 57, 56;,
    4;25, 24, 27, 26;,
    4;39, 38, 41, 40;,
    4;53, 52, 55, 54;,
    4;71, 70, 73, 72;,
    4;128, 127, 135, 136;,
    4;130, 129, 137, 138;,
    4;132, 131, 139, 140;,
    4;134, 133, 141, 142;,
    4;143, 144, 145, 146;,
    4;147, 148, 149, 150;,
    4;151, 152, 153, 154;,
    4;155, 156, 157, 158;,
    4;146, 145, 159, 160;,
    4;150, 149, 161, 162;,
    4;154, 153, 163, 164;,
    4;158, 157, 165, 166;,
    4;160, 159, 167, 168;,
    4;162, 161, 169, 170;,
    4;164, 163, 171, 172;,
    4;166, 165, 173, 174;,
    4;175, 176, 177, 178;,
    4;179, 180, 181, 182;,
    4;183, 184, 185, 186;,
    4;187, 188, 189, 190;,
    4;191, 192, 193, 194;,
    4;195, 196, 197, 198;,
    4;186, 185, 199, 200;,
    4;198, 197, 201, 202;,
    4;190, 189, 203, 204;,
    4;194, 193, 205, 206;,
    4;200, 199, 181, 180;,
    4;202, 201, 180, 179;,
    4;204, 203, 179, 182;,
    4;206, 205, 182, 181;,
    4;35, 34, 37, 36;,
    4;63, 62, 69, 68;,
    4;67, 66, 207, 81;,
    4;66, 208, 209, 207;,
    4;67, 210, 211, 64;,
    4;81, 212, 213, 67;,
    4;81, 207, 108, 78;,
    4;207, 214, 215, 108;,
    4;216, 217, 218, 219;,
    4;220, 221, 222, 223;,
    4;224, 225, 226, 227;,
    4;228, 229, 230, 231;,
    4;232, 233, 234, 235;,
    4;236, 237, 238, 239;,
    4;239, 238, 240, 241;,
    4;242, 243, 244, 245;,
    4;239, 246, 247, 236;,
    4;242, 248, 249, 250;,
    4;251, 252, 248, 242;,
    4;250, 249, 253, 254;,
    4;255, 256, 246, 239;,
    4;236, 247, 257, 258;,
    4;259, 260, 261, 262;,
    4;262, 261, 263, 264;,
    4;264, 263, 265, 266;,
    4;237, 243, 267, 238;,
    4;238, 267, 268, 269;,
    4;237, 236, 270, 271;,
    4;243, 237, 272, 273;,
    4;243, 242, 250, 267;,
    4;267, 250, 274, 275;,
    4;276, 277, 278, 279;,
    4;280, 281, 282, 283;,
    4;284, 285, 286, 287;,
    4;288, 289, 290, 291;,
    4;292, 293, 294, 295;,
    4;296, 297, 298, 299;,
    4;287, 286, 300, 301;,
    4;299, 298, 302, 303;,
    4;291, 290, 304, 305;,
    4;295, 294, 306, 307;,
    4;301, 300, 282, 281;,
    4;303, 302, 281, 280;,
    4;305, 304, 280, 283;,
    4;307, 306, 283, 282;,
    4;308, 309, 310, 311;,
    4;312, 313, 314, 315;,
    4;316, 317, 318, 319;,
    4;320, 321, 322, 323;,
    4;324, 325, 326, 327;,
    3;88, 16, 19;,
    3;17, 97, 18;,
    3;103, 44, 47;,
    3;45, 100, 46;,
    3;328, 329, 330;,
    3;331, 332, 333;,
    3;334, 335, 336;,
    3;337, 338, 339;,
    3;340, 341, 342;,
    3;343, 344, 345;,
    3;346, 347, 348;,
    3;349, 350, 351;;
   }

   MeshTextureCoords {
    352;
    0.647000; 0.251000;,
    0.647000; 0.002000;,
    0.670000; 0.002000;,
    0.670000; 0.251000;,
    0.639000; 0.251000;,
    0.639000; 0.002000;,
    0.995000; 0.002000;,
    0.995000; 0.251000;,
    0.956000; 0.252000;,
    0.956000; 0.003000;,
    0.982000; 0.003000;,
    0.982000; 0.252000;,
    0.072000; 0.186000;,
    0.072000; 0.617000;,
    0.323000; 0.617000;,
    0.323000; 0.186000;,
    0.058000; 0.977000;,
    0.447000; 0.977000;,
    0.480000; 0.915000;,
    0.025000; 0.915000;,
    0.490000; 0.841000;,
    0.012000; 0.841000;,
    0.490000; 0.777000;,
    0.012000; 0.777000;,
    0.490000; 0.678000;,
    0.012000; 0.678000;,
    0.003000; 0.669000;,
    0.499000; 0.669000;,
    0.499000; 0.658000;,
    0.003000; 0.658000;,
    0.713000; 0.620000;,
    0.984000; 0.620000;,
    0.984000; 0.558000;,
    0.713000; 0.558000;,
    0.984000; 0.484000;,
    0.664000; 0.484000;,
    0.664000; 0.420000;,
    0.984000; 0.420000;,
    0.984000; 0.321000;,
    0.664000; 0.321000;,
    0.656000; 0.312000;,
    0.993000; 0.313000;,
    0.993000; 0.301000;,
    0.656000; 0.300000;,
    0.946000; 0.977000;,
    0.557000; 0.977000;,
    0.524000; 0.915000;,
    0.979000; 0.915000;,
    0.511000; 0.841000;,
    0.989000; 0.841000;,
    0.511000; 0.777000;,
    0.989000; 0.777000;,
    0.511000; 0.678000;,
    0.989000; 0.678000;,
    0.998000; 0.670000;,
    0.502000; 0.670000;,
    0.502000; 0.658000;,
    0.998000; 0.658000;,
    0.983000; 0.620000;,
    0.712000; 0.620000;,
    0.712000; 0.558000;,
    0.983000; 0.558000;,
    0.664000; 0.484000;,
    0.983000; 0.484000;,
    0.339000; 0.029000;,
    0.339000; 0.068000;,
    0.333000; 0.068000;,
    0.333000; 0.029000;,
    0.983000; 0.420000;,
    0.664000; 0.420000;,
    0.664000; 0.321000;,
    0.983000; 0.321000;,
    0.992000; 0.312000;,
    0.655000; 0.312000;,
    0.655000; 0.301000;,
    0.992000; 0.301000;,
    0.339000; 0.088000;,
    0.333000; 0.088000;,
    0.024000; 0.029000;,
    0.024000; 0.003000;,
    0.031000; 0.003000;,
    0.031000; 0.029000;,
    0.983000; 0.636000;,
    0.712000; 0.636000;,
    0.836000; 0.981000;,
    0.565000; 0.981000;,
    0.565000; 0.997000;,
    0.836000; 0.997000;,
    0.025000; 0.977000;,
    0.029000; 0.994000;,
    0.055000; 0.994000;,
    0.131000; 0.980000;,
    0.402000; 0.980000;,
    0.402000; 0.997000;,
    0.131000; 0.997000;,
    0.713000; 0.636000;,
    0.984000; 0.636000;,
    0.480000; 0.977000;,
    0.449000; 0.993000;,
    0.478000; 0.993000;,
    0.524000; 0.977000;,
    0.553000; 0.994000;,
    0.528000; 0.994000;,
    0.979000; 0.977000;,
    0.976000; 0.993000;,
    0.948000; 0.993000;,
    0.341000; 0.030000;,
    0.341000; 0.067000;,
    0.024000; 0.068000;,
    0.022000; 0.067000;,
    0.022000; 0.030000;,
    0.005000; 0.018000;,
    0.005000; 0.030000;,
    0.005000; 0.083000;,
    0.005000; 0.067000;,
    0.358000; 0.083000;,
    0.358000; 0.067000;,
    0.358000; 0.018000;,
    0.358000; 0.030000;,
    0.026000; 0.091000;,
    0.026000; 0.109000;,
    0.340000; 0.109000;,
    0.340000; 0.091000;,
    0.026000; 0.146000;,
    0.340000; 0.146000;,
    0.026000; 0.162000;,
    0.340000; 0.162000;,
    0.664000; 0.292000;,
    0.983000; 0.292000;,
    0.490000; 0.649000;,
    0.012000; 0.649000;,
    0.984000; 0.292000;,
    0.664000; 0.292000;,
    0.511000; 0.649000;,
    0.989000; 0.649000;,
    0.669000; 0.287000;,
    0.978000; 0.287000;,
    0.485000; 0.644000;,
    0.017000; 0.644000;,
    0.979000; 0.287000;,
    0.669000; 0.287000;,
    0.516000; 0.644000;,
    0.984000; 0.644000;,
    0.324000; 0.551000;,
    0.324000; 0.241000;,
    0.139000; 0.241000;,
    0.139000; 0.551000;,
    0.324000; 0.173000;,
    0.324000; 0.630000;,
    0.139000; 0.630000;,
    0.139000; 0.173000;,
    0.324000; 0.241000;,
    0.324000; 0.551000;,
    0.139000; 0.551000;,
    0.139000; 0.241000;,
    0.324000; 0.630000;,
    0.324000; 0.173000;,
    0.139000; 0.173000;,
    0.139000; 0.630000;,
    0.065000; 0.299000;,
    0.065000; 0.550000;,
    0.065000; 0.617000;,
    0.065000; 0.186000;,
    0.065000; 0.550000;,
    0.065000; 0.299000;,
    0.065000; 0.186000;,
    0.065000; 0.617000;,
    0.010000; 0.299000;,
    0.010000; 0.550000;,
    0.010000; 0.617000;,
    0.010000; 0.186000;,
    0.010000; 0.550000;,
    0.010000; 0.299000;,
    0.010000; 0.186000;,
    0.010000; 0.617000;,
    0.617000; 0.004000;,
    0.617000; 0.285000;,
    0.390000; 0.285000;,
    0.390000; 0.004000;,
    0.404000; 0.327000;,
    0.404000; 0.590000;,
    0.606000; 0.590000;,
    0.606000; 0.327000;,
    0.392000; 0.633000;,
    0.618000; 0.633000;,
    0.618000; 0.627000;,
    0.392000; 0.627000;,
    0.618000; 0.292000;,
    0.392000; 0.292000;,
    0.392000; 0.300000;,
    0.618000; 0.300000;,
    0.637000; 0.617000;,
    0.637000; 0.303000;,
    0.631000; 0.303000;,
    0.631000; 0.617000;,
    0.369000; 0.302000;,
    0.369000; 0.617000;,
    0.377000; 0.617000;,
    0.377000; 0.302000;,
    0.610000; 0.618000;,
    0.400000; 0.618000;,
    0.386000; 0.608000;,
    0.386000; 0.311000;,
    0.400000; 0.310000;,
    0.610000; 0.310000;,
    0.623000; 0.312000;,
    0.623000; 0.608000;,
    0.031000; 0.068000;,
    0.333000; 0.088000;,
    0.031000; 0.088000;,
    0.333000; 0.003000;,
    0.339000; 0.003000;,
    0.031000; 0.003000;,
    0.333000; 0.003000;,
    0.031000; 0.088000;,
    0.024000; 0.088000;,
    0.352000; 0.100000;,
    0.354000; 0.100000;,
    0.354000; 0.095000;,
    0.352000; 0.095000;,
    0.354000; 0.127000;,
    0.349000; 0.127000;,
    0.345000; 0.141000;,
    0.358000; 0.141000;,
    0.345000; 0.094000;,
    0.347000; 0.094000;,
    0.347000; 0.108000;,
    0.345000; 0.108000;,
    0.347000; 0.111000;,
    0.353000; 0.111000;,
    0.356000; 0.125000;,
    0.344000; 0.125000;,
    0.351000; 0.094000;,
    0.348000; 0.094000;,
    0.348000; 0.108000;,
    0.351000; 0.108000;,
    0.339000; 0.029000;,
    0.333000; 0.029000;,
    0.333000; 0.068000;,
    0.339000; 0.068000;,
    0.333000; 0.088000;,
    0.339000; 0.088000;,
    0.024000; 0.029000;,
    0.031000; 0.029000;,
    0.031000; 0.003000;,
    0.024000; 0.003000;,
    0.341000; 0.067000;,
    0.341000; 0.030000;,
    0.022000; 0.030000;,
    0.022000; 0.067000;,
    0.024000; 0.068000;,
    0.005000; 0.018000;,
    0.005000; 0.030000;,
    0.005000; 0.067000;,
    0.005000; 0.083000;,
    0.358000; 0.083000;,
    0.358000; 0.067000;,
    0.358000; 0.030000;,
    0.358000; 0.018000;,
    0.026000; 0.091000;,
    0.340000; 0.091000;,
    0.340000; 0.109000;,
    0.026000; 0.109000;,
    0.340000; 0.146000;,
    0.026000; 0.146000;,
    0.340000; 0.162000;,
    0.026000; 0.162000;,
    0.031000; 0.068000;,
    0.031000; 0.088000;,
    0.333000; 0.088000;,
    0.339000; 0.003000;,
    0.333000; 0.003000;,
    0.333000; 0.003000;,
    0.031000; 0.003000;,
    0.024000; 0.088000;,
    0.031000; 0.088000;,
    0.617000; 0.004000;,
    0.617000; 0.285000;,
    0.390000; 0.285000;,
    0.390000; 0.004000;,
    0.404000; 0.327000;,
    0.404000; 0.590000;,
    0.606000; 0.590000;,
    0.606000; 0.327000;,
    0.392000; 0.633000;,
    0.618000; 0.633000;,
    0.618000; 0.627000;,
    0.392000; 0.627000;,
    0.618000; 0.292000;,
    0.392000; 0.292000;,
    0.392000; 0.300000;,
    0.618000; 0.300000;,
    0.637000; 0.617000;,
    0.637000; 0.303000;,
    0.631000; 0.303000;,
    0.631000; 0.617000;,
    0.369000; 0.302000;,
    0.369000; 0.617000;,
    0.377000; 0.617000;,
    0.377000; 0.302000;,
    0.610000; 0.618000;,
    0.400000; 0.618000;,
    0.386000; 0.608000;,
    0.386000; 0.311000;,
    0.400000; 0.310000;,
    0.610000; 0.310000;,
    0.623000; 0.312000;,
    0.623000; 0.608000;,
    0.352000; 0.100000;,
    0.354000; 0.100000;,
    0.354000; 0.095000;,
    0.352000; 0.095000;,
    0.354000; 0.127000;,
    0.349000; 0.127000;,
    0.345000; 0.141000;,
    0.358000; 0.141000;,
    0.345000; 0.094000;,
    0.347000; 0.094000;,
    0.347000; 0.108000;,
    0.345000; 0.108000;,
    0.347000; 0.111000;,
    0.353000; 0.111000;,
    0.356000; 0.125000;,
    0.344000; 0.125000;,
    0.351000; 0.094000;,
    0.348000; 0.094000;,
    0.348000; 0.108000;,
    0.351000; 0.108000;,
    0.021000; 0.104000;,
    0.002000; 0.115000;,
    0.021000; 0.115000;,
    0.002000; 0.102000;,
    0.021000; 0.092000;,
    0.021000; 0.102000;,
    0.002000; 0.125000;,
    0.021000; 0.140000;,
    0.021000; 0.125000;,
    0.021000; 0.156000;,
    0.002000; 0.142000;,
    0.021000; 0.142000;,
    0.021000; 0.104000;,
    0.021000; 0.115000;,
    0.002000; 0.115000;,
    0.002000; 0.102000;,
    0.021000; 0.102000;,
    0.021000; 0.092000;,
    0.002000; 0.125000;,
    0.021000; 0.125000;,
    0.021000; 0.140000;,
    0.021000; 0.156000;,
    0.021000; 0.142000;,
    0.002000; 0.142000;;
   }

   FVFData {
    258;
    704;
    0,
    1065353216,
    0,
    1065353216,
    0,
    1065353216,
    0,
    1065353216,
    0,
    1065353216,
    0,
    1065353216,
    0,
    1065353216,
    0,
    1065353216,
    0,
    1065353216,
    0,
    1065353216,
    0,
    1065353216,
    0,
    1065353216,
    0,
    1065353216,
    0,
    1065353216,
    0,
    1065353216,
    0,
    1065353216,
    0,
    1065353216,
    0,
    1065353216,
    0,
    1065353216,
    0,
    1065353216,
    0,
    1065353216,
    0,
    1065353216,
    0,
    1065353216,
    0,
    1065353216,
    0,
    1065353216,
    0,
    1065353216,
    0,
    1065353216,
    0,
    1065353216,
    0,
    1065353216,
    0,
    1065353216,
    0,
    1065353216,
    0,
    1065353216,
    0,
    1065353216,
    0,
    1065353216,
    0,
    1065353216,
    0,
    1065353216,
    0,
    1065353216,
    0,
    1065353216,
    0,
    1065353216,
    0,
    1065353216,
    0,
    1065353216,
    0,
    1065353216,
    0,
    1065353216,
    0,
    1065353216,
    0,
    1065353216,
    0,
    1065353216,
    0,
    1065353216,
    0,
    1065353216,
    0,
    1065353216,
    0,
    1065353216,
    0,
    1065353216,
    0,
    1065353216,
    0,
    1065353216,
    0,
    1065353216,
    0,
    1065353216,
    0,
    1065353216,
    0,
    1065353216,
    0,
    1065353216,
    0,
    1065353216,
    0,
    1065353216,
    0,
    1065353216,
    0,
    1065353216,
    0,
    1065353216,
    0,
    1065353216,
    0,
    1065353216,
    0,
    1065353216,
    0,
    1065353216,
    0,
    1065353216,
    0,
    1065353216,
    0,
    1065353216,
    0,
    1065353216,
    0,
    1065353216,
    0,
    1065353216,
    0,
    1065353216,
    0,
    1065353216,
    0,
    1065353216,
    0,
    1065353216,
    0,
    1065353216,
    0,
    1065353216,
    0,
    1065353216,
    0,
    1065353216,
    0,
    1065353216,
    0,
    1065353216,
    0,
    1065353216,
    0,
    1065353216,
    0,
    1065353216,
    0,
    1065353216,
    0,
    1065353216,
    0,
    1065353216,
    0,
    1065353216,
    0,
    1065353216,
    0,
    1065353216,
    0,
    1065353216,
    0,
    1065353216,
    0,
    1065353216,
    0,
    1065353216,
    0,
    1065353216,
    0,
    1065353216,
    0,
    1065353216,
    0,
    1065353216,
    0,
    1065353216,
    0,
    1065353216,
    0,
    1065353216,
    0,
    1065353216,
    0,
    1065353216,
    0,
    1065353216,
    0,
    1065353216,
    0,
    1065353216,
    0,
    1065353216,
    0,
    1065353216,
    0,
    1065353216,
    0,
    1065353216,
    0,
    1065353216,
    0,
    1065353216,
    0,
    1065353216,
    0,
    1065353216,
    0,
    1065353216,
    0,
    1065353216,
    0,
    1065353216,
    0,
    1065353216,
    0,
    1065353216,
    0,
    1065353216,
    0,
    1065353216,
    0,
    1065353216,
    0,
    1065353216,
    0,
    1065353216,
    0,
    1065353216,
    0,
    1065353216,
    0,
    1065353216,
    0,
    1065353216,
    0,
    1065353216,
    0,
    1065353216,
    0,
    1065353216,
    0,
    1065353216,
    0,
    1065353216,
    0,
    1065353216,
    0,
    1065353216,
    0,
    1065353216,
    0,
    1065353216,
    0,
    1065353216,
    0,
    1065353216,
    0,
    1065353216,
    0,
    1065353216,
    0,
    1065353216,
    0,
    1065353216,
    0,
    1065353216,
    0,
    1065353216,
    0,
    1065353216,
    0,
    1065353216,
    0,
    1065353216,
    0,
    1065353216,
    0,
    1065353216,
    0,
    1065353216,
    0,
    1065353216,
    0,
    1065353216,
    0,
    1065353216,
    0,
    1065353216,
    0,
    1065353216,
    0,
    1065353216,
    0,
    1065353216,
    0,
    1065353216,
    0,
    1065353216,
    0,
    1065353216,
    0,
    1065353216,
    0,
    1065353216,
    0,
    1065353216,
    0,
    1065353216,
    0,
    1065353216,
    0,
    1065353216,
    0,
    1065353216,
    0,
    1065353216,
    0,
    1065353216,
    0,
    1065353216,
    0,
    1065353216,
    0,
    1065353216,
    0,
    1065353216,
    0,
    1065353216,
    0,
    1065353216,
    0,
    1065353216,
    0,
    1065353216,
    0,
    1065353216,
    0,
    1065353216,
    0,
    1065353216,
    0,
    1065353216,
    0,
    1065353216,
    0,
    1065353216,
    0,
    1065353216,
    0,
    1065353216,
    0,
    1065353216,
    0,
    1065353216,
    0,
    1065353216,
    0,
    1065353216,
    0,
    1065353216,
    0,
    1065353216,
    0,
    1065353216,
    0,
    1065353216,
    0,
    1065353216,
    0,
    1065353216,
    0,
    1065353216,
    0,
    1065353216,
    0,
    1065353216,
    0,
    1065353216,
    0,
    1065353216,
    0,
    1065353216,
    0,
    1065353216,
    0,
    1065353216,
    0,
    1065353216,
    0,
    1065353216,
    0,
    1065353216,
    0,
    1065353216,
    0,
    1065353216,
    0,
    1065353216,
    0,
    1065353216,
    0,
    1065353216,
    0,
    1065353216,
    0,
    1065353216,
    0,
    1065353216,
    0,
    1065353216,
    0,
    1065353216,
    0,
    1065353216,
    0,
    1065353216,
    0,
    1065353216,
    0,
    1065353216,
    0,
    1065353216,
    0,
    1065353216,
    0,
    1065353216,
    0,
    1065353216,
    0,
    1065353216,
    0,
    1065353216,
    0,
    1065353216,
    0,
    1065353216,
    0,
    1065353216,
    0,
    1065353216,
    0,
    1065353216,
    0,
    1065353216,
    0,
    1065353216,
    0,
    1065353216,
    0,
    1065353216,
    0,
    1065353216,
    0,
    1065353216,
    0,
    1065353216,
    0,
    1065353216,
    0,
    1065353216,
    0,
    1065353216,
    0,
    1065353216,
    0,
    1065353216,
    0,
    1065353216,
    0,
    1065353216,
    0,
    1065353216,
    0,
    1065353216,
    0,
    1065353216,
    0,
    1065353216,
    0,
    1065353216,
    0,
    1065353216,
    0,
    1065353216,
    0,
    1065353216,
    0,
    1065353216,
    0,
    1065353216,
    0,
    1065353216,
    0,
    1065353216,
    0,
    1065353216,
    0,
    1065353216,
    0,
    1065353216,
    0,
    1065353216,
    0,
    1065353216,
    0,
    1065353216,
    0,
    1065353216,
    0,
    1065353216,
    0,
    1065353216,
    0,
    1065353216,
    0,
    1065353216,
    0,
    1065353216,
    0,
    1065353216,
    0,
    1065353216,
    0,
    1065353216,
    0,
    1065353216,
    0,
    1065353216,
    0,
    1065353216,
    0,
    1065353216,
    0,
    1065353216,
    0,
    1065353216,
    0,
    1065353216,
    0,
    1065353216,
    0,
    1065353216,
    0,
    1065353216,
    0,
    1065353216,
    0,
    1065353216,
    0,
    1065353216,
    0,
    1065353216,
    0,
    1065353216,
    0,
    1065353216,
    0,
    1065353216,
    0,
    1065353216,
    0,
    1065353216,
    0,
    1065353216,
    0,
    1065353216,
    0,
    1065353216,
    0,
    1065353216,
    0,
    1065353216,
    0,
    1065353216,
    0,
    1065353216,
    0,
    1065353216,
    0,
    1065353216,
    0,
    1065353216,
    0,
    1065353216,
    0,
    1065353216,
    0,
    1065353216,
    0,
    1065353216,
    0,
    1065353216,
    0,
    1065353216,
    0,
    1065353216,
    0,
    1065353216,
    0,
    1065353216,
    0,
    1065353216,
    0,
    1065353216,
    0,
    1065353216,
    0,
    1065353216,
    0,
    1065353216,
    0,
    1065353216,
    0,
    1065353216,
    0,
    1065353216,
    0,
    1065353216,
    0,
    1065353216,
    0,
    1065353216,
    0,
    1065353216,
    0,
    1065353216,
    0,
    1065353216,
    0,
    1065353216,
    0,
    1065353216,
    0,
    1065353216,
    0,
    1065353216,
    0,
    1065353216,
    0,
    1065353216,
    0,
    1065353216,
    0,
    1065353216,
    0,
    1065353216,
    0,
    1065353216,
    0,
    1065353216,
    0,
    1065353216,
    0,
    1065353216,
    0,
    1065353216,
    0,
    1065353216,
    0,
    1065353216,
    0,
    1065353216,
    0,
    1065353216,
    0,
    1065353216,
    0,
    1065353216,
    0,
    1065353216,
    0,
    1065353216,
    0,
    1065353216,
    0,
    1065353216,
    0,
    1065353216;
   }

   MeshMaterialList {
    1;
    142;
    0,
    0,
    0,
    0,
    0,
    0,
    0,
    0,
    0,
    0,
    0,
    0,
    0,
    0,
    0,
    0,
    0,
    0,
    0,
    0,
    0,
    0,
    0,
    0,
    0,
    0,
    0,
    0,
    0,
    0,
    0,
    0,
    0,
    0,
    0,
    0,
    0,
    0,
    0,
    0,
    0,
    0,
    0,
    0,
    0,
    0,
    0,
    0,
    0,
    0,
    0,
    0,
    0,
    0,
    0,
    0,
    0,
    0,
    0,
    0,
    0,
    0,
    0,
    0,
    0,
    0,
    0,
    0,
    0,
    0,
    0,
    0,
    0,
    0,
    0,
    0,
    0,
    0,
    0,
    0,
    0,
    0,
    0,
    0,
    0,
    0,
    0,
    0,
    0,
    0,
    0,
    0,
    0,
    0,
    0,
    0,
    0,
    0,
    0,
    0,
    0,
    0,
    0,
    0,
    0,
    0,
    0,
    0,
    0,
    0,
    0,
    0,
    0,
    0,
    0,
    0,
    0,
    0,
    0,
    0,
    0,
    0,
    0,
    0,
    0,
    0,
    0,
    0,
    0,
    0,
    0,
    0,
    0,
    0,
    0,
    0,
    0,
    0,
    0,
    0,
    0,
    0;

    Material orig_crossingwalk {
     0.639000; 0.639000; 0.639000; 1.000000;;
     128.000000;
     0.000000; 0.000000; 0.000000;;
     0.000000; 0.000000; 0.000000;;

     TextureFilename {
      "D:\\new packs\\test\\dumpstersmall_diffuse.tga";
     }
    }

   }
  }
}
