xof 0303txt 0032

// DirectX 8.0 file
// Creator: Ultimate Unwrap3D Pro v3.27
// Website: http://www.unwrap3d.com
// Time: Fri Jun 01 18:48:00 2012

// Start of Templates

template VertexDuplicationIndices {
 <b8d65549-d7c9-4995-89cf-53a9a8b031e3>
 DWORD nIndices;
 DWORD nOriginalVertices;
 array DWORD indices[nIndices];
}

template FVFData {
 <b6e70a0e-8ef9-4e83-94ad-ecc8b0c04897>
 DWORD dwFVF;
 DWORD nDWords;
 array DWORD data[nDWords];
}

template XSkinMeshHeader {
 <3CF169CE-FF7C-44ab-93C0-F78F62D172E2>
 WORD nMaxSkinWeightsPerVertex;
 WORD nMaxSkinWeightsPerFace;
 WORD nBones;
}

template SkinWeights {
 <6F0D123B-BAD2-4167-A0D0-80224F25FABB>
 STRING transformNodeName;
 DWORD nWeights;
 array DWORD vertexIndices[nWeights];
 array FLOAT weights[nWeights];
 Matrix4x4 matrixOffset;
}

template AnimTicksPerSecond {
 <9E415A43-7BA6-4a73-8743-B73D47E88476>
 DWORD AnimTicksPerSecond;
}

// Start of Frames

Frame dumpsterrolloff {
   FrameTransformMatrix {
    1.000000, 0.000000, 0.000000, 0.000000,
    0.000000, 1.000000, 0.000000, 0.000000,
    0.000000, 0.000000, 1.000000, 0.000000,
    0.000000, 0.000000, 0.000000, 1.000000;;
   }

   Mesh dumpsterrolloff {
    358;
    0.000000; 0.102000; 1.150000;,
    -2.569000; 0.102000; 1.150000;,
    -2.569000; 0.102000; -1.150000;,
    0.000000; 0.102000; -1.150000;,
    -2.569000; 0.202000; 1.150000;,
    -2.569000; 0.102000; 1.150000;,
    0.000000; 0.102000; 1.150000;,
    0.000000; 0.202000; 1.150000;,
    3.000000; 0.202000; -1.150000;,
    3.000000; 0.202000; 1.150000;,
    3.000000; 0.102000; 1.150000;,
    3.000000; 0.102000; -1.150000;,
    3.000000; 0.202000; -1.150000;,
    3.000000; 0.102000; -1.150000;,
    0.000000; 0.102000; -1.150000;,
    0.000000; 0.202000; -1.150000;,
    -2.569000; 0.202000; 1.150000;,
    -2.569000; 0.202000; -1.150000;,
    -2.569000; 0.102000; -1.150000;,
    -2.569000; 0.102000; 1.150000;,
    -2.469000; 0.202000; 1.050000;,
    0.000000; 0.202000; 1.050000;,
    2.900000; 0.202000; -1.050000;,
    2.900000; 0.202000; 1.050000;,
    2.900000; 0.202000; -1.050000;,
    0.000000; 0.202000; -1.050000;,
    -2.469000; 0.202000; 1.050000;,
    -2.469000; 0.202000; -1.050000;,
    0.000000; 0.867000; 1.050000;,
    -2.900000; 0.867000; 1.050000;,
    2.900000; 0.867000; 1.050000;,
    2.900000; 0.867000; -1.050000;,
    2.900000; 0.867000; -1.050000;,
    0.000000; 0.867000; -1.050000;,
    -2.900000; 0.867000; -1.050000;,
    -2.900000; 0.867000; 1.050000;,
    0.000000; 1.532000; 1.150000;,
    -3.000000; 1.532000; 1.150000;,
    -2.900000; 1.532000; 1.050000;,
    0.000000; 1.532000; 1.050000;,
    3.000000; 1.532000; -1.150000;,
    3.000000; 1.532000; 1.150000;,
    2.900000; 1.532000; 1.050000;,
    2.900000; 1.532000; -1.050000;,
    0.000000; 1.532000; -1.150000;,
    3.000000; 1.532000; -1.150000;,
    2.900000; 1.532000; -1.050000;,
    0.000000; 1.532000; -1.050000;,
    -3.000000; 1.532000; 1.150000;,
    -3.000000; 1.532000; -1.150000;,
    -2.900000; 1.532000; -1.050000;,
    -2.900000; 1.532000; 1.050000;,
    -3.000000; 1.632000; 1.150000;,
    0.000000; 1.632000; 1.150000;,
    3.000000; 1.632000; -1.150000;,
    3.000000; 1.632000; 1.150000;,
    3.000000; 1.632000; -1.150000;,
    0.000000; 1.632000; -1.150000;,
    -3.000000; 1.632000; 1.150000;,
    -3.000000; 1.632000; -1.150000;,
    -2.850000; 1.632000; 1.000000;,
    0.000000; 1.632000; 1.000000;,
    2.850000; 1.632000; -1.000000;,
    2.850000; 1.632000; 1.000000;,
    2.850000; 1.632000; -1.000000;,
    0.000000; 1.632000; -1.000000;,
    -2.850000; 1.632000; 1.000000;,
    -2.850000; 1.632000; -1.000000;,
    -2.850000; 1.230000; 1.000000;,
    0.000000; 1.230000; 1.000000;,
    2.850000; 1.230000; 1.000000;,
    2.850000; 1.632000; 1.000000;,
    2.850000; 1.632000; -1.000000;,
    2.850000; 1.230000; -1.000000;,
    2.850000; 1.230000; -1.000000;,
    0.000000; 1.230000; -1.000000;,
    -2.850000; 1.230000; -1.000000;,
    -2.850000; 1.632000; -1.000000;,
    -2.850000; 1.632000; 1.000000;,
    -2.850000; 1.230000; 1.000000;,
    2.900000; 0.867000; 1.050000;,
    2.900000; 1.532000; 1.050000;,
    -2.900000; 0.867000; -1.050000;,
    -2.900000; 1.532000; -1.050000;,
    0.000000; 0.102000; 1.150000;,
    0.000000; 0.102000; -1.150000;,
    3.000000; 0.102000; -1.150000;,
    3.000000; 0.102000; 1.150000;,
    3.000000; 0.102000; 1.150000;,
    3.000000; 0.202000; 1.150000;,
    -2.569000; 0.102000; -1.150000;,
    -2.569000; 0.202000; -1.150000;,
    2.900000; 0.202000; 1.050000;,
    -2.469000; 0.202000; -1.050000;,
    3.000000; 1.532000; 1.150000;,
    -3.000000; 1.532000; -1.150000;,
    3.000000; 1.632000; 1.150000;,
    -3.000000; 1.632000; -1.150000;,
    2.850000; 1.632000; 1.000000;,
    -2.850000; 1.632000; -1.000000;,
    2.850000; 1.230000; 1.000000;,
    -2.850000; 1.230000; -1.000000;,
    -2.148000; 0.200000; 1.127000;,
    -1.995000; 0.200000; 1.127000;,
    -1.995000; 1.532000; 1.127000;,
    -2.148000; 1.532000; 1.127000;,
    -1.320000; 0.200000; 1.127000;,
    -1.166000; 0.200000; 1.127000;,
    -1.166000; 1.532000; 1.127000;,
    -1.320000; 1.532000; 1.127000;,
    -0.491000; 0.200000; 1.127000;,
    -0.337000; 0.200000; 1.127000;,
    -0.337000; 1.532000; 1.127000;,
    -0.491000; 1.532000; 1.127000;,
    2.148000; 1.532000; 1.127000;,
    1.995000; 1.532000; 1.127000;,
    1.995000; 0.200000; 1.127000;,
    2.148000; 0.200000; 1.127000;,
    1.320000; 1.532000; 1.127000;,
    1.166000; 1.532000; 1.127000;,
    1.166000; 0.200000; 1.127000;,
    1.320000; 0.200000; 1.127000;,
    0.491000; 1.532000; 1.127000;,
    0.337000; 1.532000; 1.127000;,
    0.337000; 0.200000; 1.127000;,
    0.491000; 0.200000; 1.127000;,
    -1.995000; 0.200000; 1.047000;,
    -1.995000; 1.532000; 1.047000;,
    -2.148000; 1.532000; 1.047000;,
    -2.148000; 0.200000; 1.047000;,
    -1.166000; 0.200000; 1.047000;,
    -1.166000; 1.532000; 1.047000;,
    -1.320000; 1.532000; 1.047000;,
    -1.320000; 0.200000; 1.047000;,
    -0.337000; 0.200000; 1.047000;,
    -0.337000; 1.532000; 1.047000;,
    -0.491000; 1.532000; 1.047000;,
    -0.491000; 0.200000; 1.047000;,
    1.995000; 1.532000; 1.047000;,
    1.995000; 0.200000; 1.047000;,
    2.148000; 0.200000; 1.047000;,
    2.148000; 1.532000; 1.047000;,
    1.166000; 1.532000; 1.047000;,
    1.166000; 0.200000; 1.047000;,
    1.320000; 0.200000; 1.047000;,
    1.320000; 1.532000; 1.047000;,
    0.337000; 1.532000; 1.047000;,
    0.337000; 0.200000; 1.047000;,
    0.491000; 0.200000; 1.047000;,
    0.491000; 1.532000; 1.047000;,
    0.000000; 1.768000; 0.284000;,
    -1.425000; 1.707000; 0.287000;,
    -1.425000; 1.485000; 1.000000;,
    0.000000; 1.526000; 1.000000;,
    -1.425000; 1.547000; -1.000000;,
    -1.425000; 1.707000; -0.287000;,
    0.000000; 1.822000; -0.284000;,
    0.000000; 1.561000; -1.000000;,
    -2.850000; 1.516000; -0.299000;,
    -2.850000; 1.402000; -1.000000;,
    -2.850000; 1.460000; 0.299000;,
    -2.850000; 1.402000; 1.000000;,
    2.850000; 1.460000; 0.299000;,
    1.425000; 1.639000; 0.287000;,
    1.425000; 1.485000; 1.000000;,
    2.850000; 1.402000; 1.000000;,
    1.425000; 1.532000; -1.000000;,
    1.425000; 1.707000; -0.287000;,
    2.850000; 1.460000; -0.299000;,
    2.850000; 1.402000; -1.000000;,
    -1.990000; 1.274000; 1.109000;,
    -1.990000; 1.224000; 1.109000;,
    -1.316000; 1.224000; 1.109000;,
    -1.316000; 1.274000; 1.109000;,
    -1.990000; 1.224000; 1.095000;,
    -1.316000; 1.224000; 1.095000;,
    -1.316000; 1.274000; 1.095000;,
    -1.990000; 1.274000; 1.095000;,
    -1.316000; 1.224000; 1.095000;,
    -1.990000; 1.224000; 1.095000;,
    -1.990000; 0.804000; 1.109000;,
    -1.990000; 0.754000; 1.109000;,
    -1.316000; 0.754000; 1.109000;,
    -1.316000; 0.804000; 1.109000;,
    -1.990000; 0.754000; 1.095000;,
    -1.316000; 0.754000; 1.095000;,
    -1.316000; 0.804000; 1.095000;,
    -1.990000; 0.804000; 1.095000;,
    -1.316000; 0.754000; 1.095000;,
    -1.990000; 0.754000; 1.095000;,
    -1.995000; 0.200000; -1.122000;,
    -2.148000; 0.200000; -1.122000;,
    -2.148000; 1.532000; -1.122000;,
    -1.995000; 1.532000; -1.122000;,
    -1.166000; 0.200000; -1.122000;,
    -1.320000; 0.200000; -1.122000;,
    -1.320000; 1.532000; -1.122000;,
    -1.166000; 1.532000; -1.122000;,
    -0.337000; 0.200000; -1.122000;,
    -0.491000; 0.200000; -1.122000;,
    -0.491000; 1.532000; -1.122000;,
    -0.337000; 1.532000; -1.122000;,
    1.995000; 1.532000; -1.122000;,
    2.148000; 1.532000; -1.122000;,
    2.148000; 0.200000; -1.122000;,
    1.995000; 0.200000; -1.122000;,
    1.166000; 1.532000; -1.122000;,
    1.320000; 1.532000; -1.122000;,
    1.320000; 0.200000; -1.122000;,
    1.166000; 0.200000; -1.122000;,
    0.337000; 1.532000; -1.122000;,
    0.491000; 1.532000; -1.122000;,
    0.491000; 0.200000; -1.122000;,
    0.337000; 0.200000; -1.122000;,
    -2.148000; 0.200000; -1.042000;,
    -2.148000; 1.532000; -1.042000;,
    -1.995000; 1.532000; -1.042000;,
    -1.995000; 0.200000; -1.042000;,
    -1.320000; 0.200000; -1.042000;,
    -1.320000; 1.532000; -1.042000;,
    -1.166000; 1.532000; -1.042000;,
    -1.166000; 0.200000; -1.042000;,
    -0.491000; 0.200000; -1.042000;,
    -0.491000; 1.532000; -1.042000;,
    -0.337000; 1.532000; -1.042000;,
    -0.337000; 0.200000; -1.042000;,
    2.148000; 1.532000; -1.042000;,
    2.148000; 0.200000; -1.042000;,
    1.995000; 0.200000; -1.042000;,
    1.995000; 1.532000; -1.042000;,
    1.320000; 1.532000; -1.042000;,
    1.320000; 0.200000; -1.042000;,
    1.166000; 0.200000; -1.042000;,
    1.166000; 1.532000; -1.042000;,
    0.491000; 1.532000; -1.042000;,
    0.491000; 0.200000; -1.042000;,
    0.337000; 0.200000; -1.042000;,
    0.337000; 1.532000; -1.042000;,
    -1.316000; 1.274000; -1.101000;,
    -1.316000; 1.224000; -1.101000;,
    -1.990000; 1.224000; -1.101000;,
    -1.990000; 1.274000; -1.101000;,
    -1.316000; 1.224000; -1.087000;,
    -1.990000; 1.224000; -1.087000;,
    -1.990000; 1.274000; -1.087000;,
    -1.316000; 1.274000; -1.087000;,
    -1.990000; 1.224000; -1.087000;,
    -1.316000; 1.224000; -1.087000;,
    -1.316000; 0.804000; -1.101000;,
    -1.316000; 0.754000; -1.101000;,
    -1.990000; 0.754000; -1.101000;,
    -1.990000; 0.804000; -1.101000;,
    -1.316000; 0.754000; -1.087000;,
    -1.990000; 0.754000; -1.087000;,
    -1.990000; 0.804000; -1.087000;,
    -1.316000; 0.804000; -1.087000;,
    -1.990000; 0.754000; -1.087000;,
    -1.316000; 0.754000; -1.087000;,
    -1.316000; 0.333000; 1.109000;,
    -1.316000; 0.383000; 1.109000;,
    -1.990000; 0.383000; 1.109000;,
    -1.990000; 0.333000; 1.109000;,
    -1.316000; 0.383000; 1.095000;,
    -1.990000; 0.383000; 1.095000;,
    -1.990000; 0.333000; 1.095000;,
    -1.316000; 0.333000; 1.095000;,
    -1.990000; 0.383000; 1.095000;,
    -1.316000; 0.383000; 1.095000;,
    -1.990000; 0.333000; -1.101000;,
    -1.990000; 0.383000; -1.101000;,
    -1.316000; 0.383000; -1.101000;,
    -1.316000; 0.333000; -1.101000;,
    -1.990000; 0.383000; -1.087000;,
    -1.316000; 0.383000; -1.087000;,
    -1.316000; 0.333000; -1.087000;,
    -1.990000; 0.333000; -1.087000;,
    -1.316000; 0.383000; -1.087000;,
    -1.990000; 0.383000; -1.087000;,
    2.978000; 0.200000; -0.337000;,
    2.978000; 0.200000; -0.490000;,
    2.978000; 1.532000; -0.490000;,
    2.978000; 1.532000; -0.337000;,
    2.978000; 1.532000; 0.338000;,
    2.978000; 1.532000; 0.491000;,
    2.978000; 0.200000; 0.491000;,
    2.978000; 0.200000; 0.338000;,
    2.898000; 0.200000; -0.490000;,
    2.898000; 1.532000; -0.490000;,
    2.898000; 1.532000; -0.337000;,
    2.898000; 0.200000; -0.337000;,
    2.898000; 1.532000; 0.491000;,
    2.898000; 0.200000; 0.491000;,
    2.898000; 0.200000; 0.338000;,
    2.898000; 1.532000; 0.338000;,
    2.963000; 1.158000; -0.358000;,
    2.963000; 1.268000; -0.358000;,
    2.963000; 1.268000; 0.381000;,
    2.963000; 1.158000; 0.381000;,
    2.897000; 1.268000; -0.358000;,
    2.897000; 1.268000; 0.381000;,
    2.897000; 1.158000; 0.381000;,
    2.897000; 1.158000; -0.358000;,
    0.006000; 0.000000; -0.489000;,
    -2.452000; 0.000000; -0.489000;,
    -2.452000; 0.000000; -0.642000;,
    0.006000; 0.000000; -0.642000;,
    -2.523000; 0.101000; -0.489000;,
    -2.452000; 0.000000; -0.489000;,
    0.006000; 0.000000; -0.489000;,
    0.002000; 0.101000; -0.489000;,
    2.951000; 0.101000; -0.642000;,
    2.951000; 0.101000; -0.489000;,
    2.877000; 0.000000; -0.489000;,
    2.877000; 0.000000; -0.642000;,
    2.951000; 0.101000; -0.642000;,
    2.877000; 0.000000; -0.642000;,
    0.006000; 0.000000; -0.642000;,
    0.002000; 0.101000; -0.642000;,
    -2.523000; 0.101000; -0.489000;,
    -2.523000; 0.101000; -0.642000;,
    -2.452000; 0.000000; -0.642000;,
    -2.452000; 0.000000; -0.489000;,
    0.006000; 0.000000; -0.489000;,
    0.006000; 0.000000; -0.642000;,
    2.877000; 0.000000; -0.642000;,
    2.877000; 0.000000; -0.489000;,
    2.877000; 0.000000; -0.489000;,
    2.951000; 0.101000; -0.489000;,
    -2.452000; 0.000000; -0.642000;,
    -2.523000; 0.101000; -0.642000;,
    0.006000; 0.000000; 0.636000;,
    -2.452000; 0.000000; 0.636000;,
    -2.452000; 0.000000; 0.483000;,
    0.006000; 0.000000; 0.483000;,
    -2.523000; 0.101000; 0.636000;,
    -2.452000; 0.000000; 0.636000;,
    0.006000; 0.000000; 0.636000;,
    0.002000; 0.101000; 0.636000;,
    2.951000; 0.101000; 0.483000;,
    2.951000; 0.101000; 0.636000;,
    2.877000; 0.000000; 0.636000;,
    2.877000; 0.000000; 0.483000;,
    2.951000; 0.101000; 0.483000;,
    2.877000; 0.000000; 0.483000;,
    0.006000; 0.000000; 0.483000;,
    0.002000; 0.101000; 0.483000;,
    -2.523000; 0.101000; 0.636000;,
    -2.523000; 0.101000; 0.483000;,
    -2.452000; 0.000000; 0.483000;,
    -2.452000; 0.000000; 0.636000;,
    0.006000; 0.000000; 0.636000;,
    0.006000; 0.000000; 0.483000;,
    2.877000; 0.000000; 0.483000;,
    2.877000; 0.000000; 0.636000;,
    2.877000; 0.000000; 0.636000;,
    2.951000; 0.101000; 0.636000;,
    -2.452000; 0.000000; 0.483000;,
    -2.523000; 0.101000; 0.483000;;
    147;
    4;0, 1, 2, 3;,
    4;4, 5, 6, 7;,
    4;8, 9, 10, 11;,
    4;12, 13, 14, 15;,
    4;16, 17, 18, 19;,
    4;20, 4, 7, 21;,
    4;22, 23, 9, 8;,
    4;24, 12, 15, 25;,
    4;26, 27, 17, 16;,
    4;28, 29, 20, 21;,
    4;30, 23, 22, 31;,
    4;32, 24, 25, 33;,
    4;34, 27, 26, 35;,
    4;36, 37, 38, 39;,
    4;40, 41, 42, 43;,
    4;44, 45, 46, 47;,
    4;48, 49, 50, 51;,
    4;52, 37, 36, 53;,
    4;54, 55, 41, 40;,
    4;56, 45, 44, 57;,
    4;58, 59, 49, 48;,
    4;60, 52, 53, 61;,
    4;62, 63, 55, 54;,
    4;64, 56, 57, 65;,
    4;66, 67, 59, 58;,
    4;68, 60, 61, 69;,
    4;70, 71, 72, 73;,
    4;74, 64, 65, 75;,
    4;76, 77, 78, 79;,
    4;28, 80, 81, 39;,
    4;30, 31, 43, 42;,
    4;33, 82, 83, 47;,
    4;34, 35, 51, 50;,
    4;84, 85, 86, 87;,
    4;7, 6, 88, 89;,
    4;15, 14, 90, 91;,
    4;92, 21, 7, 89;,
    4;93, 25, 15, 91;,
    4;28, 21, 92, 80;,
    4;33, 25, 93, 82;,
    4;36, 39, 81, 94;,
    4;44, 47, 83, 95;,
    4;53, 36, 94, 96;,
    4;57, 44, 95, 97;,
    4;98, 61, 53, 96;,
    4;99, 65, 57, 97;,
    4;69, 61, 98, 100;,
    4;75, 65, 99, 101;,
    4;28, 39, 38, 29;,
    4;33, 47, 46, 32;,
    4;102, 103, 104, 105;,
    4;106, 107, 108, 109;,
    4;110, 111, 112, 113;,
    4;114, 115, 116, 117;,
    4;118, 119, 120, 121;,
    4;122, 123, 124, 125;,
    4;104, 103, 126, 127;,
    4;102, 105, 128, 129;,
    4;108, 107, 130, 131;,
    4;106, 109, 132, 133;,
    4;112, 111, 134, 135;,
    4;110, 113, 136, 137;,
    4;116, 115, 138, 139;,
    4;114, 117, 140, 141;,
    4;120, 119, 142, 143;,
    4;118, 121, 144, 145;,
    4;124, 123, 146, 147;,
    4;122, 125, 148, 149;,
    4;150, 151, 152, 153;,
    4;154, 155, 156, 157;,
    4;158, 155, 154, 159;,
    4;152, 151, 160, 161;,
    4;162, 163, 164, 165;,
    4;166, 167, 168, 169;,
    4;156, 167, 166, 157;,
    4;164, 163, 150, 153;,
    4;170, 171, 172, 173;,
    4;172, 171, 174, 175;,
    4;170, 173, 176, 177;,
    4;177, 176, 178, 179;,
    4;180, 181, 182, 183;,
    4;182, 181, 184, 185;,
    4;180, 183, 186, 187;,
    4;187, 186, 188, 189;,
    4;155, 151, 150, 156;,
    4;151, 155, 158, 160;,
    4;167, 163, 162, 168;,
    4;163, 167, 156, 150;,
    4;190, 191, 192, 193;,
    4;194, 195, 196, 197;,
    4;198, 199, 200, 201;,
    4;202, 203, 204, 205;,
    4;206, 207, 208, 209;,
    4;210, 211, 212, 213;,
    4;192, 191, 214, 215;,
    4;190, 193, 216, 217;,
    4;196, 195, 218, 219;,
    4;194, 197, 220, 221;,
    4;200, 199, 222, 223;,
    4;198, 201, 224, 225;,
    4;204, 203, 226, 227;,
    4;202, 205, 228, 229;,
    4;208, 207, 230, 231;,
    4;206, 209, 232, 233;,
    4;212, 211, 234, 235;,
    4;210, 213, 236, 237;,
    4;238, 239, 240, 241;,
    4;240, 239, 242, 243;,
    4;238, 241, 244, 245;,
    4;245, 244, 246, 247;,
    4;248, 249, 250, 251;,
    4;250, 249, 252, 253;,
    4;248, 251, 254, 255;,
    4;255, 254, 256, 257;,
    4;258, 259, 260, 261;,
    4;260, 259, 262, 263;,
    4;258, 261, 264, 265;,
    4;265, 264, 266, 267;,
    4;268, 269, 270, 271;,
    4;270, 269, 272, 273;,
    4;268, 271, 274, 275;,
    4;275, 274, 276, 277;,
    4;278, 279, 280, 281;,
    4;282, 283, 284, 285;,
    4;280, 279, 286, 287;,
    4;278, 281, 288, 289;,
    4;284, 283, 290, 291;,
    4;282, 285, 292, 293;,
    4;294, 295, 296, 297;,
    4;296, 295, 298, 299;,
    4;294, 297, 300, 301;,
    4;302, 303, 304, 305;,
    4;306, 307, 308, 309;,
    4;310, 311, 312, 313;,
    4;314, 315, 316, 317;,
    4;318, 319, 320, 321;,
    4;322, 323, 324, 325;,
    4;309, 308, 326, 327;,
    4;317, 316, 328, 329;,
    4;330, 331, 332, 333;,
    4;334, 335, 336, 337;,
    4;338, 339, 340, 341;,
    4;342, 343, 344, 345;,
    4;346, 347, 348, 349;,
    4;350, 351, 352, 353;,
    4;337, 336, 354, 355;,
    4;345, 344, 356, 357;;

   MeshNormals {
    358;
    0.000000; -1.000000; 0.000000;,
    0.000000; -1.000000; 0.000000;,
    0.000000; -1.000000; 0.000000;,
    0.000000; -1.000000; 0.000000;,
    0.000000; 0.707107; 0.707107;,
    0.000000; 0.000000; 1.000000;,
    0.000000; 0.000000; 1.000000;,
    0.000000; 0.707107; 0.707107;,
    0.707107; 0.707107; 0.000000;,
    0.707107; 0.707107; 0.000000;,
    1.000000; 0.000000; 0.000000;,
    1.000000; 0.000000; 0.000000;,
    0.000000; 0.707107; -0.707107;,
    0.000000; 0.000000; -1.000000;,
    0.000000; 0.000000; -1.000000;,
    0.000000; 0.707107; -0.707107;,
    -0.707107; 0.707107; 0.000000;,
    -0.707107; 0.707107; 0.000000;,
    -1.000000; 0.000000; 0.000000;,
    -1.000000; 0.000000; 0.000000;,
    0.000000; 0.707107; 0.707107;,
    0.000000; 0.707107; 0.707107;,
    0.707107; 0.707107; 0.000000;,
    0.707107; 0.707107; 0.000000;,
    0.000000; 0.707107; -0.707107;,
    0.000000; 0.707107; -0.707107;,
    -0.878601; 0.477557; 0.000000;,
    -0.878601; 0.477557; 0.000000;,
    0.000000; 0.000000; 1.000000;,
    0.000000; 0.000000; 1.000000;,
    1.000000; 0.000000; 0.000000;,
    1.000000; 0.000000; 0.000000;,
    0.000000; 0.000000; -1.000000;,
    0.000000; 0.000000; -1.000000;,
    -0.958948; -0.283581; 0.000000;,
    -0.958948; -0.283581; 0.000000;,
    0.000000; -0.707107; 0.707107;,
    0.000000; -0.707107; 0.707107;,
    0.000000; -0.707107; 0.707107;,
    0.000000; -0.707107; 0.707107;,
    0.707107; -0.707107; 0.000000;,
    0.707107; -0.707107; 0.000000;,
    0.707107; -0.707107; 0.000000;,
    0.707107; -0.707107; 0.000000;,
    0.000000; -0.707107; -0.707107;,
    0.000000; -0.707107; -0.707107;,
    0.000000; -0.707107; -0.707107;,
    0.000000; -0.707107; -0.707107;,
    -0.707107; -0.707107; 0.000000;,
    -0.707107; -0.707107; 0.000000;,
    -0.707107; -0.707107; 0.000000;,
    -0.707107; -0.707107; 0.000000;,
    0.000000; 0.707107; 0.707107;,
    0.000000; 0.707107; 0.707107;,
    0.707107; 0.707107; 0.000000;,
    0.707107; 0.707107; 0.000000;,
    0.000000; 0.707107; -0.707107;,
    0.000000; 0.707107; -0.707107;,
    -0.707107; 0.707107; 0.000000;,
    -0.707107; 0.707107; 0.000000;,
    0.000000; 0.707107; -0.707107;,
    0.000000; 0.707107; -0.707107;,
    0.000000; 1.000000; 0.000000;,
    0.000000; 1.000000; 0.000000;,
    0.000000; 0.707107; 0.707107;,
    0.000000; 0.707107; 0.707107;,
    0.000000; 1.000000; 0.000000;,
    0.000000; 1.000000; 0.000000;,
    0.000000; 0.000000; -1.000000;,
    0.000000; 0.000000; -1.000000;,
    -1.000000; 0.000000; 0.000000;,
    -1.000000; 0.000000; 0.000000;,
    -1.000000; 0.000000; 0.000000;,
    -1.000000; 0.000000; 0.000000;,
    0.000000; 0.000000; 1.000000;,
    0.000000; 0.000000; 1.000000;,
    1.000000; 0.000000; 0.000000;,
    1.000000; 0.000000; 0.000000;,
    1.000000; 0.000000; 0.000000;,
    1.000000; 0.000000; 0.000000;,
    0.000000; 0.000000; 1.000000;,
    0.000000; -0.707107; 0.707107;,
    0.000000; 0.000000; -1.000000;,
    0.000000; -0.707107; -0.707107;,
    0.000000; -1.000000; 0.000000;,
    0.000000; -1.000000; 0.000000;,
    0.000000; -1.000000; 0.000000;,
    0.000000; -1.000000; 0.000000;,
    0.000000; 0.000000; 1.000000;,
    0.000000; 0.707107; 0.707107;,
    0.000000; 0.000000; -1.000000;,
    0.000000; 0.707107; -0.707107;,
    0.000000; 0.707107; 0.707107;,
    0.000000; 0.707107; -0.707107;,
    0.000000; -0.707107; 0.707107;,
    0.000000; -0.707107; -0.707107;,
    0.000000; 0.707107; 0.707107;,
    0.000000; 0.707107; -0.707107;,
    0.000000; 0.707107; -0.707107;,
    0.000000; 0.707107; 0.707107;,
    0.000000; 0.000000; -1.000000;,
    0.000000; 0.000000; 1.000000;,
    -0.707107; 0.000000; 0.707107;,
    0.707107; 0.000000; 0.707107;,
    0.707107; 0.000000; 0.707107;,
    -0.707107; 0.000000; 0.707107;,
    -0.707107; 0.000000; 0.707107;,
    0.707107; 0.000000; 0.707107;,
    0.707107; 0.000000; 0.707107;,
    -0.707107; 0.000000; 0.707107;,
    -0.707107; 0.000000; 0.707107;,
    0.707107; 0.000000; 0.707107;,
    0.707107; 0.000000; 0.707107;,
    -0.707107; 0.000000; 0.707107;,
    0.707107; 0.000000; 0.707107;,
    -0.707107; 0.000000; 0.707107;,
    -0.707107; 0.000000; 0.707107;,
    0.707107; 0.000000; 0.707107;,
    0.707107; 0.000000; 0.707107;,
    -0.707107; 0.000000; 0.707107;,
    -0.707107; 0.000000; 0.707107;,
    0.707107; 0.000000; 0.707107;,
    0.707107; 0.000000; 0.707107;,
    -0.707107; 0.000000; 0.707107;,
    -0.707107; 0.000000; 0.707107;,
    0.707107; 0.000000; 0.707107;,
    1.000000; 0.000000; 0.000000;,
    1.000000; 0.000000; 0.000000;,
    -1.000000; 0.000000; 0.000000;,
    -1.000000; 0.000000; 0.000000;,
    1.000000; 0.000000; 0.000000;,
    1.000000; 0.000000; 0.000000;,
    -1.000000; 0.000000; 0.000000;,
    -1.000000; 0.000000; 0.000000;,
    1.000000; 0.000000; 0.000000;,
    1.000000; 0.000000; 0.000000;,
    -1.000000; 0.000000; 0.000000;,
    -1.000000; 0.000000; 0.000000;,
    -1.000000; 0.000000; 0.000000;,
    -1.000000; 0.000000; 0.000000;,
    1.000000; 0.000000; 0.000000;,
    1.000000; 0.000000; 0.000000;,
    -1.000000; 0.000000; 0.000000;,
    -1.000000; 0.000000; 0.000000;,
    1.000000; 0.000000; 0.000000;,
    1.000000; 0.000000; 0.000000;,
    -1.000000; 0.000000; 0.000000;,
    -1.000000; 0.000000; 0.000000;,
    1.000000; 0.000000; 0.000000;,
    1.000000; 0.000000; 0.000000;,
    -0.000728; 0.986534; 0.163555;,
    -0.087838; 0.983795; 0.156304;,
    -0.047692; 0.950056; 0.308414;,
    -0.005880; 0.963936; 0.266068;,
    -0.069869; 0.979395; -0.189481;,
    -0.098306; 0.990597; -0.095150;,
    0.018897; 0.993420; -0.112962;,
    0.032749; 0.959129; -0.281066;,
    -0.150823; 0.985331; -0.079849;,
    -0.129837; 0.978678; -0.159157;,
    -0.114634; 0.981964; 0.150350;,
    -0.055526; 0.953316; 0.296825;,
    0.147125; 0.984160; 0.098916;,
    0.103142; 0.985893; 0.131822;,
    0.076072; 0.986221; 0.146908;,
    0.123538; 0.988961; 0.081826;,
    0.081693; 0.953561; -0.289911;,
    0.108182; 0.990188; -0.088450;,
    0.131604; 0.989375; -0.061785;,
    0.088253; 0.967386; -0.237437;,
    0.000000; 0.707107; 0.707107;,
    0.000000; -0.707107; 0.707107;,
    0.000000; -0.707107; 0.707107;,
    0.000000; 0.707107; 0.707107;,
    0.000000; -1.000000; 0.000000;,
    0.000000; -1.000000; 0.000000;,
    0.000000; 0.707107; -0.707107;,
    0.000000; 0.707107; -0.707107;,
    0.000000; 0.000000; -1.000000;,
    0.000000; 0.000000; -1.000000;,
    0.000000; 0.707107; 0.707107;,
    0.000000; -0.707107; 0.707107;,
    0.000000; -0.707107; 0.707107;,
    0.000000; 0.707107; 0.707107;,
    0.000000; -1.000000; 0.000000;,
    0.000000; -1.000000; 0.000000;,
    0.000000; 0.707107; -0.707107;,
    0.000000; 0.707107; -0.707107;,
    0.000000; 0.000000; -1.000000;,
    0.000000; 0.000000; -1.000000;,
    0.707107; 0.000000; -0.707107;,
    -0.707107; 0.000000; -0.707107;,
    -0.707107; 0.000000; -0.707107;,
    0.707107; 0.000000; -0.707107;,
    0.707107; 0.000000; -0.707107;,
    -0.707107; 0.000000; -0.707107;,
    -0.707107; 0.000000; -0.707107;,
    0.707107; 0.000000; -0.707107;,
    0.707107; 0.000000; -0.707107;,
    -0.707107; 0.000000; -0.707107;,
    -0.707107; 0.000000; -0.707107;,
    0.707107; 0.000000; -0.707107;,
    -0.707107; 0.000000; -0.707107;,
    0.707107; 0.000000; -0.707107;,
    0.707107; 0.000000; -0.707107;,
    -0.707107; 0.000000; -0.707107;,
    -0.707107; 0.000000; -0.707107;,
    0.707107; 0.000000; -0.707107;,
    0.707107; 0.000000; -0.707107;,
    -0.707107; 0.000000; -0.707107;,
    -0.707107; 0.000000; -0.707107;,
    0.707107; 0.000000; -0.707107;,
    0.707107; 0.000000; -0.707107;,
    -0.707107; 0.000000; -0.707107;,
    -1.000000; 0.000000; 0.000000;,
    -1.000000; 0.000000; 0.000000;,
    1.000000; 0.000000; 0.000000;,
    1.000000; 0.000000; 0.000000;,
    -1.000000; 0.000000; 0.000000;,
    -1.000000; 0.000000; 0.000000;,
    1.000000; 0.000000; 0.000000;,
    1.000000; 0.000000; 0.000000;,
    -1.000000; 0.000000; 0.000000;,
    -1.000000; 0.000000; 0.000000;,
    1.000000; 0.000000; 0.000000;,
    1.000000; 0.000000; 0.000000;,
    1.000000; 0.000000; 0.000000;,
    1.000000; 0.000000; 0.000000;,
    -1.000000; 0.000000; 0.000000;,
    -1.000000; 0.000000; 0.000000;,
    1.000000; 0.000000; 0.000000;,
    1.000000; 0.000000; 0.000000;,
    -1.000000; 0.000000; 0.000000;,
    -1.000000; 0.000000; 0.000000;,
    1.000000; 0.000000; 0.000000;,
    1.000000; 0.000000; 0.000000;,
    -1.000000; 0.000000; 0.000000;,
    -1.000000; 0.000000; 0.000000;,
    0.000000; 0.707107; -0.707107;,
    0.000000; -0.707107; -0.707107;,
    0.000000; -0.707107; -0.707107;,
    0.000000; 0.707107; -0.707107;,
    0.000000; -1.000000; 0.000000;,
    0.000000; -1.000000; 0.000000;,
    0.000000; 0.707107; 0.707107;,
    0.000000; 0.707107; 0.707107;,
    0.000000; 0.000000; 1.000000;,
    0.000000; 0.000000; 1.000000;,
    0.000000; 0.707107; -0.707107;,
    0.000000; -0.707107; -0.707107;,
    0.000000; -0.707107; -0.707107;,
    0.000000; 0.707107; -0.707107;,
    0.000000; -1.000000; 0.000000;,
    0.000000; -1.000000; 0.000000;,
    0.000000; 0.707107; 0.707107;,
    0.000000; 0.707107; 0.707107;,
    0.000000; 0.000000; 1.000000;,
    0.000000; 0.000000; 1.000000;,
    0.000000; -0.707107; 0.707107;,
    0.000000; 0.707107; 0.707107;,
    0.000000; 0.707107; 0.707107;,
    0.000000; -0.707107; 0.707107;,
    0.000000; 1.000000; 0.000000;,
    0.000000; 1.000000; 0.000000;,
    0.000000; -0.707107; -0.707107;,
    0.000000; -0.707107; -0.707107;,
    0.000000; 0.000000; -1.000000;,
    0.000000; 0.000000; -1.000000;,
    0.000000; -0.707107; -0.707107;,
    0.000000; 0.707107; -0.707107;,
    0.000000; 0.707107; -0.707107;,
    0.000000; -0.707107; -0.707107;,
    0.000000; 1.000000; 0.000000;,
    0.000000; 1.000000; 0.000000;,
    0.000000; -0.707107; 0.707107;,
    0.000000; -0.707107; 0.707107;,
    0.000000; 0.000000; 1.000000;,
    0.000000; 0.000000; 1.000000;,
    0.707107; 0.000000; 0.707107;,
    0.707107; 0.000000; -0.707107;,
    0.707107; 0.000000; -0.707107;,
    0.707107; 0.000000; 0.707107;,
    0.707107; 0.000000; -0.707107;,
    0.707107; 0.000000; 0.707107;,
    0.707107; 0.000000; 0.707107;,
    0.707107; 0.000000; -0.707107;,
    0.000000; 0.000000; -1.000000;,
    0.000000; 0.000000; -1.000000;,
    0.000000; 0.000000; 1.000000;,
    0.000000; 0.000000; 1.000000;,
    0.000000; 0.000000; 1.000000;,
    0.000000; 0.000000; 1.000000;,
    0.000000; 0.000000; -1.000000;,
    0.000000; 0.000000; -1.000000;,
    0.707107; -0.707107; 0.000000;,
    0.707107; 0.707107; 0.000000;,
    0.707107; 0.707107; 0.000000;,
    0.707107; -0.707107; 0.000000;,
    0.000000; 1.000000; 0.000000;,
    0.000000; 1.000000; 0.000000;,
    0.000000; -1.000000; 0.000000;,
    0.000000; -1.000000; 0.000000;,
    0.000000; -1.000000; 0.000000;,
    0.000000; -1.000000; 0.000000;,
    0.000000; -1.000000; 0.000000;,
    0.000000; -1.000000; 0.000000;,
    0.000000; 0.000000; 1.000000;,
    0.000000; 0.000000; 1.000000;,
    0.000000; 0.000000; 1.000000;,
    0.000000; 0.000000; 1.000000;,
    0.806659; -0.591017; 0.000000;,
    0.806659; -0.591017; 0.000000;,
    0.806659; -0.591017; 0.000000;,
    0.806659; -0.591017; 0.000000;,
    0.000000; 0.000000; -1.000000;,
    0.000000; 0.000000; -1.000000;,
    0.000000; 0.000000; -1.000000;,
    0.000000; 0.000000; -1.000000;,
    -0.818088; -0.575093; 0.000000;,
    -0.818088; -0.575093; 0.000000;,
    -0.818088; -0.575093; 0.000000;,
    -0.818088; -0.575093; 0.000000;,
    0.000000; -1.000000; 0.000000;,
    0.000000; -1.000000; 0.000000;,
    0.000000; -1.000000; 0.000000;,
    0.000000; -1.000000; 0.000000;,
    0.000000; 0.000000; 1.000000;,
    0.000000; 0.000000; 1.000000;,
    0.000000; 0.000000; -1.000000;,
    0.000000; 0.000000; -1.000000;,
    0.000000; -1.000000; 0.000000;,
    0.000000; -1.000000; 0.000000;,
    0.000000; -1.000000; 0.000000;,
    0.000000; -1.000000; 0.000000;,
    0.000000; 0.000000; 1.000000;,
    0.000000; 0.000000; 1.000000;,
    0.000000; 0.000000; 1.000000;,
    0.000000; 0.000000; 1.000000;,
    0.806659; -0.591017; 0.000000;,
    0.806659; -0.591017; 0.000000;,
    0.806659; -0.591017; 0.000000;,
    0.806659; -0.591017; 0.000000;,
    0.000000; 0.000000; -1.000000;,
    0.000000; 0.000000; -1.000000;,
    0.000000; 0.000000; -1.000000;,
    0.000000; 0.000000; -1.000000;,
    -0.818088; -0.575093; 0.000000;,
    -0.818088; -0.575093; 0.000000;,
    -0.818088; -0.575093; 0.000000;,
    -0.818088; -0.575093; 0.000000;,
    0.000000; -1.000000; 0.000000;,
    0.000000; -1.000000; 0.000000;,
    0.000000; -1.000000; 0.000000;,
    0.000000; -1.000000; 0.000000;,
    0.000000; 0.000000; 1.000000;,
    0.000000; 0.000000; 1.000000;,
    0.000000; 0.000000; -1.000000;,
    0.000000; 0.000000; -1.000000;;
    147;
    4;0, 1, 2, 3;,
    4;4, 5, 6, 7;,
    4;8, 9, 10, 11;,
    4;12, 13, 14, 15;,
    4;16, 17, 18, 19;,
    4;20, 4, 7, 21;,
    4;22, 23, 9, 8;,
    4;24, 12, 15, 25;,
    4;26, 27, 17, 16;,
    4;28, 29, 20, 21;,
    4;30, 23, 22, 31;,
    4;32, 24, 25, 33;,
    4;34, 27, 26, 35;,
    4;36, 37, 38, 39;,
    4;40, 41, 42, 43;,
    4;44, 45, 46, 47;,
    4;48, 49, 50, 51;,
    4;52, 37, 36, 53;,
    4;54, 55, 41, 40;,
    4;56, 45, 44, 57;,
    4;58, 59, 49, 48;,
    4;60, 52, 53, 61;,
    4;62, 63, 55, 54;,
    4;64, 56, 57, 65;,
    4;66, 67, 59, 58;,
    4;68, 60, 61, 69;,
    4;70, 71, 72, 73;,
    4;74, 64, 65, 75;,
    4;76, 77, 78, 79;,
    4;28, 80, 81, 39;,
    4;30, 31, 43, 42;,
    4;33, 82, 83, 47;,
    4;34, 35, 51, 50;,
    4;84, 85, 86, 87;,
    4;7, 6, 88, 89;,
    4;15, 14, 90, 91;,
    4;92, 21, 7, 89;,
    4;93, 25, 15, 91;,
    4;28, 21, 92, 80;,
    4;33, 25, 93, 82;,
    4;36, 39, 81, 94;,
    4;44, 47, 83, 95;,
    4;53, 36, 94, 96;,
    4;57, 44, 95, 97;,
    4;98, 61, 53, 96;,
    4;99, 65, 57, 97;,
    4;69, 61, 98, 100;,
    4;75, 65, 99, 101;,
    4;28, 39, 38, 29;,
    4;33, 47, 46, 32;,
    4;102, 103, 104, 105;,
    4;106, 107, 108, 109;,
    4;110, 111, 112, 113;,
    4;114, 115, 116, 117;,
    4;118, 119, 120, 121;,
    4;122, 123, 124, 125;,
    4;104, 103, 126, 127;,
    4;102, 105, 128, 129;,
    4;108, 107, 130, 131;,
    4;106, 109, 132, 133;,
    4;112, 111, 134, 135;,
    4;110, 113, 136, 137;,
    4;116, 115, 138, 139;,
    4;114, 117, 140, 141;,
    4;120, 119, 142, 143;,
    4;118, 121, 144, 145;,
    4;124, 123, 146, 147;,
    4;122, 125, 148, 149;,
    4;150, 151, 152, 153;,
    4;154, 155, 156, 157;,
    4;158, 155, 154, 159;,
    4;152, 151, 160, 161;,
    4;162, 163, 164, 165;,
    4;166, 167, 168, 169;,
    4;156, 167, 166, 157;,
    4;164, 163, 150, 153;,
    4;170, 171, 172, 173;,
    4;172, 171, 174, 175;,
    4;170, 173, 176, 177;,
    4;177, 176, 178, 179;,
    4;180, 181, 182, 183;,
    4;182, 181, 184, 185;,
    4;180, 183, 186, 187;,
    4;187, 186, 188, 189;,
    4;155, 151, 150, 156;,
    4;151, 155, 158, 160;,
    4;167, 163, 162, 168;,
    4;163, 167, 156, 150;,
    4;190, 191, 192, 193;,
    4;194, 195, 196, 197;,
    4;198, 199, 200, 201;,
    4;202, 203, 204, 205;,
    4;206, 207, 208, 209;,
    4;210, 211, 212, 213;,
    4;192, 191, 214, 215;,
    4;190, 193, 216, 217;,
    4;196, 195, 218, 219;,
    4;194, 197, 220, 221;,
    4;200, 199, 222, 223;,
    4;198, 201, 224, 225;,
    4;204, 203, 226, 227;,
    4;202, 205, 228, 229;,
    4;208, 207, 230, 231;,
    4;206, 209, 232, 233;,
    4;212, 211, 234, 235;,
    4;210, 213, 236, 237;,
    4;238, 239, 240, 241;,
    4;240, 239, 242, 243;,
    4;238, 241, 244, 245;,
    4;245, 244, 246, 247;,
    4;248, 249, 250, 251;,
    4;250, 249, 252, 253;,
    4;248, 251, 254, 255;,
    4;255, 254, 256, 257;,
    4;258, 259, 260, 261;,
    4;260, 259, 262, 263;,
    4;258, 261, 264, 265;,
    4;265, 264, 266, 267;,
    4;268, 269, 270, 271;,
    4;270, 269, 272, 273;,
    4;268, 271, 274, 275;,
    4;275, 274, 276, 277;,
    4;278, 279, 280, 281;,
    4;282, 283, 284, 285;,
    4;280, 279, 286, 287;,
    4;278, 281, 288, 289;,
    4;284, 283, 290, 291;,
    4;282, 285, 292, 293;,
    4;294, 295, 296, 297;,
    4;296, 295, 298, 299;,
    4;294, 297, 300, 301;,
    4;302, 303, 304, 305;,
    4;306, 307, 308, 309;,
    4;310, 311, 312, 313;,
    4;314, 315, 316, 317;,
    4;318, 319, 320, 321;,
    4;322, 323, 324, 325;,
    4;309, 308, 326, 327;,
    4;317, 316, 328, 329;,
    4;330, 331, 332, 333;,
    4;334, 335, 336, 337;,
    4;338, 339, 340, 341;,
    4;342, 343, 344, 345;,
    4;346, 347, 348, 349;,
    4;350, 351, 352, 353;,
    4;337, 336, 354, 355;,
    4;345, 344, 356, 357;;
   }

   MeshTextureCoords {
    358;
    0.970000; 0.585000;,
    0.603000; 0.585000;,
    0.603000; 0.391000;,
    0.970000; 0.391000;,
    0.072000; 0.981000;,
    0.072000; 0.998000;,
    0.500000; 0.998000;,
    0.500000; 0.981000;,
    0.826000; 0.981000;,
    0.454000; 0.981000;,
    0.454000; 0.998000;,
    0.826000; 0.998000;,
    0.999000; 0.981000;,
    0.999000; 0.998000;,
    0.500000; 0.998000;,
    0.500000; 0.981000;,
    0.005000; 0.569000;,
    0.388000; 0.569000;,
    0.388000; 0.586000;,
    0.005000; 0.586000;,
    0.089000; 0.965000;,
    0.500000; 0.965000;,
    0.810000; 0.965000;,
    0.470000; 0.965000;,
    0.983000; 0.965000;,
    0.500000; 0.965000;,
    0.021000; 0.553000;,
    0.371000; 0.553000;,
    0.500000; 0.854000;,
    0.017000; 0.854000;,
    0.470000; 0.854000;,
    0.810000; 0.854000;,
    0.983000; 0.854000;,
    0.500000; 0.854000;,
    0.371000; 0.442000;,
    0.021000; 0.442000;,
    0.500000; 0.723000;,
    0.001000; 0.723000;,
    0.017000; 0.743000;,
    0.500000; 0.743000;,
    0.826000; 0.723000;,
    0.454000; 0.723000;,
    0.470000; 0.743000;,
    0.810000; 0.743000;,
    0.500000; 0.723000;,
    0.999000; 0.723000;,
    0.983000; 0.743000;,
    0.500000; 0.743000;,
    0.005000; 0.311000;,
    0.388000; 0.311000;,
    0.371000; 0.331000;,
    0.021000; 0.331000;,
    0.001000; 0.704000;,
    0.500000; 0.704000;,
    0.826000; 0.704000;,
    0.454000; 0.704000;,
    0.999000; 0.704000;,
    0.500000; 0.704000;,
    0.005000; 0.292000;,
    0.388000; 0.292000;,
    0.026000; 0.681000;,
    0.500000; 0.681000;,
    0.802000; 0.681000;,
    0.478000; 0.681000;,
    0.974000; 0.681000;,
    0.500000; 0.681000;,
    0.030000; 0.269000;,
    0.363000; 0.269000;,
    0.026000; 0.594000;,
    0.500000; 0.594000;,
    0.500000; 0.594000;,
    0.500000; 0.681000;,
    0.168000; 0.681000;,
    0.168000; 0.594000;,
    0.974000; 0.593000;,
    0.500000; 0.593000;,
    0.168000; 0.594000;,
    0.168000; 0.681000;,
    0.500000; 0.681000;,
    0.500000; 0.594000;,
    0.983000; 0.854000;,
    0.983000; 0.743000;,
    0.017000; 0.854000;,
    0.017000; 0.743000;,
    0.543000; 0.585000;,
    0.543000; 0.391000;,
    0.972000; 0.391000;,
    0.972000; 0.585000;,
    0.999000; 0.998000;,
    0.999000; 0.981000;,
    0.072000; 0.998000;,
    0.072000; 0.981000;,
    0.983000; 0.965000;,
    0.089000; 0.965000;,
    0.999000; 0.723000;,
    0.001000; 0.723000;,
    0.999000; 0.704000;,
    0.001000; 0.704000;,
    0.974000; 0.681000;,
    0.026000; 0.681000;,
    0.974000; 0.594000;,
    0.026000; 0.593000;,
    0.019000; 0.256000;,
    0.049000; 0.256000;,
    0.049000; 0.034000;,
    0.019000; 0.034000;,
    0.079000; 0.256000;,
    0.109000; 0.256000;,
    0.109000; 0.034000;,
    0.079000; 0.034000;,
    0.137000; 0.256000;,
    0.167000; 0.256000;,
    0.167000; 0.034000;,
    0.137000; 0.034000;,
    0.343000; 0.034000;,
    0.313000; 0.034000;,
    0.313000; 0.256000;,
    0.343000; 0.256000;,
    0.285000; 0.034000;,
    0.255000; 0.034000;,
    0.255000; 0.256000;,
    0.285000; 0.256000;,
    0.226000; 0.034000;,
    0.196000; 0.034000;,
    0.196000; 0.256000;,
    0.226000; 0.256000;,
    0.063000; 0.256000;,
    0.063000; 0.034000;,
    0.006000; 0.034000;,
    0.006000; 0.256000;,
    0.122000; 0.256000;,
    0.122000; 0.034000;,
    0.066000; 0.034000;,
    0.066000; 0.256000;,
    0.180000; 0.256000;,
    0.180000; 0.034000;,
    0.124000; 0.034000;,
    0.124000; 0.256000;,
    0.300000; 0.034000;,
    0.300000; 0.256000;,
    0.356000; 0.256000;,
    0.356000; 0.034000;,
    0.241000; 0.034000;,
    0.241000; 0.256000;,
    0.298000; 0.256000;,
    0.298000; 0.034000;,
    0.182000; 0.034000;,
    0.182000; 0.256000;,
    0.239000; 0.256000;,
    0.239000; 0.034000;,
    0.995000; 0.245000;,
    0.724000; 0.245000;,
    0.724000; 0.380000;,
    0.995000; 0.380000;,
    0.724000; 0.003000;,
    0.724000; 0.137000;,
    0.995000; 0.138000;,
    0.995000; 0.003000;,
    0.455000; 0.135000;,
    0.455000; 0.003000;,
    0.455000; 0.248000;,
    0.455000; 0.380000;,
    0.458000; 0.248000;,
    0.727000; 0.245000;,
    0.727000; 0.380000;,
    0.458000; 0.380000;,
    0.727000; 0.003000;,
    0.727000; 0.137000;,
    0.458000; 0.135000;,
    0.458000; 0.003000;,
    0.005000; 0.012000;,
    0.005000; 0.020000;,
    0.185000; 0.020000;,
    0.185000; 0.012000;,
    0.005000; 0.023000;,
    0.185000; 0.023000;,
    0.185000; 0.009000;,
    0.005000; 0.009000;,
    0.185000; 0.001000;,
    0.005000; 0.001000;,
    0.187000; 0.012000;,
    0.187000; 0.020000;,
    0.368000; 0.020000;,
    0.368000; 0.012000;,
    0.187000; 0.023000;,
    0.368000; 0.023000;,
    0.368000; 0.009000;,
    0.187000; 0.009000;,
    0.368000; 0.001000;,
    0.187000; 0.001000;,
    0.019000; 0.256000;,
    0.049000; 0.256000;,
    0.049000; 0.034000;,
    0.019000; 0.034000;,
    0.079000; 0.256000;,
    0.109000; 0.256000;,
    0.109000; 0.034000;,
    0.079000; 0.034000;,
    0.137000; 0.256000;,
    0.167000; 0.256000;,
    0.167000; 0.034000;,
    0.137000; 0.034000;,
    0.343000; 0.034000;,
    0.313000; 0.034000;,
    0.313000; 0.256000;,
    0.343000; 0.256000;,
    0.285000; 0.034000;,
    0.255000; 0.034000;,
    0.255000; 0.256000;,
    0.285000; 0.256000;,
    0.226000; 0.034000;,
    0.196000; 0.034000;,
    0.196000; 0.256000;,
    0.226000; 0.256000;,
    0.063000; 0.256000;,
    0.063000; 0.034000;,
    0.006000; 0.034000;,
    0.006000; 0.256000;,
    0.122000; 0.256000;,
    0.122000; 0.034000;,
    0.066000; 0.034000;,
    0.066000; 0.256000;,
    0.180000; 0.256000;,
    0.180000; 0.034000;,
    0.124000; 0.034000;,
    0.124000; 0.256000;,
    0.300000; 0.034000;,
    0.300000; 0.256000;,
    0.356000; 0.256000;,
    0.356000; 0.034000;,
    0.241000; 0.034000;,
    0.241000; 0.256000;,
    0.298000; 0.256000;,
    0.298000; 0.034000;,
    0.182000; 0.034000;,
    0.182000; 0.256000;,
    0.239000; 0.256000;,
    0.239000; 0.034000;,
    0.005000; 0.012000;,
    0.005000; 0.020000;,
    0.185000; 0.020000;,
    0.185000; 0.012000;,
    0.005000; 0.023000;,
    0.185000; 0.023000;,
    0.185000; 0.009000;,
    0.005000; 0.009000;,
    0.185000; 0.001000;,
    0.005000; 0.001000;,
    0.187000; 0.012000;,
    0.187000; 0.020000;,
    0.368000; 0.020000;,
    0.368000; 0.012000;,
    0.187000; 0.023000;,
    0.368000; 0.023000;,
    0.368000; 0.009000;,
    0.187000; 0.009000;,
    0.368000; 0.001000;,
    0.187000; 0.001000;,
    0.005000; 0.012000;,
    0.005000; 0.020000;,
    0.185000; 0.020000;,
    0.185000; 0.012000;,
    0.005000; 0.023000;,
    0.185000; 0.023000;,
    0.185000; 0.009000;,
    0.005000; 0.009000;,
    0.185000; 0.001000;,
    0.005000; 0.001000;,
    0.005000; 0.012000;,
    0.005000; 0.020000;,
    0.185000; 0.020000;,
    0.185000; 0.012000;,
    0.005000; 0.023000;,
    0.185000; 0.023000;,
    0.185000; 0.009000;,
    0.005000; 0.009000;,
    0.185000; 0.001000;,
    0.005000; 0.001000;,
    0.137000; 0.256000;,
    0.167000; 0.256000;,
    0.167000; 0.034000;,
    0.137000; 0.034000;,
    0.226000; 0.034000;,
    0.196000; 0.034000;,
    0.196000; 0.256000;,
    0.226000; 0.256000;,
    0.180000; 0.256000;,
    0.180000; 0.034000;,
    0.124000; 0.034000;,
    0.124000; 0.256000;,
    0.182000; 0.034000;,
    0.182000; 0.256000;,
    0.239000; 0.256000;,
    0.239000; 0.034000;,
    0.079000; 0.256000;,
    0.109000; 0.256000;,
    0.109000; 0.034000;,
    0.079000; 0.034000;,
    0.122000; 0.256000;,
    0.122000; 0.034000;,
    0.066000; 0.034000;,
    0.066000; 0.256000;,
    0.970000; 0.505000;,
    0.603000; 0.505000;,
    0.603000; 0.471000;,
    0.970000; 0.471000;,
    0.072000; 0.981000;,
    0.072000; 0.998000;,
    0.500000; 0.998000;,
    0.500000; 0.981000;,
    0.461000; 0.981000;,
    0.422000; 0.981000;,
    0.422000; 0.998000;,
    0.461000; 0.998000;,
    0.999000; 0.981000;,
    0.999000; 0.998000;,
    0.500000; 0.998000;,
    0.500000; 0.981000;,
    0.421000; 0.981000;,
    0.461000; 0.981000;,
    0.461000; 0.998000;,
    0.421000; 0.998000;,
    0.543000; 0.505000;,
    0.543000; 0.471000;,
    0.972000; 0.471000;,
    0.972000; 0.505000;,
    0.999000; 0.998000;,
    0.999000; 0.981000;,
    0.072000; 0.998000;,
    0.072000; 0.981000;,
    0.970000; 0.505000;,
    0.603000; 0.505000;,
    0.603000; 0.471000;,
    0.970000; 0.471000;,
    0.072000; 0.981000;,
    0.072000; 0.998000;,
    0.500000; 0.998000;,
    0.500000; 0.981000;,
    0.461000; 0.981000;,
    0.422000; 0.981000;,
    0.422000; 0.998000;,
    0.461000; 0.998000;,
    0.999000; 0.981000;,
    0.999000; 0.998000;,
    0.500000; 0.998000;,
    0.500000; 0.981000;,
    0.421000; 0.981000;,
    0.461000; 0.981000;,
    0.461000; 0.998000;,
    0.421000; 0.998000;,
    0.543000; 0.505000;,
    0.543000; 0.471000;,
    0.972000; 0.471000;,
    0.972000; 0.505000;,
    0.999000; 0.998000;,
    0.999000; 0.981000;,
    0.072000; 0.998000;,
    0.072000; 0.981000;;
   }

   FVFData {
    258;
    716;
    0,
    1065353216,
    0,
    1065353216,
    0,
    1065353216,
    0,
    1065353216,
    0,
    1065353216,
    0,
    1065353216,
    0,
    1065353216,
    0,
    1065353216,
    0,
    1065353216,
    0,
    1065353216,
    0,
    1065353216,
    0,
    1065353216,
    0,
    1065353216,
    0,
    1065353216,
    0,
    1065353216,
    0,
    1065353216,
    0,
    1065353216,
    0,
    1065353216,
    0,
    1065353216,
    0,
    1065353216,
    0,
    1065353216,
    0,
    1065353216,
    0,
    1065353216,
    0,
    1065353216,
    0,
    1065353216,
    0,
    1065353216,
    0,
    1065353216,
    0,
    1065353216,
    0,
    1065353216,
    0,
    1065353216,
    0,
    1065353216,
    0,
    1065353216,
    0,
    1065353216,
    0,
    1065353216,
    0,
    1065353216,
    0,
    1065353216,
    0,
    1065353216,
    0,
    1065353216,
    0,
    1065353216,
    0,
    1065353216,
    0,
    1065353216,
    0,
    1065353216,
    0,
    1065353216,
    0,
    1065353216,
    0,
    1065353216,
    0,
    1065353216,
    0,
    1065353216,
    0,
    1065353216,
    0,
    1065353216,
    0,
    1065353216,
    0,
    1065353216,
    0,
    1065353216,
    0,
    1065353216,
    0,
    1065353216,
    0,
    1065353216,
    0,
    1065353216,
    0,
    1065353216,
    0,
    1065353216,
    0,
    1065353216,
    0,
    1065353216,
    0,
    1065353216,
    0,
    1065353216,
    0,
    1065353216,
    0,
    1065353216,
    0,
    1065353216,
    0,
    1065353216,
    0,
    1065353216,
    0,
    1065353216,
    0,
    1065353216,
    0,
    1065353216,
    0,
    1065353216,
    0,
    1065353216,
    0,
    1065353216,
    0,
    1065353216,
    0,
    1065353216,
    0,
    1065353216,
    0,
    1065353216,
    0,
    1065353216,
    0,
    1065353216,
    0,
    1065353216,
    0,
    1065353216,
    0,
    1065353216,
    0,
    1065353216,
    0,
    1065353216,
    0,
    1065353216,
    0,
    1065353216,
    0,
    1065353216,
    0,
    1065353216,
    0,
    1065353216,
    0,
    1065353216,
    0,
    1065353216,
    0,
    1065353216,
    0,
    1065353216,
    0,
    1065353216,
    0,
    1065353216,
    0,
    1065353216,
    0,
    1065353216,
    0,
    1065353216,
    0,
    1065353216,
    0,
    1065353216,
    0,
    1065353216,
    0,
    1065353216,
    0,
    1065353216,
    0,
    1065353216,
    0,
    1065353216,
    0,
    1065353216,
    0,
    1065353216,
    0,
    1065353216,
    0,
    1065353216,
    0,
    1065353216,
    0,
    1065353216,
    0,
    1065353216,
    0,
    1065353216,
    0,
    1065353216,
    0,
    1065353216,
    0,
    1065353216,
    0,
    1065353216,
    0,
    1065353216,
    0,
    1065353216,
    0,
    1065353216,
    0,
    1065353216,
    0,
    1065353216,
    0,
    1065353216,
    0,
    1065353216,
    0,
    1065353216,
    0,
    1065353216,
    0,
    1065353216,
    0,
    1065353216,
    0,
    1065353216,
    0,
    1065353216,
    0,
    1065353216,
    0,
    1065353216,
    0,
    1065353216,
    0,
    1065353216,
    0,
    1065353216,
    0,
    1065353216,
    0,
    1065353216,
    0,
    1065353216,
    0,
    1065353216,
    0,
    1065353216,
    0,
    1065353216,
    0,
    1065353216,
    0,
    1065353216,
    0,
    1065353216,
    0,
    1065353216,
    0,
    1065353216,
    0,
    1065353216,
    0,
    1065353216,
    0,
    1065353216,
    0,
    1065353216,
    0,
    1065353216,
    0,
    1065353216,
    0,
    1065353216,
    0,
    1065353216,
    0,
    1065353216,
    0,
    1065353216,
    0,
    1065353216,
    0,
    1065353216,
    0,
    1065353216,
    0,
    1065353216,
    0,
    1065353216,
    0,
    1065353216,
    0,
    1065353216,
    0,
    1065353216,
    0,
    1065353216,
    0,
    1065353216,
    0,
    1065353216,
    0,
    1065353216,
    0,
    1065353216,
    0,
    1065353216,
    0,
    1065353216,
    0,
    1065353216,
    0,
    1065353216,
    0,
    1065353216,
    0,
    1065353216,
    0,
    1065353216,
    0,
    1065353216,
    0,
    1065353216,
    0,
    1065353216,
    0,
    1065353216,
    0,
    1065353216,
    0,
    1065353216,
    0,
    1065353216,
    0,
    1065353216,
    0,
    1065353216,
    0,
    1065353216,
    0,
    1065353216,
    0,
    1065353216,
    0,
    1065353216,
    0,
    1065353216,
    0,
    1065353216,
    0,
    1065353216,
    0,
    1065353216,
    0,
    1065353216,
    0,
    1065353216,
    0,
    1065353216,
    0,
    1065353216,
    0,
    1065353216,
    0,
    1065353216,
    0,
    1065353216,
    0,
    1065353216,
    0,
    1065353216,
    0,
    1065353216,
    0,
    1065353216,
    0,
    1065353216,
    0,
    1065353216,
    0,
    1065353216,
    0,
    1065353216,
    0,
    1065353216,
    0,
    1065353216,
    0,
    1065353216,
    0,
    1065353216,
    0,
    1065353216,
    0,
    1065353216,
    0,
    1065353216,
    0,
    1065353216,
    0,
    1065353216,
    0,
    1065353216,
    0,
    1065353216,
    0,
    1065353216,
    0,
    1065353216,
    0,
    1065353216,
    0,
    1065353216,
    0,
    1065353216,
    0,
    1065353216,
    0,
    1065353216,
    0,
    1065353216,
    0,
    1065353216,
    0,
    1065353216,
    0,
    1065353216,
    0,
    1065353216,
    0,
    1065353216,
    0,
    1065353216,
    0,
    1065353216,
    0,
    1065353216,
    0,
    1065353216,
    0,
    1065353216,
    0,
    1065353216,
    0,
    1065353216,
    0,
    1065353216,
    0,
    1065353216,
    0,
    1065353216,
    0,
    1065353216,
    0,
    1065353216,
    0,
    1065353216,
    0,
    1065353216,
    0,
    1065353216,
    0,
    1065353216,
    0,
    1065353216,
    0,
    1065353216,
    0,
    1065353216,
    0,
    1065353216,
    0,
    1065353216,
    0,
    1065353216,
    0,
    1065353216,
    0,
    1065353216,
    0,
    1065353216,
    0,
    1065353216,
    0,
    1065353216,
    0,
    1065353216,
    0,
    1065353216,
    0,
    1065353216,
    0,
    1065353216,
    0,
    1065353216,
    0,
    1065353216,
    0,
    1065353216,
    0,
    1065353216,
    0,
    1065353216,
    0,
    1065353216,
    0,
    1065353216,
    0,
    1065353216,
    0,
    1065353216,
    0,
    1065353216,
    0,
    1065353216,
    0,
    1065353216,
    0,
    1065353216,
    0,
    1065353216,
    0,
    1065353216,
    0,
    1065353216,
    0,
    1065353216,
    0,
    1065353216,
    0,
    1065353216,
    0,
    1065353216,
    0,
    1065353216,
    0,
    1065353216,
    0,
    1065353216,
    0,
    1065353216,
    0,
    1065353216,
    0,
    1065353216,
    0,
    1065353216,
    0,
    1065353216,
    0,
    1065353216,
    0,
    1065353216,
    0,
    1065353216,
    0,
    1065353216,
    0,
    1065353216,
    0,
    1065353216,
    0,
    1065353216,
    0,
    1065353216,
    0,
    1065353216,
    0,
    1065353216,
    0,
    1065353216,
    0,
    1065353216,
    0,
    1065353216,
    0,
    1065353216,
    0,
    1065353216,
    0,
    1065353216,
    0,
    1065353216,
    0,
    1065353216,
    0,
    1065353216,
    0,
    1065353216,
    0,
    1065353216,
    0,
    1065353216,
    0,
    1065353216,
    0,
    1065353216,
    0,
    1065353216,
    0,
    1065353216,
    0,
    1065353216,
    0,
    1065353216,
    0,
    1065353216,
    0,
    1065353216,
    0,
    1065353216,
    0,
    1065353216,
    0,
    1065353216,
    0,
    1065353216,
    0,
    1065353216,
    0,
    1065353216,
    0,
    1065353216,
    0,
    1065353216,
    0,
    1065353216,
    0,
    1065353216,
    0,
    1065353216,
    0,
    1065353216,
    0,
    1065353216,
    0,
    1065353216,
    0,
    1065353216,
    0,
    1065353216,
    0,
    1065353216,
    0,
    1065353216,
    0,
    1065353216,
    0,
    1065353216,
    0,
    1065353216,
    0,
    1065353216,
    0,
    1065353216,
    0,
    1065353216,
    0,
    1065353216,
    0,
    1065353216,
    0,
    1065353216,
    0,
    1065353216,
    0,
    1065353216,
    0,
    1065353216,
    0,
    1065353216,
    0,
    1065353216,
    0,
    1065353216,
    0,
    1065353216,
    0,
    1065353216,
    0,
    1065353216,
    0,
    1065353216;
   }

   MeshMaterialList {
    1;
    147;
    0,
    0,
    0,
    0,
    0,
    0,
    0,
    0,
    0,
    0,
    0,
    0,
    0,
    0,
    0,
    0,
    0,
    0,
    0,
    0,
    0,
    0,
    0,
    0,
    0,
    0,
    0,
    0,
    0,
    0,
    0,
    0,
    0,
    0,
    0,
    0,
    0,
    0,
    0,
    0,
    0,
    0,
    0,
    0,
    0,
    0,
    0,
    0,
    0,
    0,
    0,
    0,
    0,
    0,
    0,
    0,
    0,
    0,
    0,
    0,
    0,
    0,
    0,
    0,
    0,
    0,
    0,
    0,
    0,
    0,
    0,
    0,
    0,
    0,
    0,
    0,
    0,
    0,
    0,
    0,
    0,
    0,
    0,
    0,
    0,
    0,
    0,
    0,
    0,
    0,
    0,
    0,
    0,
    0,
    0,
    0,
    0,
    0,
    0,
    0,
    0,
    0,
    0,
    0,
    0,
    0,
    0,
    0,
    0,
    0,
    0,
    0,
    0,
    0,
    0,
    0,
    0,
    0,
    0,
    0,
    0,
    0,
    0,
    0,
    0,
    0,
    0,
    0,
    0,
    0,
    0,
    0,
    0,
    0,
    0,
    0,
    0,
    0,
    0,
    0,
    0,
    0,
    0,
    0,
    0,
    0,
    0;

    Material orig_trafficlightyellow {
     0.745000; 0.745000; 0.745000; 1.000000;;
     128.000000;
     0.000000; 0.000000; 0.000000;;
     0.000000; 0.000000; 0.000000;;

     TextureFilename {
      "D:\\new packs\\test\\dumpsterrolloff_diffuse.tga";
     }
    }

   }
  }
}
