xof 0303txt 0032

// DirectX 8.0 file
// Creator: Ultimate Unwrap3D Pro v3.27
// Website: http://www.unwrap3d.com
// Time: Fri Jun 01 18:48:10 2012

// Start of Templates

template VertexDuplicationIndices {
 <b8d65549-d7c9-4995-89cf-53a9a8b031e3>
 DWORD nIndices;
 DWORD nOriginalVertices;
 array DWORD indices[nIndices];
}

template FVFData {
 <b6e70a0e-8ef9-4e83-94ad-ecc8b0c04897>
 DWORD dwFVF;
 DWORD nDWords;
 array DWORD data[nDWords];
}

template XSkinMeshHeader {
 <3CF169CE-FF7C-44ab-93C0-F78F62D172E2>
 WORD nMaxSkinWeightsPerVertex;
 WORD nMaxSkinWeightsPerFace;
 WORD nBones;
}

template SkinWeights {
 <6F0D123B-BAD2-4167-A0D0-80224F25FABB>
 STRING transformNodeName;
 DWORD nWeights;
 array DWORD vertexIndices[nWeights];
 array FLOAT weights[nWeights];
 Matrix4x4 matrixOffset;
}

template AnimTicksPerSecond {
 <9E415A43-7BA6-4a73-8743-B73D47E88476>
 DWORD AnimTicksPerSecond;
}

// Start of Frames

Frame barrier_concrete {
   FrameTransformMatrix {
    1.000000, 0.000000, 0.000000, 0.000000,
    0.000000, 1.000000, 0.000000, 0.000000,
    0.000000, 0.000000, 1.000000, 0.000000,
    0.000000, 0.000000, 0.000000, 1.000000;;
   }

   Mesh barrier_concrete {
    26;
    20.000000; 20.000000; 20.000000;,
    20.000000; 20.000000; -20.000000;,
    19.318516; 14.823619; -20.000000;,
    19.318516; 14.823619; 20.000000;,
    17.320507; 10.000000; -20.000000;,
    17.320507; 10.000000; 20.000000;,
    14.142136; 5.857864; -20.000000;,
    14.142136; 5.857864; 20.000000;,
    10.000000; 2.679493; -20.000000;,
    10.000000; 2.679493; 20.000000;,
    5.176381; 0.681484; -20.000000;,
    5.176381; 0.681484; 20.000000;,
    0.000000; 0.000000; -20.000000;,
    0.000000; 0.000000; 20.000000;,
    -5.176381; 0.000000; -20.000000;,
    -5.176381; 0.000000; 20.000000;,
    -10.000000; 0.000000; -20.000000;,
    -10.000000; 0.000000; 20.000000;,
    -14.142136; 0.000000; -20.000000;,
    -14.142136; 0.000000; 20.000000;,
    -17.320507; 0.000000; -20.000000;,
    -17.320507; 0.000000; 20.000000;,
    -19.318516; 0.000000; -20.000000;,
    -19.318516; 0.000000; 20.000000;,
    -20.000000; 0.000000; -20.000000;,
    -20.000000; 0.000000; 20.000000;;
    12;
    4;0, 1, 2, 3;,
    4;3, 2, 4, 5;,
    4;5, 4, 6, 7;,
    4;7, 6, 8, 9;,
    4;9, 8, 10, 11;,
    4;11, 10, 12, 13;,
    4;12, 14, 15, 13;,
    4;14, 16, 17, 15;,
    4;16, 18, 19, 17;,
    4;18, 20, 21, 19;,
    4;20, 22, 23, 21;,
    4;22, 24, 25, 23;;

   MeshNormals {
    26;
    -0.991445; 0.130526; 0.000000;,
    -0.991445; 0.130526; 0.000000;,
    -0.965926; 0.258819; 0.000000;,
    -0.965926; 0.258819; 0.000000;,
    -0.866025; 0.500000; 0.000000;,
    -0.866025; 0.500000; 0.000000;,
    -0.707107; 0.707107; 0.000000;,
    -0.707107; 0.707107; 0.000000;,
    -0.500000; 0.866025; 0.000000;,
    -0.500000; 0.866025; 0.000000;,
    -0.258819; 0.965926; 0.000000;,
    -0.258819; 0.965926; 0.000000;,
    -0.065403; 0.997859; 0.000000;,
    -0.065403; 0.997859; 0.000000;,
    0.000000; 1.000000; 0.000000;,
    0.000000; 1.000000; 0.000000;,
    0.000000; 1.000000; 0.000000;,
    0.000000; 1.000000; 0.000000;,
    0.000000; 1.000000; 0.000000;,
    0.000000; 1.000000; 0.000000;,
    0.000000; 1.000000; 0.000000;,
    0.000000; 1.000000; 0.000000;,
    0.000000; 1.000000; 0.000000;,
    0.000000; 1.000000; 0.000000;,
    0.000000; 1.000000; 0.000000;,
    0.000000; 1.000000; 0.000000;;
    12;
    4;0, 1, 2, 3;,
    4;3, 2, 4, 5;,
    4;5, 4, 6, 7;,
    4;7, 6, 8, 9;,
    4;9, 8, 10, 11;,
    4;11, 10, 12, 13;,
    4;12, 14, 15, 13;,
    4;14, 16, 17, 15;,
    4;16, 18, 19, 17;,
    4;18, 20, 21, 19;,
    4;20, 22, 23, 21;,
    4;22, 24, 25, 23;;
   }

   MeshTextureCoords {
    26;
    0.000000; 1.000000;,
    0.000000; 1.000000;,
    0.000000; 1.000000;,
    0.000000; 1.000000;,
    0.000000; 1.000000;,
    0.000000; 1.000000;,
    0.000000; 1.000000;,
    0.000000; 1.000000;,
    0.000000; 1.000000;,
    0.000000; 1.000000;,
    0.000000; 1.000000;,
    0.000000; 1.000000;,
    0.000000; 1.000000;,
    0.000000; 1.000000;,
    0.000000; 1.000000;,
    0.000000; 1.000000;,
    0.000000; 1.000000;,
    0.000000; 1.000000;,
    0.000000; 1.000000;,
    0.000000; 1.000000;,
    0.000000; 1.000000;,
    0.000000; 1.000000;,
    0.000000; 1.000000;,
    0.000000; 1.000000;,
    0.000000; 1.000000;,
    0.000000; 1.000000;;
   }

   FVFData {
    258;
    52;
    0,
    1065353216,
    0,
    1065353216,
    0,
    1065353216,
    0,
    1065353216,
    0,
    1065353216,
    0,
    1065353216,
    0,
    1065353216,
    0,
    1065353216,
    0,
    1065353216,
    0,
    1065353216,
    0,
    1065353216,
    0,
    1065353216,
    0,
    1065353216,
    0,
    1065353216,
    0,
    1065353216,
    0,
    1065353216,
    0,
    1065353216,
    0,
    1065353216,
    0,
    1065353216,
    0,
    1065353216,
    0,
    1065353216,
    0,
    1065353216,
    0,
    1065353216,
    0,
    1065353216,
    0,
    1065353216,
    0,
    1065353216;
   }

   MeshMaterialList {
    1;
    12;
    0,
    0,
    0,
    0,
    0,
    0,
    0,
    0,
    0,
    0,
    0,
    0;

    Material ground {
     0.552941; 0.552941; 0.552941; 1.000000;;
     128.000000;
     0.000000; 0.000000; 0.000000;;
     0.000000; 0.000000; 0.000000;;
    }

   }
  }
}
