# Wavefront MTL file
# Creator: Ultimate Unwrap3D Pro v3.27
# URL: http://www.unwrap3d.com
# Time: Fri Jun 01 18:43:26 2012
# num_materials: 1

newmtl ground
Ka 0.000000 0.000000 0.000000
Kd 0.552941 0.552941 0.552941
Ks 0.000000 0.000000 0.000000
d 1.000000
illum 2
Ns 1.000000

# num_materials: 1
