xof 0303txt 0032

// DirectX 8.0 file
// Creator: Ultimate Unwrap3D Pro v3.27
// Website: http://www.unwrap3d.com
// Time: Fri Jun 01 18:48:20 2012

// Start of Templates

template VertexDuplicationIndices {
 <b8d65549-d7c9-4995-89cf-53a9a8b031e3>
 DWORD nIndices;
 DWORD nOriginalVertices;
 array DWORD indices[nIndices];
}

template FVFData {
 <b6e70a0e-8ef9-4e83-94ad-ecc8b0c04897>
 DWORD dwFVF;
 DWORD nDWords;
 array DWORD data[nDWords];
}

template XSkinMeshHeader {
 <3CF169CE-FF7C-44ab-93C0-F78F62D172E2>
 WORD nMaxSkinWeightsPerVertex;
 WORD nMaxSkinWeightsPerFace;
 WORD nBones;
}

template SkinWeights {
 <6F0D123B-BAD2-4167-A0D0-80224F25FABB>
 STRING transformNodeName;
 DWORD nWeights;
 array DWORD vertexIndices[nWeights];
 array FLOAT weights[nWeights];
 Matrix4x4 matrixOffset;
}

template AnimTicksPerSecond {
 <9E415A43-7BA6-4a73-8743-B73D47E88476>
 DWORD AnimTicksPerSecond;
}

// Start of Frames

Frame lamppost {
   FrameTransformMatrix {
    1.000000, 0.000000, 0.000000, 0.000000,
    0.000000, 1.000000, 0.000000, 0.000000,
    0.000000, 0.000000, 1.000000, 0.000000,
    0.000000, 0.000000, 0.000000, 1.000000;;
   }

   Mesh lamppost {
    262;
    0.096000; 0.449000; -0.096000;,
    0.136000; 0.449000; -0.000000;,
    0.174000; 0.396000; -0.000000;,
    0.123000; 0.396000; -0.123000;,
    0.000000; 0.449000; -0.136000;,
    0.000000; 0.396000; -0.174000;,
    -0.096000; 0.449000; -0.096000;,
    -0.123000; 0.396000; -0.123000;,
    -0.136000; 0.449000; -0.000000;,
    -0.174000; 0.396000; -0.000000;,
    -0.096000; 0.449000; 0.096000;,
    -0.123000; 0.396000; 0.123000;,
    0.000000; 0.449000; 0.136000;,
    0.000000; 0.396000; 0.174000;,
    0.096000; 0.449000; 0.096000;,
    0.123000; 0.396000; 0.123000;,
    0.136000; 0.449000; -0.000000;,
    0.174000; 0.396000; -0.000000;,
    0.222000; 0.000000; -0.222000;,
    0.222000; 0.000000; 0.222000;,
    -0.222000; 0.000000; 0.222000;,
    -0.222000; 0.000000; -0.222000;,
    -0.004000; 4.124000; -0.004000;,
    0.004000; 4.124000; 0.004000;,
    0.004000; 4.124000; -0.004000;,
    0.000000; 4.124000; -0.005000;,
    -0.004000; 4.124000; 0.004000;,
    -0.005000; 4.124000; 0.000000;,
    0.174000; 0.396000; -0.000000;,
    0.123000; 0.396000; 0.123000;,
    0.222000; 0.396000; 0.222000;,
    0.222000; 0.396000; -0.222000;,
    0.000000; 0.396000; 0.174000;,
    -0.123000; 0.396000; 0.123000;,
    -0.222000; 0.396000; 0.222000;,
    -0.174000; 0.396000; -0.000000;,
    -0.123000; 0.396000; -0.123000;,
    -0.222000; 0.396000; -0.222000;,
    -0.222000; 0.396000; 0.222000;,
    0.000000; 0.396000; -0.174000;,
    0.123000; 0.396000; -0.123000;,
    0.222000; 0.396000; -0.222000;,
    -0.222000; 0.396000; -0.222000;,
    0.222000; 0.372000; 0.222000;,
    0.222000; 0.372000; -0.222000;,
    -0.222000; 0.372000; 0.222000;,
    -0.222000; 0.372000; -0.222000;,
    -0.222000; 0.372000; 0.222000;,
    -0.222000; 0.396000; 0.222000;,
    -0.222000; 0.396000; -0.222000;,
    0.222000; 0.372000; -0.222000;,
    -0.222000; 0.372000; -0.222000;,
    0.191000; 0.372000; 0.191000;,
    0.191000; 0.372000; -0.191000;,
    -0.191000; 0.372000; 0.191000;,
    0.191000; 0.372000; 0.191000;,
    -0.191000; 0.372000; -0.191000;,
    -0.191000; 0.372000; 0.191000;,
    0.191000; 0.372000; -0.191000;,
    -0.191000; 0.372000; -0.191000;,
    0.191000; 0.036000; 0.191000;,
    0.191000; 0.036000; -0.191000;,
    -0.191000; 0.036000; 0.191000;,
    0.191000; 0.036000; 0.191000;,
    -0.191000; 0.036000; -0.191000;,
    -0.191000; 0.036000; 0.191000;,
    0.191000; 0.036000; -0.191000;,
    -0.191000; 0.036000; -0.191000;,
    0.222000; 0.036000; 0.222000;,
    0.222000; 0.036000; -0.222000;,
    -0.222000; 0.036000; 0.222000;,
    -0.222000; 0.036000; -0.222000;,
    -0.222000; 0.036000; 0.222000;,
    0.222000; 0.036000; -0.222000;,
    -0.222000; 0.036000; -0.222000;,
    0.222000; 0.000000; 0.222000;,
    0.222000; 0.000000; -0.222000;,
    -0.222000; 0.000000; 0.222000;,
    -0.222000; 0.000000; -0.222000;,
    -0.222000; 0.000000; 0.222000;,
    0.222000; 0.000000; -0.222000;,
    -0.222000; 0.000000; -0.222000;,
    0.054000; 0.487000; -0.054000;,
    0.076000; 0.487000; -0.000000;,
    0.000000; 0.487000; -0.076000;,
    -0.054000; 0.487000; -0.054000;,
    -0.076000; 0.487000; -0.000000;,
    -0.054000; 0.487000; 0.054000;,
    0.000000; 0.487000; 0.076000;,
    0.054000; 0.487000; 0.054000;,
    0.076000; 0.487000; -0.000000;,
    0.067000; 0.502000; -0.067000;,
    0.095000; 0.502000; -0.000000;,
    0.000000; 0.502000; -0.095000;,
    -0.067000; 0.502000; -0.067000;,
    -0.095000; 0.502000; -0.000000;,
    -0.067000; 0.502000; 0.067000;,
    0.000000; 0.502000; 0.095000;,
    0.067000; 0.502000; 0.067000;,
    0.095000; 0.502000; -0.000000;,
    0.054000; 0.517000; -0.054000;,
    0.076000; 0.517000; -0.000000;,
    0.000000; 0.517000; -0.076000;,
    -0.054000; 0.517000; -0.054000;,
    -0.076000; 0.517000; -0.000000;,
    -0.054000; 0.517000; 0.054000;,
    0.000000; 0.517000; 0.076000;,
    0.054000; 0.517000; 0.054000;,
    0.076000; 0.517000; -0.000000;,
    0.040000; 1.570000; -0.040000;,
    0.057000; 1.570000; -0.000000;,
    0.000000; 1.570000; -0.057000;,
    -0.040000; 1.570000; -0.040000;,
    -0.057000; 1.570000; -0.000000;,
    -0.040000; 1.570000; 0.040000;,
    0.000000; 1.570000; 0.057000;,
    0.040000; 1.570000; 0.040000;,
    0.057000; 1.570000; -0.000000;,
    0.054000; 1.586000; -0.054000;,
    0.076000; 1.586000; -0.000000;,
    0.000000; 1.586000; -0.076000;,
    -0.054000; 1.586000; -0.054000;,
    -0.076000; 1.586000; -0.000000;,
    -0.054000; 1.586000; 0.054000;,
    0.000000; 1.586000; 0.076000;,
    0.054000; 1.586000; 0.054000;,
    0.076000; 1.586000; -0.000000;,
    0.040000; 1.602000; -0.040000;,
    0.057000; 1.602000; -0.000000;,
    0.000000; 1.602000; -0.057000;,
    -0.040000; 1.602000; -0.040000;,
    -0.057000; 1.602000; -0.000000;,
    -0.040000; 1.602000; 0.040000;,
    0.000000; 1.602000; 0.057000;,
    0.040000; 1.602000; 0.040000;,
    0.057000; 1.602000; -0.000000;,
    0.027000; 3.568000; -0.027000;,
    0.038000; 3.568000; 0.000000;,
    0.057000; 1.602000; -0.000000;,
    0.040000; 1.602000; -0.040000;,
    0.000000; 3.568000; -0.038000;,
    0.000000; 1.602000; -0.057000;,
    -0.027000; 3.568000; -0.027000;,
    -0.040000; 1.602000; -0.040000;,
    -0.038000; 3.568000; 0.000000;,
    -0.057000; 1.602000; -0.000000;,
    -0.027000; 3.568000; 0.027000;,
    -0.040000; 1.602000; 0.040000;,
    0.000000; 3.568000; 0.038000;,
    0.000000; 1.602000; 0.057000;,
    0.027000; 3.568000; 0.027000;,
    0.040000; 1.602000; 0.040000;,
    0.038000; 3.568000; 0.000000;,
    0.057000; 1.602000; -0.000000;,
    0.039000; 3.579000; -0.039000;,
    0.055000; 3.579000; 0.000000;,
    0.038000; 3.568000; 0.000000;,
    0.027000; 3.568000; -0.027000;,
    0.000000; 3.579000; -0.055000;,
    0.039000; 3.579000; -0.039000;,
    0.027000; 3.568000; -0.027000;,
    0.000000; 3.568000; -0.038000;,
    -0.039000; 3.579000; -0.039000;,
    -0.027000; 3.568000; -0.027000;,
    -0.055000; 3.579000; 0.000000;,
    -0.039000; 3.579000; -0.039000;,
    -0.027000; 3.568000; -0.027000;,
    -0.038000; 3.568000; 0.000000;,
    -0.039000; 3.579000; 0.039000;,
    -0.027000; 3.568000; 0.027000;,
    0.000000; 3.579000; 0.055000;,
    -0.039000; 3.579000; 0.039000;,
    -0.027000; 3.568000; 0.027000;,
    0.000000; 3.568000; 0.038000;,
    0.039000; 3.579000; 0.039000;,
    0.027000; 3.568000; 0.027000;,
    0.039000; 3.579000; 0.039000;,
    0.027000; 3.568000; 0.027000;,
    0.089000; 3.612000; -0.089000;,
    0.089000; 3.612000; 0.000000;,
    0.000000; 3.612000; -0.089000;,
    0.089000; 3.612000; -0.089000;,
    -0.089000; 3.612000; -0.089000;,
    -0.089000; 3.612000; 0.000000;,
    -0.089000; 3.612000; -0.089000;,
    -0.089000; 3.612000; 0.089000;,
    0.000000; 3.612000; 0.089000;,
    -0.089000; 3.612000; 0.089000;,
    0.089000; 3.612000; 0.089000;,
    0.089000; 3.612000; 0.089000;,
    0.135000; 3.887000; -0.135000;,
    0.135000; 3.887000; 0.000000;,
    0.000000; 3.887000; -0.135000;,
    0.135000; 3.887000; -0.135000;,
    -0.135000; 3.887000; -0.135000;,
    -0.135000; 3.887000; 0.000000;,
    -0.135000; 3.887000; -0.135000;,
    -0.135000; 3.887000; 0.135000;,
    0.000000; 3.887000; 0.135000;,
    -0.135000; 3.887000; 0.135000;,
    0.135000; 3.887000; 0.135000;,
    0.135000; 3.887000; 0.135000;,
    0.104000; 3.911000; -0.104000;,
    0.104000; 3.911000; 0.000000;,
    0.000000; 3.911000; -0.104000;,
    0.104000; 3.911000; -0.104000;,
    -0.104000; 3.911000; -0.104000;,
    -0.104000; 3.911000; 0.000000;,
    -0.104000; 3.911000; -0.104000;,
    -0.104000; 3.911000; 0.104000;,
    0.000000; 3.911000; 0.104000;,
    -0.104000; 3.911000; 0.104000;,
    0.104000; 3.911000; 0.104000;,
    0.104000; 3.911000; 0.104000;,
    0.073000; 3.970000; -0.073000;,
    0.073000; 3.970000; 0.000000;,
    0.000000; 3.970000; -0.073000;,
    0.073000; 3.970000; -0.073000;,
    -0.073000; 3.970000; -0.073000;,
    -0.073000; 3.970000; 0.000000;,
    -0.073000; 3.970000; -0.073000;,
    -0.073000; 3.970000; 0.073000;,
    0.000000; 3.970000; 0.073000;,
    -0.073000; 3.970000; 0.073000;,
    0.073000; 3.970000; 0.073000;,
    0.073000; 3.970000; 0.073000;,
    0.015000; 3.994000; -0.015000;,
    0.022000; 3.994000; 0.000000;,
    0.000000; 3.994000; -0.022000;,
    0.015000; 3.994000; -0.015000;,
    -0.015000; 3.994000; -0.015000;,
    -0.022000; 3.994000; 0.000000;,
    -0.015000; 3.994000; -0.015000;,
    -0.015000; 3.994000; 0.015000;,
    0.000000; 3.994000; 0.022000;,
    -0.015000; 3.994000; 0.015000;,
    0.015000; 3.994000; 0.015000;,
    0.015000; 3.994000; 0.015000;,
    0.004000; 4.124000; -0.004000;,
    0.005000; 4.124000; 0.000000;,
    0.022000; 3.994000; 0.000000;,
    0.015000; 3.994000; -0.015000;,
    0.000000; 4.124000; -0.005000;,
    0.004000; 4.124000; -0.004000;,
    0.015000; 3.994000; -0.015000;,
    0.000000; 3.994000; -0.022000;,
    -0.004000; 4.124000; -0.004000;,
    -0.015000; 3.994000; -0.015000;,
    -0.005000; 4.124000; 0.000000;,
    -0.022000; 3.994000; 0.000000;,
    -0.004000; 4.124000; 0.004000;,
    -0.015000; 3.994000; 0.015000;,
    0.000000; 4.124000; 0.005000;,
    0.000000; 3.994000; 0.022000;,
    0.004000; 4.124000; 0.004000;,
    0.015000; 3.994000; 0.015000;,
    0.000000; 4.124000; 0.005000;,
    0.005000; 4.124000; 0.000000;,
    0.123000; 0.396000; -0.123000;,
    0.123000; 0.396000; 0.123000;,
    -0.123000; 0.396000; 0.123000;,
    -0.123000; 0.396000; -0.123000;;
    157;
    4;0, 1, 2, 3;,
    4;4, 0, 3, 5;,
    4;6, 4, 5, 7;,
    4;8, 6, 7, 9;,
    4;10, 8, 9, 11;,
    4;12, 10, 11, 13;,
    4;14, 12, 13, 15;,
    4;16, 14, 15, 17;,
    4;18, 19, 20, 21;,
    4;22, 23, 24, 25;,
    4;26, 23, 22, 27;,
    3;28, 29, 30;,
    3;31, 28, 30;,
    3;32, 33, 34;,
    3;30, 32, 34;,
    3;35, 36, 37;,
    3;38, 35, 37;,
    3;39, 40, 41;,
    3;42, 39, 41;,
    4;43, 44, 31, 30;,
    4;45, 43, 30, 34;,
    4;46, 47, 48, 49;,
    4;50, 51, 42, 41;,
    4;52, 53, 44, 43;,
    4;54, 55, 43, 45;,
    4;56, 57, 47, 46;,
    4;58, 59, 51, 50;,
    4;60, 61, 53, 52;,
    4;62, 63, 55, 54;,
    4;64, 65, 57, 56;,
    4;66, 67, 59, 58;,
    4;68, 69, 61, 60;,
    4;70, 68, 63, 62;,
    4;71, 72, 65, 64;,
    4;73, 74, 67, 66;,
    4;75, 76, 69, 68;,
    4;77, 75, 68, 70;,
    4;78, 79, 72, 71;,
    4;80, 81, 74, 73;,
    4;82, 83, 1, 0;,
    4;84, 82, 0, 4;,
    4;85, 84, 4, 6;,
    4;86, 85, 6, 8;,
    4;87, 86, 8, 10;,
    4;88, 87, 10, 12;,
    4;89, 88, 12, 14;,
    4;90, 89, 14, 16;,
    4;91, 92, 83, 82;,
    4;93, 91, 82, 84;,
    4;94, 93, 84, 85;,
    4;95, 94, 85, 86;,
    4;96, 95, 86, 87;,
    4;97, 96, 87, 88;,
    4;98, 97, 88, 89;,
    4;99, 98, 89, 90;,
    4;100, 101, 92, 91;,
    4;102, 100, 91, 93;,
    4;103, 102, 93, 94;,
    4;104, 103, 94, 95;,
    4;105, 104, 95, 96;,
    4;106, 105, 96, 97;,
    4;107, 106, 97, 98;,
    4;108, 107, 98, 99;,
    4;109, 110, 101, 100;,
    4;111, 109, 100, 102;,
    4;112, 111, 102, 103;,
    4;113, 112, 103, 104;,
    4;114, 113, 104, 105;,
    4;115, 114, 105, 106;,
    4;116, 115, 106, 107;,
    4;117, 116, 107, 108;,
    4;118, 119, 110, 109;,
    4;120, 118, 109, 111;,
    4;121, 120, 111, 112;,
    4;122, 121, 112, 113;,
    4;123, 122, 113, 114;,
    4;124, 123, 114, 115;,
    4;125, 124, 115, 116;,
    4;126, 125, 116, 117;,
    4;127, 128, 119, 118;,
    4;129, 127, 118, 120;,
    4;130, 129, 120, 121;,
    4;131, 130, 121, 122;,
    4;132, 131, 122, 123;,
    4;133, 132, 123, 124;,
    4;134, 133, 124, 125;,
    4;135, 134, 125, 126;,
    4;136, 137, 138, 139;,
    4;140, 136, 139, 141;,
    4;142, 140, 141, 143;,
    4;144, 142, 143, 145;,
    4;146, 144, 145, 147;,
    4;148, 146, 147, 149;,
    4;150, 148, 149, 151;,
    4;152, 150, 151, 153;,
    4;154, 155, 156, 157;,
    4;158, 159, 160, 161;,
    4;162, 158, 161, 163;,
    4;164, 165, 166, 167;,
    4;168, 164, 167, 169;,
    4;170, 171, 172, 173;,
    4;174, 170, 173, 175;,
    4;155, 176, 177, 156;,
    4;178, 179, 155, 154;,
    4;180, 181, 159, 158;,
    4;182, 180, 158, 162;,
    4;183, 184, 165, 164;,
    4;185, 183, 164, 168;,
    4;186, 187, 171, 170;,
    4;188, 186, 170, 174;,
    4;179, 189, 176, 155;,
    4;190, 191, 179, 178;,
    4;192, 193, 181, 180;,
    4;194, 192, 180, 182;,
    4;195, 196, 184, 183;,
    4;197, 195, 183, 185;,
    4;198, 199, 187, 186;,
    4;200, 198, 186, 188;,
    4;191, 201, 189, 179;,
    4;202, 203, 191, 190;,
    4;204, 205, 193, 192;,
    4;206, 204, 192, 194;,
    4;207, 208, 196, 195;,
    4;209, 207, 195, 197;,
    4;210, 211, 199, 198;,
    4;212, 210, 198, 200;,
    4;203, 213, 201, 191;,
    4;214, 215, 203, 202;,
    4;216, 217, 205, 204;,
    4;218, 216, 204, 206;,
    4;219, 220, 208, 207;,
    4;221, 219, 207, 209;,
    4;222, 223, 211, 210;,
    4;224, 222, 210, 212;,
    4;215, 225, 213, 203;,
    4;226, 227, 215, 214;,
    4;228, 229, 217, 216;,
    4;230, 228, 216, 218;,
    4;231, 232, 220, 219;,
    4;233, 231, 219, 221;,
    4;234, 235, 223, 222;,
    4;236, 234, 222, 224;,
    4;227, 237, 225, 215;,
    4;238, 239, 240, 241;,
    4;242, 243, 244, 245;,
    4;246, 242, 245, 247;,
    4;248, 246, 247, 249;,
    4;250, 248, 249, 251;,
    4;252, 250, 251, 253;,
    4;254, 252, 253, 255;,
    4;239, 254, 255, 240;,
    3;26, 256, 23;,
    3;257, 24, 23;,
    3;258, 28, 31;,
    3;259, 32, 30;,
    3;260, 35, 38;,
    3;261, 39, 42;;

   MeshNormals {
    262;
    0.484445; 0.728837; -0.483849;,
    0.659805; 0.700314; -0.272430;,
    0.768218; 0.554422; -0.320091;,
    0.574123; 0.583284; -0.574598;,
    -0.000403; 0.728521; -0.685023;,
    0.000339; 0.583950; -0.811789;,
    -0.483849; 0.728837; -0.484445;,
    -0.574598; 0.583284; -0.574123;,
    -0.685023; 0.728521; 0.000403;,
    -0.811789; 0.583950; -0.000339;,
    -0.484445; 0.728837; 0.483849;,
    -0.574123; 0.583284; 0.574598;,
    0.000403; 0.728521; 0.685023;,
    -0.000339; 0.583950; 0.811789;,
    0.483849; 0.728837; 0.484445;,
    0.574598; 0.583284; 0.574123;,
    0.658518; 0.701723; 0.271917;,
    0.769761; 0.551904; 0.320734;,
    0.000000; -1.000000; 0.000000;,
    0.000000; -1.000000; 0.000000;,
    0.000000; -1.000000; 0.000000;,
    0.000000; -1.000000; 0.000000;,
    0.000000; 1.000000; 0.000000;,
    0.000000; 1.000000; 0.000000;,
    0.000000; 1.000000; 0.000000;,
    0.000000; 1.000000; 0.000000;,
    0.000000; 1.000000; 0.000000;,
    0.000000; 1.000000; 0.000000;,
    0.000000; 1.000000; 0.000000;,
    0.000000; 1.000000; 0.000000;,
    0.235702; 0.942809; 0.235702;,
    0.447214; 0.894427; 0.000000;,
    0.000000; 1.000000; 0.000000;,
    0.000000; 1.000000; 0.000000;,
    0.000000; 0.894427; 0.447214;,
    0.000000; 1.000000; 0.000000;,
    0.000000; 1.000000; 0.000000;,
    0.000000; 1.000000; 0.000000;,
    0.000000; 1.000000; 0.000000;,
    0.000000; 1.000000; 0.000000;,
    0.000000; 1.000000; 0.000000;,
    0.000000; 0.894427; -0.447214;,
    0.000000; 0.894427; -0.447214;,
    0.408248; -0.816497; 0.408248;,
    0.707107; -0.707107; 0.000000;,
    0.000000; -0.707107; 0.707107;,
    -0.707107; -0.707107; 0.000000;,
    -0.707107; -0.707107; 0.000000;,
    -1.000000; 0.000000; 0.000000;,
    -1.000000; 0.000000; 0.000000;,
    0.000000; -0.707107; -0.707107;,
    0.000000; -0.707107; -0.707107;,
    0.707107; -0.707107; 0.000000;,
    0.707107; -0.707107; 0.000000;,
    0.000000; -0.707107; 0.707107;,
    0.000000; -0.707107; 0.707107;,
    -0.707107; -0.707107; 0.000000;,
    -0.707107; -0.707107; 0.000000;,
    0.000000; -0.707107; -0.707107;,
    0.000000; -0.707107; -0.707107;,
    0.707107; 0.707107; 0.000000;,
    0.707107; 0.707107; 0.000000;,
    0.000000; 0.707107; 0.707107;,
    0.000000; 0.707107; 0.707107;,
    -0.707107; 0.707107; 0.000000;,
    -0.707107; 0.707107; 0.000000;,
    0.000000; 0.707107; -0.707107;,
    0.000000; 0.707107; -0.707107;,
    0.408248; 0.816497; 0.408248;,
    0.707107; 0.707107; 0.000000;,
    0.000000; 0.707107; 0.707107;,
    -0.707107; 0.707107; 0.000000;,
    -0.707107; 0.707107; 0.000000;,
    0.000000; 0.707107; -0.707107;,
    0.000000; 0.707107; -0.707107;,
    0.707107; 0.000000; 0.707107;,
    1.000000; 0.000000; 0.000000;,
    0.000000; 0.000000; 1.000000;,
    -1.000000; 0.000000; 0.000000;,
    -1.000000; 0.000000; 0.000000;,
    0.000000; 0.000000; -1.000000;,
    0.000000; 0.000000; -1.000000;,
    0.707845; 0.060580; -0.703765;,
    0.922710; 0.057951; -0.381114;,
    -0.002884; 0.060530; -0.998162;,
    -0.703765; 0.060580; -0.707845;,
    -0.998162; 0.060530; 0.002884;,
    -0.707845; 0.060580; 0.703765;,
    0.002884; 0.060530; 0.998162;,
    0.703765; 0.060580; 0.707845;,
    0.922924; 0.053942; 0.381185;,
    0.709955; -0.000016; -0.704247;,
    0.924391; -0.000926; -0.381444;,
    -0.003996; -0.000016; -0.999992;,
    -0.704247; -0.000016; -0.709955;,
    -0.999992; -0.000016; 0.003996;,
    -0.709955; -0.000016; 0.704247;,
    0.003996; -0.000016; 0.999992;,
    0.704247; -0.000016; 0.709955;,
    0.924388; 0.000914; 0.381453;,
    0.632574; 0.450052; -0.630320;,
    0.837959; 0.418523; -0.350233;,
    -0.001553; 0.451013; -0.892516;,
    -0.630320; 0.450052; -0.632574;,
    -0.892516; 0.451013; 0.001553;,
    -0.632574; 0.450052; 0.630320;,
    0.001553; 0.451013; 0.892516;,
    0.630320; 0.450052; 0.632574;,
    0.834451; 0.426614; 0.348843;,
    0.638131; -0.427552; -0.640303;,
    0.843673; -0.404796; -0.352641;,
    0.001496; -0.428472; -0.903554;,
    -0.640303; -0.427552; -0.638131;,
    -0.903554; -0.428472; -0.001496;,
    -0.638131; -0.427552; 0.640303;,
    -0.001496; -0.428472; 0.903554;,
    0.640303; -0.427552; 0.638131;,
    0.846886; -0.396901; 0.353912;,
    0.703655; -0.000030; -0.710542;,
    0.923242; 0.001533; -0.384217;,
    0.004942; -0.000030; -0.999988;,
    -0.710542; -0.000030; -0.703655;,
    -0.999988; -0.000030; -0.004942;,
    -0.703655; -0.000030; 0.710542;,
    -0.004942; -0.000030; 0.999988;,
    0.710542; -0.000030; 0.703655;,
    0.923232; -0.001552; 0.384241;,
    0.448523; 0.770194; -0.453462;,
    0.604636; 0.753910; -0.256971;,
    0.003662; 0.772568; -0.634922;,
    -0.453462; 0.770194; -0.448523;,
    -0.634922; 0.772568; -0.003662;,
    -0.448523; 0.770194; 0.453462;,
    -0.003662; 0.772568; 0.634922;,
    0.453462; 0.770194; 0.448523;,
    0.621274; 0.737767; 0.264042;,
    0.707075; 0.009531; -0.707074;,
    0.926058; 0.008618; -0.377283;,
    0.926058; 0.008618; -0.377283;,
    0.707075; 0.009531; -0.707074;,
    -0.000001; 0.009485; -0.999955;,
    -0.000001; 0.009485; -0.999955;,
    -0.707074; 0.009531; -0.707075;,
    -0.707074; 0.009531; -0.707075;,
    -0.999955; 0.009485; 0.000001;,
    -0.999955; 0.009485; 0.000001;,
    -0.707075; 0.009531; 0.707074;,
    -0.707075; 0.009531; 0.707074;,
    0.000001; 0.009485; 0.999955;,
    0.000001; 0.009485; 0.999955;,
    0.707074; 0.009531; 0.707075;,
    0.707074; 0.009531; 0.707075;,
    0.926055; 0.008950; 0.377282;,
    0.926055; 0.008950; 0.377282;,
    0.544642; -0.831455; -0.109762;,
    0.586424; -0.810005; -0.000168;,
    0.544117; -0.839009; -0.000339;,
    0.531854; -0.818243; -0.218196;,
    -0.000168; -0.810005; -0.586424;,
    0.109946; -0.776855; -0.620006;,
    0.217534; -0.819467; -0.530239;,
    -0.000339; -0.839009; -0.544117;,
    -0.109762; -0.831455; -0.544642;,
    -0.218196; -0.818243; -0.531854;,
    -0.586424; -0.810005; 0.000168;,
    -0.620006; -0.776855; -0.109946;,
    -0.530239; -0.819467; -0.217534;,
    -0.544117; -0.839009; 0.000339;,
    -0.544642; -0.831455; 0.109762;,
    -0.531854; -0.818243; 0.218196;,
    0.000168; -0.810005; 0.586424;,
    -0.109946; -0.776855; 0.620006;,
    -0.217534; -0.819467; 0.530239;,
    0.000339; -0.839009; 0.544117;,
    0.109762; -0.831455; 0.544642;,
    0.218196; -0.818243; 0.531854;,
    0.620006; -0.776855; 0.109946;,
    0.530239; -0.819467; 0.217534;,
    0.838332; -0.545161; 0.000000;,
    0.863327; -0.504645; 0.000000;,
    0.000000; -0.504645; -0.863327;,
    0.000000; -0.464465; -0.885591;,
    0.000000; -0.545161; -0.838332;,
    -0.863327; -0.504645; 0.000000;,
    -0.885591; -0.464465; 0.000000;,
    -0.838332; -0.545161; 0.000000;,
    0.000000; -0.504645; 0.863327;,
    0.000000; -0.464465; 0.885591;,
    0.000000; -0.545161; 0.838332;,
    0.885591; -0.464465; 0.000000;,
    0.931192; 0.364529; 0.000000;,
    0.931192; 0.364529; 0.000000;,
    0.000000; 0.364529; -0.931192;,
    0.000000; 0.364529; -0.931192;,
    0.000000; 0.364529; -0.931192;,
    -0.931192; 0.364529; 0.000000;,
    -0.931192; 0.364529; 0.000000;,
    -0.931192; 0.364529; 0.000000;,
    0.000000; 0.364529; 0.931192;,
    0.000000; 0.364529; 0.931192;,
    0.000000; 0.364529; 0.931192;,
    0.931192; 0.364529; 0.000000;,
    0.766203; 0.642599; 0.000000;,
    0.766203; 0.642599; 0.000000;,
    0.000000; 0.642599; -0.766203;,
    0.000000; 0.642599; -0.766203;,
    0.000000; 0.642599; -0.766203;,
    -0.766203; 0.642599; 0.000000;,
    -0.766203; 0.642599; 0.000000;,
    -0.766203; 0.642599; 0.000000;,
    0.000000; 0.642599; 0.766203;,
    0.000000; 0.642599; 0.766203;,
    0.000000; 0.642599; 0.766203;,
    0.766203; 0.642599; 0.000000;,
    0.629417; 0.774040; -0.068528;,
    0.663197; 0.748212; 0.018671;,
    0.018671; 0.748212; -0.663197;,
    0.103222; 0.716373; -0.690039;,
    -0.068528; 0.774040; -0.629417;,
    -0.663197; 0.748212; -0.018671;,
    -0.690039; 0.716373; -0.103222;,
    -0.629417; 0.774040; 0.068528;,
    -0.018671; 0.748212; 0.663197;,
    -0.103222; 0.716373; 0.690039;,
    0.068528; 0.774040; 0.629417;,
    0.690039; 0.716373; 0.103222;,
    0.269377; 0.954795; -0.125709;,
    0.349194; 0.936390; 0.035166;,
    0.035166; 0.936390; -0.349194;,
    0.194895; 0.887469; -0.417631;,
    -0.125709; 0.954795; -0.269377;,
    -0.349194; 0.936390; -0.035166;,
    -0.417631; 0.887469; -0.194895;,
    -0.269377; 0.954795; 0.125709;,
    -0.035166; 0.936390; 0.349194;,
    -0.194895; 0.887469; 0.417631;,
    0.125709; 0.954795; 0.269377;,
    0.417631; 0.887469; 0.194895;,
    0.965075; 0.102075; -0.241269;,
    0.993081; 0.117434; -0.000341;,
    0.993081; 0.117434; -0.000341;,
    0.965075; 0.102075; -0.241269;,
    -0.000341; 0.117434; -0.993081;,
    0.240607; 0.125856; -0.962428;,
    0.240607; 0.125856; -0.962428;,
    -0.000341; 0.117434; -0.993081;,
    -0.700285; 0.132605; -0.701439;,
    -0.700285; 0.132605; -0.701439;,
    -0.993081; 0.117434; 0.000341;,
    -0.993081; 0.117434; 0.000341;,
    -0.701439; 0.132605; 0.700285;,
    -0.701439; 0.132605; 0.700285;,
    0.000341; 0.117434; 0.993081;,
    0.000341; 0.117434; 0.993081;,
    0.700285; 0.132605; 0.701439;,
    0.700285; 0.132605; 0.701439;,
    0.000000; 1.000000; 0.000000;,
    0.000000; 1.000000; 0.000000;,
    0.000000; 1.000000; 0.000000;,
    0.000000; 1.000000; 0.000000;,
    0.000000; 1.000000; 0.000000;,
    0.000000; 1.000000; 0.000000;;
    157;
    4;0, 1, 2, 3;,
    4;4, 0, 3, 5;,
    4;6, 4, 5, 7;,
    4;8, 6, 7, 9;,
    4;10, 8, 9, 11;,
    4;12, 10, 11, 13;,
    4;14, 12, 13, 15;,
    4;16, 14, 15, 17;,
    4;18, 19, 20, 21;,
    4;22, 23, 24, 25;,
    4;26, 23, 22, 27;,
    3;28, 29, 30;,
    3;31, 28, 30;,
    3;32, 33, 34;,
    3;30, 32, 34;,
    3;35, 36, 37;,
    3;38, 35, 37;,
    3;39, 40, 41;,
    3;42, 39, 41;,
    4;43, 44, 31, 30;,
    4;45, 43, 30, 34;,
    4;46, 47, 48, 49;,
    4;50, 51, 42, 41;,
    4;52, 53, 44, 43;,
    4;54, 55, 43, 45;,
    4;56, 57, 47, 46;,
    4;58, 59, 51, 50;,
    4;60, 61, 53, 52;,
    4;62, 63, 55, 54;,
    4;64, 65, 57, 56;,
    4;66, 67, 59, 58;,
    4;68, 69, 61, 60;,
    4;70, 68, 63, 62;,
    4;71, 72, 65, 64;,
    4;73, 74, 67, 66;,
    4;75, 76, 69, 68;,
    4;77, 75, 68, 70;,
    4;78, 79, 72, 71;,
    4;80, 81, 74, 73;,
    4;82, 83, 1, 0;,
    4;84, 82, 0, 4;,
    4;85, 84, 4, 6;,
    4;86, 85, 6, 8;,
    4;87, 86, 8, 10;,
    4;88, 87, 10, 12;,
    4;89, 88, 12, 14;,
    4;90, 89, 14, 16;,
    4;91, 92, 83, 82;,
    4;93, 91, 82, 84;,
    4;94, 93, 84, 85;,
    4;95, 94, 85, 86;,
    4;96, 95, 86, 87;,
    4;97, 96, 87, 88;,
    4;98, 97, 88, 89;,
    4;99, 98, 89, 90;,
    4;100, 101, 92, 91;,
    4;102, 100, 91, 93;,
    4;103, 102, 93, 94;,
    4;104, 103, 94, 95;,
    4;105, 104, 95, 96;,
    4;106, 105, 96, 97;,
    4;107, 106, 97, 98;,
    4;108, 107, 98, 99;,
    4;109, 110, 101, 100;,
    4;111, 109, 100, 102;,
    4;112, 111, 102, 103;,
    4;113, 112, 103, 104;,
    4;114, 113, 104, 105;,
    4;115, 114, 105, 106;,
    4;116, 115, 106, 107;,
    4;117, 116, 107, 108;,
    4;118, 119, 110, 109;,
    4;120, 118, 109, 111;,
    4;121, 120, 111, 112;,
    4;122, 121, 112, 113;,
    4;123, 122, 113, 114;,
    4;124, 123, 114, 115;,
    4;125, 124, 115, 116;,
    4;126, 125, 116, 117;,
    4;127, 128, 119, 118;,
    4;129, 127, 118, 120;,
    4;130, 129, 120, 121;,
    4;131, 130, 121, 122;,
    4;132, 131, 122, 123;,
    4;133, 132, 123, 124;,
    4;134, 133, 124, 125;,
    4;135, 134, 125, 126;,
    4;136, 137, 138, 139;,
    4;140, 136, 139, 141;,
    4;142, 140, 141, 143;,
    4;144, 142, 143, 145;,
    4;146, 144, 145, 147;,
    4;148, 146, 147, 149;,
    4;150, 148, 149, 151;,
    4;152, 150, 151, 153;,
    4;154, 155, 156, 157;,
    4;158, 159, 160, 161;,
    4;162, 158, 161, 163;,
    4;164, 165, 166, 167;,
    4;168, 164, 167, 169;,
    4;170, 171, 172, 173;,
    4;174, 170, 173, 175;,
    4;155, 176, 177, 156;,
    4;178, 179, 155, 154;,
    4;180, 181, 159, 158;,
    4;182, 180, 158, 162;,
    4;183, 184, 165, 164;,
    4;185, 183, 164, 168;,
    4;186, 187, 171, 170;,
    4;188, 186, 170, 174;,
    4;179, 189, 176, 155;,
    4;190, 191, 179, 178;,
    4;192, 193, 181, 180;,
    4;194, 192, 180, 182;,
    4;195, 196, 184, 183;,
    4;197, 195, 183, 185;,
    4;198, 199, 187, 186;,
    4;200, 198, 186, 188;,
    4;191, 201, 189, 179;,
    4;202, 203, 191, 190;,
    4;204, 205, 193, 192;,
    4;206, 204, 192, 194;,
    4;207, 208, 196, 195;,
    4;209, 207, 195, 197;,
    4;210, 211, 199, 198;,
    4;212, 210, 198, 200;,
    4;203, 213, 201, 191;,
    4;214, 215, 203, 202;,
    4;216, 217, 205, 204;,
    4;218, 216, 204, 206;,
    4;219, 220, 208, 207;,
    4;221, 219, 207, 209;,
    4;222, 223, 211, 210;,
    4;224, 222, 210, 212;,
    4;215, 225, 213, 203;,
    4;226, 227, 215, 214;,
    4;228, 229, 217, 216;,
    4;230, 228, 216, 218;,
    4;231, 232, 220, 219;,
    4;233, 231, 219, 221;,
    4;234, 235, 223, 222;,
    4;236, 234, 222, 224;,
    4;227, 237, 225, 215;,
    4;238, 239, 240, 241;,
    4;242, 243, 244, 245;,
    4;246, 242, 245, 247;,
    4;248, 246, 247, 249;,
    4;250, 248, 249, 251;,
    4;252, 250, 251, 253;,
    4;254, 252, 253, 255;,
    4;239, 254, 255, 240;,
    3;26, 256, 23;,
    3;257, 24, 23;,
    3;258, 28, 31;,
    3;259, 32, 30;,
    3;260, 35, 38;,
    3;261, 39, 42;;
   }

   MeshTextureCoords {
    262;
    0.302000; 0.953000;,
    0.269000; 0.953000;,
    0.269000; 0.997000;,
    0.302000; 0.997000;,
    0.334000; 0.953000;,
    0.334000; 0.997000;,
    0.366000; 0.953000;,
    0.366000; 0.997000;,
    0.399000; 0.953000;,
    0.399000; 0.997000;,
    0.431000; 0.953000;,
    0.431000; 0.997000;,
    0.464000; 0.953000;,
    0.464000; 0.997000;,
    0.496000; 0.953000;,
    0.496000; 0.997000;,
    0.528000; 0.953000;,
    0.528000; 0.997000;,
    0.855000; 0.332000;,
    0.855000; 0.412000;,
    0.775000; 0.412000;,
    0.775000; 0.332000;,
    0.622000; 0.309000;,
    0.643000; 0.288000;,
    0.622000; 0.288000;,
    0.618000; 0.298000;,
    0.643000; 0.309000;,
    0.632000; 0.313000;,
    0.886000; 0.744000;,
    0.825000; 0.720000;,
    0.775000; 0.767000;,
    0.998000; 0.766000;,
    0.663000; 0.744000;,
    0.602000; 0.720000;,
    0.552000; 0.767000;,
    0.879000; 0.457000;,
    0.817000; 0.435000;,
    0.768000; 0.478000;,
    0.990000; 0.478000;,
    0.656000; 0.456000;,
    0.718000; 0.434000;,
    0.768000; 0.478000;,
    0.545000; 0.478000;,
    0.775000; 0.779000;,
    0.998000; 0.778000;,
    0.552000; 0.779000;,
    0.990000; 0.489000;,
    0.768000; 0.489000;,
    0.768000; 0.478000;,
    0.990000; 0.478000;,
    0.768000; 0.489000;,
    0.545000; 0.489000;,
    0.791000; 0.794000;,
    0.982000; 0.794000;,
    0.568000; 0.794000;,
    0.759000; 0.794000;,
    0.975000; 0.505000;,
    0.783000; 0.505000;,
    0.752000; 0.505000;,
    0.561000; 0.505000;,
    0.791000; 0.963000;,
    0.982000; 0.963000;,
    0.568000; 0.963000;,
    0.759000; 0.963000;,
    0.975000; 0.674000;,
    0.783000; 0.674000;,
    0.752000; 0.674000;,
    0.561000; 0.674000;,
    0.775000; 0.979000;,
    0.998000; 0.979000;,
    0.552000; 0.979000;,
    0.990000; 0.690000;,
    0.768000; 0.690000;,
    0.768000; 0.690000;,
    0.545000; 0.690000;,
    0.775000; 0.997000;,
    0.998000; 0.997000;,
    0.552000; 0.997000;,
    0.990000; 0.708000;,
    0.768000; 0.708000;,
    0.768000; 0.708000;,
    0.545000; 0.708000;,
    0.302000; 0.921000;,
    0.269000; 0.921000;,
    0.334000; 0.921000;,
    0.366000; 0.921000;,
    0.399000; 0.921000;,
    0.431000; 0.921000;,
    0.464000; 0.921000;,
    0.496000; 0.921000;,
    0.528000; 0.921000;,
    0.302000; 0.902000;,
    0.269000; 0.902000;,
    0.334000; 0.902000;,
    0.366000; 0.902000;,
    0.399000; 0.902000;,
    0.431000; 0.902000;,
    0.464000; 0.902000;,
    0.496000; 0.902000;,
    0.528000; 0.902000;,
    0.302000; 0.883000;,
    0.269000; 0.883000;,
    0.334000; 0.883000;,
    0.366000; 0.883000;,
    0.399000; 0.883000;,
    0.431000; 0.883000;,
    0.464000; 0.883000;,
    0.496000; 0.883000;,
    0.528000; 0.883000;,
    0.302000; 0.398000;,
    0.269000; 0.398000;,
    0.334000; 0.398000;,
    0.366000; 0.398000;,
    0.399000; 0.398000;,
    0.431000; 0.398000;,
    0.464000; 0.398000;,
    0.496000; 0.398000;,
    0.528000; 0.398000;,
    0.302000; 0.379000;,
    0.269000; 0.379000;,
    0.334000; 0.379000;,
    0.366000; 0.379000;,
    0.399000; 0.379000;,
    0.431000; 0.379000;,
    0.464000; 0.379000;,
    0.496000; 0.379000;,
    0.528000; 0.379000;,
    0.302000; 0.361000;,
    0.269000; 0.361000;,
    0.334000; 0.361000;,
    0.366000; 0.361000;,
    0.399000; 0.361000;,
    0.431000; 0.361000;,
    0.464000; 0.361000;,
    0.496000; 0.361000;,
    0.528000; 0.361000;,
    0.035000; 0.000000;,
    0.003000; 0.000000;,
    0.003000; 1.000000;,
    0.035000; 1.000000;,
    0.068000; 0.000000;,
    0.068000; 1.000000;,
    0.100000; 0.000000;,
    0.100000; 1.000000;,
    0.132000; 0.000000;,
    0.132000; 1.000000;,
    0.165000; 0.000000;,
    0.165000; 1.000000;,
    0.197000; 0.000000;,
    0.197000; 1.000000;,
    0.229000; 0.000000;,
    0.229000; 1.000000;,
    0.262000; 0.000000;,
    0.262000; 1.000000;,
    0.752000; 0.322000;,
    0.726000; 0.310000;,
    0.726000; 0.322000;,
    0.744000; 0.331000;,
    0.907000; 0.307000;,
    0.933000; 0.317000;,
    0.925000; 0.325000;,
    0.907000; 0.318000;,
    0.881000; 0.317000;,
    0.889000; 0.325000;,
    0.362000; 0.307000;,
    0.388000; 0.317000;,
    0.380000; 0.325000;,
    0.362000; 0.318000;,
    0.336000; 0.317000;,
    0.344000; 0.325000;,
    0.545000; 0.308000;,
    0.519000; 0.320000;,
    0.527000; 0.328000;,
    0.545000; 0.320000;,
    0.571000; 0.320000;,
    0.563000; 0.328000;,
    0.700000; 0.322000;,
    0.708000; 0.331000;,
    0.786000; 0.284000;,
    0.726000; 0.284000;,
    0.907000; 0.284000;,
    0.966000; 0.284000;,
    0.848000; 0.284000;,
    0.362000; 0.284000;,
    0.421000; 0.284000;,
    0.303000; 0.284000;,
    0.545000; 0.284000;,
    0.486000; 0.284000;,
    0.604000; 0.284000;,
    0.667000; 0.284000;,
    0.816000; 0.100000;,
    0.726000; 0.100000;,
    0.907000; 0.100000;,
    0.997000; 0.100000;,
    0.817000; 0.100000;,
    0.362000; 0.100000;,
    0.452000; 0.100000;,
    0.272000; 0.100000;,
    0.545000; 0.100000;,
    0.455000; 0.100000;,
    0.635000; 0.100000;,
    0.636000; 0.100000;,
    0.795000; 0.080000;,
    0.726000; 0.080000;,
    0.907000; 0.080000;,
    0.976000; 0.080000;,
    0.837000; 0.080000;,
    0.362000; 0.080000;,
    0.431000; 0.080000;,
    0.293000; 0.080000;,
    0.545000; 0.080000;,
    0.475000; 0.080000;,
    0.614000; 0.080000;,
    0.657000; 0.080000;,
    0.775000; 0.040000;,
    0.726000; 0.040000;,
    0.907000; 0.040000;,
    0.955000; 0.040000;,
    0.858000; 0.040000;,
    0.362000; 0.040000;,
    0.411000; 0.040000;,
    0.313000; 0.040000;,
    0.545000; 0.040000;,
    0.496000; 0.040000;,
    0.594000; 0.040000;,
    0.677000; 0.040000;,
    0.736000; 0.003000;,
    0.726000; 0.003000;,
    0.907000; 0.003000;,
    0.917000; 0.003000;,
    0.897000; 0.003000;,
    0.362000; 0.003000;,
    0.372000; 0.003000;,
    0.352000; 0.003000;,
    0.545000; 0.003000;,
    0.535000; 0.003000;,
    0.555000; 0.003000;,
    0.716000; 0.003000;,
    0.665000; 0.318000;,
    0.657000; 0.318000;,
    0.657000; 0.411000;,
    0.665000; 0.411000;,
    0.607000; 0.318000;,
    0.599000; 0.318000;,
    0.599000; 0.411000;,
    0.607000; 0.411000;,
    0.615000; 0.318000;,
    0.615000; 0.411000;,
    0.623000; 0.318000;,
    0.623000; 0.411000;,
    0.632000; 0.318000;,
    0.632000; 0.411000;,
    0.640000; 0.318000;,
    0.640000; 0.411000;,
    0.648000; 0.318000;,
    0.648000; 0.411000;,
    0.647000; 0.298000;,
    0.632000; 0.284000;,
    0.948000; 0.720000;,
    0.725000; 0.720000;,
    0.941000; 0.435000;,
    0.595000; 0.434000;;
   }

   FVFData {
    258;
    524;
    0,
    1065353216,
    0,
    1065353216,
    0,
    1065353216,
    0,
    1065353216,
    0,
    1065353216,
    0,
    1065353216,
    0,
    1065353216,
    0,
    1065353216,
    0,
    1065353216,
    0,
    1065353216,
    0,
    1065353216,
    0,
    1065353216,
    0,
    1065353216,
    0,
    1065353216,
    0,
    1065353216,
    0,
    1065353216,
    0,
    1065353216,
    0,
    1065353216,
    0,
    1065353216,
    0,
    1065353216,
    0,
    1065353216,
    0,
    1065353216,
    0,
    1065353216,
    0,
    1065353216,
    0,
    1065353216,
    0,
    1065353216,
    0,
    1065353216,
    0,
    1065353216,
    0,
    1065353216,
    0,
    1065353216,
    0,
    1065353216,
    0,
    1065353216,
    0,
    1065353216,
    0,
    1065353216,
    0,
    1065353216,
    0,
    1065353216,
    0,
    1065353216,
    0,
    1065353216,
    0,
    1065353216,
    0,
    1065353216,
    0,
    1065353216,
    0,
    1065353216,
    0,
    1065353216,
    0,
    1065353216,
    0,
    1065353216,
    0,
    1065353216,
    0,
    1065353216,
    0,
    1065353216,
    0,
    1065353216,
    0,
    1065353216,
    0,
    1065353216,
    0,
    1065353216,
    0,
    1065353216,
    0,
    1065353216,
    0,
    1065353216,
    0,
    1065353216,
    0,
    1065353216,
    0,
    1065353216,
    0,
    1065353216,
    0,
    1065353216,
    0,
    1065353216,
    0,
    1065353216,
    0,
    1065353216,
    0,
    1065353216,
    0,
    1065353216,
    0,
    1065353216,
    0,
    1065353216,
    0,
    1065353216,
    0,
    1065353216,
    0,
    1065353216,
    0,
    1065353216,
    0,
    1065353216,
    0,
    1065353216,
    0,
    1065353216,
    0,
    1065353216,
    0,
    1065353216,
    0,
    1065353216,
    0,
    1065353216,
    0,
    1065353216,
    0,
    1065353216,
    0,
    1065353216,
    0,
    1065353216,
    0,
    1065353216,
    0,
    1065353216,
    0,
    1065353216,
    0,
    1065353216,
    0,
    1065353216,
    0,
    1065353216,
    0,
    1065353216,
    0,
    1065353216,
    0,
    1065353216,
    0,
    1065353216,
    0,
    1065353216,
    0,
    1065353216,
    0,
    1065353216,
    0,
    1065353216,
    0,
    1065353216,
    0,
    1065353216,
    0,
    1065353216,
    0,
    1065353216,
    0,
    1065353216,
    0,
    1065353216,
    0,
    1065353216,
    0,
    1065353216,
    0,
    1065353216,
    0,
    1065353216,
    0,
    1065353216,
    0,
    1065353216,
    0,
    1065353216,
    0,
    1065353216,
    0,
    1065353216,
    0,
    1065353216,
    0,
    1065353216,
    0,
    1065353216,
    0,
    1065353216,
    0,
    1065353216,
    0,
    1065353216,
    0,
    1065353216,
    0,
    1065353216,
    0,
    1065353216,
    0,
    1065353216,
    0,
    1065353216,
    0,
    1065353216,
    0,
    1065353216,
    0,
    1065353216,
    0,
    1065353216,
    0,
    1065353216,
    0,
    1065353216,
    0,
    1065353216,
    0,
    1065353216,
    0,
    1065353216,
    0,
    1065353216,
    0,
    1065353216,
    0,
    1065353216,
    0,
    1065353216,
    0,
    1065353216,
    0,
    1065353216,
    0,
    1065353216,
    0,
    1065353216,
    0,
    1065353216,
    0,
    1065353216,
    0,
    1065353216,
    0,
    1065353216,
    0,
    1065353216,
    0,
    1065353216,
    0,
    1065353216,
    0,
    1065353216,
    0,
    1065353216,
    0,
    1065353216,
    0,
    1065353216,
    0,
    1065353216,
    0,
    1065353216,
    0,
    1065353216,
    0,
    1065353216,
    0,
    1065353216,
    0,
    1065353216,
    0,
    1065353216,
    0,
    1065353216,
    0,
    1065353216,
    0,
    1065353216,
    0,
    1065353216,
    0,
    1065353216,
    0,
    1065353216,
    0,
    1065353216,
    0,
    1065353216,
    0,
    1065353216,
    0,
    1065353216,
    0,
    1065353216,
    0,
    1065353216,
    0,
    1065353216,
    0,
    1065353216,
    0,
    1065353216,
    0,
    1065353216,
    0,
    1065353216,
    0,
    1065353216,
    0,
    1065353216,
    0,
    1065353216,
    0,
    1065353216,
    0,
    1065353216,
    0,
    1065353216,
    0,
    1065353216,
    0,
    1065353216,
    0,
    1065353216,
    0,
    1065353216,
    0,
    1065353216,
    0,
    1065353216,
    0,
    1065353216,
    0,
    1065353216,
    0,
    1065353216,
    0,
    1065353216,
    0,
    1065353216,
    0,
    1065353216,
    0,
    1065353216,
    0,
    1065353216,
    0,
    1065353216,
    0,
    1065353216,
    0,
    1065353216,
    0,
    1065353216,
    0,
    1065353216,
    0,
    1065353216,
    0,
    1065353216,
    0,
    1065353216,
    0,
    1065353216,
    0,
    1065353216,
    0,
    1065353216,
    0,
    1065353216,
    0,
    1065353216,
    0,
    1065353216,
    0,
    1065353216,
    0,
    1065353216,
    0,
    1065353216,
    0,
    1065353216,
    0,
    1065353216,
    0,
    1065353216,
    0,
    1065353216,
    0,
    1065353216,
    0,
    1065353216,
    0,
    1065353216,
    0,
    1065353216,
    0,
    1065353216,
    0,
    1065353216,
    0,
    1065353216,
    0,
    1065353216,
    0,
    1065353216,
    0,
    1065353216,
    0,
    1065353216,
    0,
    1065353216,
    0,
    1065353216,
    0,
    1065353216,
    0,
    1065353216,
    0,
    1065353216,
    0,
    1065353216,
    0,
    1065353216,
    0,
    1065353216,
    0,
    1065353216,
    0,
    1065353216,
    0,
    1065353216,
    0,
    1065353216,
    0,
    1065353216,
    0,
    1065353216,
    0,
    1065353216,
    0,
    1065353216,
    0,
    1065353216,
    0,
    1065353216,
    0,
    1065353216,
    0,
    1065353216,
    0,
    1065353216,
    0,
    1065353216,
    0,
    1065353216,
    0,
    1065353216,
    0,
    1065353216,
    0,
    1065353216,
    0,
    1065353216,
    0,
    1065353216,
    0,
    1065353216,
    0,
    1065353216,
    0,
    1065353216,
    0,
    1065353216,
    0,
    1065353216,
    0,
    1065353216,
    0,
    1065353216,
    0,
    1065353216;
   }

   MeshMaterialList {
    1;
    157;
    0,
    0,
    0,
    0,
    0,
    0,
    0,
    0,
    0,
    0,
    0,
    0,
    0,
    0,
    0,
    0,
    0,
    0,
    0,
    0,
    0,
    0,
    0,
    0,
    0,
    0,
    0,
    0,
    0,
    0,
    0,
    0,
    0,
    0,
    0,
    0,
    0,
    0,
    0,
    0,
    0,
    0,
    0,
    0,
    0,
    0,
    0,
    0,
    0,
    0,
    0,
    0,
    0,
    0,
    0,
    0,
    0,
    0,
    0,
    0,
    0,
    0,
    0,
    0,
    0,
    0,
    0,
    0,
    0,
    0,
    0,
    0,
    0,
    0,
    0,
    0,
    0,
    0,
    0,
    0,
    0,
    0,
    0,
    0,
    0,
    0,
    0,
    0,
    0,
    0,
    0,
    0,
    0,
    0,
    0,
    0,
    0,
    0,
    0,
    0,
    0,
    0,
    0,
    0,
    0,
    0,
    0,
    0,
    0,
    0,
    0,
    0,
    0,
    0,
    0,
    0,
    0,
    0,
    0,
    0,
    0,
    0,
    0,
    0,
    0,
    0,
    0,
    0,
    0,
    0,
    0,
    0,
    0,
    0,
    0,
    0,
    0,
    0,
    0,
    0,
    0,
    0,
    0,
    0,
    0,
    0,
    0,
    0,
    0,
    0,
    0,
    0,
    0,
    0,
    0,
    0,
    0;

    Material orig_signfirelane_Smoothing {
     0.588000; 0.588000; 0.588000; 1.000000;;
     128.000000;
     0.000000; 0.000000; 0.000000;;
     0.000000; 0.000000; 0.000000;;

     TextureFilename {
      "D:\\new packs\\test\\lamppost_diffuse.tga";
     }
    }

   }
  }
}
