xof 0303txt 0032

// DirectX 8.0 file
// Creator: Ultimate Unwrap3D Pro v3.27
// Website: http://www.unwrap3d.com
// Time: Fri Jun 01 18:48:30 2012

// Start of Templates

template VertexDuplicationIndices {
 <b8d65549-d7c9-4995-89cf-53a9a8b031e3>
 DWORD nIndices;
 DWORD nOriginalVertices;
 array DWORD indices[nIndices];
}

template FVFData {
 <b6e70a0e-8ef9-4e83-94ad-ecc8b0c04897>
 DWORD dwFVF;
 DWORD nDWords;
 array DWORD data[nDWords];
}

template XSkinMeshHeader {
 <3CF169CE-FF7C-44ab-93C0-F78F62D172E2>
 WORD nMaxSkinWeightsPerVertex;
 WORD nMaxSkinWeightsPerFace;
 WORD nBones;
}

template SkinWeights {
 <6F0D123B-BAD2-4167-A0D0-80224F25FABB>
 STRING transformNodeName;
 DWORD nWeights;
 array DWORD vertexIndices[nWeights];
 array FLOAT weights[nWeights];
 Matrix4x4 matrixOffset;
}

template AnimTicksPerSecond {
 <9E415A43-7BA6-4a73-8743-B73D47E88476>
 DWORD AnimTicksPerSecond;
}

// Start of Frames

Frame lightpole {
   FrameTransformMatrix {
    1.000000, 0.000000, 0.000000, 0.000000,
    0.000000, 1.000000, 0.000000, 0.000000,
    0.000000, 0.000000, 1.000000, 0.000000,
    0.000000, 0.000000, 0.000000, 1.000000;;
   }

   Mesh lightpole {
    252;
    1.621000; 3.913000; -0.041500;,
    1.621000; 3.913000; 0.040500;,
    1.629000; 0.605000; 0.043500;,
    1.629000; 0.605000; -0.044500;,
    1.564000; 3.913000; -0.098500;,
    1.621000; 3.913000; -0.041500;,
    1.629000; 0.605000; -0.044500;,
    1.567000; 0.605000; -0.106500;,
    1.482000; 3.913000; -0.098500;,
    1.479000; 0.605000; -0.106500;,
    1.425000; 3.913000; -0.041500;,
    1.417000; 0.605000; -0.044500;,
    1.425000; 3.913000; 0.040500;,
    1.417000; 0.605000; 0.043500;,
    1.482000; 3.913000; 0.097500;,
    1.479000; 0.605000; 0.105500;,
    1.564000; 3.913000; 0.097500;,
    1.567000; 0.605000; 0.105500;,
    1.613000; 7.808000; -0.037500;,
    1.613000; 7.808000; 0.036500;,
    1.621000; 3.913000; 0.040500;,
    1.621000; 3.913000; -0.041500;,
    1.560000; 7.808000; -0.090500;,
    1.613000; 7.808000; -0.037500;,
    1.621000; 3.913000; -0.041500;,
    1.564000; 3.913000; -0.098500;,
    1.486000; 7.808000; -0.090500;,
    1.482000; 3.913000; -0.098500;,
    1.433000; 7.808000; -0.037500;,
    1.425000; 3.913000; -0.041500;,
    1.433000; 7.808000; 0.036500;,
    1.425000; 3.913000; 0.040500;,
    1.486000; 7.808000; 0.089500;,
    1.482000; 3.913000; 0.097500;,
    1.560000; 7.808000; 0.089500;,
    1.564000; 3.913000; 0.097500;,
    1.265000; -0.000000; -0.240500;,
    1.781000; -0.000000; 0.239500;,
    1.283000; -0.000000; 0.258500;,
    1.264000; -0.000000; 0.239500;,
    1.763000; -0.000000; -0.258500;,
    1.283000; -0.000000; -0.258500;,
    1.486000; 7.808000; -0.090500;,
    1.560000; 7.808000; 0.089500;,
    1.613000; 7.808000; -0.037500;,
    1.560000; 7.808000; -0.090500;,
    1.433000; 7.808000; 0.036500;,
    1.433000; 7.808000; -0.037500;,
    1.692000; 0.605000; 0.151500;,
    1.692000; 0.605000; -0.152500;,
    1.629000; 0.605000; -0.044500;,
    1.629000; 0.605000; 0.043500;,
    1.675000; 0.605000; 0.168500;,
    1.567000; 0.605000; 0.105500;,
    1.371000; 0.605000; 0.168500;,
    1.479000; 0.605000; 0.105500;,
    1.354000; 0.605000; 0.151500;,
    1.417000; 0.605000; 0.043500;,
    1.354000; 0.605000; -0.152500;,
    1.417000; 0.605000; -0.044500;,
    1.371000; 0.605000; -0.169500;,
    1.479000; 0.605000; -0.106500;,
    1.675000; 0.605000; -0.169500;,
    1.567000; 0.605000; -0.106500;,
    1.702000; 0.591000; 0.160500;,
    1.702000; 0.591000; -0.161500;,
    1.692000; 0.605000; -0.152500;,
    1.692000; 0.605000; 0.151500;,
    1.684000; 0.591000; 0.178500;,
    1.675000; 0.605000; 0.168500;,
    1.362000; 0.591000; 0.178500;,
    1.371000; 0.605000; 0.168500;,
    1.344000; 0.591000; 0.160500;,
    1.354000; 0.605000; 0.151500;,
    1.344000; 0.591000; -0.161500;,
    1.354000; 0.605000; -0.152500;,
    1.362000; 0.591000; -0.179500;,
    1.371000; 0.605000; -0.169500;,
    1.684000; 0.591000; -0.179500;,
    1.675000; 0.605000; -0.169500;,
    1.702000; 0.591000; -0.161500;,
    1.692000; 0.605000; -0.152500;,
    1.781000; -0.000000; 0.239500;,
    1.781000; -0.000000; -0.240500;,
    1.763000; -0.000000; 0.257500;,
    1.283000; -0.000000; 0.258500;,
    1.264000; -0.000000; 0.239500;,
    1.265000; -0.000000; -0.240500;,
    1.283000; -0.000000; -0.258500;,
    1.763000; -0.000000; -0.258500;,
    1.781000; -0.000000; -0.240500;,
    0.066000; 7.843000; 0.039500;,
    0.741000; 7.781000; 0.043500;,
    0.736000; 7.799000; -0.000500;,
    0.063000; 7.860000; -0.000500;,
    0.741000; 7.781000; -0.044500;,
    0.066000; 7.843000; -0.040500;,
    0.750000; 7.737000; -0.063500;,
    0.072000; 7.803000; -0.057500;,
    0.741000; 7.692000; -0.044500;,
    0.066000; 7.763000; -0.040500;,
    0.736000; 7.674000; -0.000500;,
    0.063000; 7.746000; -0.000500;,
    0.741000; 7.692000; 0.043500;,
    0.066000; 7.763000; 0.039500;,
    0.750000; 7.737000; 0.062500;,
    0.072000; 7.803000; 0.056500;,
    0.741000; 7.781000; 0.043500;,
    0.066000; 7.843000; 0.039500;,
    -1.283000; 7.844000; -0.045500;,
    -1.283000; 7.844000; 0.044500;,
    -1.283000; 7.889000; -0.000500;,
    -1.283000; 7.876000; -0.032500;,
    -1.283000; 7.799000; -0.000500;,
    -1.283000; 7.812000; -0.032500;,
    1.485000; 7.689000; -0.088500;,
    1.485000; 7.609000; -0.089500;,
    1.452000; 7.609000; -0.080500;,
    1.452000; 7.689000; -0.080500;,
    1.485000; 7.529000; -0.088500;,
    1.452000; 7.529000; -0.080500;,
    1.485000; 7.529000; 0.087500;,
    1.485000; 7.609000; 0.088500;,
    1.452000; 7.609000; 0.079500;,
    1.452000; 7.529000; 0.079500;,
    1.485000; 7.689000; 0.087500;,
    1.452000; 7.689000; 0.079500;,
    1.428000; 7.689000; 0.063500;,
    1.409000; 7.689000; -0.000500;,
    1.409000; 7.673000; -0.000500;,
    1.415000; 7.654000; 0.044500;,
    1.409000; 7.529000; -0.000500;,
    1.428000; 7.529000; 0.063500;,
    1.415000; 7.564000; 0.044500;,
    1.409000; 7.545000; -0.000500;,
    1.428000; 7.529000; -0.064500;,
    1.415000; 7.564000; -0.045500;,
    1.428000; 7.689000; -0.064500;,
    1.415000; 7.654000; -0.045500;,
    1.485000; 7.689000; -0.088500;,
    1.452000; 7.689000; -0.080500;,
    1.428000; 7.689000; -0.064500;,
    1.485000; 7.689000; -0.000500;,
    1.452000; 7.529000; -0.080500;,
    1.485000; 7.529000; -0.088500;,
    1.485000; 7.529000; -0.000500;,
    1.428000; 7.529000; -0.064500;,
    1.428000; 7.609000; -0.064500;,
    1.452000; 7.689000; 0.079500;,
    1.485000; 7.689000; 0.087500;,
    1.428000; 7.689000; 0.063500;,
    1.428000; 7.609000; 0.063500;,
    1.485000; 7.529000; 0.087500;,
    1.452000; 7.529000; 0.079500;,
    1.428000; 7.529000; 0.063500;,
    -0.609000; 7.876000; 0.037500;,
    -0.610000; 7.892000; -0.000500;,
    -1.283000; 7.889000; -0.000500;,
    -1.283000; 7.876000; 0.031500;,
    1.409000; 7.673000; -0.000500;,
    1.415000; 7.654000; 0.044500;,
    -0.609000; 7.876000; -0.038500;,
    -1.283000; 7.876000; -0.032500;,
    1.415000; 7.654000; -0.045500;,
    -0.606000; 7.838000; -0.053500;,
    -1.283000; 7.844000; -0.045500;,
    1.428000; 7.609000; -0.064500;,
    -0.609000; 7.801000; -0.038500;,
    -1.283000; 7.812000; -0.032500;,
    1.415000; 7.564000; -0.045500;,
    -0.610000; 7.785000; -0.000500;,
    -1.283000; 7.799000; -0.000500;,
    1.409000; 7.545000; -0.000500;,
    -0.609000; 7.801000; 0.037500;,
    -1.283000; 7.812000; 0.031500;,
    1.415000; 7.564000; 0.044500;,
    -0.606000; 7.838000; 0.052500;,
    -1.283000; 7.844000; 0.044500;,
    1.428000; 7.609000; 0.063500;,
    -0.609000; 7.876000; 0.037500;,
    -1.283000; 7.876000; 0.031500;,
    1.415000; 7.654000; 0.044500;,
    -1.273000; 7.879000; -0.072500;,
    -1.228000; 7.879000; 0.002500;,
    -1.190000; 7.790000; 0.002500;,
    -1.247000; 7.790000; -0.092500;,
    -1.390000; 7.879000; -0.119500;,
    -1.394000; 7.790000; -0.151500;,
    -1.535000; 7.879000; -0.119500;,
    -1.577000; 7.790000; -0.151500;,
    -1.652000; 7.879000; -0.072500;,
    -1.725000; 7.790000; -0.092500;,
    -1.697000; 7.879000; 0.002500;,
    -1.781000; 7.790000; 0.002500;,
    -1.652000; 7.879000; 0.077500;,
    -1.725000; 7.790000; 0.097500;,
    -1.535000; 7.879000; 0.124500;,
    -1.577000; 7.790000; 0.156500;,
    -1.390000; 7.879000; 0.124500;,
    -1.394000; 7.790000; 0.156500;,
    -1.273000; 7.879000; 0.077500;,
    -1.247000; 7.790000; 0.097500;,
    -1.331000; 7.934000; -0.030500;,
    -1.312000; 7.934000; 0.002500;,
    -1.382000; 7.934000; -0.050500;,
    -1.445000; 7.934000; -0.050500;,
    -1.496000; 7.934000; -0.030500;,
    -1.515000; 7.934000; 0.002500;,
    -1.496000; 7.934000; 0.035500;,
    -1.445000; 7.934000; 0.055500;,
    -1.382000; 7.934000; 0.055500;,
    -1.331000; 7.934000; 0.035500;,
    -1.204000; 7.789000; 0.002500;,
    -1.258000; 7.789000; -0.088500;,
    -1.258000; 7.789000; 0.093500;,
    -1.399000; 7.789000; 0.149500;,
    -1.573000; 7.789000; 0.149500;,
    -1.713000; 7.789000; 0.093500;,
    -1.767000; 7.789000; 0.002500;,
    -1.713000; 7.789000; -0.088500;,
    -1.573000; 7.789000; -0.144500;,
    -1.399000; 7.789000; -0.144500;,
    -1.235000; 7.758000; 0.002500;,
    -1.276000; 7.758000; -0.066500;,
    -1.258000; 7.789000; -0.088500;,
    -1.204000; 7.789000; 0.002500;,
    -1.276000; 7.758000; 0.071500;,
    -1.258000; 7.789000; 0.093500;,
    -1.404000; 7.757000; 0.122500;,
    -1.399000; 7.789000; 0.149500;,
    -1.568000; 7.757000; 0.122500;,
    -1.573000; 7.789000; 0.149500;,
    -1.695000; 7.758000; 0.071500;,
    -1.713000; 7.789000; 0.093500;,
    -1.736000; 7.758000; 0.002500;,
    -1.767000; 7.789000; 0.002500;,
    -1.695000; 7.758000; -0.066500;,
    -1.713000; 7.789000; -0.088500;,
    -1.568000; 7.757000; -0.117500;,
    -1.573000; 7.789000; -0.144500;,
    -1.404000; 7.757000; -0.117500;,
    -1.399000; 7.789000; -0.144500;,
    1.781000; -0.000000; -0.240500;,
    1.763000; -0.000000; 0.257500;,
    1.486000; 7.808000; 0.089500;,
    1.613000; 7.808000; 0.036500;,
    -1.283000; 7.812000; 0.031500;,
    -1.283000; 7.876000; 0.031500;,
    1.409000; 7.689000; -0.000500;,
    1.409000; 7.529000; -0.000500;,
    -1.486000; 7.723000; 0.002500;,
    -1.414000; 7.949000; 0.001500;;
    168;
    4;0, 1, 2, 3;,
    4;4, 5, 6, 7;,
    4;8, 4, 7, 9;,
    4;10, 8, 9, 11;,
    4;12, 10, 11, 13;,
    4;14, 12, 13, 15;,
    4;16, 14, 15, 17;,
    4;1, 16, 17, 2;,
    4;18, 19, 20, 21;,
    4;22, 23, 24, 25;,
    4;26, 22, 25, 27;,
    4;28, 26, 27, 29;,
    4;30, 28, 29, 31;,
    4;32, 30, 31, 33;,
    4;34, 32, 33, 35;,
    4;19, 34, 35, 20;,
    4;36, 37, 38, 39;,
    4;40, 37, 36, 41;,
    4;42, 43, 44, 45;,
    4;46, 43, 42, 47;,
    4;48, 49, 50, 51;,
    4;52, 48, 51, 53;,
    4;54, 52, 53, 55;,
    4;56, 54, 55, 57;,
    4;58, 56, 57, 59;,
    4;60, 58, 59, 61;,
    4;62, 60, 61, 63;,
    4;49, 62, 63, 50;,
    4;64, 65, 66, 67;,
    4;68, 64, 67, 69;,
    4;70, 68, 69, 71;,
    4;72, 70, 71, 73;,
    4;74, 72, 73, 75;,
    4;76, 74, 75, 77;,
    4;78, 76, 77, 79;,
    4;80, 78, 79, 81;,
    4;82, 83, 65, 64;,
    4;84, 82, 64, 68;,
    4;85, 84, 68, 70;,
    4;86, 85, 70, 72;,
    4;87, 86, 72, 74;,
    4;88, 87, 74, 76;,
    4;89, 88, 76, 78;,
    4;90, 89, 78, 80;,
    4;91, 92, 93, 94;,
    4;93, 95, 96, 94;,
    4;95, 97, 98, 96;,
    4;98, 97, 99, 100;,
    4;100, 99, 101, 102;,
    4;101, 103, 104, 102;,
    4;103, 105, 106, 104;,
    4;106, 105, 107, 108;,
    4;109, 110, 111, 112;,
    4;113, 110, 109, 114;,
    4;115, 116, 117, 118;,
    4;116, 119, 120, 117;,
    4;121, 122, 123, 124;,
    4;122, 125, 126, 123;,
    4;127, 128, 129, 130;,
    4;131, 132, 133, 134;,
    4;135, 131, 134, 136;,
    4;128, 137, 138, 129;,
    4;139, 140, 141, 142;,
    4;143, 144, 145, 146;,
    4;117, 120, 135, 147;,
    4;118, 117, 147, 137;,
    4;148, 149, 142, 150;,
    4;123, 126, 127, 151;,
    4;124, 123, 151, 132;,
    4;152, 153, 154, 145;,
    4;155, 156, 157, 158;,
    4;155, 91, 94, 156;,
    4;159, 93, 92, 160;,
    4;156, 161, 162, 157;,
    4;156, 94, 96, 161;,
    4;95, 93, 159, 163;,
    4;161, 164, 165, 162;,
    4;96, 98, 164, 161;,
    4;97, 95, 163, 166;,
    4;164, 167, 168, 165;,
    4;164, 98, 100, 167;,
    4;169, 99, 97, 166;,
    4;167, 170, 171, 168;,
    4;167, 100, 102, 170;,
    4;172, 101, 99, 169;,
    4;170, 173, 174, 171;,
    4;170, 102, 104, 173;,
    4;103, 101, 172, 175;,
    4;173, 176, 177, 174;,
    4;104, 106, 176, 173;,
    4;105, 103, 175, 178;,
    4;176, 179, 180, 177;,
    4;176, 106, 108, 179;,
    4;181, 107, 105, 178;,
    4;182, 183, 184, 185;,
    4;186, 182, 185, 187;,
    4;188, 186, 187, 189;,
    4;190, 188, 189, 191;,
    4;192, 190, 191, 193;,
    4;194, 192, 193, 195;,
    4;196, 194, 195, 197;,
    4;198, 196, 197, 199;,
    4;200, 198, 199, 201;,
    4;183, 200, 201, 184;,
    4;202, 203, 183, 182;,
    4;204, 202, 182, 186;,
    4;205, 204, 186, 188;,
    4;206, 205, 188, 190;,
    4;207, 206, 190, 192;,
    4;208, 207, 192, 194;,
    4;209, 208, 194, 196;,
    4;210, 209, 196, 198;,
    4;211, 210, 198, 200;,
    4;203, 211, 200, 183;,
    4;212, 213, 185, 184;,
    4;214, 212, 184, 201;,
    4;215, 214, 201, 199;,
    4;216, 215, 199, 197;,
    4;217, 216, 197, 195;,
    4;218, 217, 195, 193;,
    4;219, 218, 193, 191;,
    4;220, 219, 191, 189;,
    4;221, 220, 189, 187;,
    4;213, 221, 187, 185;,
    4;222, 223, 224, 225;,
    4;226, 222, 225, 227;,
    4;228, 226, 227, 229;,
    4;230, 228, 229, 231;,
    4;232, 230, 231, 233;,
    4;234, 232, 233, 235;,
    4;236, 234, 235, 237;,
    4;238, 236, 237, 239;,
    4;240, 238, 239, 241;,
    4;223, 240, 241, 224;,
    3;40, 242, 37;,
    3;243, 38, 37;,
    3;46, 244, 43;,
    3;245, 44, 43;,
    3;113, 246, 110;,
    3;247, 111, 110;,
    3;248, 150, 142;,
    3;141, 248, 142;,
    3;249, 146, 145;,
    3;154, 249, 145;,
    3;130, 151, 127;,
    3;151, 133, 132;,
    3;136, 147, 135;,
    3;147, 138, 137;,
    3;223, 222, 250;,
    3;222, 226, 250;,
    3;226, 228, 250;,
    3;228, 230, 250;,
    3;230, 232, 250;,
    3;232, 234, 250;,
    3;234, 236, 250;,
    3;236, 238, 250;,
    3;238, 240, 250;,
    3;240, 223, 250;,
    3;203, 202, 251;,
    3;202, 204, 251;,
    3;204, 205, 251;,
    3;205, 206, 251;,
    3;206, 207, 251;,
    3;207, 208, 251;,
    3;208, 209, 251;,
    3;209, 210, 251;,
    3;210, 211, 251;,
    3;211, 203, 251;;

   MeshNormals {
    252;
    0.999997; 0.002418; 0.000000;,
    0.923876; 0.002581; 0.382682;,
    0.923876; 0.002581; 0.382682;,
    0.999997; 0.002418; 0.000000;,
    0.382682; 0.002581; -0.923876;,
    0.707105; 0.002351; -0.707105;,
    0.707105; 0.002351; -0.707105;,
    0.382682; 0.002581; -0.923876;,
    -0.382682; 0.002581; -0.923876;,
    -0.382682; 0.002581; -0.923876;,
    -0.923876; 0.002581; -0.382682;,
    -0.923876; 0.002581; -0.382682;,
    -0.923876; 0.002581; 0.382682;,
    -0.923876; 0.002581; 0.382682;,
    -0.382682; 0.002581; 0.923876;,
    -0.382682; 0.002581; 0.923876;,
    0.382682; 0.002581; 0.923876;,
    0.382682; 0.002581; 0.923876;,
    0.999998; 0.002054; 0.000000;,
    0.923877; 0.002291; 0.382683;,
    0.923877; 0.002291; 0.382683;,
    0.999998; 0.002054; 0.000000;,
    0.382682; 0.002291; -0.923877;,
    0.707105; 0.002179; -0.707106;,
    0.707105; 0.002179; -0.707106;,
    0.382682; 0.002291; -0.923877;,
    -0.382682; 0.002291; -0.923877;,
    -0.382682; 0.002291; -0.923877;,
    -0.923877; 0.002291; -0.382683;,
    -0.923877; 0.002291; -0.382683;,
    -0.923877; 0.002291; 0.382683;,
    -0.923877; 0.002291; 0.382683;,
    -0.382682; 0.002291; 0.923877;,
    -0.382682; 0.002291; 0.923877;,
    0.382682; 0.002291; 0.923877;,
    0.382682; 0.002291; 0.923877;,
    0.000000; -1.000000; 0.000000;,
    0.000000; -1.000000; 0.000000;,
    0.000000; -1.000000; 0.000000;,
    0.000000; -1.000000; 0.000000;,
    0.000000; -1.000000; 0.000000;,
    0.000000; -1.000000; 0.000000;,
    0.000000; 1.000000; 0.000000;,
    0.000000; 1.000000; 0.000000;,
    0.000000; 1.000000; 0.000000;,
    0.000000; 1.000000; 0.000000;,
    0.000000; 1.000000; 0.000000;,
    0.000000; 1.000000; 0.000000;,
    0.000000; 1.000000; 0.000000;,
    0.000000; 1.000000; 0.000000;,
    0.000000; 1.000000; 0.000000;,
    0.000000; 1.000000; 0.000000;,
    0.000000; 1.000000; 0.000000;,
    0.000000; 1.000000; 0.000000;,
    0.000000; 1.000000; 0.000000;,
    0.000000; 1.000000; 0.000000;,
    0.000000; 1.000000; 0.000000;,
    0.000000; 1.000000; 0.000000;,
    0.000000; 1.000000; 0.000000;,
    0.000000; 1.000000; 0.000000;,
    0.000000; 1.000000; 0.000000;,
    0.000000; 1.000000; 0.000000;,
    0.000000; 1.000000; 0.000000;,
    0.000000; 1.000000; 0.000000;,
    0.833337; 0.440737; 0.333619;,
    0.929932; 0.367731; 0.000000;,
    0.813733; 0.581240; 0.000000;,
    0.694379; 0.668009; 0.267586;,
    0.334085; 0.440979; 0.833022;,
    0.267586; 0.668009; 0.694379;,
    -0.332997; 0.441421; 0.833223;,
    -0.267587; 0.668008; 0.694379;,
    -0.833348; 0.441160; 0.333031;,
    -0.694379; 0.668008; 0.267587;,
    -0.833147; 0.440717; -0.334119;,
    -0.694379; 0.668009; -0.267586;,
    -0.333618; 0.440737; -0.833336;,
    -0.267586; 0.668009; -0.694379;,
    0.333619; 0.440737; -0.833337;,
    0.267587; 0.668008; -0.694379;,
    0.628558; 0.458070; -0.628559;,
    0.510187; 0.692400; -0.510187;,
    0.910801; 0.171921; 0.375345;,
    0.991184; 0.132493; 0.000000;,
    0.376289; 0.172586; 0.910286;,
    -0.374289; 0.173344; 0.910966;,
    -0.911073; 0.172752; 0.374302;,
    -0.910393; 0.171995; -0.376301;,
    -0.375344; 0.171921; -0.910802;,
    0.375344; 0.171921; -0.910802;,
    0.694800; 0.185750; -0.694802;,
    0.063042; 0.920461; 0.385718;,
    0.126929; 0.918475; 0.374557;,
    0.137311; 0.990508; 0.006221;,
    0.068655; 0.997632; 0.004186;,
    0.098318; 0.717573; -0.689509;,
    0.047426; 0.713191; -0.699364;,
    -0.002754; 0.014899; -0.999885;,
    -0.006089; 0.009786; -0.999934;,
    -0.104674; -0.692550; -0.713736;,
    -0.059905; -0.700231; -0.711399;,
    -0.147306; -0.989073; -0.005996;,
    -0.082215; -0.996612; -0.002484;,
    -0.104984; -0.697060; 0.709285;,
    -0.059842; -0.703909; 0.707765;,
    -0.003349; 0.012120; 0.999921;,
    -0.007115; -0.001587; 0.999973;,
    0.052764; 0.400629; 0.914720;,
    0.021914; 0.381486; 0.924115;,
    -1.000000; 0.000000; 0.000000;,
    -1.000000; 0.000000; 0.000000;,
    -1.000000; 0.000000; 0.000000;,
    -1.000000; 0.000000; 0.000000;,
    -1.000000; 0.000000; 0.000000;,
    -1.000000; 0.000000; 0.000000;,
    -0.235583; 0.012147; -0.971778;,
    -0.249384; 0.000044; -0.968405;,
    -0.407795; 0.000022; -0.913074;,
    -0.401283; 0.006168; -0.915933;,
    -0.263098; -0.012059; -0.964694;,
    -0.414255; -0.006108; -0.910140;,
    -0.235583; -0.012147; 0.971778;,
    -0.249384; -0.000044; 0.968405;,
    -0.407795; -0.000022; 0.913074;,
    -0.401283; -0.006168; 0.915933;,
    -0.263098; 0.012059; 0.964694;,
    -0.414255; 0.006108; 0.910140;,
    -0.808697; 0.068885; 0.584179;,
    -0.994622; 0.103527; -0.002940;,
    -0.994622; 0.103527; -0.002940;,
    -0.897663; 0.100493; 0.429070;,
    -0.994622; -0.103527; 0.002940;,
    -0.811945; 0.000000; 0.583733;,
    -0.902904; 0.000000; 0.429843;,
    -0.994622; -0.103527; 0.002940;,
    -0.808697; -0.068885; -0.584179;,
    -0.897663; -0.100493; -0.429070;,
    -0.811945; 0.000000; -0.583733;,
    -0.902904; 0.000000; -0.429843;,
    0.000000; 1.000000; 0.000000;,
    0.000000; 1.000000; 0.000000;,
    0.000000; 1.000000; 0.000000;,
    0.000000; 1.000000; 0.000000;,
    0.000000; -1.000000; 0.000000;,
    0.000000; -1.000000; 0.000000;,
    0.000000; -1.000000; 0.000000;,
    0.000000; -1.000000; 0.000000;,
    -0.702834; 0.000000; -0.711354;,
    0.000000; 1.000000; 0.000000;,
    0.000000; 1.000000; 0.000000;,
    0.000000; 1.000000; 0.000000;,
    -0.702834; 0.000000; 0.711354;,
    0.000000; -1.000000; 0.000000;,
    0.000000; -1.000000; 0.000000;,
    0.000000; -1.000000; 0.000000;,
    0.020222; 0.921639; 0.387521;,
    0.021735; 0.999764; -0.000005;,
    -0.004103; 0.999992; -0.000007;,
    -0.003455; 0.921599; 0.388128;,
    0.184322; 0.982857; 0.004089;,
    0.171419; 0.915596; 0.363730;,
    0.012961; 0.704068; -0.710014;,
    -0.006721; 0.698822; -0.715264;,
    0.134168; 0.716979; -0.684062;,
    -0.008323; 0.003031; -0.999961;,
    -0.012144; -0.004354; -0.999917;,
    0.002202; 0.020692; -0.999784;,
    -0.029910; -0.701133; -0.712403;,
    -0.017742; -0.701702; -0.712249;,
    -0.131642; -0.684762; -0.716779;,
    -0.039049; -0.999237; 0.000003;,
    -0.020433; -0.999791; 0.000005;,
    -0.187710; -0.982199; -0.007014;,
    -0.030114; -0.703824; 0.709736;,
    -0.018156; -0.701687; 0.712254;,
    -0.132210; -0.691844; 0.709839;,
    -0.008942; -0.007519; 0.999932;,
    -0.011904; -0.004330; 0.999920;,
    0.001587; 0.016665; 0.999860;,
    0.002885; 0.367361; 0.930074;,
    -0.007744; 0.366626; 0.930336;,
    0.075193; 0.406228; 0.910673;,
    0.521296; 0.588067; -0.618407;,
    0.759995; 0.649928; -0.001195;,
    0.802598; -0.596520; 0.000898;,
    0.532196; -0.558710; -0.636090;,
    0.157434; 0.569379; -0.806859;,
    0.160190; -0.533963; -0.830194;,
    -0.135265; 0.644927; -0.752178;,
    -0.158973; -0.499482; -0.851613;,
    -0.391808; 0.775294; -0.495384;,
    -0.559322; -0.453350; -0.693997;,
    -0.517118; 0.855914; -0.000111;,
    -0.895551; -0.444959; -0.000482;,
    -0.391426; 0.775930; 0.494689;,
    -0.559212; -0.453454; 0.694019;,
    -0.135131; 0.645064; 0.752085;,
    -0.158744; -0.500835; 0.850861;,
    0.157942; 0.567701; 0.807942;,
    0.159341; -0.535689; 0.829245;,
    0.520079; 0.588533; 0.618988;,
    0.533054; -0.559698; 0.634501;,
    0.262498; 0.909628; -0.321980;,
    0.352656; 0.935752; -0.001341;,
    0.085437; 0.889209; -0.449453;,
    -0.068842; 0.911785; -0.404857;,
    -0.178142; 0.954830; -0.237834;,
    -0.218987; 0.975728; 0.000137;,
    -0.177351; 0.955589; 0.235364;,
    -0.067859; 0.913979; 0.400046;,
    0.085510; 0.890172; 0.447528;,
    0.260254; 0.910739; 0.320660;,
    0.072902; -0.997339; 0.000983;,
    0.059170; -0.995002; -0.080437;,
    0.059225; -0.995240; 0.077397;,
    0.021949; -0.991788; 0.125996;,
    -0.022566; -0.991627; 0.127145;,
    -0.058188; -0.995288; 0.077568;,
    -0.070321; -0.997524; 0.000546;,
    -0.057788; -0.995252; -0.078318;,
    -0.023082; -0.991449; -0.128436;,
    0.023542; -0.991234; -0.130004;,
    0.433754; -0.901031; -0.000106;,
    0.311784; -0.875542; -0.369077;,
    0.481566; -0.675287; -0.558643;,
    0.706695; -0.707518; -0.000209;,
    0.313481; -0.873281; 0.372976;,
    0.483966; -0.668153; 0.565110;,
    0.100229; -0.850268; 0.516719;,
    0.145399; -0.651190; 0.744856;,
    -0.099432; -0.853054; 0.512262;,
    -0.143893; -0.659161; 0.738106;,
    -0.312506; -0.875438; 0.368711;,
    -0.482374; -0.675273; 0.557962;,
    -0.434015; -0.900905; 0.000106;,
    -0.706695; -0.707518; 0.000209;,
    -0.314278; -0.873093; -0.372744;,
    -0.484884; -0.667877; -0.564649;,
    -0.100922; -0.850313; -0.516510;,
    -0.146439; -0.651184; -0.744658;,
    0.098799; -0.852918; -0.512610;,
    0.142955; -0.658902; -0.738520;,
    0.000000; -1.000000; 0.000000;,
    0.000000; -1.000000; 0.000000;,
    0.000000; 1.000000; 0.000000;,
    0.000000; 1.000000; 0.000000;,
    -1.000000; 0.000000; 0.000000;,
    -1.000000; 0.000000; 0.000000;,
    0.000000; 1.000000; 0.000000;,
    0.000000; -1.000000; 0.000000;,
    -0.000227; -1.000000; -0.000000;,
    -0.000387; 0.999997; -0.002485;;
    168;
    4;0, 1, 2, 3;,
    4;4, 5, 6, 7;,
    4;8, 4, 7, 9;,
    4;10, 8, 9, 11;,
    4;12, 10, 11, 13;,
    4;14, 12, 13, 15;,
    4;16, 14, 15, 17;,
    4;1, 16, 17, 2;,
    4;18, 19, 20, 21;,
    4;22, 23, 24, 25;,
    4;26, 22, 25, 27;,
    4;28, 26, 27, 29;,
    4;30, 28, 29, 31;,
    4;32, 30, 31, 33;,
    4;34, 32, 33, 35;,
    4;19, 34, 35, 20;,
    4;36, 37, 38, 39;,
    4;40, 37, 36, 41;,
    4;42, 43, 44, 45;,
    4;46, 43, 42, 47;,
    4;48, 49, 50, 51;,
    4;52, 48, 51, 53;,
    4;54, 52, 53, 55;,
    4;56, 54, 55, 57;,
    4;58, 56, 57, 59;,
    4;60, 58, 59, 61;,
    4;62, 60, 61, 63;,
    4;49, 62, 63, 50;,
    4;64, 65, 66, 67;,
    4;68, 64, 67, 69;,
    4;70, 68, 69, 71;,
    4;72, 70, 71, 73;,
    4;74, 72, 73, 75;,
    4;76, 74, 75, 77;,
    4;78, 76, 77, 79;,
    4;80, 78, 79, 81;,
    4;82, 83, 65, 64;,
    4;84, 82, 64, 68;,
    4;85, 84, 68, 70;,
    4;86, 85, 70, 72;,
    4;87, 86, 72, 74;,
    4;88, 87, 74, 76;,
    4;89, 88, 76, 78;,
    4;90, 89, 78, 80;,
    4;91, 92, 93, 94;,
    4;93, 95, 96, 94;,
    4;95, 97, 98, 96;,
    4;98, 97, 99, 100;,
    4;100, 99, 101, 102;,
    4;101, 103, 104, 102;,
    4;103, 105, 106, 104;,
    4;106, 105, 107, 108;,
    4;109, 110, 111, 112;,
    4;113, 110, 109, 114;,
    4;115, 116, 117, 118;,
    4;116, 119, 120, 117;,
    4;121, 122, 123, 124;,
    4;122, 125, 126, 123;,
    4;127, 128, 129, 130;,
    4;131, 132, 133, 134;,
    4;135, 131, 134, 136;,
    4;128, 137, 138, 129;,
    4;139, 140, 141, 142;,
    4;143, 144, 145, 146;,
    4;117, 120, 135, 147;,
    4;118, 117, 147, 137;,
    4;148, 149, 142, 150;,
    4;123, 126, 127, 151;,
    4;124, 123, 151, 132;,
    4;152, 153, 154, 145;,
    4;155, 156, 157, 158;,
    4;155, 91, 94, 156;,
    4;159, 93, 92, 160;,
    4;156, 161, 162, 157;,
    4;156, 94, 96, 161;,
    4;95, 93, 159, 163;,
    4;161, 164, 165, 162;,
    4;96, 98, 164, 161;,
    4;97, 95, 163, 166;,
    4;164, 167, 168, 165;,
    4;164, 98, 100, 167;,
    4;169, 99, 97, 166;,
    4;167, 170, 171, 168;,
    4;167, 100, 102, 170;,
    4;172, 101, 99, 169;,
    4;170, 173, 174, 171;,
    4;170, 102, 104, 173;,
    4;103, 101, 172, 175;,
    4;173, 176, 177, 174;,
    4;104, 106, 176, 173;,
    4;105, 103, 175, 178;,
    4;176, 179, 180, 177;,
    4;176, 106, 108, 179;,
    4;181, 107, 105, 178;,
    4;182, 183, 184, 185;,
    4;186, 182, 185, 187;,
    4;188, 186, 187, 189;,
    4;190, 188, 189, 191;,
    4;192, 190, 191, 193;,
    4;194, 192, 193, 195;,
    4;196, 194, 195, 197;,
    4;198, 196, 197, 199;,
    4;200, 198, 199, 201;,
    4;183, 200, 201, 184;,
    4;202, 203, 183, 182;,
    4;204, 202, 182, 186;,
    4;205, 204, 186, 188;,
    4;206, 205, 188, 190;,
    4;207, 206, 190, 192;,
    4;208, 207, 192, 194;,
    4;209, 208, 194, 196;,
    4;210, 209, 196, 198;,
    4;211, 210, 198, 200;,
    4;203, 211, 200, 183;,
    4;212, 213, 185, 184;,
    4;214, 212, 184, 201;,
    4;215, 214, 201, 199;,
    4;216, 215, 199, 197;,
    4;217, 216, 197, 195;,
    4;218, 217, 195, 193;,
    4;219, 218, 193, 191;,
    4;220, 219, 191, 189;,
    4;221, 220, 189, 187;,
    4;213, 221, 187, 185;,
    4;222, 223, 224, 225;,
    4;226, 222, 225, 227;,
    4;228, 226, 227, 229;,
    4;230, 228, 229, 231;,
    4;232, 230, 231, 233;,
    4;234, 232, 233, 235;,
    4;236, 234, 235, 237;,
    4;238, 236, 237, 239;,
    4;240, 238, 239, 241;,
    4;223, 240, 241, 224;,
    3;40, 242, 37;,
    3;243, 38, 37;,
    3;46, 244, 43;,
    3;245, 44, 43;,
    3;113, 246, 110;,
    3;247, 111, 110;,
    3;248, 150, 142;,
    3;141, 248, 142;,
    3;249, 146, 145;,
    3;154, 249, 145;,
    3;130, 151, 127;,
    3;151, 133, 132;,
    3;136, 147, 135;,
    3;147, 138, 137;,
    3;223, 222, 250;,
    3;222, 226, 250;,
    3;226, 228, 250;,
    3;228, 230, 250;,
    3;230, 232, 250;,
    3;232, 234, 250;,
    3;234, 236, 250;,
    3;236, 238, 250;,
    3;238, 240, 250;,
    3;240, 223, 250;,
    3;203, 202, 251;,
    3;202, 204, 251;,
    3;204, 205, 251;,
    3;205, 206, 251;,
    3;206, 207, 251;,
    3;207, 208, 251;,
    3;208, 209, 251;,
    3;209, 210, 251;,
    3;210, 211, 251;,
    3;211, 203, 251;;
   }

   MeshTextureCoords {
    252;
    0.489000; 0.000000;,
    0.459000; 0.000000;,
    0.459000; 0.961000;,
    0.489000; 0.961000;,
    0.277000; 0.000000;,
    0.247000; 0.000000;,
    0.247000; 0.961000;,
    0.277000; 0.961000;,
    0.308000; 0.000000;,
    0.308000; 0.961000;,
    0.338000; 0.000000;,
    0.338000; 0.961000;,
    0.368000; 0.000000;,
    0.368000; 0.961000;,
    0.398000; 0.000000;,
    0.398000; 0.961000;,
    0.428000; 0.000000;,
    0.428000; 0.961000;,
    0.245000; 0.000000;,
    0.215000; 0.000000;,
    0.215000; 0.997000;,
    0.245000; 0.997000;,
    0.034000; 0.000000;,
    0.004000; 0.000000;,
    0.004000; 0.997000;,
    0.034000; 0.997000;,
    0.064000; 0.000000;,
    0.064000; 0.997000;,
    0.094000; 0.000000;,
    0.094000; 0.997000;,
    0.124000; 0.000000;,
    0.124000; 0.997000;,
    0.155000; 0.000000;,
    0.155000; 0.997000;,
    0.185000; 0.000000;,
    0.185000; 0.997000;,
    0.872000; 0.268000;,
    0.940000; 0.334000;,
    0.874000; 0.336000;,
    0.872000; 0.334000;,
    0.937000; 0.266000;,
    0.874000; 0.266000;,
    0.835000; 0.194000;,
    0.882000; 0.147000;,
    0.835000; 0.147000;,
    0.825000; 0.170000;,
    0.882000; 0.194000;,
    0.858000; 0.204000;,
    0.986000; 0.211000;,
    0.825000; 0.211000;,
    0.882000; 0.244000;,
    0.929000; 0.244000;,
    0.995000; 0.220000;,
    0.962000; 0.277000;,
    0.995000; 0.381000;,
    0.962000; 0.324000;,
    0.986000; 0.390000;,
    0.929000; 0.356000;,
    0.825000; 0.390000;,
    0.882000; 0.356000;,
    0.816000; 0.381000;,
    0.850000; 0.324000;,
    0.816000; 0.220000;,
    0.850000; 0.277000;,
    0.812000; 0.535000;,
    0.812000; 0.394000;,
    0.808000; 0.394000;,
    0.808000; 0.535000;,
    0.812000; 0.545000;,
    0.808000; 0.545000;,
    0.812000; 0.686000;,
    0.808000; 0.686000;,
    0.812000; 0.696000;,
    0.808000; 0.696000;,
    0.812000; 0.837000;,
    0.808000; 0.837000;,
    0.812000; 0.848000;,
    0.808000; 0.848000;,
    0.812000; 0.989000;,
    0.808000; 0.989000;,
    0.812000; 0.999000;,
    0.808000; 0.999000;,
    0.999000; 0.535000;,
    0.999000; 0.392000;,
    0.999000; 0.545000;,
    0.999000; 0.686000;,
    0.999000; 0.696000;,
    0.999000; 0.837000;,
    0.999000; 0.848000;,
    0.999000; 0.989000;,
    0.999000; 0.999000;,
    0.639000; 0.481000;,
    0.639000; 0.721000;,
    0.621000; 0.719000;,
    0.621000; 0.480000;,
    0.603000; 0.721000;,
    0.603000; 0.481000;,
    0.586000; 0.724000;,
    0.586000; 0.483000;,
    0.568000; 0.721000;,
    0.568000; 0.481000;,
    0.550000; 0.719000;,
    0.550000; 0.480000;,
    0.532000; 0.721000;,
    0.532000; 0.481000;,
    0.514000; 0.724000;,
    0.514000; 0.483000;,
    0.496000; 0.721000;,
    0.496000; 0.481000;,
    0.906000; 0.103000;,
    0.946000; 0.064000;,
    0.906000; 0.064000;,
    0.898000; 0.083000;,
    0.946000; 0.103000;,
    0.926000; 0.111000;,
    0.858000; 0.038000;,
    0.858000; 0.085000;,
    0.874000; 0.085000;,
    0.874000; 0.038000;,
    0.858000; 0.132000;,
    0.874000; 0.132000;,
    0.996000; 0.132000;,
    0.996000; 0.085000;,
    0.980000; 0.085000;,
    0.980000; 0.132000;,
    0.996000; 0.038000;,
    0.980000; 0.038000;,
    0.965000; 0.038000;,
    0.927000; 0.038000;,
    0.927000; 0.047000;,
    0.954000; 0.058000;,
    0.927000; 0.133000;,
    0.965000; 0.132000;,
    0.954000; 0.112000;,
    0.927000; 0.123000;,
    0.889000; 0.132000;,
    0.900000; 0.112000;,
    0.889000; 0.038000;,
    0.900000; 0.058000;,
    0.964000; 0.037000;,
    0.961000; 0.023000;,
    0.954000; 0.012000;,
    0.927000; 0.037000;,
    0.893000; 0.148000;,
    0.889000; 0.133000;,
    0.927000; 0.133000;,
    0.900000; 0.158000;,
    0.889000; 0.085000;,
    0.893000; 0.023000;,
    0.889000; 0.037000;,
    0.900000; 0.012000;,
    0.965000; 0.085000;,
    0.964000; 0.133000;,
    0.961000; 0.148000;,
    0.954000; 0.158000;,
    0.639000; 0.241000;,
    0.621000; 0.240000;,
    0.621000; 0.000000;,
    0.639000; 0.000000;,
    0.621000; 0.959000;,
    0.639000; 0.961000;,
    0.603000; 0.241000;,
    0.603000; 0.000000;,
    0.603000; 0.961000;,
    0.586000; 0.242000;,
    0.586000; 0.000000;,
    0.586000; 0.965000;,
    0.568000; 0.241000;,
    0.568000; 0.000000;,
    0.568000; 0.961000;,
    0.550000; 0.240000;,
    0.550000; 0.000000;,
    0.550000; 0.959000;,
    0.532000; 0.241000;,
    0.532000; 0.000000;,
    0.532000; 0.961000;,
    0.514000; 0.242000;,
    0.514000; 0.000000;,
    0.514000; 0.965000;,
    0.496000; 0.241000;,
    0.496000; 0.000000;,
    0.496000; 0.961000;,
    0.750000; 0.211000;,
    0.725000; 0.225000;,
    0.725000; 0.266000;,
    0.769000; 0.242000;,
    0.765000; 0.172000;,
    0.797000; 0.179000;,
    0.765000; 0.124000;,
    0.797000; 0.101000;,
    0.750000; 0.085000;,
    0.769000; 0.038000;,
    0.725000; 0.070000;,
    0.725000; 0.014000;,
    0.700000; 0.085000;,
    0.680000; 0.038000;,
    0.684000; 0.124000;,
    0.653000; 0.101000;,
    0.684000; 0.172000;,
    0.653000; 0.179000;,
    0.700000; 0.211000;,
    0.680000; 0.242000;,
    0.734000; 0.186000;,
    0.725000; 0.192000;,
    0.740000; 0.171000;,
    0.740000; 0.152000;,
    0.734000; 0.137000;,
    0.725000; 0.132000;,
    0.715000; 0.137000;,
    0.709000; 0.152000;,
    0.709000; 0.171000;,
    0.715000; 0.186000;,
    0.725000; 0.274000;,
    0.772000; 0.248000;,
    0.677000; 0.248000;,
    0.648000; 0.181000;,
    0.648000; 0.098000;,
    0.677000; 0.031000;,
    0.725000; 0.006000;,
    0.772000; 0.031000;,
    0.802000; 0.098000;,
    0.802000; 0.181000;,
    0.723000; 0.536000;,
    0.695000; 0.518000;,
    0.681000; 0.529000;,
    0.723000; 0.555000;,
    0.752000; 0.518000;,
    0.765000; 0.529000;,
    0.773000; 0.461000;,
    0.790000; 0.464000;,
    0.773000; 0.389000;,
    0.790000; 0.386000;,
    0.752000; 0.333000;,
    0.765000; 0.321000;,
    0.723000; 0.314000;,
    0.723000; 0.295000;,
    0.695000; 0.333000;,
    0.681000; 0.321000;,
    0.673000; 0.389000;,
    0.657000; 0.386000;,
    0.673000; 0.461000;,
    0.657000; 0.464000;,
    0.940000; 0.268000;,
    0.937000; 0.336000;,
    0.892000; 0.170000;,
    0.858000; 0.137000;,
    0.954000; 0.083000;,
    0.926000; 0.055000;,
    0.927000; 0.004000;,
    0.927000; 0.166000;,
    0.723000; 0.425000;,
    0.725000; 0.162000;;
   }

   FVFData {
    258;
    504;
    0,
    1065353216,
    0,
    1065353216,
    0,
    1065353216,
    0,
    1065353216,
    0,
    1065353216,
    0,
    1065353216,
    0,
    1065353216,
    0,
    1065353216,
    0,
    1065353216,
    0,
    1065353216,
    0,
    1065353216,
    0,
    1065353216,
    0,
    1065353216,
    0,
    1065353216,
    0,
    1065353216,
    0,
    1065353216,
    0,
    1065353216,
    0,
    1065353216,
    0,
    1065353216,
    0,
    1065353216,
    0,
    1065353216,
    0,
    1065353216,
    0,
    1065353216,
    0,
    1065353216,
    0,
    1065353216,
    0,
    1065353216,
    0,
    1065353216,
    0,
    1065353216,
    0,
    1065353216,
    0,
    1065353216,
    0,
    1065353216,
    0,
    1065353216,
    0,
    1065353216,
    0,
    1065353216,
    0,
    1065353216,
    0,
    1065353216,
    0,
    1065353216,
    0,
    1065353216,
    0,
    1065353216,
    0,
    1065353216,
    0,
    1065353216,
    0,
    1065353216,
    0,
    1065353216,
    0,
    1065353216,
    0,
    1065353216,
    0,
    1065353216,
    0,
    1065353216,
    0,
    1065353216,
    0,
    1065353216,
    0,
    1065353216,
    0,
    1065353216,
    0,
    1065353216,
    0,
    1065353216,
    0,
    1065353216,
    0,
    1065353216,
    0,
    1065353216,
    0,
    1065353216,
    0,
    1065353216,
    0,
    1065353216,
    0,
    1065353216,
    0,
    1065353216,
    0,
    1065353216,
    0,
    1065353216,
    0,
    1065353216,
    0,
    1065353216,
    0,
    1065353216,
    0,
    1065353216,
    0,
    1065353216,
    0,
    1065353216,
    0,
    1065353216,
    0,
    1065353216,
    0,
    1065353216,
    0,
    1065353216,
    0,
    1065353216,
    0,
    1065353216,
    0,
    1065353216,
    0,
    1065353216,
    0,
    1065353216,
    0,
    1065353216,
    0,
    1065353216,
    0,
    1065353216,
    0,
    1065353216,
    0,
    1065353216,
    0,
    1065353216,
    0,
    1065353216,
    0,
    1065353216,
    0,
    1065353216,
    0,
    1065353216,
    0,
    1065353216,
    0,
    1065353216,
    0,
    1065353216,
    0,
    1065353216,
    0,
    1065353216,
    0,
    1065353216,
    0,
    1065353216,
    0,
    1065353216,
    0,
    1065353216,
    0,
    1065353216,
    0,
    1065353216,
    0,
    1065353216,
    0,
    1065353216,
    0,
    1065353216,
    0,
    1065353216,
    0,
    1065353216,
    0,
    1065353216,
    0,
    1065353216,
    0,
    1065353216,
    0,
    1065353216,
    0,
    1065353216,
    0,
    1065353216,
    0,
    1065353216,
    0,
    1065353216,
    0,
    1065353216,
    0,
    1065353216,
    0,
    1065353216,
    0,
    1065353216,
    0,
    1065353216,
    0,
    1065353216,
    0,
    1065353216,
    0,
    1065353216,
    0,
    1065353216,
    0,
    1065353216,
    0,
    1065353216,
    0,
    1065353216,
    0,
    1065353216,
    0,
    1065353216,
    0,
    1065353216,
    0,
    1065353216,
    0,
    1065353216,
    0,
    1065353216,
    0,
    1065353216,
    0,
    1065353216,
    0,
    1065353216,
    0,
    1065353216,
    0,
    1065353216,
    0,
    1065353216,
    0,
    1065353216,
    0,
    1065353216,
    0,
    1065353216,
    0,
    1065353216,
    0,
    1065353216,
    0,
    1065353216,
    0,
    1065353216,
    0,
    1065353216,
    0,
    1065353216,
    0,
    1065353216,
    0,
    1065353216,
    0,
    1065353216,
    0,
    1065353216,
    0,
    1065353216,
    0,
    1065353216,
    0,
    1065353216,
    0,
    1065353216,
    0,
    1065353216,
    0,
    1065353216,
    0,
    1065353216,
    0,
    1065353216,
    0,
    1065353216,
    0,
    1065353216,
    0,
    1065353216,
    0,
    1065353216,
    0,
    1065353216,
    0,
    1065353216,
    0,
    1065353216,
    0,
    1065353216,
    0,
    1065353216,
    0,
    1065353216,
    0,
    1065353216,
    0,
    1065353216,
    0,
    1065353216,
    0,
    1065353216,
    0,
    1065353216,
    0,
    1065353216,
    0,
    1065353216,
    0,
    1065353216,
    0,
    1065353216,
    0,
    1065353216,
    0,
    1065353216,
    0,
    1065353216,
    0,
    1065353216,
    0,
    1065353216,
    0,
    1065353216,
    0,
    1065353216,
    0,
    1065353216,
    0,
    1065353216,
    0,
    1065353216,
    0,
    1065353216,
    0,
    1065353216,
    0,
    1065353216,
    0,
    1065353216,
    0,
    1065353216,
    0,
    1065353216,
    0,
    1065353216,
    0,
    1065353216,
    0,
    1065353216,
    0,
    1065353216,
    0,
    1065353216,
    0,
    1065353216,
    0,
    1065353216,
    0,
    1065353216,
    0,
    1065353216,
    0,
    1065353216,
    0,
    1065353216,
    0,
    1065353216,
    0,
    1065353216,
    0,
    1065353216,
    0,
    1065353216,
    0,
    1065353216,
    0,
    1065353216,
    0,
    1065353216,
    0,
    1065353216,
    0,
    1065353216,
    0,
    1065353216,
    0,
    1065353216,
    0,
    1065353216,
    0,
    1065353216,
    0,
    1065353216,
    0,
    1065353216,
    0,
    1065353216,
    0,
    1065353216,
    0,
    1065353216,
    0,
    1065353216,
    0,
    1065353216,
    0,
    1065353216,
    0,
    1065353216,
    0,
    1065353216,
    0,
    1065353216,
    0,
    1065353216,
    0,
    1065353216,
    0,
    1065353216,
    0,
    1065353216,
    0,
    1065353216,
    0,
    1065353216,
    0,
    1065353216,
    0,
    1065353216,
    0,
    1065353216,
    0,
    1065353216,
    0,
    1065353216,
    0,
    1065353216,
    0,
    1065353216,
    0,
    1065353216,
    0,
    1065353216,
    0,
    1065353216,
    0,
    1065353216,
    0,
    1065353216,
    0,
    1065353216,
    0,
    1065353216,
    0,
    1065353216,
    0,
    1065353216,
    0,
    1065353216,
    0,
    1065353216,
    0,
    1065353216;
   }

   MeshMaterialList {
    1;
    168;
    0,
    0,
    0,
    0,
    0,
    0,
    0,
    0,
    0,
    0,
    0,
    0,
    0,
    0,
    0,
    0,
    0,
    0,
    0,
    0,
    0,
    0,
    0,
    0,
    0,
    0,
    0,
    0,
    0,
    0,
    0,
    0,
    0,
    0,
    0,
    0,
    0,
    0,
    0,
    0,
    0,
    0,
    0,
    0,
    0,
    0,
    0,
    0,
    0,
    0,
    0,
    0,
    0,
    0,
    0,
    0,
    0,
    0,
    0,
    0,
    0,
    0,
    0,
    0,
    0,
    0,
    0,
    0,
    0,
    0,
    0,
    0,
    0,
    0,
    0,
    0,
    0,
    0,
    0,
    0,
    0,
    0,
    0,
    0,
    0,
    0,
    0,
    0,
    0,
    0,
    0,
    0,
    0,
    0,
    0,
    0,
    0,
    0,
    0,
    0,
    0,
    0,
    0,
    0,
    0,
    0,
    0,
    0,
    0,
    0,
    0,
    0,
    0,
    0,
    0,
    0,
    0,
    0,
    0,
    0,
    0,
    0,
    0,
    0,
    0,
    0,
    0,
    0,
    0,
    0,
    0,
    0,
    0,
    0,
    0,
    0,
    0,
    0,
    0,
    0,
    0,
    0,
    0,
    0,
    0,
    0,
    0,
    0,
    0,
    0,
    0,
    0,
    0,
    0,
    0,
    0,
    0,
    0,
    0,
    0,
    0,
    0,
    0,
    0,
    0,
    0,
    0,
    0;

    Material streetlight {
     0.588000; 0.588000; 0.588000; 1.000000;;
     128.000000;
     0.000000; 0.000000; 0.000000;;
     0.000000; 0.000000; 0.000000;;

     TextureFilename {
      "D:\\new packs\\test\\streetlight_diffuse.tga";
     }
    }

   }
  }
}
