xof 0303txt 0032

// DirectX 8.0 file
// Creator: Ultimate Unwrap3D Pro v3.27
// Website: http://www.unwrap3d.com
// Time: Fri Jun 01 18:48:40 2012

// Start of Templates

template VertexDuplicationIndices {
 <b8d65549-d7c9-4995-89cf-53a9a8b031e3>
 DWORD nIndices;
 DWORD nOriginalVertices;
 array DWORD indices[nIndices];
}

template FVFData {
 <b6e70a0e-8ef9-4e83-94ad-ecc8b0c04897>
 DWORD dwFVF;
 DWORD nDWords;
 array DWORD data[nDWords];
}

template XSkinMeshHeader {
 <3CF169CE-FF7C-44ab-93C0-F78F62D172E2>
 WORD nMaxSkinWeightsPerVertex;
 WORD nMaxSkinWeightsPerFace;
 WORD nBones;
}

template SkinWeights {
 <6F0D123B-BAD2-4167-A0D0-80224F25FABB>
 STRING transformNodeName;
 DWORD nWeights;
 array DWORD vertexIndices[nWeights];
 array FLOAT weights[nWeights];
 Matrix4x4 matrixOffset;
}

template AnimTicksPerSecond {
 <9E415A43-7BA6-4a73-8743-B73D47E88476>
 DWORD AnimTicksPerSecond;
}

// Start of Frames

Frame mailbox {
   FrameTransformMatrix {
    1.000000, 0.000000, 0.000000, 0.000000,
    0.000000, 1.000000, 0.000000, 0.000000,
    0.000000, 0.000000, 1.000000, 0.000000,
    0.000000, 0.000000, 0.000000, 1.000000;;
   }

   Mesh mailbox {
    338;
    0.343000; 1.294000; 0.331000;,
    0.343000; 1.154000; 0.358000;,
    0.365000; 1.154000; 0.356000;,
    0.364000; 1.293000; 0.328000;,
    0.343000; 1.413000; 0.251000;,
    0.364000; 1.411000; 0.249000;,
    0.343000; 1.492000; 0.132000;,
    0.364000; 1.490000; 0.131000;,
    0.343000; 1.520000; -0.009000;,
    0.364000; 1.518000; -0.009000;,
    0.343000; 1.492000; -0.149000;,
    0.364000; 1.490000; -0.149000;,
    0.343000; 1.413000; -0.269000;,
    0.364000; 1.411000; -0.267000;,
    0.343000; 1.294000; -0.348000;,
    0.343000; 1.413000; -0.269000;,
    0.364000; 1.411000; -0.267000;,
    0.364000; 1.293000; -0.346000;,
    0.343000; 1.154000; -0.376000;,
    0.365000; 1.154000; -0.374000;,
    0.293000; 1.153000; 0.350000;,
    0.325000; 1.153000; 0.350000;,
    0.325000; 1.290000; 0.322000;,
    0.293000; 1.290000; 0.322000;,
    0.325000; 1.406000; 0.245000;,
    0.293000; 1.406000; 0.245000;,
    -0.325000; 1.484000; 0.128000;,
    0.325000; 1.484000; 0.128000;,
    -0.294000; 1.406000; 0.245000;,
    -0.325000; 1.406000; 0.245000;,
    -0.325000; 1.511000; -0.009000;,
    0.325000; 1.511000; -0.009000;,
    -0.325000; 1.484000; -0.146000;,
    0.325000; 1.484000; -0.146000;,
    -0.325000; 1.406000; -0.262000;,
    0.325000; 1.406000; -0.262000;,
    -0.325000; 1.290000; -0.340000;,
    -0.325000; 1.406000; -0.262000;,
    0.325000; 1.406000; -0.262000;,
    0.325000; 1.290000; -0.340000;,
    -0.325000; 1.153000; -0.367000;,
    0.325000; 1.153000; -0.367000;,
    -0.364000; 1.293000; 0.328000;,
    -0.364000; 1.154000; 0.356000;,
    -0.343000; 1.154000; 0.358000;,
    -0.343000; 1.294000; 0.331000;,
    -0.364000; 1.411000; 0.249000;,
    -0.343000; 1.413000; 0.251000;,
    -0.364000; 1.490000; 0.131000;,
    -0.343000; 1.492000; 0.132000;,
    -0.364000; 1.518000; -0.009000;,
    -0.343000; 1.520000; -0.009000;,
    -0.364000; 1.490000; -0.149000;,
    -0.343000; 1.492000; -0.149000;,
    -0.364000; 1.411000; -0.267000;,
    -0.343000; 1.413000; -0.269000;,
    -0.364000; 1.293000; -0.346000;,
    -0.364000; 1.411000; -0.267000;,
    -0.343000; 1.413000; -0.269000;,
    -0.343000; 1.294000; -0.348000;,
    -0.364000; 1.154000; -0.374000;,
    -0.343000; 1.154000; -0.376000;,
    0.343000; 0.345000; 0.358000;,
    0.365000; 0.345000; 0.356000;,
    0.365000; 0.345000; -0.374000;,
    0.343000; 0.345000; -0.376000;,
    0.295000; 0.345000; 0.350000;,
    -0.294000; 1.153000; 0.350000;,
    -0.295000; 0.345000; 0.350000;,
    0.325000; 0.345000; -0.367000;,
    0.295000; 0.345000; -0.367000;,
    -0.295000; 0.345000; -0.367000;,
    -0.325000; 0.345000; -0.367000;,
    -0.365000; 0.345000; 0.356000;,
    -0.343000; 0.345000; 0.358000;,
    -0.343000; 0.345000; -0.376000;,
    -0.365000; 0.345000; -0.374000;,
    0.358000; 0.345000; 0.314000;,
    0.358000; 0.345000; 0.284000;,
    0.358000; 1.153000; -0.009000;,
    0.358000; 1.150000; 0.314000;,
    0.358000; 0.345000; -0.009000;,
    0.358000; 0.345000; -0.303000;,
    0.358000; 1.150000; -0.331000;,
    -0.358000; 0.345000; -0.009000;,
    -0.358000; 0.345000; 0.284000;,
    -0.358000; 1.150000; 0.314000;,
    -0.358000; 1.153000; -0.009000;,
    -0.358000; 0.345000; -0.331000;,
    -0.358000; 0.345000; -0.303000;,
    -0.358000; 1.150000; -0.331000;,
    0.367000; 1.151000; 0.332000;,
    0.367000; 1.283000; 0.305000;,
    0.364000; 1.293000; 0.328000;,
    0.367000; 0.345000; 0.332000;,
    0.367000; 1.151000; -0.349000;,
    0.367000; 0.345000; -0.349000;,
    0.367000; 1.283000; -0.323000;,
    0.364000; 1.293000; -0.346000;,
    0.367000; 1.394000; -0.249000;,
    0.364000; 1.411000; -0.267000;,
    0.367000; 1.467000; -0.139000;,
    0.364000; 1.490000; -0.149000;,
    0.367000; 1.493000; -0.009000;,
    0.364000; 1.518000; -0.009000;,
    0.367000; 1.467000; 0.121000;,
    0.364000; 1.490000; 0.131000;,
    0.367000; 1.394000; 0.232000;,
    0.364000; 1.411000; 0.249000;,
    -0.367000; 1.283000; 0.305000;,
    -0.367000; 1.151000; 0.332000;,
    -0.364000; 1.154000; 0.356000;,
    -0.364000; 1.293000; 0.328000;,
    -0.367000; 1.394000; 0.232000;,
    -0.364000; 1.411000; 0.249000;,
    -0.367000; 1.467000; 0.121000;,
    -0.364000; 1.490000; 0.131000;,
    -0.367000; 1.493000; -0.009000;,
    -0.364000; 1.518000; -0.009000;,
    -0.367000; 1.467000; -0.139000;,
    -0.364000; 1.490000; -0.149000;,
    -0.367000; 1.394000; -0.249000;,
    -0.364000; 1.411000; -0.267000;,
    -0.367000; 1.283000; -0.323000;,
    -0.364000; 1.293000; -0.346000;,
    -0.367000; 1.151000; -0.349000;,
    -0.364000; 1.154000; -0.374000;,
    -0.367000; 0.345000; -0.349000;,
    -0.365000; 0.345000; -0.374000;,
    -0.367000; 0.345000; 0.332000;,
    -0.365000; 0.345000; 0.356000;,
    0.325000; 0.000000; 0.314000;,
    0.358000; 0.000000; 0.314000;,
    0.358000; 0.000000; 0.349000;,
    0.325000; 0.000000; 0.349000;,
    0.295000; 0.000000; 0.349000;,
    0.295000; 0.000000; 0.314000;,
    -0.358000; 0.000000; 0.314000;,
    -0.325000; 0.000000; 0.314000;,
    -0.325000; 0.000000; 0.349000;,
    -0.358000; 0.000000; 0.349000;,
    0.358000; 0.000000; 0.284000;,
    0.325000; 0.000000; 0.284000;,
    -0.325000; 0.345000; 0.284000;,
    -0.325000; 0.345000; -0.009000;,
    -0.295000; 0.345000; 0.314000;,
    -0.325000; 0.345000; 0.314000;,
    0.325000; 0.345000; 0.314000;,
    0.295000; 0.345000; 0.314000;,
    0.325000; 0.345000; 0.284000;,
    0.325000; 0.345000; -0.009000;,
    -0.325000; 0.000000; 0.284000;,
    -0.358000; 0.000000; 0.284000;,
    0.358000; 0.345000; -0.303000;,
    0.358000; 0.345000; -0.009000;,
    0.325000; 0.345000; -0.303000;,
    -0.325000; 0.345000; -0.303000;,
    -0.325000; 0.345000; -0.331000;,
    -0.295000; 0.345000; -0.331000;,
    0.295000; 0.345000; -0.331000;,
    0.325000; 0.345000; -0.331000;,
    -0.358000; 0.345000; -0.009000;,
    -0.358000; 0.345000; -0.303000;,
    0.325000; 0.000000; -0.367000;,
    0.358000; 0.000000; -0.367000;,
    0.358000; 0.000000; -0.331000;,
    0.325000; 0.000000; -0.331000;,
    0.295000; 0.000000; -0.331000;,
    0.295000; 0.000000; -0.367000;,
    -0.358000; 0.000000; -0.367000;,
    -0.325000; 0.000000; -0.367000;,
    -0.325000; 0.000000; -0.331000;,
    -0.358000; 0.000000; -0.331000;,
    0.295000; 0.345000; 0.350000;,
    -0.295000; 0.345000; 0.350000;,
    0.295000; 0.345000; -0.367000;,
    -0.295000; 0.345000; -0.367000;,
    -0.295000; 0.000000; 0.314000;,
    -0.295000; 0.000000; 0.349000;,
    -0.295000; 0.000000; -0.367000;,
    -0.295000; 0.000000; -0.331000;,
    0.358000; 0.000000; -0.303000;,
    0.325000; 0.000000; -0.303000;,
    -0.325000; 0.000000; -0.303000;,
    -0.358000; 0.000000; -0.303000;,
    0.358000; 0.345000; 0.284000;,
    -0.358000; 0.345000; 0.284000;,
    0.343000; 0.001000; 0.358000;,
    0.365000; 0.001000; 0.356000;,
    0.295000; 0.000000; 0.349000;,
    0.325000; 0.000000; 0.349000;,
    0.325000; 0.345000; 0.350000;,
    0.295000; 0.000000; 0.314000;,
    0.295000; 0.000000; 0.349000;,
    0.295000; 0.345000; 0.350000;,
    0.295000; 0.345000; 0.314000;,
    0.325000; 0.000000; 0.314000;,
    0.295000; 0.000000; 0.314000;,
    0.295000; 0.345000; 0.314000;,
    0.325000; 0.345000; 0.314000;,
    0.325000; 0.000000; 0.284000;,
    0.325000; 0.000000; 0.314000;,
    0.325000; 0.345000; 0.314000;,
    0.325000; 0.345000; 0.284000;,
    0.358000; 0.000000; 0.284000;,
    0.325000; 0.000000; 0.284000;,
    0.325000; 0.345000; 0.284000;,
    0.358000; 0.345000; 0.284000;,
    0.358000; 0.000000; 0.314000;,
    0.358000; 0.000000; 0.284000;,
    0.367000; 0.001000; 0.332000;,
    -0.325000; 0.000000; 0.349000;,
    -0.295000; 0.000000; 0.349000;,
    -0.325000; 0.345000; 0.350000;,
    -0.365000; 0.001000; 0.356000;,
    -0.343000; 0.001000; 0.358000;,
    -0.367000; 0.001000; 0.332000;,
    -0.365000; 0.001000; 0.356000;,
    -0.358000; 0.000000; 0.284000;,
    -0.358000; 0.000000; 0.314000;,
    -0.358000; 0.345000; 0.314000;,
    -0.325000; 0.000000; 0.284000;,
    -0.358000; 0.000000; 0.284000;,
    -0.358000; 0.345000; 0.284000;,
    -0.325000; 0.345000; 0.284000;,
    -0.325000; 0.000000; 0.314000;,
    -0.325000; 0.000000; 0.284000;,
    -0.325000; 0.345000; 0.284000;,
    -0.325000; 0.345000; 0.314000;,
    -0.295000; 0.000000; 0.314000;,
    -0.325000; 0.000000; 0.314000;,
    -0.325000; 0.345000; 0.314000;,
    -0.295000; 0.345000; 0.314000;,
    -0.295000; 0.000000; 0.349000;,
    -0.295000; 0.000000; 0.314000;,
    -0.295000; 0.345000; 0.314000;,
    -0.295000; 0.345000; 0.350000;,
    0.365000; 0.001000; -0.374000;,
    0.343000; 0.001000; -0.376000;,
    0.367000; 0.001000; -0.349000;,
    0.358000; 0.000000; -0.303000;,
    0.358000; 0.000000; -0.331000;,
    0.358000; 0.345000; -0.331000;,
    0.325000; 0.000000; -0.303000;,
    0.358000; 0.000000; -0.303000;,
    0.358000; 0.345000; -0.303000;,
    0.325000; 0.345000; -0.303000;,
    0.325000; 0.000000; -0.331000;,
    0.325000; 0.000000; -0.303000;,
    0.325000; 0.345000; -0.303000;,
    0.325000; 0.345000; -0.331000;,
    0.295000; 0.000000; -0.331000;,
    0.325000; 0.000000; -0.331000;,
    0.325000; 0.345000; -0.331000;,
    0.295000; 0.345000; -0.331000;,
    0.295000; 0.000000; -0.367000;,
    0.295000; 0.000000; -0.331000;,
    0.295000; 0.345000; -0.331000;,
    0.295000; 0.345000; -0.367000;,
    0.325000; 0.000000; -0.367000;,
    0.295000; 0.000000; -0.367000;,
    -0.325000; 0.000000; -0.331000;,
    -0.295000; 0.000000; -0.331000;,
    -0.295000; 0.345000; -0.331000;,
    -0.325000; 0.345000; -0.331000;,
    -0.325000; 0.000000; -0.303000;,
    -0.325000; 0.000000; -0.331000;,
    -0.325000; 0.345000; -0.331000;,
    -0.325000; 0.345000; -0.303000;,
    -0.358000; 0.000000; -0.303000;,
    -0.325000; 0.000000; -0.303000;,
    -0.325000; 0.345000; -0.303000;,
    -0.358000; 0.345000; -0.303000;,
    -0.358000; 0.000000; -0.331000;,
    -0.358000; 0.000000; -0.303000;,
    -0.365000; 0.001000; -0.374000;,
    -0.367000; 0.001000; -0.349000;,
    -0.343000; 0.001000; -0.376000;,
    -0.365000; 0.001000; -0.374000;,
    -0.295000; 0.000000; -0.367000;,
    -0.325000; 0.000000; -0.367000;,
    -0.295000; 0.000000; -0.331000;,
    -0.295000; 0.000000; -0.367000;,
    -0.295000; 0.345000; -0.367000;,
    -0.295000; 0.345000; -0.331000;,
    0.365000; 0.001000; 0.356000;,
    0.343000; 0.001000; 0.358000;,
    0.367000; 0.001000; 0.332000;,
    0.358000; 1.276000; 0.288000;,
    0.358000; 1.381000; 0.219000;,
    0.358000; 1.450000; 0.114000;,
    0.358000; 1.475000; -0.009000;,
    0.358000; 1.450000; -0.132000;,
    0.358000; 1.381000; -0.236000;,
    0.358000; 1.276000; -0.306000;,
    0.365000; 0.001000; -0.374000;,
    0.367000; 0.001000; -0.349000;,
    0.343000; 0.001000; -0.376000;,
    -0.325000; 1.153000; 0.350000;,
    -0.325000; 1.290000; 0.322000;,
    -0.365000; 0.001000; -0.374000;,
    -0.343000; 0.001000; -0.376000;,
    -0.367000; 0.001000; -0.349000;,
    -0.358000; 1.276000; -0.306000;,
    -0.358000; 1.381000; -0.236000;,
    -0.358000; 1.450000; -0.132000;,
    -0.358000; 1.475000; -0.009000;,
    -0.358000; 1.450000; 0.114000;,
    -0.358000; 1.381000; 0.219000;,
    -0.358000; 1.276000; 0.288000;,
    -0.365000; 0.001000; 0.356000;,
    -0.367000; 0.001000; 0.332000;,
    -0.343000; 0.001000; 0.358000;,
    -0.294000; 1.290000; 0.322000;,
    0.293000; 1.153000; 0.124000;,
    0.293000; 1.291000; 0.097000;,
    -0.294000; 1.291000; 0.097000;,
    -0.294000; 1.153000; 0.124000;,
    -0.294000; 1.153000; 0.350000;,
    0.293000; 1.153000; 0.350000;,
    0.293000; 1.291000; 0.097000;,
    0.293000; 1.153000; 0.124000;,
    0.293000; 1.406000; 0.245000;,
    -0.294000; 1.406000; 0.245000;,
    -0.294000; 1.153000; 0.124000;,
    -0.294000; 1.291000; 0.097000;,
    0.264000; 0.991000; 0.376000;,
    0.263000; 1.000000; 0.376000;,
    -0.264000; 1.000000; 0.376000;,
    -0.264000; 0.991000; 0.376000;,
    0.272000; 1.004000; 0.349000;,
    -0.273000; 1.004000; 0.349000;,
    -0.273000; 1.004000; 0.349000;,
    -0.273000; 0.970000; 0.349000;,
    -0.273000; 0.970000; 0.349000;,
    0.273000; 0.970000; 0.349000;,
    0.273000; 0.970000; 0.349000;,
    0.272000; 1.004000; 0.349000;;
    204;
    4;0, 1, 2, 3;,
    4;4, 0, 3, 5;,
    4;6, 4, 5, 7;,
    4;8, 6, 7, 9;,
    4;10, 8, 9, 11;,
    4;12, 10, 11, 13;,
    4;14, 15, 16, 17;,
    4;18, 14, 17, 19;,
    4;20, 21, 22, 23;,
    4;23, 22, 24, 25;,
    4;26, 25, 24, 27;,
    4;28, 25, 26, 29;,
    4;30, 26, 27, 31;,
    4;32, 30, 31, 33;,
    4;34, 32, 33, 35;,
    4;36, 37, 38, 39;,
    4;40, 36, 39, 41;,
    4;42, 43, 44, 45;,
    4;46, 42, 45, 47;,
    4;48, 46, 47, 49;,
    4;50, 48, 49, 51;,
    4;52, 50, 51, 53;,
    4;54, 52, 53, 55;,
    4;56, 57, 58, 59;,
    4;60, 56, 59, 61;,
    4;62, 63, 2, 1;,
    4;64, 65, 18, 19;,
    4;66, 20, 67, 68;,
    4;69, 70, 40, 41;,
    4;71, 72, 40, 70;,
    4;73, 74, 44, 43;,
    4;75, 76, 60, 61;,
    4;77, 78, 79, 80;,
    4;81, 82, 83, 79;,
    4;84, 85, 86, 87;,
    4;88, 89, 87, 90;,
    4;91, 92, 93, 2;,
    4;94, 91, 2, 63;,
    4;95, 96, 64, 19;,
    4;97, 95, 19, 98;,
    4;99, 97, 98, 100;,
    4;101, 99, 100, 102;,
    4;103, 101, 102, 104;,
    4;105, 103, 104, 106;,
    4;107, 105, 106, 108;,
    4;92, 107, 108, 93;,
    4;109, 110, 111, 112;,
    4;113, 109, 112, 114;,
    4;115, 113, 114, 116;,
    4;117, 115, 116, 118;,
    4;119, 117, 118, 120;,
    4;121, 119, 120, 122;,
    4;123, 121, 122, 124;,
    4;125, 123, 124, 126;,
    4;127, 125, 126, 128;,
    4;110, 129, 130, 111;,
    4;131, 132, 133, 134;,
    4;131, 134, 135, 136;,
    4;137, 138, 139, 140;,
    4;141, 132, 131, 142;,
    4;143, 144, 145, 146;,
    4;144, 147, 148, 145;,
    4;149, 147, 144, 150;,
    4;151, 138, 137, 152;,
    4;153, 154, 150, 155;,
    4;156, 157, 150, 144;,
    4;158, 159, 150, 157;,
    4;155, 150, 159, 160;,
    4;156, 144, 161, 162;,
    4;163, 164, 165, 166;,
    4;163, 166, 167, 168;,
    4;169, 170, 171, 172;,
    4;148, 173, 174, 145;,
    4;175, 159, 158, 176;,
    4;177, 178, 139, 138;,
    4;179, 180, 171, 170;,
    4;181, 182, 166, 165;,
    4;183, 184, 172, 171;,
    4;185, 149, 150, 154;,
    4;143, 186, 161, 144;,
    4;187, 188, 63, 62;,
    4;189, 190, 191, 66;,
    4;192, 193, 194, 195;,
    4;196, 197, 198, 199;,
    4;200, 201, 202, 203;,
    4;204, 205, 206, 207;,
    4;208, 209, 78, 77;,
    4;188, 210, 94, 63;,
    4;211, 212, 68, 213;,
    4;214, 215, 74, 73;,
    4;216, 217, 130, 129;,
    4;218, 219, 220, 85;,
    4;221, 222, 223, 224;,
    4;225, 226, 227, 228;,
    4;229, 230, 231, 232;,
    4;233, 234, 235, 236;,
    4;237, 238, 65, 64;,
    4;239, 237, 64, 96;,
    4;240, 241, 242, 82;,
    4;243, 244, 245, 246;,
    4;247, 248, 249, 250;,
    4;251, 252, 253, 254;,
    4;255, 256, 257, 258;,
    4;259, 260, 70, 69;,
    4;261, 262, 263, 264;,
    4;265, 266, 267, 268;,
    4;269, 270, 271, 272;,
    4;273, 274, 89, 88;,
    4;275, 276, 127, 128;,
    4;277, 278, 76, 75;,
    4;279, 280, 72, 71;,
    4;281, 282, 283, 284;,
    4;1, 0, 22, 21;,
    4;62, 1, 21, 191;,
    4;187, 62, 191, 190;,
    4;285, 286, 134, 133;,
    4;287, 285, 133, 132;,
    4;94, 210, 208, 77;,
    4;91, 94, 77, 80;,
    4;92, 91, 80, 288;,
    4;107, 92, 288, 289;,
    4;105, 107, 289, 290;,
    4;103, 105, 290, 291;,
    4;101, 103, 291, 292;,
    4;99, 101, 292, 293;,
    4;97, 99, 293, 294;,
    4;95, 97, 294, 83;,
    4;96, 95, 83, 242;,
    4;239, 96, 242, 241;,
    4;295, 296, 165, 164;,
    4;297, 295, 164, 163;,
    4;65, 238, 259, 69;,
    4;18, 65, 69, 41;,
    4;14, 18, 41, 39;,
    4;15, 14, 39, 38;,
    4;10, 12, 35, 33;,
    4;8, 10, 33, 31;,
    4;6, 8, 31, 27;,
    4;4, 6, 27, 24;,
    4;0, 4, 24, 22;,
    4;45, 44, 298, 299;,
    4;47, 45, 299, 29;,
    4;49, 47, 29, 26;,
    4;51, 49, 26, 30;,
    4;53, 51, 30, 32;,
    4;55, 53, 32, 34;,
    4;59, 58, 37, 36;,
    4;61, 59, 36, 40;,
    4;75, 61, 40, 72;,
    4;277, 75, 72, 280;,
    4;300, 301, 170, 169;,
    4;302, 300, 169, 172;,
    4;127, 276, 273, 88;,
    4;125, 127, 88, 90;,
    4;123, 125, 90, 303;,
    4;121, 123, 303, 304;,
    4;119, 121, 304, 305;,
    4;117, 119, 305, 306;,
    4;115, 117, 306, 307;,
    4;113, 115, 307, 308;,
    4;109, 113, 308, 309;,
    4;110, 109, 309, 86;,
    4;129, 110, 86, 220;,
    4;216, 129, 220, 219;,
    4;310, 311, 137, 140;,
    4;312, 310, 140, 139;,
    4;74, 215, 211, 213;,
    4;44, 74, 213, 298;,
    4;67, 313, 299, 298;,
    4;313, 28, 29, 299;,
    4;314, 315, 316, 317;,
    4;314, 317, 318, 319;,
    4;320, 321, 20, 23;,
    4;316, 315, 322, 323;,
    4;324, 325, 313, 67;,
    4;68, 67, 298, 213;,
    4;20, 66, 191, 21;,
    4;326, 327, 328, 329;,
    4;328, 327, 330, 331;,
    4;329, 328, 332, 333;,
    4;326, 329, 334, 335;,
    4;327, 326, 336, 337;,
    3;288, 80, 79;,
    3;83, 294, 79;,
    3;294, 293, 79;,
    3;293, 292, 79;,
    3;292, 291, 79;,
    3;291, 290, 79;,
    3;290, 289, 79;,
    3;289, 288, 79;,
    3;86, 309, 87;,
    3;309, 308, 87;,
    3;308, 307, 87;,
    3;307, 306, 87;,
    3;306, 305, 87;,
    3;305, 304, 87;,
    3;304, 303, 87;,
    3;303, 90, 87;,
    3;79, 78, 81;,
    3;83, 82, 242;,
    3;86, 85, 220;,
    3;87, 89, 84;,
    3;23, 25, 320;,
    3;28, 313, 325;;

   MeshNormals {
    338;
    -0.161135; 0.374818; 0.912988;,
    -0.150076; 0.093848; 0.984210;,
    0.721593; 0.065926; 0.689172;,
    0.142145; 0.377641; 0.914977;,
    -0.184406; 0.697518; 0.692433;,
    0.120356; 0.704219; 0.699707;,
    -0.182055; 0.909287; 0.374237;,
    0.100948; 0.919833; 0.379099;,
    -0.181548; 0.983382; -0.000469;,
    0.094808; 0.995495; -0.000679;,
    -0.168543; 0.911648; -0.374821;,
    0.113980; 0.919113; -0.377146;,
    -0.150595; 0.825723; -0.543601;,
    0.130783; 0.828075; -0.545149;,
    -0.189128; 0.373803; -0.908021;,
    -0.193339; 0.542648; -0.817406;,
    0.105100; 0.550021; -0.828512;,
    0.098790; 0.379774; -0.919789;,
    -0.182616; 0.097072; -0.978381;,
    0.704849; 0.071121; -0.705783;,
    -0.317516; 0.063579; 0.946119;,
    -0.209062; 0.095811; 0.973197;,
    -0.230785; 0.370665; 0.899636;,
    -0.713647; 0.268789; 0.646885;,
    -0.243270; 0.686841; 0.684887;,
    -0.454329; 0.629287; 0.630542;,
    0.230734; 0.899535; 0.370943;,
    -0.231482; 0.899552; 0.370435;,
    0.707107; 0.391060; 0.589128;,
    0.306723; 0.624076; 0.718645;,
    0.225751; 0.974185; -0.000708;,
    -0.227895; 0.973686; -0.000115;,
    0.235156; 0.898846; -0.369836;,
    -0.224580; 0.900495; -0.372388;,
    0.244544; 0.807111; -0.537374;,
    -0.215058; 0.812947; -0.541173;,
    0.232905; 0.372155; -0.898474;,
    0.227093; 0.541159; -0.809677;,
    -0.244702; 0.538806; -0.806108;,
    -0.237489; 0.370595; -0.897919;,
    0.231033; 0.095143; -0.968283;,
    -0.226735; 0.095439; -0.969269;,
    -0.142056; 0.380544; 0.913787;,
    -0.119803; 0.098226; 0.987927;,
    0.167195; 0.094977; 0.981338;,
    0.169562; 0.378110; 0.910100;,
    -0.120282; 0.702189; 0.701757;,
    0.172420; 0.697594; 0.695438;,
    -0.100935; 0.918835; 0.381516;,
    0.181343; 0.908706; 0.375989;,
    -0.094808; 0.995495; 0.000000;,
    0.179398; 0.983776; -0.000717;,
    -0.114168; 0.917630; -0.380684;,
    0.179256; 0.909809; -0.374319;,
    -0.130984; 0.823806; -0.551531;,
    0.180374; 0.819324; -0.544219;,
    -0.100910; 0.382153; -0.918573;,
    -0.105049; 0.553246; -0.826368;,
    0.175554; 0.546172; -0.819070;,
    0.183487; 0.376644; -0.908004;,
    -0.092197; 0.098792; -0.990828;,
    0.185931; 0.097159; -0.977747;,
    -0.174210; 0.000000; 0.984709;,
    0.709759; 0.000000; 0.704444;,
    0.710925; 0.000000; -0.703268;,
    -0.185415; 0.000000; -0.982660;,
    0.000000; -0.000966; 0.999999;,
    0.317517; 0.063579; 0.946119;,
    0.000000; -0.000966; 0.999999;,
    -0.229753; 0.000000; -0.973249;,
    0.000000; 0.000000; -1.000000;,
    0.000000; 0.000000; -1.000000;,
    0.305393; 0.000000; -0.952226;,
    -0.090535; 0.000056; 0.995893;,
    0.163052; 0.000029; 0.986617;,
    0.185415; 0.000000; -0.982660;,
    -0.090535; 0.000000; -0.995893;,
    0.973249; 0.000000; -0.229753;,
    1.000000; 0.000000; 0.000000;,
    1.000000; 0.000000; 0.000000;,
    0.973583; -0.022966; -0.227177;,
    1.000000; 0.000000; 0.000000;,
    1.000000; 0.000000; 0.000000;,
    0.983040; -0.017863; 0.182518;,
    -1.000000; 0.000000; 0.000000;,
    -1.000000; 0.000000; 0.000000;,
    -0.983037; -0.018539; -0.182468;,
    -1.000000; 0.000000; 0.000000;,
    -0.973249; 0.000000; 0.229753;,
    -1.000000; 0.000000; 0.000000;,
    -0.973532; -0.022173; 0.227473;,
    0.982176; -0.018910; -0.187009;,
    0.984299; -0.065716; -0.163821;,
    0.995002; 0.041407; 0.090868;,
    0.981956; 0.000000; -0.189107;,
    0.983590; -0.016538; 0.179660;,
    0.981642; 0.000000; 0.190733;,
    0.985887; -0.063655; 0.154837;,
    0.992839; 0.045594; -0.110414;,
    0.986010; -0.118046; 0.117686;,
    0.992900; 0.084105; -0.084123;,
    0.985979; -0.154211; 0.063758;,
    0.992919; 0.109831; -0.045268;,
    0.985689; -0.168575; -0.000404;,
    0.992877; 0.119146; -0.000000;,
    0.985871; -0.155198; -0.063017;,
    0.992568; 0.112390; 0.046650;,
    0.986222; -0.116723; -0.117229;,
    0.992659; 0.085940; 0.085099;,
    -0.986027; -0.063177; -0.154138;,
    -0.985519; -0.017233; -0.168687;,
    -0.992520; 0.012161; 0.121476;,
    -0.992569; 0.046899; 0.112282;,
    -0.986222; -0.117229; -0.116723;,
    -0.992659; 0.085099; 0.085940;,
    -0.985950; -0.154493; -0.063519;,
    -0.992918; 0.109932; 0.045034;,
    -0.985689; -0.168575; 0.000404;,
    -0.992877; 0.119146; 0.000000;,
    -0.985747; -0.155685; 0.063765;,
    -0.992751; 0.111013; -0.046052;,
    -0.986085; -0.117569; 0.117536;,
    -0.992812; 0.084912; -0.084345;,
    -0.985875; -0.063778; 0.154867;,
    -0.993089; 0.044938; -0.108424;,
    -0.983638; -0.016496; 0.179401;,
    -0.995111; 0.011467; -0.098097;,
    -0.981642; 0.000000; 0.190733;,
    -0.996815; 0.000000; -0.079745;,
    -0.983847; 0.000000; -0.179010;,
    -0.994623; 0.000000; 0.103563;,
    0.000000; -1.000000; 0.000000;,
    0.031634; -0.999496; 0.002636;,
    0.035631; -0.998304; 0.046034;,
    0.003942; -0.999052; 0.043360;,
    0.000000; -1.000000; 0.000000;,
    0.000000; -1.000000; 0.000000;,
    -0.043660; -0.999040; 0.003638;,
    0.000000; -1.000000; 0.000000;,
    -0.002839; -0.999508; 0.031231;,
    -0.046536; -0.998306; 0.034924;,
    0.000000; -1.000000; 0.000000;,
    0.000000; -1.000000; 0.000000;,
    0.000000; -1.000000; 0.000000;,
    0.000000; -1.000000; 0.000000;,
    0.000000; -1.000000; 0.000000;,
    0.000000; 0.000000; 0.000000;,
    0.000000; -1.000000; 0.000000;,
    0.000000; -1.000000; 0.000000;,
    0.000000; -1.000000; 0.000000;,
    0.000000; -1.000000; 0.000000;,
    0.000000; -1.000000; 0.000000;,
    0.000000; -1.000000; 0.000000;,
    0.000000; -1.000000; 0.000000;,
    0.000000; -1.000000; 0.000000;,
    0.000000; -1.000000; 0.000000;,
    0.000000; -1.000000; 0.000000;,
    0.000000; 0.000000; 0.000000;,
    0.000000; -1.000000; 0.000000;,
    0.000000; -1.000000; 0.000000;,
    0.000000; 0.000000; 0.000000;,
    0.000000; -1.000000; 0.000000;,
    0.000000; -1.000000; 0.000000;,
    0.002839; -0.999508; -0.031231;,
    0.046669; -0.998304; -0.034790;,
    0.043793; -0.999035; -0.003503;,
    0.000000; -1.000000; 0.000000;,
    0.000000; -1.000000; 0.000000;,
    0.000000; -1.000000; 0.000000;,
    -0.035812; -0.998302; -0.045943;,
    -0.003942; -0.999052; -0.043360;,
    0.000000; -1.000000; 0.000000;,
    -0.031814; -0.999491; -0.002545;,
    0.000000; -1.000000; 0.000000;,
    0.000000; -1.000000; 0.000000;,
    0.000000; -1.000000; 0.000000;,
    0.000000; -1.000000; 0.000000;,
    0.000000; -1.000000; 0.000000;,
    0.000000; -1.000000; 0.000000;,
    0.000000; -1.000000; 0.000000;,
    0.000000; -1.000000; 0.000000;,
    0.000000; -1.000000; 0.000000;,
    0.000000; -1.000000; 0.000000;,
    0.000000; -1.000000; 0.000000;,
    0.000000; -1.000000; 0.000000;,
    0.000000; -1.000000; 0.000000;,
    0.000000; -1.000000; 0.000000;,
    -0.185415; 0.000000; 0.982660;,
    0.709760; 0.000000; 0.704444;,
    0.000000; -0.002899; 0.999996;,
    -0.229753; -0.001489; 0.973248;,
    -0.218658; -0.000743; 0.975801;,
    -1.000000; 0.000000; 0.000000;,
    -1.000000; 0.000000; 0.000000;,
    -1.000000; 0.000000; 0.000000;,
    -1.000000; 0.000000; 0.000000;,
    0.000000; 0.000000; -1.000000;,
    0.000000; 0.000000; -1.000000;,
    0.000000; 0.000000; -1.000000;,
    0.000000; 0.000000; -1.000000;,
    -1.000000; 0.000000; 0.000000;,
    -1.000000; 0.000000; 0.000000;,
    -1.000000; 0.000000; 0.000000;,
    -1.000000; 0.000000; 0.000000;,
    0.000000; 0.000000; -1.000000;,
    0.000000; 0.000000; -1.000000;,
    0.000000; 0.000000; -1.000000;,
    0.000000; 0.000000; -1.000000;,
    0.973249; 0.000000; -0.229753;,
    1.000000; 0.000000; 0.000000;,
    0.981956; 0.000000; -0.189107;,
    0.207592; -0.001482; 0.978214;,
    0.000000; -0.002899; 0.999996;,
    0.207592; -0.000741; 0.978215;,
    -0.090535; 0.000000; 0.995893;,
    0.163052; 0.000000; 0.986617;,
    -0.981956; 0.000000; -0.189107;,
    -0.996546; 0.000000; 0.083046;,
    -1.000000; 0.000000; 0.000000;,
    -0.973249; 0.000000; -0.229753;,
    -0.973249; 0.000000; -0.229753;,
    0.000000; 0.000000; -1.000000;,
    0.000000; 0.000000; -1.000000;,
    0.000000; 0.000000; -1.000000;,
    0.000000; 0.000000; -1.000000;,
    1.000000; 0.000000; 0.000000;,
    1.000000; 0.000000; 0.000000;,
    1.000000; 0.000000; 0.000000;,
    1.000000; 0.000000; 0.000000;,
    0.000000; 0.000000; -1.000000;,
    0.000000; 0.000000; -1.000000;,
    0.000000; 0.000000; -1.000000;,
    0.000000; 0.000000; -1.000000;,
    1.000000; 0.000000; 0.000000;,
    1.000000; 0.000000; 0.000000;,
    1.000000; 0.000000; 0.000000;,
    1.000000; 0.000000; 0.000000;,
    0.710925; 0.000000; -0.703268;,
    -0.185415; 0.000000; -0.982660;,
    0.981642; 0.000000; 0.190733;,
    1.000000; 0.000000; 0.000000;,
    0.973249; 0.000000; 0.229753;,
    0.973249; 0.000000; 0.229753;,
    0.000000; 0.000000; 1.000000;,
    0.000000; 0.000000; 1.000000;,
    0.000000; 0.000000; 1.000000;,
    0.000000; 0.000000; 1.000000;,
    -1.000000; 0.000000; 0.000000;,
    -1.000000; 0.000000; 0.000000;,
    -1.000000; 0.000000; 0.000000;,
    -1.000000; 0.000000; 0.000000;,
    0.000000; 0.000000; 1.000000;,
    0.000000; 0.000000; 1.000000;,
    0.000000; 0.000000; 1.000000;,
    0.000000; 0.000000; 1.000000;,
    -1.000000; 0.000000; 0.000000;,
    -1.000000; 0.000000; 0.000000;,
    -1.000000; 0.000000; 0.000000;,
    -1.000000; 0.000000; 0.000000;,
    -0.229753; 0.000000; -0.973249;,
    0.000000; 0.000000; -1.000000;,
    0.000000; 0.000000; 1.000000;,
    0.000000; 0.000000; 1.000000;,
    0.000000; 0.000000; 1.000000;,
    0.000000; 0.000000; 1.000000;,
    1.000000; 0.000000; 0.000000;,
    1.000000; 0.000000; 0.000000;,
    1.000000; 0.000000; 0.000000;,
    1.000000; 0.000000; 0.000000;,
    0.000000; 0.000000; 1.000000;,
    0.000000; 0.000000; 1.000000;,
    0.000000; 0.000000; 1.000000;,
    0.000000; 0.000000; 1.000000;,
    -0.973249; 0.000000; 0.229753;,
    -1.000000; 0.000000; 0.000000;,
    -0.996815; 0.000000; -0.079745;,
    -0.981642; 0.000000; 0.190733;,
    0.185415; 0.000000; -0.982660;,
    -0.090535; 0.000000; -0.995893;,
    0.000000; 0.000000; -1.000000;,
    0.229753; 0.000000; -0.973249;,
    1.000000; 0.000000; 0.000000;,
    1.000000; 0.000000; 0.000000;,
    1.000000; 0.000000; 0.000000;,
    1.000000; 0.000000; 0.000000;,
    0.053450; -0.996180; 0.069055;,
    0.011803; -0.991466; 0.129833;,
    0.094805; -0.995465; 0.007900;,
    0.974244; -0.086144; -0.208395;,
    0.974369; -0.159036; -0.159102;,
    0.973810; -0.210478; -0.085985;,
    0.973853; -0.227181; -0.000398;,
    0.974285; -0.208251; 0.086028;,
    0.974308; -0.159428; 0.159083;,
    0.974085; -0.086090; 0.209157;,
    0.070009; -0.996180; -0.052188;,
    0.131124; -0.991310; -0.010490;,
    0.008509; -0.995574; -0.093600;,
    0.226006; 0.094719; 0.969510;,
    0.239166; 0.372156; 0.896827;,
    -0.053721; -0.996175; -0.068919;,
    -0.011803; -0.991466; -0.129833;,
    -0.095345; -0.995415; -0.007628;,
    -0.974306; -0.085892; 0.208208;,
    -0.974326; -0.159360; 0.159037;,
    -0.973812; -0.210286; 0.086429;,
    -0.973853; -0.227181; 0.000398;,
    -0.974246; -0.208580; -0.085672;,
    -0.974369; -0.159102; -0.159036;,
    -0.974023; -0.086268; -0.209373;,
    -0.069808; -0.996184; 0.052390;,
    -0.130727; -0.991359; 0.010894;,
    -0.008509; -0.995574; 0.093600;,
    0.713647; 0.268789; 0.646885;,
    0.000000; 0.772014; 0.635605;,
    0.000000; -0.350874; 0.936422;,
    0.000000; -0.350874; 0.936422;,
    0.000000; 0.772014; 0.635605;,
    0.000000; 1.000000; 0.000000;,
    0.000000; 1.000000; 0.000000;,
    -1.000000; 0.000000; 0.000000;,
    -1.000000; 0.000000; 0.000000;,
    0.000000; -0.789639; 0.613571;,
    0.000000; -0.789639; 0.613571;,
    1.000000; 0.000000; 0.000000;,
    1.000000; 0.000000; 0.000000;,
    0.414753; -0.302657; 0.858125;,
    0.455238; 0.530276; 0.715238;,
    -0.473264; 0.493477; 0.729727;,
    -0.414094; -0.344547; 0.842505;,
    0.000000; 0.989203; 0.146551;,
    0.000000; 0.989203; 0.146551;,
    -0.948683; 0.000000; 0.316228;,
    -0.948683; 0.000000; 0.316228;,
    0.000000; -0.789353; 0.613940;,
    0.000000; -0.789353; 0.613940;,
    0.938770; 0.104306; 0.328376;,
    0.938770; 0.104306; 0.328376;;
    204;
    4;0, 1, 2, 3;,
    4;4, 0, 3, 5;,
    4;6, 4, 5, 7;,
    4;8, 6, 7, 9;,
    4;10, 8, 9, 11;,
    4;12, 10, 11, 13;,
    4;14, 15, 16, 17;,
    4;18, 14, 17, 19;,
    4;20, 21, 22, 23;,
    4;23, 22, 24, 25;,
    4;26, 25, 24, 27;,
    4;28, 25, 26, 29;,
    4;30, 26, 27, 31;,
    4;32, 30, 31, 33;,
    4;34, 32, 33, 35;,
    4;36, 37, 38, 39;,
    4;40, 36, 39, 41;,
    4;42, 43, 44, 45;,
    4;46, 42, 45, 47;,
    4;48, 46, 47, 49;,
    4;50, 48, 49, 51;,
    4;52, 50, 51, 53;,
    4;54, 52, 53, 55;,
    4;56, 57, 58, 59;,
    4;60, 56, 59, 61;,
    4;62, 63, 2, 1;,
    4;64, 65, 18, 19;,
    4;66, 20, 67, 68;,
    4;69, 70, 40, 41;,
    4;71, 72, 40, 70;,
    4;73, 74, 44, 43;,
    4;75, 76, 60, 61;,
    4;77, 78, 79, 80;,
    4;81, 82, 83, 79;,
    4;84, 85, 86, 87;,
    4;88, 89, 87, 90;,
    4;91, 92, 93, 2;,
    4;94, 91, 2, 63;,
    4;95, 96, 64, 19;,
    4;97, 95, 19, 98;,
    4;99, 97, 98, 100;,
    4;101, 99, 100, 102;,
    4;103, 101, 102, 104;,
    4;105, 103, 104, 106;,
    4;107, 105, 106, 108;,
    4;92, 107, 108, 93;,
    4;109, 110, 111, 112;,
    4;113, 109, 112, 114;,
    4;115, 113, 114, 116;,
    4;117, 115, 116, 118;,
    4;119, 117, 118, 120;,
    4;121, 119, 120, 122;,
    4;123, 121, 122, 124;,
    4;125, 123, 124, 126;,
    4;127, 125, 126, 128;,
    4;110, 129, 130, 111;,
    4;131, 132, 133, 134;,
    4;131, 134, 135, 136;,
    4;137, 138, 139, 140;,
    4;141, 132, 131, 142;,
    4;143, 144, 145, 146;,
    4;144, 147, 148, 145;,
    4;149, 147, 144, 150;,
    4;151, 138, 137, 152;,
    4;153, 154, 150, 155;,
    4;156, 157, 150, 144;,
    4;158, 159, 150, 157;,
    4;155, 150, 159, 160;,
    4;156, 144, 161, 162;,
    4;163, 164, 165, 166;,
    4;163, 166, 167, 168;,
    4;169, 170, 171, 172;,
    4;148, 173, 174, 145;,
    4;175, 159, 158, 176;,
    4;177, 178, 139, 138;,
    4;179, 180, 171, 170;,
    4;181, 182, 166, 165;,
    4;183, 184, 172, 171;,
    4;185, 149, 150, 154;,
    4;143, 186, 161, 144;,
    4;187, 188, 63, 62;,
    4;189, 190, 191, 66;,
    4;192, 193, 194, 195;,
    4;196, 197, 198, 199;,
    4;200, 201, 202, 203;,
    4;204, 205, 206, 207;,
    4;208, 209, 78, 77;,
    4;188, 210, 94, 63;,
    4;211, 212, 68, 213;,
    4;214, 215, 74, 73;,
    4;216, 217, 130, 129;,
    4;218, 219, 220, 85;,
    4;221, 222, 223, 224;,
    4;225, 226, 227, 228;,
    4;229, 230, 231, 232;,
    4;233, 234, 235, 236;,
    4;237, 238, 65, 64;,
    4;239, 237, 64, 96;,
    4;240, 241, 242, 82;,
    4;243, 244, 245, 246;,
    4;247, 248, 249, 250;,
    4;251, 252, 253, 254;,
    4;255, 256, 257, 258;,
    4;259, 260, 70, 69;,
    4;261, 262, 263, 264;,
    4;265, 266, 267, 268;,
    4;269, 270, 271, 272;,
    4;273, 274, 89, 88;,
    4;275, 276, 127, 128;,
    4;277, 278, 76, 75;,
    4;279, 280, 72, 71;,
    4;281, 282, 283, 284;,
    4;1, 0, 22, 21;,
    4;62, 1, 21, 191;,
    4;187, 62, 191, 190;,
    4;285, 286, 134, 133;,
    4;287, 285, 133, 132;,
    4;94, 210, 208, 77;,
    4;91, 94, 77, 80;,
    4;92, 91, 80, 288;,
    4;107, 92, 288, 289;,
    4;105, 107, 289, 290;,
    4;103, 105, 290, 291;,
    4;101, 103, 291, 292;,
    4;99, 101, 292, 293;,
    4;97, 99, 293, 294;,
    4;95, 97, 294, 83;,
    4;96, 95, 83, 242;,
    4;239, 96, 242, 241;,
    4;295, 296, 165, 164;,
    4;297, 295, 164, 163;,
    4;65, 238, 259, 69;,
    4;18, 65, 69, 41;,
    4;14, 18, 41, 39;,
    4;15, 14, 39, 38;,
    4;10, 12, 35, 33;,
    4;8, 10, 33, 31;,
    4;6, 8, 31, 27;,
    4;4, 6, 27, 24;,
    4;0, 4, 24, 22;,
    4;45, 44, 298, 299;,
    4;47, 45, 299, 29;,
    4;49, 47, 29, 26;,
    4;51, 49, 26, 30;,
    4;53, 51, 30, 32;,
    4;55, 53, 32, 34;,
    4;59, 58, 37, 36;,
    4;61, 59, 36, 40;,
    4;75, 61, 40, 72;,
    4;277, 75, 72, 280;,
    4;300, 301, 170, 169;,
    4;302, 300, 169, 172;,
    4;127, 276, 273, 88;,
    4;125, 127, 88, 90;,
    4;123, 125, 90, 303;,
    4;121, 123, 303, 304;,
    4;119, 121, 304, 305;,
    4;117, 119, 305, 306;,
    4;115, 117, 306, 307;,
    4;113, 115, 307, 308;,
    4;109, 113, 308, 309;,
    4;110, 109, 309, 86;,
    4;129, 110, 86, 220;,
    4;216, 129, 220, 219;,
    4;310, 311, 137, 140;,
    4;312, 310, 140, 139;,
    4;74, 215, 211, 213;,
    4;44, 74, 213, 298;,
    4;67, 313, 299, 298;,
    4;313, 28, 29, 299;,
    4;314, 315, 316, 317;,
    4;314, 317, 318, 319;,
    4;320, 321, 20, 23;,
    4;316, 315, 322, 323;,
    4;324, 325, 313, 67;,
    4;68, 67, 298, 213;,
    4;20, 66, 191, 21;,
    4;326, 327, 328, 329;,
    4;328, 327, 330, 331;,
    4;329, 328, 332, 333;,
    4;326, 329, 334, 335;,
    4;327, 326, 336, 337;,
    3;288, 80, 79;,
    3;83, 294, 79;,
    3;294, 293, 79;,
    3;293, 292, 79;,
    3;292, 291, 79;,
    3;291, 290, 79;,
    3;290, 289, 79;,
    3;289, 288, 79;,
    3;86, 309, 87;,
    3;309, 308, 87;,
    3;308, 307, 87;,
    3;307, 306, 87;,
    3;306, 305, 87;,
    3;305, 304, 87;,
    3;304, 303, 87;,
    3;303, 90, 87;,
    3;79, 78, 81;,
    3;83, 82, 242;,
    3;86, 85, 220;,
    3;87, 89, 84;,
    3;23, 25, 320;,
    3;28, 313, 325;;
   }

   MeshTextureCoords {
    338;
    0.324000; 0.399000;,
    0.324000; 0.472000;,
    0.333000; 0.472000;,
    0.333000; 0.399000;,
    0.324000; 0.335000;,
    0.333000; 0.335000;,
    0.324000; 0.265000;,
    0.333000; 0.265000;,
    0.324000; 0.200000;,
    0.333000; 0.200000;,
    0.324000; 0.134000;,
    0.333000; 0.134000;,
    0.324000; 0.073000;,
    0.333000; 0.073000;,
    0.675000; 0.391000;,
    0.675000; 0.329000;,
    0.666000; 0.329000;,
    0.666000; 0.391000;,
    0.675000; 0.472000;,
    0.666000; 0.472000;,
    0.301000; 0.472000;,
    0.315000; 0.472000;,
    0.315000; 0.399000;,
    0.301000; 0.399000;,
    0.315000; 0.335000;,
    0.301000; 0.335000;,
    0.019000; 0.265000;,
    0.315000; 0.265000;,
    0.033000; 0.335000;,
    0.019000; 0.335000;,
    0.019000; 0.200000;,
    0.315000; 0.200000;,
    0.019000; 0.134000;,
    0.315000; 0.134000;,
    0.019000; 0.073000;,
    0.315000; 0.073000;,
    0.980000; 0.391000;,
    0.980000; 0.329000;,
    0.684000; 0.329000;,
    0.684000; 0.391000;,
    0.980000; 0.472000;,
    0.684000; 0.472000;,
    0.001000; 0.399000;,
    0.001000; 0.472000;,
    0.011000; 0.472000;,
    0.011000; 0.399000;,
    0.001000; 0.335000;,
    0.011000; 0.335000;,
    0.001000; 0.265000;,
    0.011000; 0.265000;,
    0.001000; 0.200000;,
    0.011000; 0.200000;,
    0.001000; 0.134000;,
    0.011000; 0.134000;,
    0.001000; 0.073000;,
    0.011000; 0.073000;,
    0.998000; 0.391000;,
    0.998000; 0.329000;,
    0.988000; 0.329000;,
    0.988000; 0.391000;,
    0.998000; 0.472000;,
    0.988000; 0.472000;,
    0.324000; 0.841000;,
    0.333000; 0.841000;,
    0.666000; 0.841000;,
    0.675000; 0.841000;,
    0.302000; 0.841000;,
    0.033000; 0.472000;,
    0.033000; 0.841000;,
    0.684000; 0.841000;,
    0.697000; 0.841000;,
    0.966000; 0.841000;,
    0.980000; 0.841000;,
    0.001000; 0.841000;,
    0.011000; 0.841000;,
    0.988000; 0.841000;,
    0.998000; 0.841000;,
    0.353000; 0.841000;,
    0.366000; 0.841000;,
    0.500000; 0.472000;,
    0.353000; 0.474000;,
    0.500000; 0.841000;,
    0.633000; 0.841000;,
    0.646000; 0.474000;,
    0.500000; 0.841000;,
    0.633000; 0.841000;,
    0.647000; 0.474000;,
    0.500000; 0.472000;,
    0.353000; 0.841000;,
    0.366000; 0.841000;,
    0.353000; 0.474000;,
    0.345000; 0.473000;,
    0.356000; 0.413000;,
    0.346000; 0.408000;,
    0.345000; 0.841000;,
    0.655000; 0.473000;,
    0.655000; 0.841000;,
    0.643000; 0.413000;,
    0.653000; 0.408000;,
    0.609000; 0.362000;,
    0.617000; 0.354000;,
    0.559000; 0.329000;,
    0.563000; 0.318000;,
    0.500000; 0.317000;,
    0.500000; 0.305000;,
    0.440000; 0.329000;,
    0.436000; 0.318000;,
    0.390000; 0.362000;,
    0.382000; 0.354000;,
    0.643000; 0.413000;,
    0.655000; 0.473000;,
    0.666000; 0.472000;,
    0.653000; 0.408000;,
    0.609000; 0.362000;,
    0.617000; 0.354000;,
    0.559000; 0.329000;,
    0.563000; 0.318000;,
    0.500000; 0.317000;,
    0.500000; 0.305000;,
    0.440000; 0.329000;,
    0.436000; 0.318000;,
    0.390000; 0.362000;,
    0.382000; 0.354000;,
    0.357000; 0.413000;,
    0.346000; 0.408000;,
    0.345000; 0.473000;,
    0.333000; 0.472000;,
    0.345000; 0.841000;,
    0.334000; 0.841000;,
    0.655000; 0.841000;,
    0.666000; 0.841000;,
    0.605000; 0.257000;,
    0.605000; 0.269000;,
    0.618000; 0.269000;,
    0.618000; 0.257000;,
    0.618000; 0.246000;,
    0.605000; 0.246000;,
    0.605000; 0.008000;,
    0.605000; 0.020000;,
    0.618000; 0.020000;,
    0.618000; 0.008000;,
    0.594000; 0.269000;,
    0.594000; 0.257000;,
    0.594000; 0.020000;,
    0.488000; 0.020000;,
    0.605000; 0.031000;,
    0.605000; 0.020000;,
    0.605000; 0.257000;,
    0.605000; 0.246000;,
    0.594000; 0.257000;,
    0.488000; 0.257000;,
    0.594000; 0.020000;,
    0.594000; 0.008000;,
    0.381000; 0.269000;,
    0.488000; 0.269000;,
    0.381000; 0.257000;,
    0.381000; 0.020000;,
    0.371000; 0.020000;,
    0.371000; 0.031000;,
    0.371000; 0.246000;,
    0.371000; 0.257000;,
    0.488000; 0.008000;,
    0.381000; 0.008000;,
    0.358000; 0.257000;,
    0.358000; 0.269000;,
    0.371000; 0.269000;,
    0.371000; 0.257000;,
    0.371000; 0.246000;,
    0.358000; 0.246000;,
    0.358000; 0.008000;,
    0.358000; 0.020000;,
    0.371000; 0.020000;,
    0.371000; 0.008000;,
    0.618000; 0.246000;,
    0.618000; 0.031000;,
    0.358000; 0.246000;,
    0.358000; 0.031000;,
    0.605000; 0.031000;,
    0.618000; 0.031000;,
    0.358000; 0.031000;,
    0.371000; 0.031000;,
    0.381000; 0.269000;,
    0.381000; 0.257000;,
    0.381000; 0.020000;,
    0.381000; 0.008000;,
    0.594000; 0.269000;,
    0.594000; 0.008000;,
    0.324000; 0.998000;,
    0.333000; 0.998000;,
    0.302000; 0.998000;,
    0.315000; 0.998000;,
    0.315000; 0.841000;,
    0.210000; 0.998000;,
    0.226000; 0.998000;,
    0.226000; 0.854000;,
    0.210000; 0.854000;,
    0.061000; 0.998000;,
    0.074000; 0.998000;,
    0.074000; 0.854000;,
    0.061000; 0.854000;,
    0.257000; 0.998000;,
    0.270000; 0.998000;,
    0.270000; 0.854000;,
    0.257000; 0.854000;,
    0.122000; 0.998000;,
    0.137000; 0.998000;,
    0.137000; 0.854000;,
    0.122000; 0.854000;,
    0.353000; 0.998000;,
    0.366000; 0.998000;,
    0.345000; 0.998000;,
    0.019000; 0.998000;,
    0.033000; 0.998000;,
    0.019000; 0.841000;,
    0.001000; 0.998000;,
    0.011000; 0.998000;,
    0.655000; 0.998000;,
    0.666000; 0.998000;,
    0.633000; 0.998000;,
    0.647000; 0.998000;,
    0.647000; 0.841000;,
    0.233000; 0.998000;,
    0.248000; 0.998000;,
    0.248000; 0.854000;,
    0.233000; 0.854000;,
    0.448000; 0.998000;,
    0.434000; 0.998000;,
    0.434000; 0.854000;,
    0.448000; 0.854000;,
    0.277000; 0.998000;,
    0.291000; 0.998000;,
    0.291000; 0.854000;,
    0.277000; 0.854000;,
    0.475000; 0.998000;,
    0.458000; 0.998000;,
    0.458000; 0.854000;,
    0.475000; 0.854000;,
    0.666000; 0.998000;,
    0.675000; 0.998000;,
    0.655000; 0.998000;,
    0.633000; 0.998000;,
    0.646000; 0.998000;,
    0.646000; 0.841000;,
    0.181000; 0.998000;,
    0.165000; 0.998000;,
    0.165000; 0.854000;,
    0.181000; 0.854000;,
    0.102000; 0.998000;,
    0.115000; 0.998000;,
    0.115000; 0.854000;,
    0.102000; 0.854000;,
    0.095000; 0.998000;,
    0.081000; 0.998000;,
    0.081000; 0.854000;,
    0.095000; 0.854000;,
    0.188000; 0.998000;,
    0.205000; 0.998000;,
    0.205000; 0.854000;,
    0.188000; 0.854000;,
    0.684000; 0.998000;,
    0.697000; 0.998000;,
    0.425000; 0.998000;,
    0.411000; 0.998000;,
    0.411000; 0.854000;,
    0.425000; 0.854000;,
    0.054000; 0.998000;,
    0.041000; 0.998000;,
    0.041000; 0.854000;,
    0.054000; 0.854000;,
    0.400000; 0.998000;,
    0.384000; 0.998000;,
    0.384000; 0.854000;,
    0.400000; 0.854000;,
    0.353000; 0.998000;,
    0.366000; 0.998000;,
    0.334000; 0.998000;,
    0.345000; 0.998000;,
    0.988000; 0.998000;,
    0.998000; 0.998000;,
    0.966000; 0.998000;,
    0.980000; 0.998000;,
    0.158000; 0.998000;,
    0.142000; 0.998000;,
    0.142000; 0.854000;,
    0.158000; 0.854000;,
    0.621000; 0.272000;,
    0.622000; 0.264000;,
    0.612000; 0.273000;,
    0.364000; 0.416000;,
    0.396000; 0.368000;,
    0.443000; 0.336000;,
    0.500000; 0.325000;,
    0.556000; 0.336000;,
    0.603000; 0.368000;,
    0.635000; 0.416000;,
    0.355000; 0.272000;,
    0.364000; 0.273000;,
    0.354000; 0.264000;,
    0.019000; 0.472000;,
    0.019000; 0.399000;,
    0.355000; 0.006000;,
    0.354000; 0.014000;,
    0.364000; 0.005000;,
    0.364000; 0.416000;,
    0.396000; 0.368000;,
    0.444000; 0.336000;,
    0.500000; 0.325000;,
    0.556000; 0.336000;,
    0.603000; 0.368000;,
    0.635000; 0.416000;,
    0.621000; 0.006000;,
    0.612000; 0.005000;,
    0.622000; 0.014000;,
    0.033000; 0.399000;,
    0.968000; 0.204000;,
    0.968000; 0.141000;,
    0.701000; 0.141000;,
    0.701000; 0.204000;,
    0.701000; 0.307000;,
    0.968000; 0.307000;,
    0.201000; 0.388000;,
    0.201000; 0.452000;,
    0.968000; 0.062000;,
    0.701000; 0.062000;,
    0.129000; 0.454000;,
    0.129000; 0.390000;,
    0.654000; 0.028000;,
    0.655000; 0.023000;,
    0.967000; 0.023000;,
    0.967000; 0.028000;,
    0.650000; 0.007000;,
    0.972000; 0.007000;,
    0.988000; 0.021000;,
    0.989000; 0.041000;,
    0.973000; 0.046000;,
    0.649000; 0.046000;,
    0.638000; 0.039000;,
    0.639000; 0.019000;;
   }

   FVFData {
    258;
    676;
    0,
    1065353216,
    0,
    1065353216,
    0,
    1065353216,
    0,
    1065353216,
    0,
    1065353216,
    0,
    1065353216,
    0,
    1065353216,
    0,
    1065353216,
    0,
    1065353216,
    0,
    1065353216,
    0,
    1065353216,
    0,
    1065353216,
    0,
    1065353216,
    0,
    1065353216,
    0,
    1065353216,
    0,
    1065353216,
    0,
    1065353216,
    0,
    1065353216,
    0,
    1065353216,
    0,
    1065353216,
    0,
    1065353216,
    0,
    1065353216,
    0,
    1065353216,
    0,
    1065353216,
    0,
    1065353216,
    0,
    1065353216,
    0,
    1065353216,
    0,
    1065353216,
    0,
    1065353216,
    0,
    1065353216,
    0,
    1065353216,
    0,
    1065353216,
    0,
    1065353216,
    0,
    1065353216,
    0,
    1065353216,
    0,
    1065353216,
    0,
    1065353216,
    0,
    1065353216,
    0,
    1065353216,
    0,
    1065353216,
    0,
    1065353216,
    0,
    1065353216,
    0,
    1065353216,
    0,
    1065353216,
    0,
    1065353216,
    0,
    1065353216,
    0,
    1065353216,
    0,
    1065353216,
    0,
    1065353216,
    0,
    1065353216,
    0,
    1065353216,
    0,
    1065353216,
    0,
    1065353216,
    0,
    1065353216,
    0,
    1065353216,
    0,
    1065353216,
    0,
    1065353216,
    0,
    1065353216,
    0,
    1065353216,
    0,
    1065353216,
    0,
    1065353216,
    0,
    1065353216,
    0,
    1065353216,
    0,
    1065353216,
    0,
    1065353216,
    0,
    1065353216,
    0,
    1065353216,
    0,
    1065353216,
    0,
    1065353216,
    0,
    1065353216,
    0,
    1065353216,
    0,
    1065353216,
    0,
    1065353216,
    0,
    1065353216,
    0,
    1065353216,
    0,
    1065353216,
    0,
    1065353216,
    0,
    1065353216,
    0,
    1065353216,
    0,
    1065353216,
    0,
    1065353216,
    0,
    1065353216,
    0,
    1065353216,
    0,
    1065353216,
    0,
    1065353216,
    0,
    1065353216,
    0,
    1065353216,
    0,
    1065353216,
    0,
    1065353216,
    0,
    1065353216,
    0,
    1065353216,
    0,
    1065353216,
    0,
    1065353216,
    0,
    1065353216,
    0,
    1065353216,
    0,
    1065353216,
    0,
    1065353216,
    0,
    1065353216,
    0,
    1065353216,
    0,
    1065353216,
    0,
    1065353216,
    0,
    1065353216,
    0,
    1065353216,
    0,
    1065353216,
    0,
    1065353216,
    0,
    1065353216,
    0,
    1065353216,
    0,
    1065353216,
    0,
    1065353216,
    0,
    1065353216,
    0,
    1065353216,
    0,
    1065353216,
    0,
    1065353216,
    0,
    1065353216,
    0,
    1065353216,
    0,
    1065353216,
    0,
    1065353216,
    0,
    1065353216,
    0,
    1065353216,
    0,
    1065353216,
    0,
    1065353216,
    0,
    1065353216,
    0,
    1065353216,
    0,
    1065353216,
    0,
    1065353216,
    0,
    1065353216,
    0,
    1065353216,
    0,
    1065353216,
    0,
    1065353216,
    0,
    1065353216,
    0,
    1065353216,
    0,
    1065353216,
    0,
    1065353216,
    0,
    1065353216,
    0,
    1065353216,
    0,
    1065353216,
    0,
    1065353216,
    0,
    1065353216,
    0,
    1065353216,
    0,
    1065353216,
    0,
    1065353216,
    0,
    1065353216,
    0,
    1065353216,
    0,
    1065353216,
    0,
    1065353216,
    0,
    1065353216,
    0,
    1065353216,
    0,
    1065353216,
    0,
    1065353216,
    0,
    1065353216,
    0,
    1065353216,
    0,
    1065353216,
    0,
    1065353216,
    0,
    1065353216,
    0,
    1065353216,
    0,
    1065353216,
    0,
    1065353216,
    0,
    1065353216,
    0,
    1065353216,
    0,
    1065353216,
    0,
    1065353216,
    0,
    1065353216,
    0,
    1065353216,
    0,
    1065353216,
    0,
    1065353216,
    0,
    1065353216,
    0,
    1065353216,
    0,
    1065353216,
    0,
    1065353216,
    0,
    1065353216,
    0,
    1065353216,
    0,
    1065353216,
    0,
    1065353216,
    0,
    1065353216,
    0,
    1065353216,
    0,
    1065353216,
    0,
    1065353216,
    0,
    1065353216,
    0,
    1065353216,
    0,
    1065353216,
    0,
    1065353216,
    0,
    1065353216,
    0,
    1065353216,
    0,
    1065353216,
    0,
    1065353216,
    0,
    1065353216,
    0,
    1065353216,
    0,
    1065353216,
    0,
    1065353216,
    0,
    1065353216,
    0,
    1065353216,
    0,
    1065353216,
    0,
    1065353216,
    0,
    1065353216,
    0,
    1065353216,
    0,
    1065353216,
    0,
    1065353216,
    0,
    1065353216,
    0,
    1065353216,
    0,
    1065353216,
    0,
    1065353216,
    0,
    1065353216,
    0,
    1065353216,
    0,
    1065353216,
    0,
    1065353216,
    0,
    1065353216,
    0,
    1065353216,
    0,
    1065353216,
    0,
    1065353216,
    0,
    1065353216,
    0,
    1065353216,
    0,
    1065353216,
    0,
    1065353216,
    0,
    1065353216,
    0,
    1065353216,
    0,
    1065353216,
    0,
    1065353216,
    0,
    1065353216,
    0,
    1065353216,
    0,
    1065353216,
    0,
    1065353216,
    0,
    1065353216,
    0,
    1065353216,
    0,
    1065353216,
    0,
    1065353216,
    0,
    1065353216,
    0,
    1065353216,
    0,
    1065353216,
    0,
    1065353216,
    0,
    1065353216,
    0,
    1065353216,
    0,
    1065353216,
    0,
    1065353216,
    0,
    1065353216,
    0,
    1065353216,
    0,
    1065353216,
    0,
    1065353216,
    0,
    1065353216,
    0,
    1065353216,
    0,
    1065353216,
    0,
    1065353216,
    0,
    1065353216,
    0,
    1065353216,
    0,
    1065353216,
    0,
    1065353216,
    0,
    1065353216,
    0,
    1065353216,
    0,
    1065353216,
    0,
    1065353216,
    0,
    1065353216,
    0,
    1065353216,
    0,
    1065353216,
    0,
    1065353216,
    0,
    1065353216,
    0,
    1065353216,
    0,
    1065353216,
    0,
    1065353216,
    0,
    1065353216,
    0,
    1065353216,
    0,
    1065353216,
    0,
    1065353216,
    0,
    1065353216,
    0,
    1065353216,
    0,
    1065353216,
    0,
    1065353216,
    0,
    1065353216,
    0,
    1065353216,
    0,
    1065353216,
    0,
    1065353216,
    0,
    1065353216,
    0,
    1065353216,
    0,
    1065353216,
    0,
    1065353216,
    0,
    1065353216,
    0,
    1065353216,
    0,
    1065353216,
    0,
    1065353216,
    0,
    1065353216,
    0,
    1065353216,
    0,
    1065353216,
    0,
    1065353216,
    0,
    1065353216,
    0,
    1065353216,
    0,
    1065353216,
    0,
    1065353216,
    0,
    1065353216,
    0,
    1065353216,
    0,
    1065353216,
    0,
    1065353216,
    0,
    1065353216,
    0,
    1065353216,
    0,
    1065353216,
    0,
    1065353216,
    0,
    1065353216,
    0,
    1065353216,
    0,
    1065353216,
    0,
    1065353216,
    0,
    1065353216,
    0,
    1065353216,
    0,
    1065353216,
    0,
    1065353216,
    0,
    1065353216,
    0,
    1065353216,
    0,
    1065353216,
    0,
    1065353216,
    0,
    1065353216,
    0,
    1065353216,
    0,
    1065353216,
    0,
    1065353216,
    0,
    1065353216,
    0,
    1065353216,
    0,
    1065353216,
    0,
    1065353216,
    0,
    1065353216,
    0,
    1065353216,
    0,
    1065353216,
    0,
    1065353216,
    0,
    1065353216,
    0,
    1065353216,
    0,
    1065353216,
    0,
    1065353216,
    0,
    1065353216,
    0,
    1065353216,
    0,
    1065353216,
    0,
    1065353216,
    0,
    1065353216,
    0,
    1065353216,
    0,
    1065353216,
    0,
    1065353216,
    0,
    1065353216,
    0,
    1065353216,
    0,
    1065353216,
    0,
    1065353216,
    0,
    1065353216,
    0,
    1065353216,
    0,
    1065353216,
    0,
    1065353216,
    0,
    1065353216;
   }

   MeshMaterialList {
    1;
    204;
    0,
    0,
    0,
    0,
    0,
    0,
    0,
    0,
    0,
    0,
    0,
    0,
    0,
    0,
    0,
    0,
    0,
    0,
    0,
    0,
    0,
    0,
    0,
    0,
    0,
    0,
    0,
    0,
    0,
    0,
    0,
    0,
    0,
    0,
    0,
    0,
    0,
    0,
    0,
    0,
    0,
    0,
    0,
    0,
    0,
    0,
    0,
    0,
    0,
    0,
    0,
    0,
    0,
    0,
    0,
    0,
    0,
    0,
    0,
    0,
    0,
    0,
    0,
    0,
    0,
    0,
    0,
    0,
    0,
    0,
    0,
    0,
    0,
    0,
    0,
    0,
    0,
    0,
    0,
    0,
    0,
    0,
    0,
    0,
    0,
    0,
    0,
    0,
    0,
    0,
    0,
    0,
    0,
    0,
    0,
    0,
    0,
    0,
    0,
    0,
    0,
    0,
    0,
    0,
    0,
    0,
    0,
    0,
    0,
    0,
    0,
    0,
    0,
    0,
    0,
    0,
    0,
    0,
    0,
    0,
    0,
    0,
    0,
    0,
    0,
    0,
    0,
    0,
    0,
    0,
    0,
    0,
    0,
    0,
    0,
    0,
    0,
    0,
    0,
    0,
    0,
    0,
    0,
    0,
    0,
    0,
    0,
    0,
    0,
    0,
    0,
    0,
    0,
    0,
    0,
    0,
    0,
    0,
    0,
    0,
    0,
    0,
    0,
    0,
    0,
    0,
    0,
    0,
    0,
    0,
    0,
    0,
    0,
    0,
    0,
    0,
    0,
    0,
    0,
    0,
    0,
    0,
    0,
    0,
    0,
    0,
    0,
    0,
    0,
    0,
    0,
    0,
    0,
    0,
    0,
    0,
    0,
    0,
    0,
    0,
    0,
    0,
    0,
    0;

    Material orig_signnoUurn {
     0.588000; 0.588000; 0.588000; 1.000000;;
     128.000000;
     0.000000; 0.000000; 0.000000;;
     0.000000; 0.000000; 0.000000;;

     TextureFilename {
      "D:\\new packs\\test\\mailbox_diffuse.tga";
     }
    }

   }
  }
}
