xof 0303txt 0032

// DirectX 8.0 file
// Creator: Ultimate Unwrap3D Pro v3.27
// Website: http://www.unwrap3d.com
// Time: Fri Jun 01 18:48:50 2012

// Start of Templates

template VertexDuplicationIndices {
 <b8d65549-d7c9-4995-89cf-53a9a8b031e3>
 DWORD nIndices;
 DWORD nOriginalVertices;
 array DWORD indices[nIndices];
}

template FVFData {
 <b6e70a0e-8ef9-4e83-94ad-ecc8b0c04897>
 DWORD dwFVF;
 DWORD nDWords;
 array DWORD data[nDWords];
}

template XSkinMeshHeader {
 <3CF169CE-FF7C-44ab-93C0-F78F62D172E2>
 WORD nMaxSkinWeightsPerVertex;
 WORD nMaxSkinWeightsPerFace;
 WORD nBones;
}

template SkinWeights {
 <6F0D123B-BAD2-4167-A0D0-80224F25FABB>
 STRING transformNodeName;
 DWORD nWeights;
 array DWORD vertexIndices[nWeights];
 array FLOAT weights[nWeights];
 Matrix4x4 matrixOffset;
}

template AnimTicksPerSecond {
 <9E415A43-7BA6-4a73-8743-B73D47E88476>
 DWORD AnimTicksPerSecond;
}

// Start of Frames

Frame Default_Layer {
   FrameTransformMatrix {
    1.000000, 0.000000, 0.000000, 0.000000,
    0.000000, 1.000000, 0.000000, 0.000000,
    0.000000, 0.000000, 1.000000, 0.000000,
    0.000000, 0.000000, 0.000000, 1.000000;;
   }

   Mesh Default_Layer {
    158;
    0.784000; 0.334000; 0.123000;,
    0.784000; 1.362000; 0.123000;,
    0.814000; 1.392000; 0.143000;,
    0.814000; 0.304000; 0.143000;,
    -0.290000; 0.288000; 0.123000;,
    0.738000; 0.288000; 0.123000;,
    0.768000; 0.258000; 0.143000;,
    -0.320000; 0.258000; 0.143000;,
    -0.336000; 1.362000; 0.123000;,
    -0.336000; 0.334000; 0.123000;,
    -0.364000; 0.304000; 0.143000;,
    -0.364000; 1.392000; 0.143000;,
    0.738000; 1.408000; 0.123000;,
    -0.290000; 1.408000; 0.123000;,
    -0.320000; 1.438000; 0.143000;,
    0.768000; 1.438000; 0.143000;,
    0.750000; 0.364000; -0.177000;,
    0.750000; 1.332000; -0.177000;,
    -0.260000; 0.324000; -0.177000;,
    0.708000; 0.324000; -0.177000;,
    -0.300000; 1.332000; -0.177000;,
    -0.300000; 0.364000; -0.177000;,
    0.708000; 1.372000; -0.177000;,
    -0.260000; 1.372000; -0.177000;,
    0.774000; 1.438000; 0.217000;,
    0.814000; 1.398000; 0.217000;,
    0.814000; 1.392000; 0.143000;,
    0.814000; 0.304000; 0.143000;,
    0.814000; 0.298000; 0.217000;,
    0.774000; 0.258000; 0.217000;,
    -0.324000; 0.258000; 0.217000;,
    -0.364000; 0.298000; 0.217000;,
    -0.364000; 0.304000; 0.143000;,
    -0.364000; 1.392000; 0.143000;,
    -0.364000; 1.398000; 0.217000;,
    -0.324000; 1.438000; 0.217000;,
    0.784000; 1.362000; 0.123000;,
    0.784000; 0.334000; 0.123000;,
    -0.336000; 0.334000; 0.123000;,
    -0.336000; 1.362000; 0.123000;,
    0.704000; 0.368000; -0.217000;,
    0.704000; 1.328000; -0.217000;,
    -0.256000; 0.368000; -0.217000;,
    -0.256000; 1.328000; -0.217000;,
    0.750000; 1.332000; -0.177000;,
    0.750000; 0.364000; -0.177000;,
    -0.300000; 0.364000; -0.177000;,
    -0.300000; 1.332000; -0.177000;,
    0.774000; 1.380000; 0.217000;,
    0.774000; 0.316000; 0.217000;,
    0.814000; 0.298000; 0.217000;,
    0.814000; 1.398000; 0.217000;,
    0.758000; 1.398000; 0.217000;,
    0.774000; 1.380000; 0.217000;,
    -0.308000; 1.398000; 0.217000;,
    -0.324000; 1.380000; 0.217000;,
    -0.324000; 0.316000; 0.217000;,
    -0.324000; 1.380000; 0.217000;,
    -0.364000; 1.398000; 0.217000;,
    -0.364000; 0.298000; 0.217000;,
    -0.308000; 0.298000; 0.217000;,
    -0.324000; 0.316000; 0.217000;,
    0.758000; 0.298000; 0.217000;,
    0.774000; 0.316000; 0.217000;,
    0.752000; 1.374000; 0.197000;,
    0.752000; 0.322000; 0.197000;,
    -0.302000; 1.374000; 0.197000;,
    0.752000; 1.374000; 0.197000;,
    -0.302000; 0.322000; 0.197000;,
    -0.302000; 1.374000; 0.197000;,
    0.752000; 0.322000; 0.197000;,
    -0.302000; 0.322000; 0.197000;,
    -0.644000; 1.702000; -0.011000;,
    -0.814000; 1.702000; -0.011000;,
    -0.814000; 1.656000; 0.069000;,
    -0.644000; 1.656000; 0.067000;,
    -0.644000; 1.656000; 0.067000;,
    -0.814000; 1.656000; 0.069000;,
    -0.814000; 1.564000; 0.069000;,
    -0.644000; 1.564000; 0.067000;,
    -0.814000; 1.518000; -0.011000;,
    -0.644000; 1.518000; -0.011000;,
    -0.814000; 1.564000; -0.091000;,
    -0.644000; 1.564000; -0.091000;,
    -0.814000; 1.656000; -0.091000;,
    -0.644000; 1.656000; -0.091000;,
    0.506000; 1.546000; -0.011000;,
    0.506000; 1.642000; -0.067000;,
    0.506000; 1.642000; 0.043000;,
    0.506000; 1.578000; 0.043000;,
    -0.596000; 1.642000; 0.045000;,
    -0.596000; 1.676000; -0.011000;,
    -0.596000; 1.576000; 0.045000;,
    -0.596000; 1.642000; 0.045000;,
    -0.596000; 1.544000; -0.011000;,
    -0.596000; 1.576000; -0.069000;,
    -0.596000; 1.642000; -0.069000;,
    0.506000; 1.642000; 0.043000;,
    0.506000; 1.674000; -0.011000;,
    0.506000; 1.578000; 0.043000;,
    0.506000; 1.642000; 0.043000;,
    0.506000; 1.546000; -0.011000;,
    0.506000; 1.578000; -0.067000;,
    0.506000; 1.642000; -0.067000;,
    -0.644000; 0.182000; -0.011000;,
    -0.814000; 0.184000; -0.011000;,
    -0.814000; 0.138000; 0.069000;,
    -0.644000; 0.136000; 0.067000;,
    -0.644000; 0.136000; 0.067000;,
    -0.814000; 0.138000; 0.069000;,
    -0.814000; 0.046000; 0.069000;,
    -0.644000; 0.046000; 0.067000;,
    -0.814000; 0.000000; -0.011000;,
    -0.644000; 0.000000; -0.011000;,
    -0.814000; 0.046000; -0.091000;,
    -0.644000; 0.046000; -0.091000;,
    -0.814000; 0.138000; -0.091000;,
    -0.644000; 0.136000; -0.091000;,
    0.506000; 0.028000; -0.011000;,
    0.506000; 0.122000; -0.067000;,
    0.506000; 0.122000; 0.043000;,
    0.506000; 0.060000; 0.043000;,
    -0.596000; 0.124000; 0.045000;,
    -0.596000; 0.158000; -0.011000;,
    -0.596000; 0.058000; 0.045000;,
    -0.596000; 0.124000; 0.045000;,
    -0.596000; 0.026000; -0.011000;,
    -0.596000; 0.058000; -0.069000;,
    -0.596000; 0.124000; -0.069000;,
    0.506000; 0.122000; 0.043000;,
    0.506000; 0.154000; -0.011000;,
    0.506000; 0.060000; 0.043000;,
    0.506000; 0.122000; 0.043000;,
    0.506000; 0.028000; -0.011000;,
    0.506000; 0.060000; -0.067000;,
    0.506000; 0.122000; -0.067000;,
    0.176000; 0.128000; -0.011000;,
    0.192000; 0.128000; 0.017000;,
    0.194000; 1.566000; 0.017000;,
    0.178000; 1.566000; -0.011000;,
    0.226000; 0.128000; 0.017000;,
    0.226000; 1.566000; 0.017000;,
    0.242000; 0.128000; -0.011000;,
    0.242000; 1.566000; -0.011000;,
    0.226000; 0.128000; -0.041000;,
    0.226000; 1.566000; -0.039000;,
    0.226000; 0.128000; -0.041000;,
    0.192000; 0.128000; -0.041000;,
    0.194000; 1.566000; -0.039000;,
    0.226000; 1.566000; -0.039000;,
    -0.302000; 1.374000; 0.197000;,
    -0.302000; 0.322000; 0.197000;,
    0.752000; 0.322000; 0.197000;,
    0.752000; 1.374000; 0.197000;,
    0.506000; 1.578000; -0.067000;,
    0.506000; 1.674000; -0.011000;,
    0.506000; 0.060000; -0.067000;,
    0.506000; 0.154000; -0.011000;;
    98;
    4;0, 1, 2, 3;,
    4;4, 5, 6, 7;,
    4;8, 9, 10, 11;,
    4;12, 13, 14, 15;,
    4;16, 17, 1, 0;,
    4;18, 19, 5, 4;,
    4;20, 21, 9, 8;,
    4;22, 23, 13, 12;,
    4;24, 25, 26, 15;,
    4;6, 27, 28, 29;,
    4;30, 31, 32, 7;,
    4;14, 33, 34, 35;,
    4;36, 12, 15, 26;,
    4;5, 37, 27, 6;,
    4;38, 4, 7, 32;,
    4;13, 39, 33, 14;,
    4;16, 40, 41, 17;,
    4;18, 42, 40, 19;,
    4;20, 43, 42, 21;,
    4;22, 41, 43, 23;,
    4;44, 22, 12, 36;,
    4;19, 45, 37, 5;,
    4;46, 18, 4, 38;,
    4;23, 47, 39, 13;,
    4;48, 49, 50, 51;,
    4;52, 53, 25, 24;,
    4;54, 52, 24, 35;,
    4;55, 54, 35, 34;,
    4;56, 57, 58, 59;,
    4;60, 61, 31, 30;,
    4;62, 60, 30, 29;,
    4;63, 62, 29, 28;,
    4;64, 65, 49, 48;,
    4;66, 67, 52, 54;,
    4;68, 69, 57, 56;,
    4;70, 71, 60, 62;,
    3;17, 41, 22;,
    3;19, 40, 16;,
    3;21, 42, 18;,
    3;23, 43, 20;,
    3;53, 52, 67;,
    3;54, 55, 66;,
    3;61, 60, 71;,
    3;62, 63, 70;,
    4;72, 73, 74, 75;,
    4;76, 77, 78, 79;,
    4;79, 78, 80, 81;,
    4;81, 80, 82, 83;,
    4;83, 82, 84, 85;,
    4;85, 84, 73, 72;,
    4;86, 87, 88, 89;,
    4;72, 75, 90, 91;,
    4;76, 79, 92, 93;,
    4;79, 81, 94, 92;,
    4;81, 83, 95, 94;,
    4;83, 85, 96, 95;,
    4;85, 72, 91, 96;,
    4;91, 90, 97, 98;,
    4;93, 92, 99, 100;,
    4;92, 94, 101, 99;,
    4;94, 95, 102, 101;,
    4;95, 96, 103, 102;,
    4;96, 91, 98, 103;,
    4;104, 105, 106, 107;,
    4;108, 109, 110, 111;,
    4;111, 110, 112, 113;,
    4;113, 112, 114, 115;,
    4;115, 114, 116, 117;,
    4;117, 116, 105, 104;,
    4;118, 119, 120, 121;,
    4;104, 107, 122, 123;,
    4;108, 111, 124, 125;,
    4;111, 113, 126, 124;,
    4;113, 115, 127, 126;,
    4;115, 117, 128, 127;,
    4;117, 104, 123, 128;,
    4;123, 122, 129, 130;,
    4;125, 124, 131, 132;,
    4;124, 126, 133, 131;,
    4;126, 127, 134, 133;,
    4;127, 128, 135, 134;,
    4;128, 123, 130, 135;,
    4;136, 137, 138, 139;,
    4;137, 140, 141, 138;,
    4;140, 142, 143, 141;,
    4;142, 144, 145, 143;,
    4;146, 147, 148, 149;,
    4;147, 136, 139, 148;,
    4;51, 50, 3, 2;,
    4;58, 11, 10, 59;,
    4;30, 7, 6, 29;,
    4;150, 151, 152, 153;,
    4;14, 35, 24, 15;,
    4;42, 43, 41, 40;,
    3;86, 154, 87;,
    3;155, 88, 87;,
    3;118, 156, 119;,
    3;157, 120, 119;;

   MeshNormals {
    158;
    0.853660; 0.000000; -0.520830;,
    0.853660; 0.000000; -0.520830;,
    0.881674; 0.000000; -0.471858;,
    0.881674; 0.000000; -0.471858;,
    -0.296575; -0.751616; -0.589166;,
    0.288821; -0.753564; -0.590529;,
    0.306596; -0.779733; -0.545908;,
    -0.309691; -0.783338; -0.538955;,
    -0.860275; 0.000000; -0.509830;,
    -0.860275; 0.000000; -0.509830;,
    -0.889168; 0.000000; -0.457581;,
    -0.889168; 0.000000; -0.457581;,
    0.289186; 0.754269; -0.589449;,
    -0.294569; 0.750340; -0.591793;,
    -0.313110; 0.779075; -0.543144;,
    0.306596; 0.779733; -0.545907;,
    0.801998; -0.202241; -0.562048;,
    0.801998; 0.202241; -0.562047;,
    -0.347121; -0.814171; -0.465438;,
    0.336163; -0.818431; -0.466011;,
    -0.809390; 0.197937; -0.552910;,
    -0.809390; -0.197937; -0.552910;,
    0.336476; 0.818986; -0.464808;,
    -0.347120; 0.814172; -0.465437;,
    0.263403; 0.636524; 0.724884;,
    0.514110; 0.514111; 0.686572;,
    0.586073; 0.586074; -0.559496;,
    0.586073; -0.586073; -0.559496;,
    0.514110; -0.514110; 0.686572;,
    0.263403; -0.636524; 0.724884;,
    -0.262233; -0.633357; 0.728074;,
    -0.509459; -0.509459; 0.693472;,
    -0.592383; -0.592382; -0.546046;,
    -0.598756; 0.580392; -0.551939;,
    -0.520862; 0.498216; 0.693170;,
    -0.268637; 0.628983; 0.729531;,
    0.557463; 0.576792; -0.597114;,
    0.556392; -0.575678; -0.599185;,
    -0.568979; -0.568979; -0.593740;,
    -0.566192; 0.566193; -0.599043;,
    0.329266; -0.341167; -0.880448;,
    0.329266; 0.341168; -0.880448;,
    -0.339856; -0.339856; -0.876924;,
    -0.339856; 0.339857; -0.876924;,
    0.681967; 0.716067; -0.148896;,
    0.681428; -0.715500; -0.154003;,
    -0.698703; -0.698703; -0.153715;,
    -0.698703; 0.698704; -0.153715;,
    -0.360597; 0.000000; 0.932722;,
    -0.360597; 0.000000; 0.932722;,
    0.707107; 0.000000; 0.707107;,
    0.707107; 0.000000; 0.707107;,
    -0.141654; -0.299355; 0.943568;,
    -0.282353; -0.250979; 0.925898;,
    0.141654; -0.299355; 0.943568;,
    0.282352; -0.250980; 0.925898;,
    0.360597; 0.000000; 0.932722;,
    0.360597; 0.000000; 0.932722;,
    -0.707107; 0.000000; 0.707107;,
    -0.707107; 0.000000; 0.707107;,
    0.141654; 0.299356; 0.943568;,
    0.282352; 0.250980; 0.925898;,
    -0.141655; 0.299355; 0.943568;,
    -0.282353; 0.250979; 0.925898;,
    -0.672674; 0.000000; 0.739939;,
    -0.672674; 0.000000; 0.739939;,
    0.272079; -0.574981; 0.771602;,
    -0.272080; -0.574980; 0.771602;,
    0.672673; 0.000000; 0.739940;,
    0.672673; 0.000000; 0.739940;,
    -0.272081; 0.574981; 0.771601;,
    0.272080; 0.574982; 0.771601;,
    0.251935; 0.967725; 0.006090;,
    0.000000; 0.999985; 0.005505;,
    0.000000; 0.861366; 0.507985;,
    0.216545; 0.840928; 0.495932;,
    0.218974; 0.000000; 0.975731;,
    0.011764; 0.000000; 0.999931;,
    0.010215; -0.495978; 0.868275;,
    0.246323; -0.481153; 0.841318;,
    0.003458; -0.999979; 0.005500;,
    0.246743; -0.969060; 0.006422;,
    0.000000; -0.500764; -0.865584;,
    0.247039; -0.484748; -0.839042;,
    0.000000; 0.500764; -0.865584;,
    0.249673; 0.483886; -0.838760;,
    1.000000; 0.000000; 0.000000;,
    1.000000; 0.000000; 0.000000;,
    1.000000; 0.000000; 0.000000;,
    1.000000; 0.000000; 0.000000;,
    0.217307; 0.837431; 0.501485;,
    0.253391; 0.967337; 0.007212;,
    0.243095; -0.484561; 0.840301;,
    0.214118; 0.000000; 0.976808;,
    0.245128; -0.969462; 0.007434;,
    0.248610; -0.488415; -0.836447;,
    0.250127; 0.481980; -0.839721;,
    0.001551; 0.854786; 0.518978;,
    0.001438; 0.999969; 0.007719;,
    0.002481; -0.501925; 0.864908;,
    0.001815; 0.000000; 0.999998;,
    0.002331; -0.999969; 0.007490;,
    0.001976; -0.508390; -0.861125;,
    0.001575; 0.497132; -0.867674;,
    0.241091; 0.970484; 0.006063;,
    0.011764; 0.999916; 0.005505;,
    0.010133; 0.861322; 0.507959;,
    0.206898; 0.842728; 0.496993;,
    0.218974; 0.000000; 0.975731;,
    0.011764; 0.000000; 0.999931;,
    0.010215; -0.495978; 0.868275;,
    0.246323; -0.481153; 0.841318;,
    0.003458; -0.999979; 0.005500;,
    0.246743; -0.969060; 0.006422;,
    0.000000; -0.500764; -0.865584;,
    0.247039; -0.484748; -0.839042;,
    0.005891; 0.500742; -0.865577;,
    0.244293; 0.486155; -0.839031;,
    1.000000; 0.000000; 0.000000;,
    1.000000; 0.000000; 0.000000;,
    1.000000; 0.000000; 0.000000;,
    1.000000; 0.000000; 0.000000;,
    0.203462; 0.840008; 0.502980;,
    0.237738; 0.971303; 0.007189;,
    0.243095; -0.484561; 0.840301;,
    0.214118; 0.000000; 0.976808;,
    0.245128; -0.969462; 0.007434;,
    0.248610; -0.488415; -0.836447;,
    0.242376; 0.484558; -0.840510;,
    0.003103; 0.854783; 0.518976;,
    0.003252; 0.999965; 0.007719;,
    0.002481; -0.501925; 0.864908;,
    0.001815; 0.000000; 0.999998;,
    0.002331; -0.999969; 0.007490;,
    0.001976; -0.508390; -0.861125;,
    0.002477; 0.497130; -0.867673;,
    -0.999892; 0.001765; 0.014594;,
    -0.501926; 0.000698; 0.864910;,
    -0.501926; 0.000698; 0.864910;,
    -0.999892; 0.001765; 0.014594;,
    0.501927; 0.000000; 0.864910;,
    0.501927; 0.000000; 0.864910;,
    0.999894; 0.000000; 0.014594;,
    0.999894; 0.000000; 0.014594;,
    0.882353; 0.000000; -0.470588;,
    0.882353; 0.000000; -0.470588;,
    0.000000; 0.001391; -0.999999;,
    -0.514495; 0.001908; -0.857491;,
    -0.514495; 0.001908; -0.857491;,
    0.000000; 0.001391; -0.999999;,
    0.000000; 0.000000; 1.000000;,
    0.000000; 0.000000; 1.000000;,
    0.000000; 0.000000; 1.000000;,
    0.000000; 0.000000; 1.000000;,
    1.000000; 0.000000; 0.000000;,
    1.000000; 0.000000; 0.000000;,
    1.000000; 0.000000; 0.000000;,
    1.000000; 0.000000; 0.000000;;
    98;
    4;0, 1, 2, 3;,
    4;4, 5, 6, 7;,
    4;8, 9, 10, 11;,
    4;12, 13, 14, 15;,
    4;16, 17, 1, 0;,
    4;18, 19, 5, 4;,
    4;20, 21, 9, 8;,
    4;22, 23, 13, 12;,
    4;24, 25, 26, 15;,
    4;6, 27, 28, 29;,
    4;30, 31, 32, 7;,
    4;14, 33, 34, 35;,
    4;36, 12, 15, 26;,
    4;5, 37, 27, 6;,
    4;38, 4, 7, 32;,
    4;13, 39, 33, 14;,
    4;16, 40, 41, 17;,
    4;18, 42, 40, 19;,
    4;20, 43, 42, 21;,
    4;22, 41, 43, 23;,
    4;44, 22, 12, 36;,
    4;19, 45, 37, 5;,
    4;46, 18, 4, 38;,
    4;23, 47, 39, 13;,
    4;48, 49, 50, 51;,
    4;52, 53, 25, 24;,
    4;54, 52, 24, 35;,
    4;55, 54, 35, 34;,
    4;56, 57, 58, 59;,
    4;60, 61, 31, 30;,
    4;62, 60, 30, 29;,
    4;63, 62, 29, 28;,
    4;64, 65, 49, 48;,
    4;66, 67, 52, 54;,
    4;68, 69, 57, 56;,
    4;70, 71, 60, 62;,
    3;17, 41, 22;,
    3;19, 40, 16;,
    3;21, 42, 18;,
    3;23, 43, 20;,
    3;53, 52, 67;,
    3;54, 55, 66;,
    3;61, 60, 71;,
    3;62, 63, 70;,
    4;72, 73, 74, 75;,
    4;76, 77, 78, 79;,
    4;79, 78, 80, 81;,
    4;81, 80, 82, 83;,
    4;83, 82, 84, 85;,
    4;85, 84, 73, 72;,
    4;86, 87, 88, 89;,
    4;72, 75, 90, 91;,
    4;76, 79, 92, 93;,
    4;79, 81, 94, 92;,
    4;81, 83, 95, 94;,
    4;83, 85, 96, 95;,
    4;85, 72, 91, 96;,
    4;91, 90, 97, 98;,
    4;93, 92, 99, 100;,
    4;92, 94, 101, 99;,
    4;94, 95, 102, 101;,
    4;95, 96, 103, 102;,
    4;96, 91, 98, 103;,
    4;104, 105, 106, 107;,
    4;108, 109, 110, 111;,
    4;111, 110, 112, 113;,
    4;113, 112, 114, 115;,
    4;115, 114, 116, 117;,
    4;117, 116, 105, 104;,
    4;118, 119, 120, 121;,
    4;104, 107, 122, 123;,
    4;108, 111, 124, 125;,
    4;111, 113, 126, 124;,
    4;113, 115, 127, 126;,
    4;115, 117, 128, 127;,
    4;117, 104, 123, 128;,
    4;123, 122, 129, 130;,
    4;125, 124, 131, 132;,
    4;124, 126, 133, 131;,
    4;126, 127, 134, 133;,
    4;127, 128, 135, 134;,
    4;128, 123, 130, 135;,
    4;136, 137, 138, 139;,
    4;137, 140, 141, 138;,
    4;140, 142, 143, 141;,
    4;142, 144, 145, 143;,
    4;146, 147, 148, 149;,
    4;147, 136, 139, 148;,
    4;51, 50, 3, 2;,
    4;58, 11, 10, 59;,
    4;30, 7, 6, 29;,
    4;150, 151, 152, 153;,
    4;14, 35, 24, 15;,
    4;42, 43, 41, 40;,
    3;86, 154, 87;,
    3;155, 88, 87;,
    3;118, 156, 119;,
    3;157, 120, 119;;
   }

   MeshTextureCoords {
    158;
    0.424000; 0.858000;,
    0.424000; 0.639000;,
    0.441000; 0.639000;,
    0.441000; 0.858000;,
    0.133000; 0.937000;,
    0.352000; 0.937000;,
    0.352000; 0.956000;,
    0.133000; 0.956000;,
    0.063000; 0.639000;,
    0.063000; 0.855000;,
    0.046000; 0.855000;,
    0.046000; 0.639000;,
    0.353000; 0.568000;,
    0.133000; 0.568000;,
    0.133000; 0.550000;,
    0.353000; 0.550000;,
    0.363000; 0.858000;,
    0.363000; 0.639000;,
    0.133000; 0.869000;,
    0.352000; 0.869000;,
    0.123000; 0.639000;,
    0.123000; 0.855000;,
    0.354000; 0.630000;,
    0.133000; 0.630000;,
    0.353000; 0.530000;,
    0.364000; 0.530000;,
    0.364000; 0.550000;,
    0.364000; 0.956000;,
    0.364000; 0.978000;,
    0.352000; 0.978000;,
    0.133000; 0.978000;,
    0.123000; 0.978000;,
    0.123000; 0.956000;,
    0.121000; 0.550000;,
    0.121000; 0.530000;,
    0.133000; 0.530000;,
    0.364000; 0.568000;,
    0.364000; 0.937000;,
    0.123000; 0.937000;,
    0.121000; 0.568000;,
    0.353000; 0.859000;,
    0.353000; 0.640000;,
    0.134000; 0.859000;,
    0.134000; 0.640000;,
    0.364000; 0.630000;,
    0.364000; 0.869000;,
    0.123000; 0.869000;,
    0.121000; 0.630000;,
    0.472000; 0.639000;,
    0.472000; 0.858000;,
    0.460000; 0.858000;,
    0.460000; 0.639000;,
    0.353000; 0.519000;,
    0.360000; 0.519000;,
    0.133000; 0.519000;,
    0.125000; 0.519000;,
    0.016000; 0.855000;,
    0.016000; 0.639000;,
    0.027000; 0.639000;,
    0.027000; 0.855000;,
    0.133000; 0.991000;,
    0.126000; 0.991000;,
    0.352000; 0.991000;,
    0.361000; 0.991000;,
    0.478000; 0.639000;,
    0.478000; 0.858000;,
    0.133000; 0.512000;,
    0.353000; 0.512000;,
    0.009000; 0.855000;,
    0.009000; 0.639000;,
    0.352000; 0.998000;,
    0.133000; 0.998000;,
    0.811000; 0.431000;,
    0.811000; 0.495000;,
    0.774000; 0.495000;,
    0.774000; 0.431000;,
    0.992000; 0.431000;,
    0.992000; 0.495000;,
    0.956000; 0.495000;,
    0.956000; 0.431000;,
    0.919000; 0.495000;,
    0.919000; 0.431000;,
    0.883000; 0.495000;,
    0.883000; 0.431000;,
    0.847000; 0.495000;,
    0.847000; 0.431000;,
    0.710000; 0.771000;,
    0.747000; 0.708000;,
    0.672000; 0.708000;,
    0.672000; 0.750000;,
    0.774000; 0.413000;,
    0.811000; 0.413000;,
    0.956000; 0.413000;,
    0.992000; 0.413000;,
    0.919000; 0.413000;,
    0.883000; 0.413000;,
    0.847000; 0.413000;,
    0.774000; -0.002000;,
    0.811000; -0.002000;,
    0.956000; -0.002000;,
    0.992000; -0.002000;,
    0.919000; -0.002000;,
    0.883000; -0.002000;,
    0.847000; -0.002000;,
    0.813000; 0.934000;,
    0.813000; 0.998000;,
    0.776000; 0.998000;,
    0.776000; 0.934000;,
    0.994000; 0.934000;,
    0.994000; 0.998000;,
    0.958000; 0.998000;,
    0.958000; 0.934000;,
    0.921000; 0.998000;,
    0.921000; 0.934000;,
    0.885000; 0.998000;,
    0.885000; 0.934000;,
    0.849000; 0.998000;,
    0.849000; 0.934000;,
    0.711000; 0.683000;,
    0.748000; 0.620000;,
    0.674000; 0.620000;,
    0.674000; 0.662000;,
    0.776000; 0.917000;,
    0.813000; 0.917000;,
    0.958000; 0.917000;,
    0.994000; 0.917000;,
    0.921000; 0.917000;,
    0.885000; 0.917000;,
    0.849000; 0.917000;,
    0.776000; 0.502000;,
    0.813000; 0.502000;,
    0.958000; 0.502000;,
    0.994000; 0.502000;,
    0.921000; 0.502000;,
    0.885000; 0.502000;,
    0.849000; 0.502000;,
    0.643000; 0.564000;,
    0.684000; 0.564000;,
    0.684000; 0.004000;,
    0.643000; 0.004000;,
    0.710000; 0.564000;,
    0.710000; 0.004000;,
    0.731000; 0.564000;,
    0.731000; 0.004000;,
    0.753000; 0.564000;,
    0.753000; 0.004000;,
    0.577000; 0.564000;,
    0.603000; 0.564000;,
    0.603000; 0.004000;,
    0.577000; 0.004000;,
    0.004000; 0.005000;,
    0.004000; 0.494000;,
    0.493000; 0.494000;,
    0.493000; 0.005000;,
    0.747000; 0.750000;,
    0.710000; 0.687000;,
    0.748000; 0.662000;,
    0.711000; 0.599000;;
   }

   FVFData {
    258;
    316;
    0,
    1065353216,
    0,
    1065353216,
    0,
    1065353216,
    0,
    1065353216,
    0,
    1065353216,
    0,
    1065353216,
    0,
    1065353216,
    0,
    1065353216,
    0,
    1065353216,
    0,
    1065353216,
    0,
    1065353216,
    0,
    1065353216,
    0,
    1065353216,
    0,
    1065353216,
    0,
    1065353216,
    0,
    1065353216,
    0,
    1065353216,
    0,
    1065353216,
    0,
    1065353216,
    0,
    1065353216,
    0,
    1065353216,
    0,
    1065353216,
    0,
    1065353216,
    0,
    1065353216,
    0,
    1065353216,
    0,
    1065353216,
    0,
    1065353216,
    0,
    1065353216,
    0,
    1065353216,
    0,
    1065353216,
    0,
    1065353216,
    0,
    1065353216,
    0,
    1065353216,
    0,
    1065353216,
    0,
    1065353216,
    0,
    1065353216,
    0,
    1065353216,
    0,
    1065353216,
    0,
    1065353216,
    0,
    1065353216,
    0,
    1065353216,
    0,
    1065353216,
    0,
    1065353216,
    0,
    1065353216,
    0,
    1065353216,
    0,
    1065353216,
    0,
    1065353216,
    0,
    1065353216,
    0,
    1065353216,
    0,
    1065353216,
    0,
    1065353216,
    0,
    1065353216,
    0,
    1065353216,
    0,
    1065353216,
    0,
    1065353216,
    0,
    1065353216,
    0,
    1065353216,
    0,
    1065353216,
    0,
    1065353216,
    0,
    1065353216,
    0,
    1065353216,
    0,
    1065353216,
    0,
    1065353216,
    0,
    1065353216,
    0,
    1065353216,
    0,
    1065353216,
    0,
    1065353216,
    0,
    1065353216,
    0,
    1065353216,
    0,
    1065353216,
    0,
    1065353216,
    0,
    1065353216,
    0,
    1065353216,
    0,
    1065353216,
    0,
    1065353216,
    0,
    1065353216,
    0,
    1065353216,
    0,
    1065353216,
    0,
    1065353216,
    0,
    1065353216,
    0,
    1065353216,
    0,
    1065353216,
    0,
    1065353216,
    0,
    1065353216,
    0,
    1065353216,
    0,
    1065353216,
    0,
    1065353216,
    0,
    1065353216,
    0,
    1065353216,
    0,
    1065353216,
    0,
    1065353216,
    0,
    1065353216,
    0,
    1065353216,
    0,
    1065353216,
    0,
    1065353216,
    0,
    1065353216,
    0,
    1065353216,
    0,
    1065353216,
    0,
    1065353216,
    0,
    1065353216,
    0,
    1065353216,
    0,
    1065353216,
    0,
    1065353216,
    0,
    1065353216,
    0,
    1065353216,
    0,
    1065353216,
    0,
    1065353216,
    0,
    1065353216,
    0,
    1065353216,
    0,
    1065353216,
    0,
    1065353216,
    0,
    1065353216,
    0,
    1065353216,
    0,
    1065353216,
    0,
    1065353216,
    0,
    1065353216,
    0,
    1065353216,
    0,
    1065353216,
    0,
    1065353216,
    0,
    1065353216,
    0,
    1065353216,
    0,
    1065353216,
    0,
    1065353216,
    0,
    1065353216,
    0,
    1065353216,
    0,
    1065353216,
    0,
    1065353216,
    0,
    1065353216,
    0,
    1065353216,
    0,
    1065353216,
    0,
    1065353216,
    0,
    1065353216,
    0,
    1065353216,
    0,
    1065353216,
    0,
    1065353216,
    0,
    1065353216,
    0,
    1065353216,
    0,
    1065353216,
    0,
    1065353216,
    0,
    1065353216,
    0,
    1065353216,
    0,
    1065353216,
    0,
    1065353216,
    0,
    1065353216,
    0,
    1065353216,
    0,
    1065353216,
    0,
    1065353216,
    0,
    1065353216,
    0,
    1065353216,
    0,
    1065353216,
    0,
    1065353216,
    0,
    1065353216,
    0,
    1065353216,
    0,
    1065353216,
    0,
    1065353216,
    0,
    1065353216,
    0,
    1065353216,
    0,
    1065353216;
   }

   MeshMaterialList {
    1;
    98;
    0,
    0,
    0,
    0,
    0,
    0,
    0,
    0,
    0,
    0,
    0,
    0,
    0,
    0,
    0,
    0,
    0,
    0,
    0,
    0,
    0,
    0,
    0,
    0,
    0,
    0,
    0,
    0,
    0,
    0,
    0,
    0,
    0,
    0,
    0,
    0,
    0,
    0,
    0,
    0,
    0,
    0,
    0,
    0,
    0,
    0,
    0,
    0,
    0,
    0,
    0,
    0,
    0,
    0,
    0,
    0,
    0,
    0,
    0,
    0,
    0,
    0,
    0,
    0,
    0,
    0,
    0,
    0,
    0,
    0,
    0,
    0,
    0,
    0,
    0,
    0,
    0,
    0,
    0,
    0,
    0,
    0,
    0,
    0,
    0,
    0,
    0,
    0,
    0,
    0,
    0,
    0,
    0,
    0,
    0,
    0,
    0,
    0;

    Material crossingdontwalk {
     0.588000; 0.588000; 0.588000; 1.000000;;
     128.000000;
     0.000000; 0.000000; 0.000000;;
     0.000000; 0.000000; 0.000000;;

     TextureFilename {
      "D:\\new packs\\test\\crossingdontwalk_diffuse.tga";
     }
    }

   }
  }
}
