# Wavefront OBJ file
# Creator: Ultimate Unwrap3D Pro v3.27
# Website: http://www.unwrap3d.com
# Time: Fri Jun 01 18:44:02 2012
# num_vertices: 158
# num_vertex_normals: 158
# num_uvs: 380
# num_faces: 98
# num_groups: 1

mtllib pedcrossingw.mtl

v 0.784000 0.334000 0.123000
v 0.784000 1.362000 0.123000
v 0.814000 1.392000 0.143000
v 0.814000 0.304000 0.143000
v -0.290000 0.288000 0.123000
v 0.738000 0.288000 0.123000
v 0.768000 0.258000 0.143000
v -0.320000 0.258000 0.143000
v -0.336000 1.362000 0.123000
v -0.336000 0.334000 0.123000
v -0.364000 0.304000 0.143000
v -0.364000 1.392000 0.143000
v 0.738000 1.408000 0.123000
v -0.290000 1.408000 0.123000
v -0.320000 1.438000 0.143000
v 0.768000 1.438000 0.143000
v 0.750000 0.364000 -0.177000
v 0.750000 1.332000 -0.177000
v -0.260000 0.324000 -0.177000
v 0.708000 0.324000 -0.177000
v -0.300000 1.332000 -0.177000
v -0.300000 0.364000 -0.177000
v 0.708000 1.372000 -0.177000
v -0.260000 1.372000 -0.177000
v 0.774000 1.438000 0.217000
v 0.814000 1.398000 0.217000
v 0.814000 1.392000 0.143000
v 0.814000 0.304000 0.143000
v 0.814000 0.298000 0.217000
v 0.774000 0.258000 0.217000
v -0.324000 0.258000 0.217000
v -0.364000 0.298000 0.217000
v -0.364000 0.304000 0.143000
v -0.364000 1.392000 0.143000
v -0.364000 1.398000 0.217000
v -0.324000 1.438000 0.217000
v 0.784000 1.362000 0.123000
v 0.784000 0.334000 0.123000
v -0.336000 0.334000 0.123000
v -0.336000 1.362000 0.123000
v 0.704000 0.368000 -0.217000
v 0.704000 1.328000 -0.217000
v -0.256000 0.368000 -0.217000
v -0.256000 1.328000 -0.217000
v 0.750000 1.332000 -0.177000
v 0.750000 0.364000 -0.177000
v -0.300000 0.364000 -0.177000
v -0.300000 1.332000 -0.177000
v 0.774000 1.380000 0.217000
v 0.774000 0.316000 0.217000
v 0.814000 0.298000 0.217000
v 0.814000 1.398000 0.217000
v 0.758000 1.398000 0.217000
v 0.774000 1.380000 0.217000
v -0.308000 1.398000 0.217000
v -0.324000 1.380000 0.217000
v -0.324000 0.316000 0.217000
v -0.324000 1.380000 0.217000
v -0.364000 1.398000 0.217000
v -0.364000 0.298000 0.217000
v -0.308000 0.298000 0.217000
v -0.324000 0.316000 0.217000
v 0.758000 0.298000 0.217000
v 0.774000 0.316000 0.217000
v 0.752000 1.374000 0.197000
v 0.752000 0.322000 0.197000
v -0.302000 1.374000 0.197000
v 0.752000 1.374000 0.197000
v -0.302000 0.322000 0.197000
v -0.302000 1.374000 0.197000
v 0.752000 0.322000 0.197000
v -0.302000 0.322000 0.197000
v -0.644000 1.702000 -0.011000
v -0.814000 1.702000 -0.011000
v -0.814000 1.656000 0.069000
v -0.644000 1.656000 0.067000
v -0.644000 1.656000 0.067000
v -0.814000 1.656000 0.069000
v -0.814000 1.564000 0.069000
v -0.644000 1.564000 0.067000
v -0.814000 1.518000 -0.011000
v -0.644000 1.518000 -0.011000
v -0.814000 1.564000 -0.091000
v -0.644000 1.564000 -0.091000
v -0.814000 1.656000 -0.091000
v -0.644000 1.656000 -0.091000
v 0.506000 1.546000 -0.011000
v 0.506000 1.642000 -0.067000
v 0.506000 1.642000 0.043000
v 0.506000 1.578000 0.043000
v -0.596000 1.642000 0.045000
v -0.596000 1.676000 -0.011000
v -0.596000 1.576000 0.045000
v -0.596000 1.642000 0.045000
v -0.596000 1.544000 -0.011000
v -0.596000 1.576000 -0.069000
v -0.596000 1.642000 -0.069000
v 0.506000 1.642000 0.043000
v 0.506000 1.674000 -0.011000
v 0.506000 1.578000 0.043000
v 0.506000 1.642000 0.043000
v 0.506000 1.546000 -0.011000
v 0.506000 1.578000 -0.067000
v 0.506000 1.642000 -0.067000
v -0.644000 0.182000 -0.011000
v -0.814000 0.184000 -0.011000
v -0.814000 0.138000 0.069000
v -0.644000 0.136000 0.067000
v -0.644000 0.136000 0.067000
v -0.814000 0.138000 0.069000
v -0.814000 0.046000 0.069000
v -0.644000 0.046000 0.067000
v -0.814000 0.000000 -0.011000
v -0.644000 0.000000 -0.011000
v -0.814000 0.046000 -0.091000
v -0.644000 0.046000 -0.091000
v -0.814000 0.138000 -0.091000
v -0.644000 0.136000 -0.091000
v 0.506000 0.028000 -0.011000
v 0.506000 0.122000 -0.067000
v 0.506000 0.122000 0.043000
v 0.506000 0.060000 0.043000
v -0.596000 0.124000 0.045000
v -0.596000 0.158000 -0.011000
v -0.596000 0.058000 0.045000
v -0.596000 0.124000 0.045000
v -0.596000 0.026000 -0.011000
v -0.596000 0.058000 -0.069000
v -0.596000 0.124000 -0.069000
v 0.506000 0.122000 0.043000
v 0.506000 0.154000 -0.011000
v 0.506000 0.060000 0.043000
v 0.506000 0.122000 0.043000
v 0.506000 0.028000 -0.011000
v 0.506000 0.060000 -0.067000
v 0.506000 0.122000 -0.067000
v 0.176000 0.128000 -0.011000
v 0.192000 0.128000 0.017000
v 0.194000 1.566000 0.017000
v 0.178000 1.566000 -0.011000
v 0.226000 0.128000 0.017000
v 0.226000 1.566000 0.017000
v 0.242000 0.128000 -0.011000
v 0.242000 1.566000 -0.011000
v 0.226000 0.128000 -0.041000
v 0.226000 1.566000 -0.039000
v 0.226000 0.128000 -0.041000
v 0.192000 0.128000 -0.041000
v 0.194000 1.566000 -0.039000
v 0.226000 1.566000 -0.039000
v -0.302000 1.374000 0.197000
v -0.302000 0.322000 0.197000
v 0.752000 0.322000 0.197000
v 0.752000 1.374000 0.197000
v 0.506000 1.578000 -0.067000
v 0.506000 1.674000 -0.011000
v 0.506000 0.060000 -0.067000
v 0.506000 0.154000 -0.011000
# num_vertices: 158

vn 0.853660 0.000000 -0.520830
vn 0.853660 0.000000 -0.520830
vn 0.881674 0.000000 -0.471858
vn 0.881674 0.000000 -0.471858
vn -0.296575 -0.751616 -0.589166
vn 0.288821 -0.753564 -0.590529
vn 0.306596 -0.779733 -0.545908
vn -0.309691 -0.783338 -0.538955
vn -0.860275 0.000000 -0.509830
vn -0.860275 0.000000 -0.509830
vn -0.889168 0.000000 -0.457581
vn -0.889168 0.000000 -0.457581
vn 0.289186 0.754269 -0.589449
vn -0.294569 0.750340 -0.591793
vn -0.313110 0.779075 -0.543144
vn 0.306596 0.779733 -0.545907
vn 0.801998 -0.202241 -0.562048
vn 0.801998 0.202241 -0.562047
vn -0.347121 -0.814171 -0.465438
vn 0.336163 -0.818431 -0.466011
vn -0.809390 0.197937 -0.552910
vn -0.809390 -0.197937 -0.552910
vn 0.336476 0.818986 -0.464808
vn -0.347120 0.814172 -0.465437
vn 0.263403 0.636524 0.724884
vn 0.514110 0.514111 0.686572
vn 0.586073 0.586074 -0.559496
vn 0.586073 -0.586073 -0.559496
vn 0.514110 -0.514110 0.686572
vn 0.263403 -0.636524 0.724884
vn -0.262233 -0.633357 0.728074
vn -0.509459 -0.509459 0.693472
vn -0.592383 -0.592382 -0.546046
vn -0.598756 0.580392 -0.551939
vn -0.520862 0.498216 0.693170
vn -0.268637 0.628983 0.729531
vn 0.557463 0.576792 -0.597114
vn 0.556392 -0.575678 -0.599185
vn -0.568979 -0.568979 -0.593740
vn -0.566192 0.566193 -0.599043
vn 0.329266 -0.341167 -0.880448
vn 0.329266 0.341168 -0.880448
vn -0.339856 -0.339856 -0.876924
vn -0.339856 0.339857 -0.876924
vn 0.681967 0.716067 -0.148896
vn 0.681428 -0.715500 -0.154003
vn -0.698703 -0.698703 -0.153715
vn -0.698703 0.698704 -0.153715
vn -0.360597 0.000000 0.932722
vn -0.360597 0.000000 0.932722
vn 0.707107 0.000000 0.707107
vn 0.707107 0.000000 0.707107
vn -0.141654 -0.299355 0.943568
vn -0.282353 -0.250979 0.925898
vn 0.141654 -0.299355 0.943568
vn 0.282352 -0.250980 0.925898
vn 0.360597 0.000000 0.932722
vn 0.360597 0.000000 0.932722
vn -0.707107 0.000000 0.707107
vn -0.707107 0.000000 0.707107
vn 0.141654 0.299356 0.943568
vn 0.282352 0.250980 0.925898
vn -0.141655 0.299355 0.943568
vn -0.282353 0.250979 0.925898
vn -0.672674 0.000000 0.739939
vn -0.672674 0.000000 0.739939
vn 0.272079 -0.574981 0.771602
vn -0.272080 -0.574980 0.771602
vn 0.672673 0.000000 0.739940
vn 0.672673 0.000000 0.739940
vn -0.272081 0.574981 0.771601
vn 0.272080 0.574982 0.771601
vn 0.251935 0.967725 0.006090
vn 0.000000 0.999985 0.005505
vn 0.000000 0.861366 0.507985
vn 0.216545 0.840928 0.495932
vn 0.218974 0.000000 0.975731
vn 0.011764 0.000000 0.999931
vn 0.010215 -0.495978 0.868275
vn 0.246323 -0.481153 0.841318
vn 0.003458 -0.999979 0.005500
vn 0.246743 -0.969060 0.006422
vn 0.000000 -0.500764 -0.865584
vn 0.247039 -0.484748 -0.839042
vn 0.000000 0.500764 -0.865584
vn 0.249673 0.483886 -0.838760
vn 1.000000 0.000000 0.000000
vn 1.000000 0.000000 0.000000
vn 1.000000 0.000000 0.000000
vn 1.000000 0.000000 0.000000
vn 0.217307 0.837431 0.501485
vn 0.253391 0.967337 0.007212
vn 0.243095 -0.484561 0.840301
vn 0.214118 0.000000 0.976808
vn 0.245128 -0.969462 0.007434
vn 0.248610 -0.488415 -0.836447
vn 0.250127 0.481980 -0.839721
vn 0.001551 0.854786 0.518978
vn 0.001438 0.999969 0.007719
vn 0.002481 -0.501925 0.864908
vn 0.001815 0.000000 0.999998
vn 0.002331 -0.999969 0.007490
vn 0.001976 -0.508390 -0.861125
vn 0.001575 0.497132 -0.867674
vn 0.241091 0.970484 0.006063
vn 0.011764 0.999916 0.005505
vn 0.010133 0.861322 0.507959
vn 0.206898 0.842728 0.496993
vn 0.218974 0.000000 0.975731
vn 0.011764 0.000000 0.999931
vn 0.010215 -0.495978 0.868275
vn 0.246323 -0.481153 0.841318
vn 0.003458 -0.999979 0.005500
vn 0.246743 -0.969060 0.006422
vn 0.000000 -0.500764 -0.865584
vn 0.247039 -0.484748 -0.839042
vn 0.005891 0.500742 -0.865577
vn 0.244293 0.486155 -0.839031
vn 1.000000 0.000000 0.000000
vn 1.000000 0.000000 0.000000
vn 1.000000 0.000000 0.000000
vn 1.000000 0.000000 0.000000
vn 0.203462 0.840008 0.502980
vn 0.237738 0.971303 0.007189
vn 0.243095 -0.484561 0.840301
vn 0.214118 0.000000 0.976808
vn 0.245128 -0.969462 0.007434
vn 0.248610 -0.488415 -0.836447
vn 0.242376 0.484558 -0.840510
vn 0.003103 0.854783 0.518976
vn 0.003252 0.999965 0.007719
vn 0.002481 -0.501925 0.864908
vn 0.001815 0.000000 0.999998
vn 0.002331 -0.999969 0.007490
vn 0.001976 -0.508390 -0.861125
vn 0.002477 0.497130 -0.867673
vn -0.999892 0.001765 0.014594
vn -0.501926 0.000698 0.864910
vn -0.501926 0.000698 0.864910
vn -0.999892 0.001765 0.014594
vn 0.501927 0.000000 0.864910
vn 0.501927 0.000000 0.864910
vn 0.999894 0.000000 0.014594
vn 0.999894 0.000000 0.014594
vn 0.882353 0.000000 -0.470588
vn 0.882353 0.000000 -0.470588
vn 0.000000 0.001391 -0.999999
vn -0.514495 0.001908 -0.857491
vn -0.514495 0.001908 -0.857491
vn 0.000000 0.001391 -0.999999
vn 0.000000 0.000000 1.000000
vn 0.000000 0.000000 1.000000
vn 0.000000 0.000000 1.000000
vn 0.000000 0.000000 1.000000
vn 1.000000 0.000000 0.000000
vn 1.000000 0.000000 0.000000
vn 1.000000 0.000000 0.000000
vn 1.000000 0.000000 0.000000
# num_vertex_normals: 158

vt 0.424000 0.142000
vt 0.424000 0.361000
vt 0.441000 0.361000
vt 0.441000 0.142000
vt 0.133000 0.063000
vt 0.352000 0.063000
vt 0.352000 0.044000
vt 0.133000 0.044000
vt 0.063000 0.361000
vt 0.063000 0.145000
vt 0.046000 0.145000
vt 0.046000 0.361000
vt 0.353000 0.432000
vt 0.133000 0.432000
vt 0.133000 0.450000
vt 0.353000 0.450000
vt 0.363000 0.142000
vt 0.363000 0.361000
vt 0.424000 0.361000
vt 0.424000 0.142000
vt 0.133000 0.131000
vt 0.352000 0.131000
vt 0.352000 0.063000
vt 0.133000 0.063000
vt 0.123000 0.361000
vt 0.123000 0.145000
vt 0.063000 0.145000
vt 0.063000 0.361000
vt 0.354000 0.370000
vt 0.133000 0.370000
vt 0.133000 0.432000
vt 0.353000 0.432000
vt 0.353000 0.470000
vt 0.364000 0.470000
vt 0.364000 0.450000
vt 0.353000 0.450000
vt 0.352000 0.044000
vt 0.364000 0.044000
vt 0.364000 0.022000
vt 0.352000 0.022000
vt 0.133000 0.022000
vt 0.123000 0.022000
vt 0.123000 0.044000
vt 0.133000 0.044000
vt 0.133000 0.450000
vt 0.121000 0.450000
vt 0.121000 0.470000
vt 0.133000 0.470000
vt 0.364000 0.432000
vt 0.353000 0.432000
vt 0.353000 0.450000
vt 0.364000 0.450000
vt 0.352000 0.063000
vt 0.364000 0.063000
vt 0.364000 0.044000
vt 0.352000 0.044000
vt 0.123000 0.063000
vt 0.133000 0.063000
vt 0.133000 0.044000
vt 0.123000 0.044000
vt 0.133000 0.432000
vt 0.121000 0.432000
vt 0.121000 0.450000
vt 0.133000 0.450000
vt 0.363000 0.142000
vt 0.353000 0.141000
vt 0.353000 0.360000
vt 0.363000 0.361000
vt 0.133000 0.131000
vt 0.134000 0.141000
vt 0.353000 0.141000
vt 0.352000 0.131000
vt 0.123000 0.361000
vt 0.134000 0.360000
vt 0.134000 0.141000
vt 0.123000 0.145000
vt 0.354000 0.370000
vt 0.353000 0.360000
vt 0.134000 0.360000
vt 0.133000 0.370000
vt 0.364000 0.370000
vt 0.354000 0.370000
vt 0.353000 0.432000
vt 0.364000 0.432000
vt 0.352000 0.131000
vt 0.364000 0.131000
vt 0.364000 0.063000
vt 0.352000 0.063000
vt 0.123000 0.131000
vt 0.133000 0.131000
vt 0.133000 0.063000
vt 0.123000 0.063000
vt 0.133000 0.370000
vt 0.121000 0.370000
vt 0.121000 0.432000
vt 0.133000 0.432000
vt 0.472000 0.361000
vt 0.472000 0.142000
vt 0.460000 0.142000
vt 0.460000 0.361000
vt 0.353000 0.481000
vt 0.360000 0.481000
vt 0.364000 0.470000
vt 0.353000 0.470000
vt 0.133000 0.481000
vt 0.353000 0.481000
vt 0.353000 0.470000
vt 0.133000 0.470000
vt 0.125000 0.481000
vt 0.133000 0.481000
vt 0.133000 0.470000
vt 0.121000 0.470000
vt 0.016000 0.145000
vt 0.016000 0.361000
vt 0.027000 0.361000
vt 0.027000 0.145000
vt 0.133000 0.009000
vt 0.126000 0.009000
vt 0.123000 0.022000
vt 0.133000 0.022000
vt 0.352000 0.009000
vt 0.133000 0.009000
vt 0.133000 0.022000
vt 0.352000 0.022000
vt 0.361000 0.009000
vt 0.352000 0.009000
vt 0.352000 0.022000
vt 0.364000 0.022000
vt 0.478000 0.361000
vt 0.478000 0.142000
vt 0.472000 0.142000
vt 0.472000 0.361000
vt 0.133000 0.488000
vt 0.353000 0.488000
vt 0.353000 0.481000
vt 0.133000 0.481000
vt 0.009000 0.145000
vt 0.009000 0.361000
vt 0.016000 0.361000
vt 0.016000 0.145000
vt 0.352000 0.002000
vt 0.133000 0.002000
vt 0.133000 0.009000
vt 0.352000 0.009000
vt 0.363000 0.361000
vt 0.353000 0.360000
vt 0.354000 0.370000
vt 0.352000 0.131000
vt 0.353000 0.141000
vt 0.363000 0.142000
vt 0.123000 0.145000
vt 0.134000 0.141000
vt 0.133000 0.131000
vt 0.133000 0.370000
vt 0.134000 0.360000
vt 0.123000 0.361000
vt 0.360000 0.481000
vt 0.353000 0.481000
vt 0.353000 0.488000
vt 0.133000 0.481000
vt 0.125000 0.481000
vt 0.133000 0.488000
vt 0.126000 0.009000
vt 0.133000 0.009000
vt 0.133000 0.002000
vt 0.352000 0.009000
vt 0.361000 0.009000
vt 0.352000 0.002000
vt 0.811000 0.569000
vt 0.811000 0.505000
vt 0.774000 0.505000
vt 0.774000 0.569000
vt 0.992000 0.569000
vt 0.992000 0.505000
vt 0.956000 0.505000
vt 0.956000 0.569000
vt 0.956000 0.569000
vt 0.956000 0.505000
vt 0.919000 0.505000
vt 0.919000 0.569000
vt 0.919000 0.569000
vt 0.919000 0.505000
vt 0.883000 0.505000
vt 0.883000 0.569000
vt 0.883000 0.569000
vt 0.883000 0.505000
vt 0.847000 0.505000
vt 0.847000 0.569000
vt 0.847000 0.569000
vt 0.847000 0.505000
vt 0.811000 0.505000
vt 0.811000 0.569000
vt 0.710000 0.229000
vt 0.747000 0.292000
vt 0.672000 0.292000
vt 0.672000 0.250000
vt 0.811000 0.569000
vt 0.774000 0.569000
vt 0.774000 0.587000
vt 0.811000 0.587000
vt 0.992000 0.569000
vt 0.956000 0.569000
vt 0.956000 0.587000
vt 0.992000 0.587000
vt 0.956000 0.569000
vt 0.919000 0.569000
vt 0.919000 0.587000
vt 0.956000 0.587000
vt 0.919000 0.569000
vt 0.883000 0.569000
vt 0.883000 0.587000
vt 0.919000 0.587000
vt 0.883000 0.569000
vt 0.847000 0.569000
vt 0.847000 0.587000
vt 0.883000 0.587000
vt 0.847000 0.569000
vt 0.811000 0.569000
vt 0.811000 0.587000
vt 0.847000 0.587000
vt 0.811000 0.587000
vt 0.774000 0.587000
vt 0.774000 1.002000
vt 0.811000 1.002000
vt 0.992000 0.587000
vt 0.956000 0.587000
vt 0.956000 1.002000
vt 0.992000 1.002000
vt 0.956000 0.587000
vt 0.919000 0.587000
vt 0.919000 1.002000
vt 0.956000 1.002000
vt 0.919000 0.587000
vt 0.883000 0.587000
vt 0.883000 1.002000
vt 0.919000 1.002000
vt 0.883000 0.587000
vt 0.847000 0.587000
vt 0.847000 1.002000
vt 0.883000 1.002000
vt 0.847000 0.587000
vt 0.811000 0.587000
vt 0.811000 1.002000
vt 0.847000 1.002000
vt 0.813000 0.066000
vt 0.813000 0.002000
vt 0.776000 0.002000
vt 0.776000 0.066000
vt 0.994000 0.066000
vt 0.994000 0.002000
vt 0.958000 0.002000
vt 0.958000 0.066000
vt 0.958000 0.066000
vt 0.958000 0.002000
vt 0.921000 0.002000
vt 0.921000 0.066000
vt 0.921000 0.066000
vt 0.921000 0.002000
vt 0.885000 0.002000
vt 0.885000 0.066000
vt 0.885000 0.066000
vt 0.885000 0.002000
vt 0.849000 0.002000
vt 0.849000 0.066000
vt 0.849000 0.066000
vt 0.849000 0.002000
vt 0.813000 0.002000
vt 0.813000 0.066000
vt 0.711000 0.317000
vt 0.748000 0.380000
vt 0.674000 0.380000
vt 0.674000 0.338000
vt 0.813000 0.066000
vt 0.776000 0.066000
vt 0.776000 0.083000
vt 0.813000 0.083000
vt 0.994000 0.066000
vt 0.958000 0.066000
vt 0.958000 0.083000
vt 0.994000 0.083000
vt 0.958000 0.066000
vt 0.921000 0.066000
vt 0.921000 0.083000
vt 0.958000 0.083000
vt 0.921000 0.066000
vt 0.885000 0.066000
vt 0.885000 0.083000
vt 0.921000 0.083000
vt 0.885000 0.066000
vt 0.849000 0.066000
vt 0.849000 0.083000
vt 0.885000 0.083000
vt 0.849000 0.066000
vt 0.813000 0.066000
vt 0.813000 0.083000
vt 0.849000 0.083000
vt 0.813000 0.083000
vt 0.776000 0.083000
vt 0.776000 0.498000
vt 0.813000 0.498000
vt 0.994000 0.083000
vt 0.958000 0.083000
vt 0.958000 0.498000
vt 0.994000 0.498000
vt 0.958000 0.083000
vt 0.921000 0.083000
vt 0.921000 0.498000
vt 0.958000 0.498000
vt 0.921000 0.083000
vt 0.885000 0.083000
vt 0.885000 0.498000
vt 0.921000 0.498000
vt 0.885000 0.083000
vt 0.849000 0.083000
vt 0.849000 0.498000
vt 0.885000 0.498000
vt 0.849000 0.083000
vt 0.813000 0.083000
vt 0.813000 0.498000
vt 0.849000 0.498000
vt 0.643000 0.436000
vt 0.684000 0.436000
vt 0.684000 0.996000
vt 0.643000 0.996000
vt 0.684000 0.436000
vt 0.710000 0.436000
vt 0.710000 0.996000
vt 0.684000 0.996000
vt 0.710000 0.436000
vt 0.731000 0.436000
vt 0.731000 0.996000
vt 0.710000 0.996000
vt 0.731000 0.436000
vt 0.753000 0.436000
vt 0.753000 0.996000
vt 0.731000 0.996000
vt 0.577000 0.436000
vt 0.603000 0.436000
vt 0.603000 0.996000
vt 0.577000 0.996000
vt 0.603000 0.436000
vt 0.643000 0.436000
vt 0.643000 0.996000
vt 0.603000 0.996000
vt 0.460000 0.361000
vt 0.460000 0.142000
vt 0.441000 0.142000
vt 0.441000 0.361000
vt 0.027000 0.361000
vt 0.046000 0.361000
vt 0.046000 0.145000
vt 0.027000 0.145000
vt 0.133000 0.022000
vt 0.133000 0.044000
vt 0.352000 0.044000
vt 0.352000 0.022000
vt 0.004000 0.995000
vt 0.004000 0.506000
vt 0.493000 0.506000
vt 0.493000 0.995000
vt 0.133000 0.450000
vt 0.133000 0.470000
vt 0.353000 0.470000
vt 0.353000 0.450000
vt 0.134000 0.141000
vt 0.134000 0.360000
vt 0.353000 0.360000
vt 0.353000 0.141000
vt 0.710000 0.229000
vt 0.747000 0.250000
vt 0.747000 0.292000
vt 0.710000 0.313000
vt 0.672000 0.292000
vt 0.747000 0.292000
vt 0.711000 0.317000
vt 0.748000 0.338000
vt 0.748000 0.380000
vt 0.711000 0.401000
vt 0.674000 0.380000
vt 0.748000 0.380000
# num_uvs: 380

g Default_Layer
s 1

usemtl crossingdontwalk
f 1/1/1 2/2/2 3/3/3 4/4/4 
f 5/5/5 6/6/6 7/7/7 8/8/8 
f 9/9/9 10/10/10 11/11/11 12/12/12 
f 13/13/13 14/14/14 15/15/15 16/16/16 
f 17/17/17 18/18/18 2/19/2 1/20/1 
f 19/21/19 20/22/20 6/23/6 5/24/5 
f 21/25/21 22/26/22 10/27/10 9/28/9 
f 23/29/23 24/30/24 14/31/14 13/32/13 
f 25/33/25 26/34/26 27/35/27 16/36/16 
f 7/37/7 28/38/28 29/39/29 30/40/30 
f 31/41/31 32/42/32 33/43/33 8/44/8 
f 15/45/15 34/46/34 35/47/35 36/48/36 
f 37/49/37 13/50/13 16/51/16 27/52/27 
f 6/53/6 38/54/38 28/55/28 7/56/7 
f 39/57/39 5/58/5 8/59/8 33/60/33 
f 14/61/14 40/62/40 34/63/34 15/64/15 
f 17/65/17 41/66/41 42/67/42 18/68/18 
f 19/69/19 43/70/43 41/71/41 20/72/20 
f 21/73/21 44/74/44 43/75/43 22/76/22 
f 23/77/23 42/78/42 44/79/44 24/80/24 
f 45/81/45 23/82/23 13/83/13 37/84/37 
f 20/85/20 46/86/46 38/87/38 6/88/6 
f 47/89/47 19/90/19 5/91/5 39/92/39 
f 24/93/24 48/94/48 40/95/40 14/96/14 
f 49/97/49 50/98/50 51/99/51 52/100/52 
f 53/101/53 54/102/54 26/103/26 25/104/25 
f 55/105/55 53/106/53 25/107/25 36/108/36 
f 56/109/56 55/110/55 36/111/36 35/112/35 
f 57/113/57 58/114/58 59/115/59 60/116/60 
f 61/117/61 62/118/62 32/119/32 31/120/31 
f 63/121/63 61/122/61 31/123/31 30/124/30 
f 64/125/64 63/126/63 30/127/30 29/128/29 
f 65/129/65 66/130/66 50/131/50 49/132/49 
f 67/133/67 68/134/68 53/135/53 55/136/55 
f 69/137/69 70/138/70 58/139/58 57/140/57 
f 71/141/71 72/142/72 61/143/61 63/144/63 
f 18/145/18 42/146/42 23/147/23 
f 20/148/20 41/149/41 17/150/17 
f 22/151/22 43/152/43 19/153/19 
f 24/154/24 44/155/44 21/156/21 
f 54/157/54 53/158/53 68/159/68 
f 55/160/55 56/161/56 67/162/67 
f 62/163/62 61/164/61 72/165/72 
f 63/166/63 64/167/64 71/168/71 
f 73/169/73 74/170/74 75/171/75 76/172/76 
f 77/173/77 78/174/78 79/175/79 80/176/80 
f 80/177/80 79/178/79 81/179/81 82/180/82 
f 82/181/82 81/182/81 83/183/83 84/184/84 
f 84/185/84 83/186/83 85/187/85 86/188/86 
f 86/189/86 85/190/85 74/191/74 73/192/73 
f 87/193/87 88/194/88 89/195/89 90/196/90 
f 73/197/73 76/198/76 91/199/91 92/200/92 
f 77/201/77 80/202/80 93/203/93 94/204/94 
f 80/205/80 82/206/82 95/207/95 93/208/93 
f 82/209/82 84/210/84 96/211/96 95/212/95 
f 84/213/84 86/214/86 97/215/97 96/216/96 
f 86/217/86 73/218/73 92/219/92 97/220/97 
f 92/221/92 91/222/91 98/223/98 99/224/99 
f 94/225/94 93/226/93 100/227/100 101/228/101 
f 93/229/93 95/230/95 102/231/102 100/232/100 
f 95/233/95 96/234/96 103/235/103 102/236/102 
f 96/237/96 97/238/97 104/239/104 103/240/103 
f 97/241/97 92/242/92 99/243/99 104/244/104 
f 105/245/105 106/246/106 107/247/107 108/248/108 
f 109/249/109 110/250/110 111/251/111 112/252/112 
f 112/253/112 111/254/111 113/255/113 114/256/114 
f 114/257/114 113/258/113 115/259/115 116/260/116 
f 116/261/116 115/262/115 117/263/117 118/264/118 
f 118/265/118 117/266/117 106/267/106 105/268/105 
f 119/269/119 120/270/120 121/271/121 122/272/122 
f 105/273/105 108/274/108 123/275/123 124/276/124 
f 109/277/109 112/278/112 125/279/125 126/280/126 
f 112/281/112 114/282/114 127/283/127 125/284/125 
f 114/285/114 116/286/116 128/287/128 127/288/127 
f 116/289/116 118/290/118 129/291/129 128/292/128 
f 118/293/118 105/294/105 124/295/124 129/296/129 
f 124/297/124 123/298/123 130/299/130 131/300/131 
f 126/301/126 125/302/125 132/303/132 133/304/133 
f 125/305/125 127/306/127 134/307/134 132/308/132 
f 127/309/127 128/310/128 135/311/135 134/312/134 
f 128/313/128 129/314/129 136/315/136 135/316/135 
f 129/317/129 124/318/124 131/319/131 136/320/136 
f 137/321/137 138/322/138 139/323/139 140/324/140 
f 138/325/138 141/326/141 142/327/142 139/328/139 
f 141/329/141 143/330/143 144/331/144 142/332/142 
f 143/333/143 145/334/145 146/335/146 144/336/144 
f 147/337/147 148/338/148 149/339/149 150/340/150 
f 148/341/148 137/342/137 140/343/140 149/344/149 
f 52/345/52 51/346/51 4/347/4 3/348/3 
f 59/349/59 12/350/12 11/351/11 60/352/60 
f 31/353/31 8/354/8 7/355/7 30/356/30 
f 151/357/151 152/358/152 153/359/153 154/360/154 
f 15/361/15 36/362/36 25/363/25 16/364/16 
f 43/365/43 44/366/44 42/367/42 41/368/41 
f 87/369/87 155/370/155 88/371/88 
f 156/372/156 89/373/89 88/374/88 
f 119/375/119 157/376/157 120/377/120 
f 158/378/158 121/379/121 120/380/120 
# num_faces: 98

