<?xml version="1.0" encoding="utf-8"?>
<COLLADA xmlns="http://www.collada.org/2005/11/COLLADASchema" version="1.4.1">
  <asset>
    <contributor>
      <author>Ultimate Unwrap3D Pro</author>
      <authoring_tool>Ultimate Unwrap3D Pro v3.27</authoring_tool>
      <comments>Exported from Ultimate Unwrap3D Pro on Fri Jun 01 18:57:25 2012</comments>
      <source_data>file:///D:/new%20packs/test/pedcrossingw.dae</source_data>
    </contributor>
    <created>2012-06-01T16:57:25Z</created>
    <modified>2012-06-01T16:57:25Z</modified>
    <unit meter="1" name="meter"/>
    <up_axis>Y_UP</up_axis>
  </asset>
  <library_images>
    <image id="Image" name="crossingwalk_diffuse">
      <init_from>file:///D:/new%20packs/test/crossingwalk_diffuse.tga</init_from>
    </image>
  </library_images>
  <library_materials>
    <material id="VisualMaterial1" name="Unassigned">
      <instance_effect url="#Effect"/>
    </material>
    <material id="VisualMaterial" name="crossingdontwalk">
      <instance_effect url="#Effect1"/>
    </material>
  </library_materials>
  <library_effects>
    <effect id="Effect" name="Unassigned_eff">
      <profile_COMMON>
        <technique sid="common">
          <phong>
            <ambient>
              <color>1 1 1 1</color>
            </ambient>
            <diffuse>
              <color>1 1 1 1</color>
            </diffuse>
            <specular>
              <color>0 0 0 1</color>
            </specular>
            <shininess>
              <float>100</float>
            </shininess>
            <reflective>
              <color>0 0 0 1</color>
            </reflective>
            <reflectivity>
              <float>1</float>
            </reflectivity>
            <transparent opaque="A_ONE">
              <color>1 1 1 1</color>
            </transparent>
            <transparency>
              <float>0</float>
            </transparency>
            <index_of_refraction>
              <float>0</float>
            </index_of_refraction>
          </phong>
          <extra>
            <technique profile="FCOLLADA">
              <spec_level>
                <float>0</float>
              </spec_level>
              <emission_level>
                <float>0</float>
              </emission_level>
            </technique>
          </extra>
        </technique>
      </profile_COMMON>
      <extra>
        <technique profile="MAX3D">
          <faceted>0</faceted>
          <double_sided>0</double_sided>
          <wireframe>0</wireframe>
          <face_map>0</face_map>
        </technique>
      </extra>
    </effect>
    <effect id="Effect1" name="crossingdontwalk_eff">
      <profile_COMMON>
        <newparam sid="Image-surface">
          <surface type="2D">
            <init_from>Image</init_from>
            <format>A8R8G8B8</format>
          </surface>
        </newparam>
        <newparam sid="Image-sampler">
          <sampler2D>
            <source>Image-surface</source>
            <minfilter>LINEAR_MIPMAP_LINEAR</minfilter>
            <magfilter>LINEAR</magfilter>
          </sampler2D>
        </newparam>
        <technique sid="common">
          <phong>
            <ambient>
              <color>1 1 1 1</color>
            </ambient>
            <diffuse>
              <texture texture="Image-sampler" texcoord="UVSET0">
                <extra>
                  <technique profile="MAX3D">
                    <amount>1</amount>
                  </technique>
                </extra>
              </texture>
            </diffuse>
            <specular>
              <color>0 0 0 1</color>
            </specular>
            <shininess>
              <float>100</float>
            </shininess>
            <reflective>
              <color>0 0 0 1</color>
            </reflective>
            <reflectivity>
              <float>1</float>
            </reflectivity>
            <transparent opaque="A_ONE">
              <color>1 1 1 1</color>
            </transparent>
            <transparency>
              <float>0</float>
            </transparency>
            <index_of_refraction>
              <float>0</float>
            </index_of_refraction>
          </phong>
          <extra>
            <technique profile="FCOLLADA">
              <spec_level>
                <float>0</float>
              </spec_level>
              <emission_level>
                <float>0</float>
              </emission_level>
            </technique>
          </extra>
        </technique>
      </profile_COMMON>
      <extra>
        <technique profile="MAX3D">
          <faceted>0</faceted>
          <double_sided>0</double_sided>
          <wireframe>0</wireframe>
          <face_map>0</face_map>
        </technique>
      </extra>
    </effect>
  </library_effects>
  <library_geometries>
    <geometry id="geomU3D1_id" name="geomU3D1">
      <mesh>
        <source id="PositionSrc_id" name="PositionSrc">
          <float_array id="PositionSrc_id-array" count="474">0.814 0.304 -0.143 0.814 1.392 -0.143 0.784 1.362 -0.123 0.784 0.334 -0.123 -0.32 0.258 -0.143 0.768 0.258 -0.143 0.738 0.288 -0.123 -0.29 0.288 -0.123 -0.364 1.392 -0.143 -0.364 0.304 -0.143 -0.336 0.334 -0.123 -0.336 1.362 -0.123 0.768 1.438 -0.143 -0.32 1.438 -0.143 -0.29 1.408 -0.123 0.738 1.408 -0.123 0.75 1.332 0.177 0.75 0.364 0.177 0.708 0.324 0.177 -0.26 0.324 0.177 -0.3 0.364 0.177 -0.3 1.332 0.177 -0.26 1.372 0.177 0.708 1.372 0.177 0.814 1.392 -0.143 0.814 1.398 -0.217 0.774 1.438 -0.217 0.774 0.258 -0.217 0.814 0.298 -0.217 0.814 0.304 -0.143 -0.364 0.304 -0.143 -0.364 0.298 -0.217 -0.324 0.258 -0.217 -0.324 1.438 -0.217 -0.364 1.398 -0.217 -0.364 1.392 -0.143 0.784 1.362 -0.123 0.784 0.334 -0.123 -0.336 0.334 -0.123 -0.336 1.362 -0.123 0.704 1.328 0.217 0.704 0.368 0.217 -0.256 0.368 0.217 -0.256 1.328 0.217 0.75 1.332 0.177 0.75 0.364 0.177 -0.3 0.364 0.177 -0.3 1.332 0.177 0.814 1.398 -0.217 0.814 0.298 -0.217 0.774 0.316 -0.217 0.774 1.38 -0.217 0.774 1.38 -0.217 0.758 1.398 -0.217 -0.308 1.398 -0.217 -0.324 1.38 -0.217 -0.364 0.298 -0.217 -0.364 1.398 -0.217 -0.324 1.38 -0.217 -0.324 0.316 -0.217 -0.324 0.316 -0.217 -0.308 0.298 -0.217 0.758 0.298 -0.217 0.774 0.316 -0.217 0.752 0.322 -0.197 0.752 1.374 -0.197 0.752 1.374 -0.197 -0.302 1.374 -0.197 -0.302 1.374 -0.197 -0.302 0.322 -0.197 -0.302 0.322 -0.197 0.752 0.322 -0.197 -0.644 1.656 -0.067 -0.814 1.656 -0.069 -0.814 1.702 0.011 -0.644 1.702 0.011 -0.644 1.564 -0.067 -0.814 1.564 -0.069 -0.814 1.656 -0.069 -0.644 1.656 -0.067 -0.644 1.518 0.011 -0.814 1.518 0.011 -0.644 1.564 0.091 -0.814 1.564 0.091 -0.644 1.656 0.091 -0.814 1.656 0.091 0.506 1.578 -0.043 0.506 1.642 -0.043 0.506 1.642 0.067 0.506 1.546 0.011 -0.596 1.676 0.011 -0.596 1.642 -0.045 -0.596 1.642 -0.045 -0.596 1.576 -0.045 -0.596 1.544 0.011 -0.596 1.576 0.069 -0.596 1.642 0.069 0.506 1.674 0.011 0.506 1.642 -0.043 0.506 1.642 -0.043 0.506 1.578 -0.043 0.506 1.546 0.011 0.506 1.578 0.067 0.506 1.642 0.067 -0.644 0.136 -0.067 -0.814 0.138 -0.069 -0.814 0.184 0.011 -0.644 0.182 0.011 -0.644 0.046 -0.067 -0.814 0.046 -0.069 -0.814 0.138 -0.069 -0.644 0.136 -0.067 -0.644 0 0.011 -0.814 0 0.011 -0.644 0.046 0.091 -0.814 0.046 0.091 -0.644 0.136 0.091 -0.814 0.138 0.091 0.506 0.059999 -0.043 0.506 0.122 -0.043 0.506 0.122 0.067 0.506 0.028 0.011 -0.596 0.158 0.011 -0.596 0.124 -0.045 -0.596 0.124 -0.045 -0.596 0.058 -0.045 -0.596 0.025999 0.011 -0.596 0.058 0.069 -0.596 0.124 0.069 0.506 0.154 0.011 0.506 0.122 -0.043 0.506 0.122 -0.043 0.506 0.059999 -0.043 0.506 0.028 0.011 0.506 0.059999 0.067 0.506 0.122 0.067 0.178 1.566 0.011 0.194 1.566 -0.017 0.192 0.128 -0.017 0.176 0.128 0.011 0.226 1.566 -0.017 0.226 0.128 -0.017 0.242 1.566 0.011 0.242 0.128 0.011 0.226 1.566 0.039 0.226 0.128 0.041 0.226 1.566 0.039 0.194 1.566 0.039 0.192 0.128 0.041 0.226 0.128 0.041 0.752 1.374 -0.197 0.752 0.322 -0.197 -0.302 0.322 -0.197 -0.302 1.374 -0.197 0.506 1.578 0.067 0.506 1.674 0.011 0.506 0.059999 0.067 0.506 0.154 0.011</float_array>
          <technique_common>
            <accessor source="#PositionSrc_id-array" count="158" stride="3">
              <param name="X" type="float"/>
              <param name="Y" type="float"/>
              <param name="Z" type="float"/>
            </accessor>
          </technique_common>
        </source>
        <source id="NormalSrc_id" name="NormalSrc">
          <float_array id="NormalSrc_id-array" count="474">0.881674 0 0.471858 0.881674 0 0.471858 0.85366 0 0.52083 0.85366 0 0.52083 -0.309691 -0.783338 0.538955 0.306596 -0.779733 0.545908 0.288821 -0.753564 0.590529 -0.296575 -0.751616 0.589166 -0.889168 0 0.457581 -0.889168 0 0.457581 -0.860275 0 0.50983 -0.860275 0 0.50983 0.306596 0.779733 0.545907 -0.31311 0.779075 0.543144 -0.294569 0.75034 0.591793 0.289186 0.754269 0.589449 0.801998 0.202241 0.562047 0.801998 -0.202241 0.562048 0.336163 -0.818431 0.466011 -0.347121 -0.814171 0.465438 -0.80939 -0.197937 0.55291 -0.80939 0.197937 0.55291 -0.34712 0.814172 0.465437 0.336476 0.818986 0.464808 0.586073 0.586074 0.559496 0.51411 0.514111 -0.686572 0.263403 0.636524 -0.724884 0.263403 -0.636524 -0.724884 0.51411 -0.51411 -0.686572 0.586073 -0.586073 0.559496 -0.592383 -0.592382 0.546046 -0.509459 -0.509459 -0.693472 -0.262233 -0.633357 -0.728074 -0.268637 0.628983 -0.729531 -0.520862 0.498216 -0.69317 -0.598756 0.580392 0.551939 0.557463 0.576792 0.597114 0.556392 -0.575678 0.599185 -0.568979 -0.568979 0.59374 -0.566192 0.566193 0.599043 0.329266 0.341168 0.880448 0.329266 -0.341167 0.880448 -0.339856 -0.339856 0.876924 -0.339856 0.339857 0.876924 0.681967 0.716067 0.148896 0.681428 -0.7155 0.154003 -0.698703 -0.698703 0.153715 -0.698703 0.698704 0.153715 0.707107 0 -0.707107 0.707107 0 -0.707107 -0.360597 0 -0.932722 -0.360597 0 -0.932722 -0.282353 -0.250979 -0.925898 -0.141654 -0.299355 -0.943568 0.141654 -0.299355 -0.943568 0.282352 -0.25098 -0.925898 -0.707107 0 -0.707107 -0.707107 0 -0.707107 0.360597 0 -0.932722 0.360597 0 -0.932722 0.282352 0.25098 -0.925898 0.141654 0.299356 -0.943568 -0.141655 0.299355 -0.943568 -0.282353 0.250979 -0.925898 -0.672674 0 -0.739939 -0.672674 0 -0.739939 -0.27208 -0.57498 -0.771602 0.272079 -0.574981 -0.771602 0.672673 0 -0.73994 0.672673 0 -0.73994 0.27208 0.574982 -0.771601 -0.272081 0.574981 -0.771601 0.216545 0.840928 -0.495932 0 0.861366 -0.507985 0 0.999985 -0.005504 0.251935 0.967725 -0.00609 0.246323 -0.481153 -0.841318 0.010214 -0.495978 -0.868275 0.011763 0 -0.999931 0.218974 0 -0.975731 0.246743 -0.96906 -0.006421 0.003457 -0.999979 -0.005499 0.247039 -0.484748 0.839042 0 -0.500764 0.865584 0.249673 0.483886 0.83876 0 0.500764 0.865584 1 0 0 1 0 0 1 0 0 1 0 0 0.253391 0.967337 -0.007212 0.217307 0.837431 -0.501485 0.214118 0 -0.976808 0.243095 -0.484561 -0.840301 0.245128 -0.969462 -0.007434 0.24861 -0.488415 0.836447 0.250127 0.48198 0.839721 0.001437 0.999969 -0.007719 0.001551 0.854786 -0.518978 0.001814 0 -0.999998 0.00248 -0.501925 -0.864908 0.002331 -0.999969 -0.007489 0.001976 -0.50839 0.861125 0.001574 0.497132 0.867674 0.206898 0.842728 -0.496993 0.010133 0.861322 -0.507959 0.011763 0.999916 -0.005504 0.241091 0.970484 -0.006062 0.246323 -0.481153 -0.841318 0.010214 -0.495978 -0.868275 0.011763 0 -0.999931 0.218974 0 -0.975731 0.246743 -0.96906 -0.006421 0.003457 -0.999979 -0.005499 0.247039 -0.484748 0.839042 0 -0.500764 0.865584 0.244293 0.486155 0.839031 0.005891 0.500742 0.865577 1 0 0 1 0 0 1 0 0 1 0 0 0.237738 0.971303 -0.007189 0.203462 0.840008 -0.50298 0.214118 0 -0.976808 0.243095 -0.484561 -0.840301 0.245128 -0.969462 -0.007434 0.24861 -0.488415 0.836447 0.242376 0.484558 0.84051 0.003252 0.999965 -0.007719 0.003102 0.854783 -0.518976 0.001814 0 -0.999998 0.00248 -0.501925 -0.864908 0.002331 -0.999969 -0.007489 0.001976 -0.50839 0.861125 0.002476 0.49713 0.867673 -0.999892 0.001764 -0.014594 -0.501926 0.000698 -0.86491 -0.501926 0.000698 -0.86491 -0.999892 0.001764 -0.014594 0.501927 0 -0.86491 0.501927 0 -0.86491 0.999894 0 -0.014593 0.999894 0 -0.014593 0.882353 0 0.470588 0.882353 0 0.470588 0 0.00139 0.999999 -0.514495 0.001908 0.857491 -0.514495 0.001908 0.857491 0 0.00139 0.999999 0 0 -1 0 0 -1 0 0 -1 0 0 -1 1 0 0 1 0 0 1 0 0 1 0 0</float_array>
          <technique_common>
            <accessor source="#NormalSrc_id-array" count="158" stride="3">
              <param name="X" type="float"/>
              <param name="Y" type="float"/>
              <param name="Z" type="float"/>
            </accessor>
          </technique_common>
        </source>
        <source id="Tex1Src_id" name="Tex1Src">
          <float_array id="Tex1Src_id-array" count="760">0.441 0.142 0.441 0.361 0.424 0.361 0.424 0.142 0.133 0.044 0.352 0.044 0.352 0.063 0.133 0.063 0.046 0.361 0.046 0.145 0.063 0.145 0.063 0.361 0.353 0.45 0.133 0.45 0.133 0.432 0.353 0.432 0.424 0.142 0.424 0.361 0.363 0.361 0.363 0.142 0.133 0.063 0.352 0.063 0.352 0.131 0.133 0.131 0.063 0.361 0.063 0.145 0.123 0.145 0.123 0.361 0.353 0.432 0.133 0.432 0.133 0.37 0.354 0.37 0.353 0.45 0.364 0.45 0.364 0.47 0.353 0.47 0.352 0.022 0.364 0.022 0.364 0.044 0.352 0.044 0.133 0.044 0.123 0.044 0.123 0.022 0.133 0.022 0.133 0.47 0.121 0.47 0.121 0.45 0.133 0.45 0.364 0.45 0.353 0.45 0.353 0.432 0.364 0.432 0.352 0.044 0.364 0.044 0.364 0.063 0.352 0.063 0.123 0.044 0.133 0.044 0.133 0.063 0.123 0.063 0.133 0.45 0.121 0.45 0.121 0.432 0.133 0.432 0.363 0.361 0.353 0.36 0.353 0.141 0.363 0.142 0.352 0.131 0.353 0.141 0.134 0.141 0.133 0.131 0.123 0.145 0.134 0.141 0.134 0.36 0.123 0.361 0.133 0.37 0.134 0.36 0.353 0.36 0.354 0.37 0.364 0.432 0.353 0.432 0.354 0.37 0.364 0.37 0.352 0.063 0.364 0.063 0.364 0.131 0.352 0.131 0.123 0.063 0.133 0.063 0.133 0.131 0.123 0.131 0.133 0.432 0.121 0.432 0.121 0.37 0.133 0.37 0.46 0.361 0.46 0.142 0.472 0.142 0.472 0.361 0.353 0.47 0.364 0.47 0.36 0.481 0.353 0.481 0.133 0.47 0.353 0.47 0.353 0.481 0.133 0.481 0.121 0.47 0.133 0.47 0.133 0.481 0.125 0.481 0.027 0.145 0.027 0.361 0.016 0.361 0.016 0.145 0.133 0.022 0.123 0.022 0.126 0.009 0.133 0.009 0.352 0.022 0.133 0.022 0.133 0.009 0.352 0.009 0.364 0.022 0.352 0.022 0.352 0.009 0.361 0.009 0.472 0.361 0.472 0.142 0.478 0.142 0.478 0.361 0.133 0.481 0.353 0.481 0.353 0.488 0.133 0.488 0.016 0.145 0.016 0.361 0.009 0.361 0.009 0.145 0.352 0.009 0.133 0.009 0.133 0.001999 0.352 0.001999 0.354 0.37 0.353 0.36 0.363 0.361 0.363 0.142 0.353 0.141 0.352 0.131 0.133 0.131 0.134 0.141 0.123 0.145 0.123 0.361 0.134 0.36 0.133 0.37 0.353 0.488 0.353 0.481 0.36 0.481 0.133 0.488 0.125 0.481 0.133 0.481 0.133 0.001999 0.133 0.009 0.126 0.009 0.352 0.001999 0.361 0.009 0.352 0.009 0.774 0.569 0.774 0.505 0.811 0.505 0.811 0.569 0.956 0.569 0.956 0.505 0.992 0.505 0.992 0.569 0.919 0.569 0.919 0.505 0.956 0.505 0.956 0.569 0.883 0.569 0.883 0.505 0.919 0.505 0.919 0.569 0.847 0.569 0.847 0.505 0.883 0.505 0.883 0.569 0.811 0.569 0.811 0.505 0.847 0.505 0.847 0.569 0.672 0.25 0.672 0.292 0.747 0.292 0.71 0.229 0.811 0.587 0.774 0.587 0.774 0.569 0.811 0.569 0.992 0.587 0.956 0.587 0.956 0.569 0.992 0.569 0.956 0.587 0.919 0.587 0.919 0.569 0.956 0.569 0.919 0.587 0.883 0.587 0.883 0.569 0.919 0.569 0.883 0.587 0.847 0.587 0.847 0.569 0.883 0.569 0.847 0.587 0.811 0.587 0.811 0.569 0.847 0.569 0.811 1.002 0.774 1.002 0.774 0.587 0.811 0.587 0.992 1.002 0.956 1.002 0.956 0.587 0.992 0.587 0.956 1.002 0.919 1.002 0.919 0.587 0.956 0.587 0.919 1.002 0.883 1.002 0.883 0.587 0.919 0.587 0.883 1.002 0.847 1.002 0.847 0.587 0.883 0.587 0.847 1.002 0.811 1.002 0.811 0.587 0.847 0.587 0.776 0.066 0.776 0.001999 0.813 0.001999 0.813 0.066 0.958 0.066 0.958 0.001999 0.994 0.001999 0.994 0.066 0.921 0.066 0.921 0.001999 0.958 0.001999 0.958 0.066 0.885 0.066 0.885 0.001999 0.921 0.001999 0.921 0.066 0.849 0.066 0.849 0.001999 0.885 0.001999 0.885 0.066 0.813 0.066 0.813 0.001999 0.849 0.001999 0.849 0.066 0.674 0.338 0.674 0.38 0.748 0.38 0.711 0.317 0.813 0.083 0.776 0.083 0.776 0.066 0.813 0.066 0.994 0.083 0.958 0.083 0.958 0.066 0.994 0.066 0.958 0.083 0.921 0.083 0.921 0.066 0.958 0.066 0.921 0.083 0.885 0.083 0.885 0.066 0.921 0.066 0.885 0.083 0.849 0.083 0.849 0.066 0.885 0.066 0.849 0.083 0.813 0.083 0.813 0.066 0.849 0.066 0.813 0.498 0.776 0.498 0.776 0.083 0.813 0.083 0.994 0.498 0.958 0.498 0.958 0.083 0.994 0.083 0.958 0.498 0.921 0.498 0.921 0.083 0.958 0.083 0.921 0.498 0.885 0.498 0.885 0.083 0.921 0.083 0.885 0.498 0.849 0.498 0.849 0.083 0.885 0.083 0.849 0.498 0.813 0.498 0.813 0.083 0.849 0.083 0.643 0.996 0.684 0.996 0.684 0.436 0.643 0.436 0.684 0.996 0.71 0.996 0.71 0.436 0.684 0.436 0.71 0.996 0.731 0.996 0.731 0.436 0.71 0.436 0.731 0.996 0.753 0.996 0.753 0.436 0.731 0.436 0.577 0.996 0.603 0.996 0.603 0.436 0.577 0.436 0.603 0.996 0.643 0.996 0.643 0.436 0.603 0.436 0.441 0.361 0.441 0.142 0.46 0.142 0.46 0.361 0.027 0.145 0.046 0.145 0.046 0.361 0.027 0.361 0.352 0.022 0.352 0.044 0.133 0.044 0.133 0.022 0.493 0.995 0.493 0.506 0.004 0.506 0.004 0.995 0.353 0.45 0.353 0.47 0.133 0.47 0.133 0.45 0.353 0.141 0.353 0.36 0.134 0.36 0.134 0.141 0.747 0.292 0.747 0.25 0.71 0.229 0.747 0.292 0.672 0.292 0.71 0.313 0.748 0.38 0.748 0.338 0.711 0.317 0.748 0.38 0.674 0.38 0.711 0.401</float_array>
          <technique_common>
            <accessor source="#Tex1Src_id-array" count="380" stride="2">
              <param name="S" type="float"/>
              <param name="T" type="float"/>
            </accessor>
          </technique_common>
        </source>
        <source id="Tex2Src_id" name="Tex2Src">
          <float_array id="Tex2Src_id-array" count="760">0 0 0 0 0 0 0 0 0 0 0 0 0 0 0 0 0 0 0 0 0 0 0 0 0 0 0 0 0 0 0 0 0 0 0 0 0 0 0 0 0 0 0 0 0 0 0 0 0 0 0 0 0 0 0 0 0 0 0 0 0 0 0 0 0 0 0 0 0 0 0 0 0 0 0 0 0 0 0 0 0 0 0 0 0 0 0 0 0 0 0 0 0 0 0 0 0 0 0 0 0 0 0 0 0 0 0 0 0 0 0 0 0 0 0 0 0 0 0 0 0 0 0 0 0 0 0 0 0 0 0 0 0 0 0 0 0 0 0 0 0 0 0 0 0 0 0 0 0 0 0 0 0 0 0 0 0 0 0 0 0 0 0 0 0 0 0 0 0 0 0 0 0 0 0 0 0 0 0 0 0 0 0 0 0 0 0 0 0 0 0 0 0 0 0 0 0 0 0 0 0 0 0 0 0 0 0 0 0 0 0 0 0 0 0 0 0 0 0 0 0 0 0 0 0 0 0 0 0 0 0 0 0 0 0 0 0 0 0 0 0 0 0 0 0 0 0 0 0 0 0 0 0 0 0 0 0 0 0 0 0 0 0 0 0 0 0 0 0 0 0 0 0 0 0 0 0 0 0 0 0 0 0 0 0 0 0 0 0 0 0 0 0 0 0 0 0 0 0 0 0 0 0 0 0 0 0 0 0 0 0 0 0 0 0 0 0 0 0 0 0 0 0 0 0 0 0 0 0 0 0 0 0 0 0 0 0 0 0 0 0 0 0 0 0 0 0 0 0 0 0 0 0 0 0 0 0 0 0 0 0 0 0 0 0 0 0 0 0 0 0 0 0 0 0 0 0 0 0 0 0 0 0 0 0 0 0 0 0 0 0 0 0 0 0 0 0 0 0 0 0 0 0 0 0 0 0 0 0 0 0 0 0 0 0 0 0 0 0 0 0 0 0 0 0 0 0 0 0 0 0 0 0 0 0 0 0 0 0 0 0 0 0 0 0 0 0 0 0 0 0 0 0 0 0 0 0 0 0 0 0 0 0 0 0 0 0 0 0 0 0 0 0 0 0 0 0 0 0 0 0 0 0 0 0 0 0 0 0 0 0 0 0 0 0 0 0 0 0 0 0 0 0 0 0 0 0 0 0 0 0 0 0 0 0 0 0 0 0 0 0 0 0 0 0 0 0 0 0 0 0 0 0 0 0 0 0 0 0 0 0 0 0 0 0 0 0 0 0 0 0 0 0 0 0 0 0 0 0 0 0 0 0 0 0 0 0 0 0 0 0 0 0 0 0 0 0 0 0 0 0 0 0 0 0 0 0 0 0 0 0 0 0 0 0 0 0 0 0 0 0 0 0 0 0 0 0 0 0 0 0 0 0 0 0 0 0 0 0 0 0 0 0 0 0 0 0 0 0 0 0 0 0 0 0 0 0 0 0 0 0 0 0 0 0 0 0 0 0 0 0 0 0 0 0 0 0 0 0 0 0 0 0 0 0 0 0 0 0 0 0 0 0 0 0 0 0 0 0 0 0 0 0 0 0 0 0 0 0 0 0 0 0 0 0 0 0 0 0 0 0 0 0 0 0 0 0 0 0 0 0 0 0 0 0 0 0 0 0 0 0 0 0 0 0 0 0 0 0 0 0 0 0 0 0 0 0 0 0 0 0 0 0 0 0 0 0 0 0 0 0 0 0 0 0 0 0 0 0 0</float_array>
          <technique_common>
            <accessor source="#Tex2Src_id-array" count="380" stride="2">
              <param name="S" type="float"/>
              <param name="T" type="float"/>
            </accessor>
          </technique_common>
        </source>
        <vertices id="geomU3D1_id-vertices">
          <input semantic="POSITION" source="#PositionSrc_id"/>
        </vertices>
        <polylist material="VisualMaterial0" count="98">
          <input semantic="VERTEX" source="#geomU3D1_id-vertices" offset="0"/>
          <input semantic="NORMAL" source="#NormalSrc_id" offset="1"/>
          <input semantic="TEXCOORD" source="#Tex1Src_id" offset="2" set="0"/>
          <input semantic="TEXCOORD" source="#Tex2Src_id" offset="3" set="1"/>
          <vcount>4 4 4 4 4 4 4 4 4 4 4 4 4 4 4 4 4 4 4 4 4 4 4 4 4 4 4 4 4 4 4 4 4 4 4 4 3 3 3 3 3 3 3 3 4 4 4 4 4 4 4 4 4 4 4 4 4 4 4 4 4 4 4 4 4 4 4 4 4 4 4 4 4 4 4 4 4 4 4 4 4 4 4 4 4 4 4 4 4 4 4 4 4 4 3 3 3 3</vcount>
          <p>0 0 0 0 1 1 1 1 2 2 2 2 3 3 3 3 4 4 4 4 5 5 5 5 6 6 6 6 7 7 7 7 8 8 8 8 9 9 9 9 10 10 10 10 11 11 11 11 12 12 12 12 13 13 13 13 14 14 14 14 15 15 15 15 3 3 16 16 2 2 17 17 16 16 18 18 17 17 19 19 7 7 20 20 6 6 21 21 18 18 22 22 19 19 23 23 11 11 24 24 10 10 25 25 20 20 26 26 21 21 27 27 15 15 28 28 14 14 29 29 22 22 30 30 23 23 31 31 12 12 32 32 24 24 33 33 25 25 34 34 26 26 35 35 27 27 36 36 28 28 37 37 29 29 38 38 5 5 39 39 4 4 40 40 30 30 41 41 31 31 42 42 32 32 43 43 33 33 44 44 34 34 45 45 35 35 46 46 13 13 47 47 24 24 48 48 12 12 49 49 15 15 50 50 36 36 51 51 5 5 52 52 29 29 53 53 37 37 54 54 6 6 55 55 30 30 56 56 4 4 57 57 7 7 58 58 38 38 59 59 13 13 60 60 35 35 61 61 39 39 62 62 14 14 63 63 16 16 64 64 40 40 65 65 41 41 66 66 17 17 67 67 18 18 68 68 41 41 69 69 42 42 70 70 19 19 71 71 20 20 72 72 42 42 73 73 43 43 74 74 21 21 75 75 22 22 76 76 43 43 77 77 40 40 78 78 23 23 79 79 36 36 80 80 15 15 81 81 23 23 82 82 44 44 83 83 6 6 84 84 37 37 85 85 45 45 86 86 18 18 87 87 38 38 88 88 7 7 89 89 19 19 90 90 46 46 91 91 14 14 92 92 39 39 93 93 47 47 94 94 22 22 95 95 48 48 96 96 49 49 97 97 50 50 98 98 51 51 99 99 26 26 100 100 25 25 101 101 52 52 102 102 53 53 103 103 33 33 104 104 26 26 105 105 53 53 106 106 54 54 107 107 34 34 108 108 33 33 109 109 54 54 110 110 55 55 111 111 56 56 112 112 57 57 113 113 58 58 114 114 59 59 115 115 32 32 116 116 31 31 117 117 60 60 118 118 61 61 119 119 27 27 120 120 32 32 121 121 61 61 122 122 62 62 123 123 28 28 124 124 27 27 125 125 62 62 126 126 63 63 127 127 51 51 128 128 50 50 129 129 64 64 130 130 65 65 131 131 54 54 132 132 53 53 133 133 66 66 134 134 67 67 135 135 59 59 136 136 58 58 137 137 68 68 138 138 69 69 139 139 62 62 140 140 61 61 141 141 70 70 142 142 71 71 143 143 23 23 144 144 40 40 145 145 16 16 146 146 17 17 147 147 41 41 148 148 18 18 149 149 19 19 150 150 42 42 151 151 20 20 152 152 21 21 153 153 43 43 154 154 22 22 155 155 66 66 156 156 53 53 157 157 52 52 158 158 67 67 159 159 55 55 160 160 54 54 161 161 70 70 162 162 61 61 163 163 60 60 164 164 71 71 165 165 63 63 166 166 62 62 167 167 72 72 168 168 73 73 169 169 74 74 170 170 75 75 171 171 76 76 172 172 77 77 173 173 78 78 174 174 79 79 175 175 80 80 176 176 81 81 177 177 77 77 178 178 76 76 179 179 82 82 180 180 83 83 181 181 81 81 182 182 80 80 183 183 84 84 184 184 85 85 185 185 83 83 186 186 82 82 187 187 75 75 188 188 74 74 189 189 85 85 190 190 84 84 191 191 86 86 192 192 87 87 193 193 88 88 194 194 89 89 195 195 90 90 196 196 91 91 197 197 72 72 198 198 75 75 199 199 92 92 200 200 93 93 201 201 76 76 202 202 79 79 203 203 93 93 204 204 94 94 205 205 80 80 206 206 76 76 207 207 94 94 208 208 95 95 209 209 82 82 210 210 80 80 211 211 95 95 212 212 96 96 213 213 84 84 214 214 82 82 215 215 96 96 216 216 90 90 217 217 75 75 218 218 84 84 219 219 97 97 220 220 98 98 221 221 91 91 222 222 90 90 223 223 99 99 224 224 100 100 225 225 93 93 226 226 92 92 227 227 100 100 228 228 101 101 229 229 94 94 230 230 93 93 231 231 101 101 232 232 102 102 233 233 95 95 234 234 94 94 235 235 102 102 236 236 103 103 237 237 96 96 238 238 95 95 239 239 103 103 240 240 97 97 241 241 90 90 242 242 96 96 243 243 104 104 244 244 105 105 245 245 106 106 246 246 107 107 247 247 108 108 248 248 109 109 249 249 110 110 250 250 111 111 251 251 112 112 252 252 113 113 253 253 109 109 254 254 108 108 255 255 114 114 256 256 115 115 257 257 113 113 258 258 112 112 259 259 116 116 260 260 117 117 261 261 115 115 262 262 114 114 263 263 107 107 264 264 106 106 265 265 117 117 266 266 116 116 267 267 118 118 268 268 119 119 269 269 120 120 270 270 121 121 271 271 122 122 272 272 123 123 273 273 104 104 274 274 107 107 275 275 124 124 276 276 125 125 277 277 108 108 278 278 111 111 279 279 125 125 280 280 126 126 281 281 112 112 282 282 108 108 283 283 126 126 284 284 127 127 285 285 114 114 286 286 112 112 287 287 127 127 288 288 128 128 289 289 116 116 290 290 114 114 291 291 128 128 292 292 122 122 293 293 107 107 294 294 116 116 295 295 129 129 296 296 130 130 297 297 123 123 298 298 122 122 299 299 131 131 300 300 132 132 301 301 125 125 302 302 124 124 303 303 132 132 304 304 133 133 305 305 126 126 306 306 125 125 307 307 133 133 308 308 134 134 309 309 127 127 310 310 126 126 311 311 134 134 312 312 135 135 313 313 128 128 314 314 127 127 315 315 135 135 316 316 129 129 317 317 122 122 318 318 128 128 319 319 136 136 320 320 137 137 321 321 138 138 322 322 139 139 323 323 137 137 324 324 140 140 325 325 141 141 326 326 138 138 327 327 140 140 328 328 142 142 329 329 143 143 330 330 141 141 331 331 142 142 332 332 144 144 333 333 145 145 334 334 143 143 335 335 146 146 336 336 147 147 337 337 148 148 338 338 149 149 339 339 147 147 340 340 136 136 341 341 139 139 342 342 148 148 343 343 1 1 344 344 0 0 345 345 49 49 346 346 48 48 347 347 56 56 348 348 9 9 349 349 8 8 350 350 57 57 351 351 27 27 352 352 5 5 353 353 4 4 354 354 32 32 355 355 150 150 356 356 151 151 357 357 152 152 358 358 153 153 359 359 12 12 360 360 26 26 361 361 33 33 362 362 13 13 363 363 41 41 364 364 40 40 365 365 43 43 366 366 42 42 367 367 88 88 368 368 154 154 369 369 89 89 370 370 88 88 371 371 87 87 372 372 155 155 373 373 120 120 374 374 156 156 375 375 121 121 376 376 120 120 377 377 119 119 378 378 157 157 379 379</p>
        </polylist>
      </mesh>
    </geometry>
  </library_geometries>
  <library_visual_scenes>
    <visual_scene id="VisualSceneNode" name="rootU3D">
      <node id="Default_Layer_id" name="Default_Layer" type="NODE">
        <translate>0 0 0</translate>
        <rotate>1 0 0 0</rotate>
        <scale>1 1 1</scale>
        <instance_geometry url="#geomU3D1_id">
          <bind_material>
            <technique_common>
              <instance_material symbol="VisualMaterial0" target="#VisualMaterial">
                <bind_vertex_input semantic="UVSET0" input_semantic="TEXCOORD" input_set="0"/>
              </instance_material>
            </technique_common>
          </bind_material>
        </instance_geometry>
      </node>
    </visual_scene>
  </library_visual_scenes>
  <scene>
    <instance_visual_scene url="#VisualSceneNode"/>
  </scene>
</COLLADA>
