xof 0303txt 0032

// DirectX 8.0 file
// Creator: Ultimate Unwrap3D Pro v3.27
// Website: http://www.unwrap3d.com
// Time: Fri Jun 01 18:49:10 2012

// Start of Templates

template VertexDuplicationIndices {
 <b8d65549-d7c9-4995-89cf-53a9a8b031e3>
 DWORD nIndices;
 DWORD nOriginalVertices;
 array DWORD indices[nIndices];
}

template FVFData {
 <b6e70a0e-8ef9-4e83-94ad-ecc8b0c04897>
 DWORD dwFVF;
 DWORD nDWords;
 array DWORD data[nDWords];
}

template XSkinMeshHeader {
 <3CF169CE-FF7C-44ab-93C0-F78F62D172E2>
 WORD nMaxSkinWeightsPerVertex;
 WORD nMaxSkinWeightsPerFace;
 WORD nBones;
}

template SkinWeights {
 <6F0D123B-BAD2-4167-A0D0-80224F25FABB>
 STRING transformNodeName;
 DWORD nWeights;
 array DWORD vertexIndices[nWeights];
 array FLOAT weights[nWeights];
 Matrix4x4 matrixOffset;
}

template AnimTicksPerSecond {
 <9E415A43-7BA6-4a73-8743-B73D47E88476>
 DWORD AnimTicksPerSecond;
}

// Start of Frames

Frame roadbarrel {
   FrameTransformMatrix {
    1.000000, 0.000000, 0.000000, 0.000000,
    0.000000, 1.000000, 0.000000, 0.000000,
    0.000000, 0.000000, 1.000000, 0.000000,
    0.000000, 0.000000, 0.000000, 1.000000;;
   }

   Mesh roadbarrel {
    194;
    0.324000; 1.204000; -0.064000;,
    0.324000; 1.204000; 0.064000;,
    0.370000; 0.067000; 0.074000;,
    0.370000; 0.067000; -0.074000;,
    0.274000; 1.204000; -0.183000;,
    0.324000; 1.204000; -0.064000;,
    0.370000; 0.067000; -0.074000;,
    0.314000; 0.067000; -0.210000;,
    0.183000; 1.204000; -0.274000;,
    0.210000; 0.067000; -0.314000;,
    0.064000; 1.204000; -0.324000;,
    0.074000; 0.067000; -0.370000;,
    -0.064000; 1.204000; -0.324000;,
    -0.074000; 0.067000; -0.370000;,
    -0.183000; 1.204000; -0.274000;,
    -0.064000; 1.204000; -0.324000;,
    -0.074000; 0.067000; -0.370000;,
    -0.210000; 0.067000; -0.314000;,
    -0.274000; 1.204000; -0.183000;,
    -0.314000; 0.067000; -0.210000;,
    -0.324000; 1.204000; -0.064000;,
    -0.370000; 0.067000; -0.074000;,
    -0.324000; 1.204000; 0.064000;,
    -0.370000; 0.067000; 0.074000;,
    -0.274000; 1.204000; 0.183000;,
    -0.314000; 0.067000; 0.210000;,
    -0.183000; 1.204000; 0.274000;,
    -0.210000; 0.067000; 0.314000;,
    -0.064000; 1.204000; 0.324000;,
    -0.074000; 0.067000; 0.370000;,
    0.064000; 1.204000; 0.324000;,
    0.074000; 0.067000; 0.370000;,
    0.183000; 1.204000; 0.274000;,
    0.210000; 0.067000; 0.314000;,
    0.274000; 1.204000; 0.183000;,
    0.314000; 0.067000; 0.210000;,
    -0.092000; 0.000000; 0.463000;,
    0.463000; 0.000000; 0.092000;,
    0.262000; 0.000000; 0.392000;,
    0.092000; 0.000000; 0.463000;,
    -0.392000; 0.000000; 0.262000;,
    -0.463000; 0.000000; -0.092000;,
    -0.262000; 0.000000; 0.392000;,
    -0.262000; 0.000000; -0.392000;,
    0.092000; 0.000000; -0.463000;,
    -0.392000; 0.000000; -0.262000;,
    0.392000; 0.000000; -0.262000;,
    0.262000; 0.000000; -0.392000;,
    0.194000; 1.265000; 0.129000;,
    0.228000; 1.265000; 0.045000;,
    0.228000; 1.265000; -0.045000;,
    0.194000; 1.265000; -0.129000;,
    0.463000; 0.029000; 0.092000;,
    0.463000; 0.029000; -0.092000;,
    0.392000; 0.029000; 0.262000;,
    0.262000; 0.029000; 0.392000;,
    0.092000; 0.029000; 0.463000;,
    -0.092000; 0.029000; 0.463000;,
    -0.262000; 0.029000; 0.392000;,
    -0.392000; 0.029000; 0.262000;,
    -0.463000; 0.029000; 0.092000;,
    -0.463000; 0.029000; -0.092000;,
    -0.392000; 0.029000; -0.262000;,
    -0.262000; 0.029000; -0.392000;,
    -0.092000; 0.029000; -0.463000;,
    0.092000; 0.029000; -0.463000;,
    -0.092000; 0.029000; -0.463000;,
    0.262000; 0.029000; -0.392000;,
    0.392000; 0.029000; -0.262000;,
    0.463000; 0.029000; -0.092000;,
    0.463000; 0.000000; 0.092000;,
    0.463000; 0.000000; -0.092000;,
    0.392000; 0.000000; 0.262000;,
    0.262000; 0.000000; 0.392000;,
    0.092000; 0.000000; 0.463000;,
    -0.092000; 0.000000; 0.463000;,
    -0.262000; 0.000000; 0.392000;,
    -0.392000; 0.000000; 0.262000;,
    -0.463000; 0.000000; 0.092000;,
    -0.463000; 0.000000; -0.092000;,
    -0.392000; 0.000000; -0.262000;,
    -0.262000; 0.000000; -0.392000;,
    -0.092000; 0.000000; -0.463000;,
    0.092000; 0.000000; -0.463000;,
    -0.092000; 0.000000; -0.463000;,
    0.262000; 0.000000; -0.392000;,
    0.392000; 0.000000; -0.262000;,
    0.463000; 0.000000; -0.092000;,
    0.296000; 1.250000; -0.059000;,
    0.296000; 1.250000; 0.059000;,
    0.251000; 1.250000; -0.168000;,
    0.296000; 1.250000; -0.059000;,
    0.168000; 1.250000; -0.251000;,
    0.059000; 1.250000; -0.296000;,
    -0.059000; 1.250000; -0.296000;,
    -0.168000; 1.250000; -0.251000;,
    -0.059000; 1.250000; -0.296000;,
    -0.251000; 1.250000; -0.168000;,
    -0.296000; 1.250000; -0.059000;,
    -0.296000; 1.250000; 0.059000;,
    -0.251000; 1.250000; 0.168000;,
    -0.168000; 1.250000; 0.251000;,
    -0.059000; 1.250000; 0.296000;,
    0.059000; 1.250000; 0.296000;,
    0.168000; 1.250000; 0.251000;,
    0.251000; 1.250000; 0.168000;,
    0.228000; 1.265000; 0.045000;,
    0.194000; 1.265000; -0.129000;,
    0.228000; 1.265000; -0.045000;,
    0.129000; 1.265000; -0.194000;,
    0.045000; 1.265000; -0.228000;,
    -0.045000; 1.265000; -0.228000;,
    -0.129000; 1.265000; -0.194000;,
    -0.045000; 1.265000; -0.228000;,
    -0.194000; 1.265000; -0.129000;,
    -0.228000; 1.265000; -0.045000;,
    -0.228000; 1.265000; 0.045000;,
    -0.194000; 1.265000; 0.129000;,
    -0.129000; 1.265000; 0.194000;,
    -0.045000; 1.265000; 0.228000;,
    0.045000; 1.265000; 0.228000;,
    0.129000; 1.265000; 0.194000;,
    0.194000; 1.265000; 0.129000;,
    -0.129000; 1.265000; 0.194000;,
    -0.129000; 1.265000; -0.194000;,
    -0.194000; 1.265000; -0.129000;,
    -0.194000; 1.265000; 0.129000;,
    -0.015000; 1.339000; 0.070000;,
    -0.015000; 1.339000; 0.159000;,
    0.015000; 1.339000; 0.159000;,
    0.015000; 1.339000; 0.070000;,
    -0.045000; 1.265000; 0.228000;,
    -0.045000; 1.265000; -0.228000;,
    0.129000; 1.265000; 0.194000;,
    0.129000; 1.265000; -0.194000;,
    0.045000; 1.265000; -0.228000;,
    0.045000; 1.265000; 0.228000;,
    -0.228000; 1.265000; -0.045000;,
    -0.019000; 1.265000; -0.212000;,
    0.019000; 1.265000; -0.212000;,
    -0.045000; 1.265000; -0.228000;,
    -0.019000; 1.265000; 0.212000;,
    -0.019000; 1.265000; 0.078000;,
    -0.045000; 1.265000; 0.228000;,
    -0.019000; 1.265000; -0.078000;,
    0.019000; 1.265000; 0.212000;,
    0.019000; 1.265000; -0.078000;,
    0.019000; 1.265000; 0.078000;,
    -0.015000; 1.339000; -0.070000;,
    0.015000; 1.339000; -0.070000;,
    0.015000; 1.339000; -0.159000;,
    -0.015000; 1.339000; -0.159000;,
    0.018000; 1.315000; 0.199000;,
    -0.018000; 1.315000; 0.199000;,
    -0.019000; 1.265000; 0.212000;,
    0.019000; 1.265000; 0.212000;,
    0.018000; 1.315000; 0.070000;,
    0.018000; 1.315000; 0.199000;,
    0.019000; 1.265000; 0.212000;,
    0.019000; 1.265000; 0.078000;,
    -0.018000; 1.315000; 0.070000;,
    0.018000; 1.315000; 0.070000;,
    0.019000; 1.265000; 0.078000;,
    -0.019000; 1.265000; 0.078000;,
    -0.018000; 1.315000; 0.199000;,
    -0.018000; 1.315000; 0.070000;,
    -0.019000; 1.265000; 0.078000;,
    -0.019000; 1.265000; 0.212000;,
    -0.018000; 1.315000; -0.199000;,
    0.018000; 1.315000; -0.199000;,
    0.019000; 1.265000; -0.212000;,
    -0.019000; 1.265000; -0.212000;,
    -0.018000; 1.315000; -0.070000;,
    -0.018000; 1.315000; -0.199000;,
    -0.019000; 1.265000; -0.212000;,
    -0.019000; 1.265000; -0.078000;,
    0.018000; 1.315000; -0.070000;,
    -0.018000; 1.315000; -0.070000;,
    -0.019000; 1.265000; -0.078000;,
    0.019000; 1.265000; -0.078000;,
    0.018000; 1.315000; -0.199000;,
    0.018000; 1.315000; -0.070000;,
    0.019000; 1.265000; -0.078000;,
    0.019000; 1.265000; -0.212000;,
    0.018000; 1.315000; -0.199000;,
    -0.018000; 1.315000; -0.199000;,
    -0.018000; 1.315000; -0.070000;,
    0.018000; 1.315000; -0.070000;,
    0.018000; 1.315000; 0.070000;,
    -0.018000; 1.315000; 0.070000;,
    -0.463000; 0.000000; 0.092000;,
    -0.092000; 0.000000; -0.463000;,
    0.463000; 0.000000; -0.092000;,
    0.392000; 0.000000; 0.262000;;
    122;
    4;0, 1, 2, 3;,
    4;4, 5, 6, 7;,
    4;8, 4, 7, 9;,
    4;10, 8, 9, 11;,
    4;12, 10, 11, 13;,
    4;14, 15, 16, 17;,
    4;18, 14, 17, 19;,
    4;20, 18, 19, 21;,
    4;22, 20, 21, 23;,
    4;24, 22, 23, 25;,
    4;26, 24, 25, 27;,
    4;28, 26, 27, 29;,
    4;30, 28, 29, 31;,
    4;32, 30, 31, 33;,
    4;34, 32, 33, 35;,
    4;1, 34, 35, 2;,
    4;36, 37, 38, 39;,
    4;40, 41, 36, 42;,
    4;43, 44, 41, 45;,
    4;46, 37, 44, 47;,
    4;37, 36, 41, 44;,
    4;48, 49, 50, 51;,
    4;52, 53, 3, 2;,
    4;54, 52, 2, 35;,
    4;55, 54, 35, 33;,
    4;56, 55, 33, 31;,
    4;57, 56, 31, 29;,
    4;58, 57, 29, 27;,
    4;59, 58, 27, 25;,
    4;60, 59, 25, 23;,
    4;61, 60, 23, 21;,
    4;62, 61, 21, 19;,
    4;63, 62, 19, 17;,
    4;64, 63, 17, 16;,
    4;65, 66, 13, 11;,
    4;67, 65, 11, 9;,
    4;68, 67, 9, 7;,
    4;69, 68, 7, 6;,
    4;70, 71, 53, 52;,
    4;72, 70, 52, 54;,
    4;73, 72, 54, 55;,
    4;74, 73, 55, 56;,
    4;75, 74, 56, 57;,
    4;76, 75, 57, 58;,
    4;77, 76, 58, 59;,
    4;78, 77, 59, 60;,
    4;79, 78, 60, 61;,
    4;80, 79, 61, 62;,
    4;81, 80, 62, 63;,
    4;82, 81, 63, 64;,
    4;83, 84, 66, 65;,
    4;85, 83, 65, 67;,
    4;86, 85, 67, 68;,
    4;87, 86, 68, 69;,
    4;88, 89, 1, 0;,
    4;90, 91, 5, 4;,
    4;92, 90, 4, 8;,
    4;93, 92, 8, 10;,
    4;94, 93, 10, 12;,
    4;95, 96, 15, 14;,
    4;97, 95, 14, 18;,
    4;98, 97, 18, 20;,
    4;99, 98, 20, 22;,
    4;100, 99, 22, 24;,
    4;101, 100, 24, 26;,
    4;102, 101, 26, 28;,
    4;103, 102, 28, 30;,
    4;104, 103, 30, 32;,
    4;105, 104, 32, 34;,
    4;89, 105, 34, 1;,
    4;50, 106, 89, 88;,
    4;107, 108, 91, 90;,
    4;109, 107, 90, 92;,
    4;110, 109, 92, 93;,
    4;111, 110, 93, 94;,
    4;112, 113, 96, 95;,
    4;114, 112, 95, 97;,
    4;115, 114, 97, 98;,
    4;116, 115, 98, 99;,
    4;117, 116, 99, 100;,
    4;118, 117, 100, 101;,
    4;119, 118, 101, 102;,
    4;120, 119, 102, 103;,
    4;121, 120, 103, 104;,
    4;122, 121, 104, 105;,
    4;106, 122, 105, 89;,
    4;123, 124, 125, 126;,
    4;127, 128, 129, 130;,
    4;124, 123, 131, 132;,
    4;133, 134, 135, 136;,
    4;48, 51, 134, 133;,
    4;126, 125, 137, 116;,
    4;138, 139, 135, 140;,
    4;141, 142, 140, 143;,
    4;144, 138, 140, 142;,
    4;145, 141, 143, 136;,
    4;139, 146, 136, 135;,
    4;147, 145, 136, 146;,
    4;148, 149, 150, 151;,
    4;142, 147, 146, 144;,
    4;152, 153, 154, 155;,
    4;156, 157, 158, 159;,
    4;160, 161, 162, 163;,
    4;164, 165, 166, 167;,
    4;168, 169, 170, 171;,
    4;172, 173, 174, 175;,
    4;176, 177, 178, 179;,
    4;180, 181, 182, 183;,
    4;129, 128, 153, 152;,
    4;130, 129, 157, 156;,
    4;128, 127, 165, 164;,
    4;151, 150, 184, 185;,
    4;148, 151, 173, 172;,
    4;150, 149, 181, 180;,
    4;148, 172, 165, 127;,
    4;149, 148, 127, 130;,
    4;181, 149, 130, 156;,
    4;186, 187, 188, 189;,
    3;40, 190, 41;,
    3;43, 191, 44;,
    3;46, 192, 37;,
    3;193, 38, 37;;

   MeshNormals {
    194;
    0.957205; 0.289412; 0.000000;,
    0.937248; 0.293899; 0.187589;,
    0.797757; 0.581156; 0.160751;,
    0.818693; 0.574232; 0.000000;,
    0.795944; 0.286753; -0.533146;,
    0.885534; 0.282174; -0.369064;,
    0.754898; 0.574331; -0.316660;,
    0.675634; 0.580988; -0.453842;,
    0.532941; 0.289670; -0.795025;,
    0.454018; 0.580223; -0.676173;,
    0.187589; 0.293899; -0.937248;,
    0.160751; 0.581156; -0.797757;,
    0.000000; 0.289412; -0.957205;,
    0.000000; 0.574232; -0.818693;,
    -0.533146; 0.286753; -0.795944;,
    -0.369064; 0.282174; -0.885534;,
    -0.316660; 0.574331; -0.754898;,
    -0.453842; 0.580988; -0.675634;,
    -0.795025; 0.289670; -0.532941;,
    -0.676173; 0.580223; -0.454018;,
    -0.937248; 0.293899; -0.187589;,
    -0.797757; 0.581156; -0.160751;,
    -0.938059; 0.290978; 0.188090;,
    -0.797252; 0.581922; 0.160491;,
    -0.795944; 0.286753; 0.533146;,
    -0.675634; 0.580988; 0.453842;,
    -0.532941; 0.289670; 0.795025;,
    -0.454018; 0.580223; 0.676173;,
    -0.187589; 0.293899; 0.937248;,
    -0.160751; 0.581156; 0.797757;,
    0.188090; 0.290978; 0.938059;,
    0.160491; 0.581922; 0.797252;,
    0.533146; 0.286753; 0.795944;,
    0.453842; 0.580988; 0.675634;,
    0.795025; 0.289670; 0.532941;,
    0.676173; 0.580223; 0.454018;,
    0.000000; -1.000000; 0.000000;,
    0.000000; -1.000000; 0.000000;,
    0.000000; -1.000000; 0.000000;,
    0.000000; -1.000000; 0.000000;,
    0.000000; -1.000000; 0.000000;,
    0.000000; -1.000000; 0.000000;,
    0.000000; -1.000000; 0.000000;,
    0.000000; -1.000000; 0.000000;,
    0.000000; -1.000000; 0.000000;,
    0.000000; -1.000000; 0.000000;,
    0.000000; -1.000000; 0.000000;,
    0.000000; -1.000000; 0.000000;,
    0.000000; 1.000000; 0.000000;,
    0.000000; 1.000000; 0.000000;,
    0.108342; 0.994114; 0.000000;,
    0.000000; 1.000000; 0.000000;,
    0.809391; 0.564357; 0.162441;,
    0.830134; 0.557564; 0.000000;,
    0.686331; 0.563282; 0.460069;,
    0.459974; 0.563867; 0.685914;,
    0.162210; 0.564941; 0.809030;,
    -0.162441; 0.564357; 0.809391;,
    -0.460069; 0.563282; 0.686331;,
    -0.685914; 0.563867; 0.459974;,
    -0.809030; 0.564941; 0.162210;,
    -0.809391; 0.564357; -0.162441;,
    -0.686331; 0.563282; -0.460069;,
    -0.459974; 0.563867; -0.685914;,
    -0.320022; 0.557177; -0.766250;,
    0.162441; 0.564357; -0.809391;,
    0.000000; 0.557564; -0.830134;,
    0.460069; 0.563282; -0.686331;,
    0.685914; 0.563867; -0.459974;,
    0.766250; 0.557177; -0.320022;,
    0.980499; 0.000000; 0.196526;,
    1.000000; 0.000000; 0.000000;,
    0.830656; 0.000000; 0.556787;,
    0.556787; 0.000000; 0.830656;,
    0.196526; 0.000000; 0.980499;,
    -0.196526; 0.000000; 0.980499;,
    -0.556787; 0.000000; 0.830656;,
    -0.830656; 0.000000; 0.556787;,
    -0.980499; 0.000000; 0.196526;,
    -0.980499; 0.000000; -0.196526;,
    -0.830656; 0.000000; -0.556787;,
    -0.556787; 0.000000; -0.830656;,
    -0.385386; 0.000000; -0.922755;,
    0.196526; 0.000000; -0.980499;,
    0.000000; 0.000000; -1.000000;,
    0.556787; 0.000000; -0.830656;,
    0.830656; 0.000000; -0.556787;,
    0.922755; 0.000000; -0.385386;,
    0.581490; 0.813553; 0.000000;,
    0.563715; 0.818419; 0.111428;,
    0.483764; 0.813683; -0.322324;,
    0.544521; 0.808306; -0.223915;,
    0.320994; 0.815913; -0.480883;,
    0.111428; 0.818419; -0.563715;,
    0.000000; 0.813553; -0.581490;,
    -0.322324; 0.813683; -0.483764;,
    -0.223915; 0.808306; -0.544521;,
    -0.480883; 0.815913; -0.320994;,
    -0.563715; 0.818419; -0.111428;,
    -0.566697; 0.816209; 0.112508;,
    -0.483764; 0.813683; 0.322324;,
    -0.320994; 0.815913; 0.480883;,
    -0.111428; 0.818419; 0.563715;,
    0.112508; 0.816209; 0.566697;,
    0.322324; 0.813683; 0.483764;,
    0.480883; 0.815913; 0.320994;,
    0.207319; 0.977444; 0.040283;,
    0.177035; 0.977213; -0.117107;,
    0.201172; 0.976166; -0.081427;,
    0.116641; 0.977476; -0.175885;,
    0.040283; 0.977444; -0.207319;,
    0.000000; 0.976524; -0.215409;,
    -0.117107; 0.977213; -0.177035;,
    -0.081427; 0.976166; -0.201172;,
    -0.175885; 0.977476; -0.116641;,
    -0.207319; 0.977444; -0.040283;,
    -0.139650; 0.989825; 0.027297;,
    -0.177035; 0.977213; 0.117107;,
    -0.116641; 0.977476; 0.175885;,
    -0.040283; 0.977444; 0.207319;,
    0.040748; 0.977180; 0.208469;,
    0.117107; 0.977213; 0.177035;,
    0.175885; 0.977476; 0.116641;,
    0.000000; 1.000000; 0.000000;,
    0.000000; 1.000000; 0.000000;,
    0.000000; 1.000000; 0.000000;,
    0.000000; 1.000000; 0.000000;,
    -0.661803; 0.749678; 0.000000;,
    -0.436160; 0.870989; 0.226149;,
    0.436160; 0.870989; 0.226149;,
    0.661803; 0.749678; 0.000000;,
    0.000000; 1.000000; 0.000000;,
    0.000000; 1.000000; 0.000000;,
    0.000000; 1.000000; 0.000000;,
    0.000000; 1.000000; 0.000000;,
    0.000000; 1.000000; 0.000000;,
    0.000000; 1.000000; 0.000000;,
    0.000000; 1.000000; 0.000000;,
    0.000000; 1.000000; 0.000000;,
    0.000000; 1.000000; 0.000000;,
    0.000000; 1.000000; 0.000000;,
    0.000000; 1.000000; 0.000000;,
    0.000000; 1.000000; 0.000000;,
    0.000000; 1.000000; 0.000000;,
    0.000000; 1.000000; 0.000000;,
    0.000000; 1.000000; 0.000000;,
    0.000000; 1.000000; 0.000000;,
    0.000000; 1.000000; 0.000000;,
    -0.661803; 0.749678; 0.000000;,
    0.661803; 0.749678; 0.000000;,
    0.436160; 0.870989; -0.226149;,
    -0.436160; 0.870989; -0.226149;,
    0.000000; 0.599096; 0.800677;,
    0.000000; 0.599096; 0.800677;,
    0.000000; 0.251634; 0.967822;,
    0.000000; 0.251634; 0.967822;,
    0.995990; 0.089463; 0.000000;,
    0.997396; 0.072113; 0.000000;,
    0.999800; 0.019996; 0.000000;,
    0.999800; 0.019996; 0.000000;,
    0.000000; -0.157991; -0.987441;,
    0.000000; -0.157991; -0.987441;,
    0.000000; -0.157991; -0.987441;,
    0.000000; -0.157991; -0.987441;,
    -0.997396; 0.072113; 0.000000;,
    -0.995990; 0.089463; 0.000000;,
    -0.999800; 0.019996; 0.000000;,
    -0.999800; 0.019996; 0.000000;,
    0.000000; 0.251634; -0.967822;,
    0.000000; 0.251634; -0.967822;,
    0.000000; 0.251634; -0.967822;,
    0.000000; 0.251634; -0.967822;,
    -0.995990; 0.089463; 0.000000;,
    -0.997396; 0.072113; 0.000000;,
    -0.999800; 0.019996; 0.000000;,
    -0.999800; 0.019996; 0.000000;,
    0.000000; -0.157991; 0.987441;,
    0.000000; -0.157991; 0.987441;,
    0.000000; -0.157991; 0.987441;,
    0.000000; -0.157991; 0.987441;,
    0.997396; 0.072113; 0.000000;,
    0.995990; 0.089463; 0.000000;,
    0.999800; 0.019996; 0.000000;,
    0.999800; 0.019996; 0.000000;,
    0.000000; 0.857493; -0.514497;,
    0.000000; 0.857493; -0.514497;,
    0.000000; -1.000000; 0.000000;,
    0.000000; -1.000000; 0.000000;,
    0.000000; -1.000000; 0.000000;,
    0.000000; -1.000000; 0.000000;,
    0.000000; -1.000000; 0.000000;,
    0.000000; -1.000000; 0.000000;,
    0.000000; -1.000000; 0.000000;,
    0.000000; -1.000000; 0.000000;;
    122;
    4;0, 1, 2, 3;,
    4;4, 5, 6, 7;,
    4;8, 4, 7, 9;,
    4;10, 8, 9, 11;,
    4;12, 10, 11, 13;,
    4;14, 15, 16, 17;,
    4;18, 14, 17, 19;,
    4;20, 18, 19, 21;,
    4;22, 20, 21, 23;,
    4;24, 22, 23, 25;,
    4;26, 24, 25, 27;,
    4;28, 26, 27, 29;,
    4;30, 28, 29, 31;,
    4;32, 30, 31, 33;,
    4;34, 32, 33, 35;,
    4;1, 34, 35, 2;,
    4;36, 37, 38, 39;,
    4;40, 41, 36, 42;,
    4;43, 44, 41, 45;,
    4;46, 37, 44, 47;,
    4;37, 36, 41, 44;,
    4;48, 49, 50, 51;,
    4;52, 53, 3, 2;,
    4;54, 52, 2, 35;,
    4;55, 54, 35, 33;,
    4;56, 55, 33, 31;,
    4;57, 56, 31, 29;,
    4;58, 57, 29, 27;,
    4;59, 58, 27, 25;,
    4;60, 59, 25, 23;,
    4;61, 60, 23, 21;,
    4;62, 61, 21, 19;,
    4;63, 62, 19, 17;,
    4;64, 63, 17, 16;,
    4;65, 66, 13, 11;,
    4;67, 65, 11, 9;,
    4;68, 67, 9, 7;,
    4;69, 68, 7, 6;,
    4;70, 71, 53, 52;,
    4;72, 70, 52, 54;,
    4;73, 72, 54, 55;,
    4;74, 73, 55, 56;,
    4;75, 74, 56, 57;,
    4;76, 75, 57, 58;,
    4;77, 76, 58, 59;,
    4;78, 77, 59, 60;,
    4;79, 78, 60, 61;,
    4;80, 79, 61, 62;,
    4;81, 80, 62, 63;,
    4;82, 81, 63, 64;,
    4;83, 84, 66, 65;,
    4;85, 83, 65, 67;,
    4;86, 85, 67, 68;,
    4;87, 86, 68, 69;,
    4;88, 89, 1, 0;,
    4;90, 91, 5, 4;,
    4;92, 90, 4, 8;,
    4;93, 92, 8, 10;,
    4;94, 93, 10, 12;,
    4;95, 96, 15, 14;,
    4;97, 95, 14, 18;,
    4;98, 97, 18, 20;,
    4;99, 98, 20, 22;,
    4;100, 99, 22, 24;,
    4;101, 100, 24, 26;,
    4;102, 101, 26, 28;,
    4;103, 102, 28, 30;,
    4;104, 103, 30, 32;,
    4;105, 104, 32, 34;,
    4;89, 105, 34, 1;,
    4;50, 106, 89, 88;,
    4;107, 108, 91, 90;,
    4;109, 107, 90, 92;,
    4;110, 109, 92, 93;,
    4;111, 110, 93, 94;,
    4;112, 113, 96, 95;,
    4;114, 112, 95, 97;,
    4;115, 114, 97, 98;,
    4;116, 115, 98, 99;,
    4;117, 116, 99, 100;,
    4;118, 117, 100, 101;,
    4;119, 118, 101, 102;,
    4;120, 119, 102, 103;,
    4;121, 120, 103, 104;,
    4;122, 121, 104, 105;,
    4;106, 122, 105, 89;,
    4;123, 124, 125, 126;,
    4;127, 128, 129, 130;,
    4;124, 123, 131, 132;,
    4;133, 134, 135, 136;,
    4;48, 51, 134, 133;,
    4;126, 125, 137, 116;,
    4;138, 139, 135, 140;,
    4;141, 142, 140, 143;,
    4;144, 138, 140, 142;,
    4;145, 141, 143, 136;,
    4;139, 146, 136, 135;,
    4;147, 145, 136, 146;,
    4;148, 149, 150, 151;,
    4;142, 147, 146, 144;,
    4;152, 153, 154, 155;,
    4;156, 157, 158, 159;,
    4;160, 161, 162, 163;,
    4;164, 165, 166, 167;,
    4;168, 169, 170, 171;,
    4;172, 173, 174, 175;,
    4;176, 177, 178, 179;,
    4;180, 181, 182, 183;,
    4;129, 128, 153, 152;,
    4;130, 129, 157, 156;,
    4;128, 127, 165, 164;,
    4;151, 150, 184, 185;,
    4;148, 151, 173, 172;,
    4;150, 149, 181, 180;,
    4;148, 172, 165, 127;,
    4;149, 148, 127, 130;,
    4;181, 149, 130, 156;,
    4;186, 187, 188, 189;,
    3;40, 190, 41;,
    3;43, 191, 44;,
    3;46, 192, 37;,
    3;193, 38, 37;;
   }

   MeshTextureCoords {
    194;
    0.748000; 0.476000;,
    0.686000; 0.476000;,
    0.686000; 0.941000;,
    0.748000; 0.941000;,
    0.811000; 0.476000;,
    0.749000; 0.476000;,
    0.749000; 0.941000;,
    0.811000; 0.941000;,
    0.873000; 0.476000;,
    0.873000; 0.941000;,
    0.935000; 0.476000;,
    0.935000; 0.941000;,
    0.997000; 0.476000;,
    0.997000; 0.941000;,
    0.064000; 0.476000;,
    0.002000; 0.476000;,
    0.002000; 0.941000;,
    0.064000; 0.941000;,
    0.127000; 0.476000;,
    0.127000; 0.941000;,
    0.189000; 0.476000;,
    0.189000; 0.941000;,
    0.251000; 0.476000;,
    0.251000; 0.941000;,
    0.313000; 0.476000;,
    0.313000; 0.941000;,
    0.375000; 0.476000;,
    0.375000; 0.941000;,
    0.437000; 0.476000;,
    0.437000; 0.941000;,
    0.500000; 0.476000;,
    0.500000; 0.941000;,
    0.562000; 0.476000;,
    0.562000; 0.941000;,
    0.624000; 0.476000;,
    0.624000; 0.941000;,
    0.105000; 0.255000;,
    0.255000; 0.155000;,
    0.201000; 0.236000;,
    0.155000; 0.255000;,
    0.024000; 0.201000;,
    0.005000; 0.105000;,
    0.059000; 0.236000;,
    0.059000; 0.024000;,
    0.155000; 0.005000;,
    0.024000; 0.059000;,
    0.236000; 0.059000;,
    0.201000; 0.024000;,
    0.630000; 0.378000;,
    0.687000; 0.401000;,
    0.748000; 0.401000;,
    0.804000; 0.378000;,
    0.686000; 0.986000;,
    0.748000; 0.986000;,
    0.624000; 0.986000;,
    0.562000; 0.986000;,
    0.500000; 0.986000;,
    0.437000; 0.986000;,
    0.375000; 0.986000;,
    0.313000; 0.986000;,
    0.251000; 0.986000;,
    0.189000; 0.986000;,
    0.127000; 0.986000;,
    0.064000; 0.986000;,
    0.002000; 0.986000;,
    0.935000; 0.986000;,
    0.997000; 0.986000;,
    0.873000; 0.986000;,
    0.811000; 0.986000;,
    0.749000; 0.986000;,
    0.686000; 0.998000;,
    0.748000; 0.998000;,
    0.624000; 0.998000;,
    0.562000; 0.998000;,
    0.500000; 0.998000;,
    0.437000; 0.998000;,
    0.375000; 0.998000;,
    0.313000; 0.998000;,
    0.251000; 0.998000;,
    0.189000; 0.998000;,
    0.127000; 0.998000;,
    0.064000; 0.998000;,
    0.002000; 0.998000;,
    0.935000; 0.998000;,
    0.997000; 0.998000;,
    0.873000; 0.998000;,
    0.811000; 0.998000;,
    0.749000; 0.998000;,
    0.748000; 0.443000;,
    0.686000; 0.443000;,
    0.811000; 0.443000;,
    0.749000; 0.443000;,
    0.873000; 0.443000;,
    0.935000; 0.443000;,
    0.997000; 0.443000;,
    0.064000; 0.443000;,
    0.002000; 0.443000;,
    0.127000; 0.443000;,
    0.189000; 0.443000;,
    0.251000; 0.443000;,
    0.313000; 0.443000;,
    0.375000; 0.443000;,
    0.437000; 0.443000;,
    0.500000; 0.443000;,
    0.562000; 0.443000;,
    0.624000; 0.443000;,
    0.686000; 0.401000;,
    0.811000; 0.401000;,
    0.749000; 0.401000;,
    0.873000; 0.401000;,
    0.935000; 0.401000;,
    0.997000; 0.401000;,
    0.064000; 0.401000;,
    0.002000; 0.401000;,
    0.127000; 0.401000;,
    0.189000; 0.401000;,
    0.251000; 0.401000;,
    0.313000; 0.401000;,
    0.375000; 0.401000;,
    0.437000; 0.401000;,
    0.500000; 0.401000;,
    0.562000; 0.401000;,
    0.624000; 0.401000;,
    0.351000; 0.334000;,
    0.090000; 0.334000;,
    0.133000; 0.378000;,
    0.307000; 0.378000;,
    0.790000; 0.123000;,
    0.889000; 0.123000;,
    0.889000; 0.089000;,
    0.790000; 0.089000;,
    0.374000; 0.278000;,
    0.066000; 0.278000;,
    0.587000; 0.334000;,
    0.848000; 0.334000;,
    0.871000; 0.278000;,
    0.563000; 0.278000;,
    0.190000; 0.401000;,
    0.860000; 0.235000;,
    0.860000; 0.260000;,
    0.871000; 0.217000;,
    0.575000; 0.235000;,
    0.665000; 0.235000;,
    0.563000; 0.217000;,
    0.769000; 0.235000;,
    0.575000; 0.260000;,
    0.769000; 0.260000;,
    0.665000; 0.260000;,
    0.634000; 0.123000;,
    0.634000; 0.089000;,
    0.535000; 0.089000;,
    0.535000; 0.123000;,
    0.933000; 0.086000;,
    0.933000; 0.126000;,
    0.989000; 0.127000;,
    0.989000; 0.085000;,
    0.790000; 0.061000;,
    0.934000; 0.061000;,
    0.947000; 0.006000;,
    0.798000; 0.006000;,
    0.992000; 0.150000;,
    0.952000; 0.150000;,
    0.951000; 0.206000;,
    0.993000; 0.206000;,
    0.934000; 0.150000;,
    0.790000; 0.150000;,
    0.798000; 0.206000;,
    0.947000; 0.206000;,
    0.490000; 0.086000;,
    0.490000; 0.126000;,
    0.434000; 0.127000;,
    0.434000; 0.085000;,
    0.634000; 0.150000;,
    0.490000; 0.150000;,
    0.476000; 0.206000;,
    0.625000; 0.206000;,
    0.430000; 0.150000;,
    0.470000; 0.150000;,
    0.471000; 0.206000;,
    0.429000; 0.206000;,
    0.490000; 0.061000;,
    0.634000; 0.061000;,
    0.625000; 0.006000;,
    0.476000; 0.006000;,
    0.490000; 0.086000;,
    0.490000; 0.126000;,
    0.640000; 0.204000;,
    0.640000; 0.168000;,
    0.786000; 0.168000;,
    0.786000; 0.204000;,
    0.005000; 0.155000;,
    0.105000; 0.005000;,
    0.255000; 0.105000;,
    0.236000; 0.201000;;
   }

   FVFData {
    258;
    388;
    0,
    1065353216,
    0,
    1065353216,
    0,
    1065353216,
    0,
    1065353216,
    0,
    1065353216,
    0,
    1065353216,
    0,
    1065353216,
    0,
    1065353216,
    0,
    1065353216,
    0,
    1065353216,
    0,
    1065353216,
    0,
    1065353216,
    0,
    1065353216,
    0,
    1065353216,
    0,
    1065353216,
    0,
    1065353216,
    0,
    1065353216,
    0,
    1065353216,
    0,
    1065353216,
    0,
    1065353216,
    0,
    1065353216,
    0,
    1065353216,
    0,
    1065353216,
    0,
    1065353216,
    0,
    1065353216,
    0,
    1065353216,
    0,
    1065353216,
    0,
    1065353216,
    0,
    1065353216,
    0,
    1065353216,
    0,
    1065353216,
    0,
    1065353216,
    0,
    1065353216,
    0,
    1065353216,
    0,
    1065353216,
    0,
    1065353216,
    0,
    1065353216,
    0,
    1065353216,
    0,
    1065353216,
    0,
    1065353216,
    0,
    1065353216,
    0,
    1065353216,
    0,
    1065353216,
    0,
    1065353216,
    0,
    1065353216,
    0,
    1065353216,
    0,
    1065353216,
    0,
    1065353216,
    0,
    1065353216,
    0,
    1065353216,
    0,
    1065353216,
    0,
    1065353216,
    0,
    1065353216,
    0,
    1065353216,
    0,
    1065353216,
    0,
    1065353216,
    0,
    1065353216,
    0,
    1065353216,
    0,
    1065353216,
    0,
    1065353216,
    0,
    1065353216,
    0,
    1065353216,
    0,
    1065353216,
    0,
    1065353216,
    0,
    1065353216,
    0,
    1065353216,
    0,
    1065353216,
    0,
    1065353216,
    0,
    1065353216,
    0,
    1065353216,
    0,
    1065353216,
    0,
    1065353216,
    0,
    1065353216,
    0,
    1065353216,
    0,
    1065353216,
    0,
    1065353216,
    0,
    1065353216,
    0,
    1065353216,
    0,
    1065353216,
    0,
    1065353216,
    0,
    1065353216,
    0,
    1065353216,
    0,
    1065353216,
    0,
    1065353216,
    0,
    1065353216,
    0,
    1065353216,
    0,
    1065353216,
    0,
    1065353216,
    0,
    1065353216,
    0,
    1065353216,
    0,
    1065353216,
    0,
    1065353216,
    0,
    1065353216,
    0,
    1065353216,
    0,
    1065353216,
    0,
    1065353216,
    0,
    1065353216,
    0,
    1065353216,
    0,
    1065353216,
    0,
    1065353216,
    0,
    1065353216,
    0,
    1065353216,
    0,
    1065353216,
    0,
    1065353216,
    0,
    1065353216,
    0,
    1065353216,
    0,
    1065353216,
    0,
    1065353216,
    0,
    1065353216,
    0,
    1065353216,
    0,
    1065353216,
    0,
    1065353216,
    0,
    1065353216,
    0,
    1065353216,
    0,
    1065353216,
    0,
    1065353216,
    0,
    1065353216,
    0,
    1065353216,
    0,
    1065353216,
    0,
    1065353216,
    0,
    1065353216,
    0,
    1065353216,
    0,
    1065353216,
    0,
    1065353216,
    0,
    1065353216,
    0,
    1065353216,
    0,
    1065353216,
    0,
    1065353216,
    0,
    1065353216,
    0,
    1065353216,
    0,
    1065353216,
    0,
    1065353216,
    0,
    1065353216,
    0,
    1065353216,
    0,
    1065353216,
    0,
    1065353216,
    0,
    1065353216,
    0,
    1065353216,
    0,
    1065353216,
    0,
    1065353216,
    0,
    1065353216,
    0,
    1065353216,
    0,
    1065353216,
    0,
    1065353216,
    0,
    1065353216,
    0,
    1065353216,
    0,
    1065353216,
    0,
    1065353216,
    0,
    1065353216,
    0,
    1065353216,
    0,
    1065353216,
    0,
    1065353216,
    0,
    1065353216,
    0,
    1065353216,
    0,
    1065353216,
    0,
    1065353216,
    0,
    1065353216,
    0,
    1065353216,
    0,
    1065353216,
    0,
    1065353216,
    0,
    1065353216,
    0,
    1065353216,
    0,
    1065353216,
    0,
    1065353216,
    0,
    1065353216,
    0,
    1065353216,
    0,
    1065353216,
    0,
    1065353216,
    0,
    1065353216,
    0,
    1065353216,
    0,
    1065353216,
    0,
    1065353216,
    0,
    1065353216,
    0,
    1065353216,
    0,
    1065353216,
    0,
    1065353216,
    0,
    1065353216,
    0,
    1065353216,
    0,
    1065353216,
    0,
    1065353216,
    0,
    1065353216,
    0,
    1065353216,
    0,
    1065353216,
    0,
    1065353216,
    0,
    1065353216,
    0,
    1065353216,
    0,
    1065353216,
    0,
    1065353216,
    0,
    1065353216,
    0,
    1065353216,
    0,
    1065353216,
    0,
    1065353216,
    0,
    1065353216,
    0,
    1065353216;
   }

   MeshMaterialList {
    1;
    122;
    0,
    0,
    0,
    0,
    0,
    0,
    0,
    0,
    0,
    0,
    0,
    0,
    0,
    0,
    0,
    0,
    0,
    0,
    0,
    0,
    0,
    0,
    0,
    0,
    0,
    0,
    0,
    0,
    0,
    0,
    0,
    0,
    0,
    0,
    0,
    0,
    0,
    0,
    0,
    0,
    0,
    0,
    0,
    0,
    0,
    0,
    0,
    0,
    0,
    0,
    0,
    0,
    0,
    0,
    0,
    0,
    0,
    0,
    0,
    0,
    0,
    0,
    0,
    0,
    0,
    0,
    0,
    0,
    0,
    0,
    0,
    0,
    0,
    0,
    0,
    0,
    0,
    0,
    0,
    0,
    0,
    0,
    0,
    0,
    0,
    0,
    0,
    0,
    0,
    0,
    0,
    0,
    0,
    0,
    0,
    0,
    0,
    0,
    0,
    0,
    0,
    0,
    0,
    0,
    0,
    0,
    0,
    0,
    0,
    0,
    0,
    0,
    0,
    0,
    0,
    0,
    0,
    0,
    0,
    0,
    0,
    0;

    Material roadbarrel_Smoothing {
     0.863000; 0.863000; 0.863000; 1.000000;;
     128.000000;
     0.000000; 0.000000; 0.000000;;
     0.000000; 0.000000; 0.000000;;

     TextureFilename {
      "D:\\new packs\\test\\roadbarrel_diffuse.tga";
     }
    }

   }
  }
}
