xof 0303txt 0032

// DirectX 8.0 file
// Creator: Ultimate Unwrap3D Pro v3.27
// Website: http://www.unwrap3d.com
// Time: Fri Jun 01 18:49:20 2012

// Start of Templates

template VertexDuplicationIndices {
 <b8d65549-d7c9-4995-89cf-53a9a8b031e3>
 DWORD nIndices;
 DWORD nOriginalVertices;
 array DWORD indices[nIndices];
}

template FVFData {
 <b6e70a0e-8ef9-4e83-94ad-ecc8b0c04897>
 DWORD dwFVF;
 DWORD nDWords;
 array DWORD data[nDWords];
}

template XSkinMeshHeader {
 <3CF169CE-FF7C-44ab-93C0-F78F62D172E2>
 WORD nMaxSkinWeightsPerVertex;
 WORD nMaxSkinWeightsPerFace;
 WORD nBones;
}

template SkinWeights {
 <6F0D123B-BAD2-4167-A0D0-80224F25FABB>
 STRING transformNodeName;
 DWORD nWeights;
 array DWORD vertexIndices[nWeights];
 array FLOAT weights[nWeights];
 Matrix4x4 matrixOffset;
}

template AnimTicksPerSecond {
 <9E415A43-7BA6-4a73-8743-B73D47E88476>
 DWORD AnimTicksPerSecond;
}

// Start of Frames

Frame Default_Layer {
   FrameTransformMatrix {
    1.000000, 0.000000, 0.000000, 0.000000,
    0.000000, 1.000000, 0.000000, 0.000000,
    0.000000, 0.000000, 1.000000, 0.000000,
    0.000000, 0.000000, 0.000000, 1.000000;;
   }

   Mesh Default_Layer {
    164;
    0.301000; 0.036000; -0.172000;,
    0.347000; 0.036000; -0.000000;,
    0.501000; 0.036000; -0.000000;,
    0.501000; 0.036000; -0.450000;,
    0.347000; 0.036000; -0.000000;,
    0.301000; 0.036000; 0.172000;,
    0.501000; 0.036000; 0.450000;,
    0.501000; 0.036000; -0.000000;,
    0.173000; 0.036000; 0.300000;,
    0.451000; 0.036000; 0.500000;,
    0.001000; 0.036000; 0.346000;,
    0.001000; 0.036000; 0.500000;,
    -0.171000; 0.036000; 0.300000;,
    -0.449000; 0.036000; 0.502000;,
    -0.299000; 0.036000; 0.172000;,
    -0.501000; 0.036000; 0.450000;,
    -0.345000; 0.036000; -0.000000;,
    -0.499000; 0.036000; -0.000000;,
    -0.345000; 0.036000; -0.000000;,
    -0.299000; 0.036000; -0.172000;,
    -0.501000; 0.036000; -0.450000;,
    -0.499000; 0.036000; -0.000000;,
    -0.171000; 0.036000; -0.300000;,
    -0.449000; 0.036000; -0.502000;,
    0.001000; 0.036000; -0.346000;,
    0.001000; 0.036000; -0.500000;,
    0.173000; 0.036000; -0.300000;,
    0.451000; 0.036000; -0.500000;,
    0.501000; -0.000000; -0.000000;,
    0.315000; -0.000000; -0.000000;,
    0.273000; -0.000000; -0.156000;,
    0.501000; -0.000000; -0.450000;,
    0.501000; -0.000000; 0.450000;,
    0.273000; -0.000000; 0.156000;,
    0.315000; -0.000000; -0.000000;,
    0.501000; -0.000000; -0.000000;,
    0.451000; -0.000000; 0.500000;,
    0.157000; -0.000000; 0.272000;,
    0.001000; -0.000000; 0.500000;,
    0.001000; -0.000000; 0.314000;,
    -0.449000; -0.000000; 0.502000;,
    -0.155000; -0.000000; 0.272000;,
    -0.501000; -0.000000; 0.450000;,
    -0.271000; -0.000000; 0.156000;,
    -0.499000; -0.000000; -0.000000;,
    -0.313000; -0.000000; -0.000000;,
    -0.501000; -0.000000; -0.450000;,
    -0.271000; -0.000000; -0.156000;,
    -0.313000; -0.000000; -0.000000;,
    -0.499000; -0.000000; -0.000000;,
    -0.449000; -0.000000; -0.502000;,
    -0.155000; -0.000000; -0.272000;,
    0.001000; -0.000000; -0.500000;,
    0.001000; -0.000000; -0.314000;,
    0.451000; -0.000000; -0.500000;,
    0.157000; -0.000000; -0.272000;,
    0.347000; 0.036000; -0.000000;,
    0.301000; 0.036000; -0.172000;,
    0.105000; 1.338000; -0.060000;,
    0.121000; 1.338000; 0.000000;,
    0.173000; 0.036000; -0.300000;,
    0.061000; 1.338000; -0.104000;,
    0.001000; 0.036000; -0.346000;,
    0.001000; 1.338000; -0.120000;,
    -0.171000; 0.036000; -0.300000;,
    -0.059000; 1.338000; -0.104000;,
    -0.299000; 0.036000; -0.172000;,
    -0.103000; 1.338000; -0.060000;,
    -0.345000; 0.036000; -0.000000;,
    -0.119000; 1.338000; 0.000000;,
    -0.299000; 0.036000; 0.172000;,
    -0.103000; 1.338000; 0.060000;,
    -0.171000; 0.036000; 0.300000;,
    -0.059000; 1.338000; 0.104000;,
    0.001000; 0.036000; 0.346000;,
    0.001000; 1.338000; 0.120000;,
    0.173000; 0.036000; 0.300000;,
    0.061000; 1.338000; 0.104000;,
    0.301000; 0.036000; 0.172000;,
    0.105000; 1.338000; 0.060000;,
    0.347000; 0.036000; -0.000000;,
    0.121000; 1.338000; 0.000000;,
    0.073000; 1.354000; -0.042000;,
    0.273000; -0.000000; -0.156000;,
    0.315000; -0.000000; -0.000000;,
    0.085000; 1.354000; 0.000000;,
    0.043000; 1.354000; -0.072000;,
    0.157000; -0.000000; -0.272000;,
    0.001000; 1.354000; -0.084000;,
    0.001000; -0.000000; -0.314000;,
    -0.041000; 1.354000; -0.072000;,
    -0.155000; -0.000000; -0.272000;,
    -0.071000; 1.354000; -0.042000;,
    -0.271000; -0.000000; -0.156000;,
    -0.083000; 1.354000; 0.000000;,
    -0.313000; -0.000000; -0.000000;,
    -0.071000; 1.354000; 0.042000;,
    -0.271000; -0.000000; 0.156000;,
    -0.041000; 1.354000; 0.072000;,
    -0.155000; -0.000000; 0.272000;,
    0.001000; 1.354000; 0.084000;,
    0.001000; -0.000000; 0.314000;,
    0.043000; 1.354000; 0.072000;,
    0.157000; -0.000000; 0.272000;,
    0.073000; 1.354000; 0.042000;,
    0.273000; -0.000000; 0.156000;,
    0.085000; 1.354000; 0.000000;,
    0.315000; -0.000000; -0.000000;,
    0.121000; 1.338000; 0.000000;,
    0.105000; 1.338000; -0.060000;,
    0.073000; 1.354000; -0.042000;,
    0.085000; 1.354000; 0.000000;,
    0.061000; 1.338000; -0.104000;,
    0.043000; 1.354000; -0.072000;,
    0.001000; 1.338000; -0.120000;,
    0.001000; 1.354000; -0.084000;,
    -0.059000; 1.338000; -0.104000;,
    -0.041000; 1.354000; -0.072000;,
    -0.103000; 1.338000; -0.060000;,
    -0.071000; 1.354000; -0.042000;,
    -0.119000; 1.338000; 0.000000;,
    -0.083000; 1.354000; 0.000000;,
    -0.103000; 1.338000; 0.060000;,
    -0.071000; 1.354000; 0.042000;,
    -0.059000; 1.338000; 0.104000;,
    -0.041000; 1.354000; 0.072000;,
    0.001000; 1.338000; 0.120000;,
    0.001000; 1.354000; 0.084000;,
    0.061000; 1.338000; 0.104000;,
    0.043000; 1.354000; 0.072000;,
    0.105000; 1.338000; 0.060000;,
    0.073000; 1.354000; 0.042000;,
    0.501000; 0.036000; -0.450000;,
    0.501000; 0.036000; -0.000000;,
    0.501000; -0.000000; -0.000000;,
    0.501000; -0.000000; -0.450000;,
    0.501000; 0.036000; 0.450000;,
    0.501000; -0.000000; 0.450000;,
    0.501000; 0.036000; 0.450000;,
    0.451000; 0.036000; 0.500000;,
    0.451000; -0.000000; 0.500000;,
    0.501000; -0.000000; 0.450000;,
    0.001000; 0.036000; 0.500000;,
    0.001000; -0.000000; 0.500000;,
    -0.449000; 0.036000; 0.502000;,
    -0.449000; -0.000000; 0.502000;,
    -0.449000; 0.036000; 0.502000;,
    -0.501000; 0.036000; 0.450000;,
    -0.501000; -0.000000; 0.450000;,
    -0.449000; -0.000000; 0.502000;,
    -0.499000; 0.036000; -0.000000;,
    -0.499000; -0.000000; -0.000000;,
    -0.501000; 0.036000; -0.450000;,
    -0.501000; -0.000000; -0.450000;,
    -0.501000; 0.036000; -0.450000;,
    -0.449000; 0.036000; -0.502000;,
    -0.449000; -0.000000; -0.502000;,
    -0.501000; -0.000000; -0.450000;,
    0.001000; 0.036000; -0.500000;,
    0.001000; -0.000000; -0.500000;,
    0.451000; 0.036000; -0.500000;,
    0.451000; -0.000000; -0.500000;,
    0.451000; 0.036000; -0.500000;,
    0.451000; -0.000000; -0.500000;;
    72;
    4;0, 1, 2, 3;,
    4;4, 5, 6, 7;,
    4;5, 8, 9, 6;,
    4;8, 10, 11, 9;,
    4;10, 12, 13, 11;,
    4;12, 14, 15, 13;,
    4;14, 16, 17, 15;,
    4;18, 19, 20, 21;,
    4;19, 22, 23, 20;,
    4;22, 24, 25, 23;,
    4;24, 26, 27, 25;,
    4;26, 0, 3, 27;,
    4;28, 29, 30, 31;,
    4;32, 33, 34, 35;,
    4;36, 37, 33, 32;,
    4;38, 39, 37, 36;,
    4;40, 41, 39, 38;,
    4;42, 43, 41, 40;,
    4;44, 45, 43, 42;,
    4;46, 47, 48, 49;,
    4;50, 51, 47, 46;,
    4;52, 53, 51, 50;,
    4;54, 55, 53, 52;,
    4;31, 30, 55, 54;,
    4;56, 57, 58, 59;,
    4;57, 60, 61, 58;,
    4;60, 62, 63, 61;,
    4;62, 64, 65, 63;,
    4;64, 66, 67, 65;,
    4;66, 68, 69, 67;,
    4;68, 70, 71, 69;,
    4;70, 72, 73, 71;,
    4;72, 74, 75, 73;,
    4;74, 76, 77, 75;,
    4;76, 78, 79, 77;,
    4;78, 80, 81, 79;,
    4;82, 83, 84, 85;,
    4;86, 87, 83, 82;,
    4;88, 89, 87, 86;,
    4;90, 91, 89, 88;,
    4;92, 93, 91, 90;,
    4;94, 95, 93, 92;,
    4;96, 97, 95, 94;,
    4;98, 99, 97, 96;,
    4;100, 101, 99, 98;,
    4;102, 103, 101, 100;,
    4;104, 105, 103, 102;,
    4;106, 107, 105, 104;,
    4;108, 109, 110, 111;,
    4;109, 112, 113, 110;,
    4;112, 114, 115, 113;,
    4;114, 116, 117, 115;,
    4;116, 118, 119, 117;,
    4;118, 120, 121, 119;,
    4;120, 122, 123, 121;,
    4;122, 124, 125, 123;,
    4;124, 126, 127, 125;,
    4;126, 128, 129, 127;,
    4;128, 130, 131, 129;,
    4;130, 108, 111, 131;,
    4;132, 133, 134, 135;,
    4;133, 136, 137, 134;,
    4;138, 139, 140, 141;,
    4;139, 142, 143, 140;,
    4;142, 144, 145, 143;,
    4;146, 147, 148, 149;,
    4;147, 150, 151, 148;,
    4;150, 152, 153, 151;,
    4;154, 155, 156, 157;,
    4;155, 158, 159, 156;,
    4;158, 160, 161, 159;,
    4;162, 132, 135, 163;;

   MeshNormals {
    164;
    0.000000; 1.000000; 0.000000;,
    0.000000; 1.000000; 0.000000;,
    0.000000; 1.000000; 0.000000;,
    0.000000; 1.000000; 0.000000;,
    0.000000; 1.000000; 0.000000;,
    0.000000; 1.000000; 0.000000;,
    0.000000; 1.000000; 0.000000;,
    0.000000; 1.000000; 0.000000;,
    0.000000; 1.000000; 0.000000;,
    0.000000; 1.000000; 0.000000;,
    0.000000; 1.000000; 0.000000;,
    0.000000; 1.000000; 0.000000;,
    0.000000; 1.000000; 0.000000;,
    0.000000; 1.000000; 0.000000;,
    0.000000; 1.000000; 0.000000;,
    0.000000; 1.000000; 0.000000;,
    0.000000; 1.000000; 0.000000;,
    0.000000; 1.000000; 0.000000;,
    0.000000; 1.000000; 0.000000;,
    0.000000; 1.000000; 0.000000;,
    0.000000; 1.000000; 0.000000;,
    0.000000; 1.000000; 0.000000;,
    0.000000; 1.000000; 0.000000;,
    0.000000; 1.000000; 0.000000;,
    0.000000; 1.000000; 0.000000;,
    0.000000; 1.000000; 0.000000;,
    0.000000; 1.000000; 0.000000;,
    0.000000; 1.000000; 0.000000;,
    0.000000; -1.000000; 0.000000;,
    0.000000; -1.000000; 0.000000;,
    0.000000; -1.000000; 0.000000;,
    0.000000; -1.000000; 0.000000;,
    0.000000; -1.000000; 0.000000;,
    0.000000; -1.000000; 0.000000;,
    0.000000; -1.000000; 0.000000;,
    0.000000; -1.000000; 0.000000;,
    0.000000; -1.000000; 0.000000;,
    0.000000; -1.000000; 0.000000;,
    0.000000; -1.000000; 0.000000;,
    0.000000; -1.000000; 0.000000;,
    0.000000; -1.000000; 0.000000;,
    0.000000; -1.000000; 0.000000;,
    0.000000; -1.000000; 0.000000;,
    0.000000; -1.000000; 0.000000;,
    0.000000; -1.000000; 0.000000;,
    0.000000; -1.000000; 0.000000;,
    0.000000; -1.000000; 0.000000;,
    0.000000; -1.000000; 0.000000;,
    0.000000; -1.000000; 0.000000;,
    0.000000; -1.000000; 0.000000;,
    0.000000; -1.000000; 0.000000;,
    0.000000; -1.000000; 0.000000;,
    0.000000; -1.000000; 0.000000;,
    0.000000; -1.000000; 0.000000;,
    0.000000; -1.000000; 0.000000;,
    0.000000; -1.000000; 0.000000;,
    0.952746; 0.165377; -0.254804;,
    0.853405; 0.170849; -0.492454;,
    0.853405; 0.170849; -0.492454;,
    0.952746; 0.165377; -0.254804;,
    0.492455; 0.170832; -0.853408;,
    0.492455; 0.170832; -0.853408;,
    0.000001; 0.171005; -0.985270;,
    0.000001; 0.171005; -0.985270;,
    -0.492454; 0.170849; -0.853405;,
    -0.492454; 0.170849; -0.853405;,
    -0.853408; 0.170832; -0.492455;,
    -0.853408; 0.170832; -0.492455;,
    -0.985270; 0.171005; -0.000001;,
    -0.985270; 0.171005; -0.000001;,
    -0.853405; 0.170849; 0.492454;,
    -0.853405; 0.170849; 0.492454;,
    -0.492455; 0.170832; 0.853408;,
    -0.492455; 0.170832; 0.853408;,
    -0.000001; 0.171005; 0.985270;,
    -0.000001; 0.171005; 0.985270;,
    0.492454; 0.170849; 0.853405;,
    0.492454; 0.170849; 0.853405;,
    0.853408; 0.170832; 0.492455;,
    0.853408; 0.170832; 0.492455;,
    0.952752; 0.165344; 0.254806;,
    0.952752; 0.165344; 0.254806;,
    -0.849668; -0.167600; 0.499975;,
    -0.849668; -0.167600; 0.499975;,
    -0.948673; -0.162950; 0.271049;,
    -0.948673; -0.162950; 0.271049;,
    -0.500021; -0.166696; 0.849819;,
    -0.500021; -0.166696; 0.849819;,
    -0.000041; -0.168378; 0.985723;,
    -0.000041; -0.168378; 0.985723;,
    0.499975; -0.167600; 0.849668;,
    0.499975; -0.167600; 0.849668;,
    0.849819; -0.166696; 0.500021;,
    0.849819; -0.166696; 0.500021;,
    0.985723; -0.168378; 0.000041;,
    0.985723; -0.168378; 0.000041;,
    0.849668; -0.167600; -0.499975;,
    0.849668; -0.167600; -0.499975;,
    0.500021; -0.166696; -0.849819;,
    0.500021; -0.166696; -0.849819;,
    0.000041; -0.168378; -0.985723;,
    0.000041; -0.168378; -0.985723;,
    -0.499975; -0.167600; -0.849668;,
    -0.499975; -0.167600; -0.849668;,
    -0.849819; -0.166696; -0.500021;,
    -0.849819; -0.166696; -0.500021;,
    -0.948950; -0.161195; -0.271129;,
    -0.948950; -0.161195; -0.271129;,
    0.402436; 0.915448; -0.000977;,
    0.349692; 0.915099; -0.200774;,
    0.349692; 0.915099; -0.200774;,
    0.402436; 0.915448; -0.000977;,
    0.199774; 0.916723; -0.345989;,
    0.199774; 0.916723; -0.345989;,
    -0.000977; 0.915448; -0.402436;,
    -0.000977; 0.915448; -0.402436;,
    -0.200774; 0.915099; -0.349692;,
    -0.200774; 0.915099; -0.349692;,
    -0.345989; 0.916723; -0.199774;,
    -0.345989; 0.916723; -0.199774;,
    -0.402436; 0.915448; 0.000977;,
    -0.402436; 0.915448; 0.000977;,
    -0.349692; 0.915099; 0.200774;,
    -0.349692; 0.915099; 0.200774;,
    -0.199774; 0.916723; 0.345989;,
    -0.199774; 0.916723; 0.345989;,
    0.000977; 0.915448; 0.402436;,
    0.000977; 0.915448; 0.402436;,
    0.200774; 0.915099; 0.349692;,
    0.200774; 0.915099; 0.349692;,
    0.345989; 0.916723; 0.199774;,
    0.345989; 0.916723; 0.199774;,
    0.923880; 0.000000; -0.382683;,
    1.000000; 0.000000; 0.000000;,
    1.000000; 0.000000; 0.000000;,
    0.923880; 0.000000; -0.382683;,
    1.000000; 0.000000; 0.000000;,
    1.000000; 0.000000; 0.000000;,
    0.707107; 0.000000; 0.707107;,
    0.382684; 0.000000; 0.923879;,
    0.382684; 0.000000; 0.923879;,
    0.707107; 0.000000; 0.707107;,
    0.002222; 0.000000; 0.999998;,
    0.002222; 0.000000; 0.999998;,
    0.004444; 0.000000; 0.999990;,
    0.004444; 0.000000; 0.999990;,
    -0.707107; 0.000000; 0.707107;,
    -0.924728; 0.000000; 0.380630;,
    -0.924728; 0.000000; 0.380630;,
    -0.707107; 0.000000; 0.707107;,
    -1.000000; -0.000000; 0.000000;,
    -1.000000; -0.000000; 0.000000;,
    -0.999990; -0.000000; 0.004444;,
    -0.999990; -0.000000; 0.004444;,
    -0.707107; 0.000000; -0.707107;,
    -0.380629; 0.000000; -0.924728;,
    -0.380629; 0.000000; -0.924728;,
    -0.707107; 0.000000; -0.707107;,
    0.002222; 0.000000; -0.999998;,
    0.002222; 0.000000; -0.999998;,
    0.000000; 0.000000; -1.000000;,
    0.000000; 0.000000; -1.000000;,
    0.707107; 0.000000; -0.707107;,
    0.707107; 0.000000; -0.707107;;
    72;
    4;0, 1, 2, 3;,
    4;4, 5, 6, 7;,
    4;5, 8, 9, 6;,
    4;8, 10, 11, 9;,
    4;10, 12, 13, 11;,
    4;12, 14, 15, 13;,
    4;14, 16, 17, 15;,
    4;18, 19, 20, 21;,
    4;19, 22, 23, 20;,
    4;22, 24, 25, 23;,
    4;24, 26, 27, 25;,
    4;26, 0, 3, 27;,
    4;28, 29, 30, 31;,
    4;32, 33, 34, 35;,
    4;36, 37, 33, 32;,
    4;38, 39, 37, 36;,
    4;40, 41, 39, 38;,
    4;42, 43, 41, 40;,
    4;44, 45, 43, 42;,
    4;46, 47, 48, 49;,
    4;50, 51, 47, 46;,
    4;52, 53, 51, 50;,
    4;54, 55, 53, 52;,
    4;31, 30, 55, 54;,
    4;56, 57, 58, 59;,
    4;57, 60, 61, 58;,
    4;60, 62, 63, 61;,
    4;62, 64, 65, 63;,
    4;64, 66, 67, 65;,
    4;66, 68, 69, 67;,
    4;68, 70, 71, 69;,
    4;70, 72, 73, 71;,
    4;72, 74, 75, 73;,
    4;74, 76, 77, 75;,
    4;76, 78, 79, 77;,
    4;78, 80, 81, 79;,
    4;82, 83, 84, 85;,
    4;86, 87, 83, 82;,
    4;88, 89, 87, 86;,
    4;90, 91, 89, 88;,
    4;92, 93, 91, 90;,
    4;94, 95, 93, 92;,
    4;96, 97, 95, 94;,
    4;98, 99, 97, 96;,
    4;100, 101, 99, 98;,
    4;102, 103, 101, 100;,
    4;104, 105, 103, 102;,
    4;106, 107, 105, 104;,
    4;108, 109, 110, 111;,
    4;109, 112, 113, 110;,
    4;112, 114, 115, 113;,
    4;114, 116, 117, 115;,
    4;116, 118, 119, 117;,
    4;118, 120, 121, 119;,
    4;120, 122, 123, 121;,
    4;122, 124, 125, 123;,
    4;124, 126, 127, 125;,
    4;126, 128, 129, 127;,
    4;128, 130, 131, 129;,
    4;130, 108, 111, 131;,
    4;132, 133, 134, 135;,
    4;133, 136, 137, 134;,
    4;138, 139, 140, 141;,
    4;139, 142, 143, 140;,
    4;142, 144, 145, 143;,
    4;146, 147, 148, 149;,
    4;147, 150, 151, 148;,
    4;150, 152, 153, 151;,
    4;154, 155, 156, 157;,
    4;155, 158, 159, 156;,
    4;158, 160, 161, 159;,
    4;162, 132, 135, 163;;
   }

   MeshTextureCoords {
    164;
    0.399000; 0.850000;,
    0.422000; 0.945000;,
    0.499000; 0.945000;,
    0.499000; 0.698000;,
    0.923000; 0.671000;,
    0.900000; 0.766000;,
    1.000000; 0.918000;,
    0.999000; 0.671000;,
    0.837000; 0.835000;,
    0.975000; 0.946000;,
    0.751000; 0.861000;,
    0.751000; 0.945000;,
    0.665000; 0.835000;,
    0.528000; 0.946000;,
    0.603000; 0.766000;,
    0.502000; 0.918000;,
    0.580000; 0.671000;,
    0.503000; 0.671000;,
    0.079000; 0.945000;,
    0.102000; 0.850000;,
    0.002000; 0.698000;,
    0.003000; 0.945000;,
    0.165000; 0.781000;,
    0.027000; 0.670000;,
    0.251000; 0.755000;,
    0.251000; 0.671000;,
    0.336000; 0.781000;,
    0.474000; 0.670000;,
    0.499000; 0.945000;,
    0.422000; 0.945000;,
    0.399000; 0.850000;,
    0.499000; 0.698000;,
    1.000000; 0.918000;,
    0.900000; 0.766000;,
    0.923000; 0.671000;,
    0.999000; 0.671000;,
    0.975000; 0.946000;,
    0.837000; 0.835000;,
    0.751000; 0.945000;,
    0.751000; 0.861000;,
    0.528000; 0.946000;,
    0.665000; 0.835000;,
    0.502000; 0.918000;,
    0.603000; 0.766000;,
    0.503000; 0.671000;,
    0.580000; 0.671000;,
    0.002000; 0.698000;,
    0.102000; 0.850000;,
    0.079000; 0.945000;,
    0.003000; 0.945000;,
    0.027000; 0.670000;,
    0.165000; 0.781000;,
    0.251000; 0.671000;,
    0.251000; 0.755000;,
    0.474000; 0.670000;,
    0.336000; 0.781000;,
    0.000000; 0.657000;,
    0.083000; 0.657000;,
    0.083000; 0.004000;,
    0.000000; 0.004000;,
    0.166000; 0.657000;,
    0.166000; 0.004000;,
    0.249000; 0.657000;,
    0.249000; 0.004000;,
    0.333000; 0.657000;,
    0.332000; 0.004000;,
    0.416000; 0.657000;,
    0.416000; 0.004000;,
    0.499000; 0.657000;,
    0.499000; 0.004000;,
    0.582000; 0.657000;,
    0.582000; 0.004000;,
    0.665000; 0.657000;,
    0.666000; 0.004000;,
    0.749000; 0.657000;,
    0.749000; 0.004000;,
    0.832000; 0.657000;,
    0.832000; 0.004000;,
    0.915000; 0.657000;,
    0.915000; 0.004000;,
    0.998000; 0.657000;,
    0.998000; 0.004000;,
    0.083000; 0.004000;,
    0.083000; 0.657000;,
    0.000000; 0.657000;,
    0.000000; 0.004000;,
    0.166000; 0.004000;,
    0.166000; 0.657000;,
    0.249000; 0.004000;,
    0.249000; 0.657000;,
    0.332000; 0.004000;,
    0.333000; 0.657000;,
    0.416000; 0.004000;,
    0.416000; 0.657000;,
    0.499000; 0.004000;,
    0.499000; 0.657000;,
    0.582000; 0.004000;,
    0.582000; 0.657000;,
    0.666000; 0.004000;,
    0.665000; 0.657000;,
    0.749000; 0.004000;,
    0.749000; 0.657000;,
    0.832000; 0.004000;,
    0.832000; 0.657000;,
    0.915000; 0.004000;,
    0.915000; 0.657000;,
    0.998000; 0.004000;,
    0.998000; 0.657000;,
    0.840000; 0.754000;,
    0.827000; 0.709000;,
    0.803000; 0.722000;,
    0.812000; 0.754000;,
    0.794000; 0.675000;,
    0.779000; 0.699000;,
    0.747000; 0.663000;,
    0.747000; 0.691000;,
    0.701000; 0.675000;,
    0.715000; 0.699000;,
    0.667000; 0.709000;,
    0.692000; 0.722000;,
    0.655000; 0.754000;,
    0.683000; 0.754000;,
    0.667000; 0.799000;,
    0.692000; 0.785000;,
    0.701000; 0.832000;,
    0.715000; 0.809000;,
    0.747000; 0.845000;,
    0.747000; 0.817000;,
    0.794000; 0.832000;,
    0.779000; 0.809000;,
    0.827000; 0.799000;,
    0.803000; 0.785000;,
    0.472000; 0.952000;,
    0.238000; 0.952000;,
    0.238000; 0.973000;,
    0.472000; 0.973000;,
    0.004000; 0.952000;,
    0.004000; 0.973000;,
    0.502000; 0.977000;,
    0.476000; 0.977000;,
    0.476000; 0.998000;,
    0.502000; 0.998000;,
    0.242000; 0.977000;,
    0.242000; 0.998000;,
    0.008000; 0.977000;,
    0.008000; 0.998000;,
    0.504000; 0.977000;,
    0.531000; 0.977000;,
    0.531000; 0.998000;,
    0.504000; 0.998000;,
    0.765000; 0.977000;,
    0.765000; 0.998000;,
    0.999000; 0.977000;,
    0.999000; 0.998000;,
    0.505000; 0.954000;,
    0.531000; 0.954000;,
    0.531000; 0.975000;,
    0.505000; 0.975000;,
    0.765000; 0.954000;,
    0.765000; 0.975000;,
    0.999000; 0.954000;,
    0.999000; 0.975000;,
    0.499000; 0.952000;,
    0.499000; 0.973000;;
   }

   FVFData {
    258;
    328;
    0,
    1065353216,
    0,
    1065353216,
    0,
    1065353216,
    0,
    1065353216,
    0,
    1065353216,
    0,
    1065353216,
    0,
    1065353216,
    0,
    1065353216,
    0,
    1065353216,
    0,
    1065353216,
    0,
    1065353216,
    0,
    1065353216,
    0,
    1065353216,
    0,
    1065353216,
    0,
    1065353216,
    0,
    1065353216,
    0,
    1065353216,
    0,
    1065353216,
    0,
    1065353216,
    0,
    1065353216,
    0,
    1065353216,
    0,
    1065353216,
    0,
    1065353216,
    0,
    1065353216,
    0,
    1065353216,
    0,
    1065353216,
    0,
    1065353216,
    0,
    1065353216,
    0,
    1065353216,
    0,
    1065353216,
    0,
    1065353216,
    0,
    1065353216,
    0,
    1065353216,
    0,
    1065353216,
    0,
    1065353216,
    0,
    1065353216,
    0,
    1065353216,
    0,
    1065353216,
    0,
    1065353216,
    0,
    1065353216,
    0,
    1065353216,
    0,
    1065353216,
    0,
    1065353216,
    0,
    1065353216,
    0,
    1065353216,
    0,
    1065353216,
    0,
    1065353216,
    0,
    1065353216,
    0,
    1065353216,
    0,
    1065353216,
    0,
    1065353216,
    0,
    1065353216,
    0,
    1065353216,
    0,
    1065353216,
    0,
    1065353216,
    0,
    1065353216,
    0,
    1065353216,
    0,
    1065353216,
    0,
    1065353216,
    0,
    1065353216,
    0,
    1065353216,
    0,
    1065353216,
    0,
    1065353216,
    0,
    1065353216,
    0,
    1065353216,
    0,
    1065353216,
    0,
    1065353216,
    0,
    1065353216,
    0,
    1065353216,
    0,
    1065353216,
    0,
    1065353216,
    0,
    1065353216,
    0,
    1065353216,
    0,
    1065353216,
    0,
    1065353216,
    0,
    1065353216,
    0,
    1065353216,
    0,
    1065353216,
    0,
    1065353216,
    0,
    1065353216,
    0,
    1065353216,
    0,
    1065353216,
    0,
    1065353216,
    0,
    1065353216,
    0,
    1065353216,
    0,
    1065353216,
    0,
    1065353216,
    0,
    1065353216,
    0,
    1065353216,
    0,
    1065353216,
    0,
    1065353216,
    0,
    1065353216,
    0,
    1065353216,
    0,
    1065353216,
    0,
    1065353216,
    0,
    1065353216,
    0,
    1065353216,
    0,
    1065353216,
    0,
    1065353216,
    0,
    1065353216,
    0,
    1065353216,
    0,
    1065353216,
    0,
    1065353216,
    0,
    1065353216,
    0,
    1065353216,
    0,
    1065353216,
    0,
    1065353216,
    0,
    1065353216,
    0,
    1065353216,
    0,
    1065353216,
    0,
    1065353216,
    0,
    1065353216,
    0,
    1065353216,
    0,
    1065353216,
    0,
    1065353216,
    0,
    1065353216,
    0,
    1065353216,
    0,
    1065353216,
    0,
    1065353216,
    0,
    1065353216,
    0,
    1065353216,
    0,
    1065353216,
    0,
    1065353216,
    0,
    1065353216,
    0,
    1065353216,
    0,
    1065353216,
    0,
    1065353216,
    0,
    1065353216,
    0,
    1065353216,
    0,
    1065353216,
    0,
    1065353216,
    0,
    1065353216,
    0,
    1065353216,
    0,
    1065353216,
    0,
    1065353216,
    0,
    1065353216,
    0,
    1065353216,
    0,
    1065353216,
    0,
    1065353216,
    0,
    1065353216,
    0,
    1065353216,
    0,
    1065353216,
    0,
    1065353216,
    0,
    1065353216,
    0,
    1065353216,
    0,
    1065353216,
    0,
    1065353216,
    0,
    1065353216,
    0,
    1065353216,
    0,
    1065353216,
    0,
    1065353216,
    0,
    1065353216,
    0,
    1065353216,
    0,
    1065353216,
    0,
    1065353216,
    0,
    1065353216,
    0,
    1065353216,
    0,
    1065353216,
    0,
    1065353216,
    0,
    1065353216,
    0,
    1065353216,
    0,
    1065353216,
    0,
    1065353216,
    0,
    1065353216;
   }

   MeshMaterialList {
    1;
    72;
    0,
    0,
    0,
    0,
    0,
    0,
    0,
    0,
    0,
    0,
    0,
    0,
    0,
    0,
    0,
    0,
    0,
    0,
    0,
    0,
    0,
    0,
    0,
    0,
    0,
    0,
    0,
    0,
    0,
    0,
    0,
    0,
    0,
    0,
    0,
    0,
    0,
    0,
    0,
    0,
    0,
    0,
    0,
    0,
    0,
    0,
    0,
    0,
    0,
    0,
    0,
    0,
    0,
    0,
    0,
    0,
    0,
    0,
    0,
    0,
    0,
    0,
    0,
    0,
    0,
    0,
    0,
    0,
    0,
    0,
    0,
    0;

    Material roadcone {
     0.588000; 0.588000; 0.588000; 1.000000;;
     128.000000;
     0.000000; 0.000000; 0.000000;;
     0.000000; 0.000000; 0.000000;;

     TextureFilename {
      "D:\\new packs\\test\\roadcone_diffuse.tga";
     }
    }

   }
  }
}
