# Wavefront OBJ file
# Creator: Ultimate Unwrap3D Pro v3.27
# Website: http://www.unwrap3d.com
# Time: Fri Jun 01 18:44:17 2012
# num_vertices: 164
# num_vertex_normals: 164
# num_uvs: 288
# num_faces: 72
# num_groups: 1

mtllib roadcone.mtl

v 0.301000 0.036000 -0.172000
v 0.347000 0.036000 -0.000000
v 0.501000 0.036000 -0.000000
v 0.501000 0.036000 -0.450000
v 0.347000 0.036000 -0.000000
v 0.301000 0.036000 0.172000
v 0.501000 0.036000 0.450000
v 0.501000 0.036000 -0.000000
v 0.173000 0.036000 0.300000
v 0.451000 0.036000 0.500000
v 0.001000 0.036000 0.346000
v 0.001000 0.036000 0.500000
v -0.171000 0.036000 0.300000
v -0.449000 0.036000 0.502000
v -0.299000 0.036000 0.172000
v -0.501000 0.036000 0.450000
v -0.345000 0.036000 -0.000000
v -0.499000 0.036000 -0.000000
v -0.345000 0.036000 -0.000000
v -0.299000 0.036000 -0.172000
v -0.501000 0.036000 -0.450000
v -0.499000 0.036000 -0.000000
v -0.171000 0.036000 -0.300000
v -0.449000 0.036000 -0.502000
v 0.001000 0.036000 -0.346000
v 0.001000 0.036000 -0.500000
v 0.173000 0.036000 -0.300000
v 0.451000 0.036000 -0.500000
v 0.501000 -0.000000 -0.000000
v 0.315000 -0.000000 -0.000000
v 0.273000 -0.000000 -0.156000
v 0.501000 -0.000000 -0.450000
v 0.501000 -0.000000 0.450000
v 0.273000 -0.000000 0.156000
v 0.315000 -0.000000 -0.000000
v 0.501000 -0.000000 -0.000000
v 0.451000 -0.000000 0.500000
v 0.157000 -0.000000 0.272000
v 0.001000 -0.000000 0.500000
v 0.001000 -0.000000 0.314000
v -0.449000 -0.000000 0.502000
v -0.155000 -0.000000 0.272000
v -0.501000 -0.000000 0.450000
v -0.271000 -0.000000 0.156000
v -0.499000 -0.000000 -0.000000
v -0.313000 -0.000000 -0.000000
v -0.501000 -0.000000 -0.450000
v -0.271000 -0.000000 -0.156000
v -0.313000 -0.000000 -0.000000
v -0.499000 -0.000000 -0.000000
v -0.449000 -0.000000 -0.502000
v -0.155000 -0.000000 -0.272000
v 0.001000 -0.000000 -0.500000
v 0.001000 -0.000000 -0.314000
v 0.451000 -0.000000 -0.500000
v 0.157000 -0.000000 -0.272000
v 0.347000 0.036000 -0.000000
v 0.301000 0.036000 -0.172000
v 0.105000 1.338000 -0.060000
v 0.121000 1.338000 0.000000
v 0.173000 0.036000 -0.300000
v 0.061000 1.338000 -0.104000
v 0.001000 0.036000 -0.346000
v 0.001000 1.338000 -0.120000
v -0.171000 0.036000 -0.300000
v -0.059000 1.338000 -0.104000
v -0.299000 0.036000 -0.172000
v -0.103000 1.338000 -0.060000
v -0.345000 0.036000 -0.000000
v -0.119000 1.338000 0.000000
v -0.299000 0.036000 0.172000
v -0.103000 1.338000 0.060000
v -0.171000 0.036000 0.300000
v -0.059000 1.338000 0.104000
v 0.001000 0.036000 0.346000
v 0.001000 1.338000 0.120000
v 0.173000 0.036000 0.300000
v 0.061000 1.338000 0.104000
v 0.301000 0.036000 0.172000
v 0.105000 1.338000 0.060000
v 0.347000 0.036000 -0.000000
v 0.121000 1.338000 0.000000
v 0.073000 1.354000 -0.042000
v 0.273000 -0.000000 -0.156000
v 0.315000 -0.000000 -0.000000
v 0.085000 1.354000 0.000000
v 0.043000 1.354000 -0.072000
v 0.157000 -0.000000 -0.272000
v 0.001000 1.354000 -0.084000
v 0.001000 -0.000000 -0.314000
v -0.041000 1.354000 -0.072000
v -0.155000 -0.000000 -0.272000
v -0.071000 1.354000 -0.042000
v -0.271000 -0.000000 -0.156000
v -0.083000 1.354000 0.000000
v -0.313000 -0.000000 -0.000000
v -0.071000 1.354000 0.042000
v -0.271000 -0.000000 0.156000
v -0.041000 1.354000 0.072000
v -0.155000 -0.000000 0.272000
v 0.001000 1.354000 0.084000
v 0.001000 -0.000000 0.314000
v 0.043000 1.354000 0.072000
v 0.157000 -0.000000 0.272000
v 0.073000 1.354000 0.042000
v 0.273000 -0.000000 0.156000
v 0.085000 1.354000 0.000000
v 0.315000 -0.000000 -0.000000
v 0.121000 1.338000 0.000000
v 0.105000 1.338000 -0.060000
v 0.073000 1.354000 -0.042000
v 0.085000 1.354000 0.000000
v 0.061000 1.338000 -0.104000
v 0.043000 1.354000 -0.072000
v 0.001000 1.338000 -0.120000
v 0.001000 1.354000 -0.084000
v -0.059000 1.338000 -0.104000
v -0.041000 1.354000 -0.072000
v -0.103000 1.338000 -0.060000
v -0.071000 1.354000 -0.042000
v -0.119000 1.338000 0.000000
v -0.083000 1.354000 0.000000
v -0.103000 1.338000 0.060000
v -0.071000 1.354000 0.042000
v -0.059000 1.338000 0.104000
v -0.041000 1.354000 0.072000
v 0.001000 1.338000 0.120000
v 0.001000 1.354000 0.084000
v 0.061000 1.338000 0.104000
v 0.043000 1.354000 0.072000
v 0.105000 1.338000 0.060000
v 0.073000 1.354000 0.042000
v 0.501000 0.036000 -0.450000
v 0.501000 0.036000 -0.000000
v 0.501000 -0.000000 -0.000000
v 0.501000 -0.000000 -0.450000
v 0.501000 0.036000 0.450000
v 0.501000 -0.000000 0.450000
v 0.501000 0.036000 0.450000
v 0.451000 0.036000 0.500000
v 0.451000 -0.000000 0.500000
v 0.501000 -0.000000 0.450000
v 0.001000 0.036000 0.500000
v 0.001000 -0.000000 0.500000
v -0.449000 0.036000 0.502000
v -0.449000 -0.000000 0.502000
v -0.449000 0.036000 0.502000
v -0.501000 0.036000 0.450000
v -0.501000 -0.000000 0.450000
v -0.449000 -0.000000 0.502000
v -0.499000 0.036000 -0.000000
v -0.499000 -0.000000 -0.000000
v -0.501000 0.036000 -0.450000
v -0.501000 -0.000000 -0.450000
v -0.501000 0.036000 -0.450000
v -0.449000 0.036000 -0.502000
v -0.449000 -0.000000 -0.502000
v -0.501000 -0.000000 -0.450000
v 0.001000 0.036000 -0.500000
v 0.001000 -0.000000 -0.500000
v 0.451000 0.036000 -0.500000
v 0.451000 -0.000000 -0.500000
v 0.451000 0.036000 -0.500000
v 0.451000 -0.000000 -0.500000
# num_vertices: 164

vn 0.000000 1.000000 0.000000
vn 0.000000 1.000000 0.000000
vn 0.000000 1.000000 0.000000
vn 0.000000 1.000000 0.000000
vn 0.000000 1.000000 0.000000
vn 0.000000 1.000000 0.000000
vn 0.000000 1.000000 0.000000
vn 0.000000 1.000000 0.000000
vn 0.000000 1.000000 0.000000
vn 0.000000 1.000000 0.000000
vn 0.000000 1.000000 0.000000
vn 0.000000 1.000000 0.000000
vn 0.000000 1.000000 0.000000
vn 0.000000 1.000000 0.000000
vn 0.000000 1.000000 0.000000
vn 0.000000 1.000000 0.000000
vn 0.000000 1.000000 0.000000
vn 0.000000 1.000000 0.000000
vn 0.000000 1.000000 0.000000
vn 0.000000 1.000000 0.000000
vn 0.000000 1.000000 0.000000
vn 0.000000 1.000000 0.000000
vn 0.000000 1.000000 0.000000
vn 0.000000 1.000000 0.000000
vn 0.000000 1.000000 0.000000
vn 0.000000 1.000000 0.000000
vn 0.000000 1.000000 0.000000
vn 0.000000 1.000000 0.000000
vn 0.000000 -1.000000 0.000000
vn 0.000000 -1.000000 0.000000
vn 0.000000 -1.000000 0.000000
vn 0.000000 -1.000000 0.000000
vn 0.000000 -1.000000 0.000000
vn 0.000000 -1.000000 0.000000
vn 0.000000 -1.000000 0.000000
vn 0.000000 -1.000000 0.000000
vn 0.000000 -1.000000 0.000000
vn 0.000000 -1.000000 0.000000
vn 0.000000 -1.000000 0.000000
vn 0.000000 -1.000000 0.000000
vn 0.000000 -1.000000 0.000000
vn 0.000000 -1.000000 0.000000
vn 0.000000 -1.000000 0.000000
vn 0.000000 -1.000000 0.000000
vn 0.000000 -1.000000 0.000000
vn 0.000000 -1.000000 0.000000
vn 0.000000 -1.000000 0.000000
vn 0.000000 -1.000000 0.000000
vn 0.000000 -1.000000 0.000000
vn 0.000000 -1.000000 0.000000
vn 0.000000 -1.000000 0.000000
vn 0.000000 -1.000000 0.000000
vn 0.000000 -1.000000 0.000000
vn 0.000000 -1.000000 0.000000
vn 0.000000 -1.000000 0.000000
vn 0.000000 -1.000000 0.000000
vn 0.952746 0.165377 -0.254804
vn 0.853405 0.170849 -0.492454
vn 0.853405 0.170849 -0.492454
vn 0.952746 0.165377 -0.254804
vn 0.492455 0.170832 -0.853408
vn 0.492455 0.170832 -0.853408
vn 0.000001 0.171005 -0.985270
vn 0.000001 0.171005 -0.985270
vn -0.492454 0.170849 -0.853405
vn -0.492454 0.170849 -0.853405
vn -0.853408 0.170832 -0.492455
vn -0.853408 0.170832 -0.492455
vn -0.985270 0.171005 -0.000001
vn -0.985270 0.171005 -0.000001
vn -0.853405 0.170849 0.492454
vn -0.853405 0.170849 0.492454
vn -0.492455 0.170832 0.853408
vn -0.492455 0.170832 0.853408
vn -0.000001 0.171005 0.985270
vn -0.000001 0.171005 0.985270
vn 0.492454 0.170849 0.853405
vn 0.492454 0.170849 0.853405
vn 0.853408 0.170832 0.492455
vn 0.853408 0.170832 0.492455
vn 0.952752 0.165344 0.254806
vn 0.952752 0.165344 0.254806
vn -0.849668 -0.167600 0.499975
vn -0.849668 -0.167600 0.499975
vn -0.948673 -0.162950 0.271049
vn -0.948673 -0.162950 0.271049
vn -0.500021 -0.166696 0.849819
vn -0.500021 -0.166696 0.849819
vn -0.000041 -0.168378 0.985723
vn -0.000041 -0.168378 0.985723
vn 0.499975 -0.167600 0.849668
vn 0.499975 -0.167600 0.849668
vn 0.849819 -0.166696 0.500021
vn 0.849819 -0.166696 0.500021
vn 0.985723 -0.168378 0.000041
vn 0.985723 -0.168378 0.000041
vn 0.849668 -0.167600 -0.499975
vn 0.849668 -0.167600 -0.499975
vn 0.500021 -0.166696 -0.849819
vn 0.500021 -0.166696 -0.849819
vn 0.000041 -0.168378 -0.985723
vn 0.000041 -0.168378 -0.985723
vn -0.499975 -0.167600 -0.849668
vn -0.499975 -0.167600 -0.849668
vn -0.849819 -0.166696 -0.500021
vn -0.849819 -0.166696 -0.500021
vn -0.948950 -0.161195 -0.271129
vn -0.948950 -0.161195 -0.271129
vn 0.402436 0.915448 -0.000977
vn 0.349692 0.915099 -0.200774
vn 0.349692 0.915099 -0.200774
vn 0.402436 0.915448 -0.000977
vn 0.199774 0.916723 -0.345989
vn 0.199774 0.916723 -0.345989
vn -0.000977 0.915448 -0.402436
vn -0.000977 0.915448 -0.402436
vn -0.200774 0.915099 -0.349692
vn -0.200774 0.915099 -0.349692
vn -0.345989 0.916723 -0.199774
vn -0.345989 0.916723 -0.199774
vn -0.402436 0.915448 0.000977
vn -0.402436 0.915448 0.000977
vn -0.349692 0.915099 0.200774
vn -0.349692 0.915099 0.200774
vn -0.199774 0.916723 0.345989
vn -0.199774 0.916723 0.345989
vn 0.000977 0.915448 0.402436
vn 0.000977 0.915448 0.402436
vn 0.200774 0.915099 0.349692
vn 0.200774 0.915099 0.349692
vn 0.345989 0.916723 0.199774
vn 0.345989 0.916723 0.199774
vn 0.923880 0.000000 -0.382683
vn 1.000000 0.000000 0.000000
vn 1.000000 0.000000 0.000000
vn 0.923880 0.000000 -0.382683
vn 1.000000 0.000000 0.000000
vn 1.000000 0.000000 0.000000
vn 0.707107 0.000000 0.707107
vn 0.382684 0.000000 0.923879
vn 0.382684 0.000000 0.923879
vn 0.707107 0.000000 0.707107
vn 0.002222 0.000000 0.999998
vn 0.002222 0.000000 0.999998
vn 0.004444 0.000000 0.999990
vn 0.004444 0.000000 0.999990
vn -0.707107 0.000000 0.707107
vn -0.924728 0.000000 0.380630
vn -0.924728 0.000000 0.380630
vn -0.707107 0.000000 0.707107
vn -1.000000 -0.000000 0.000000
vn -1.000000 -0.000000 0.000000
vn -0.999990 -0.000000 0.004444
vn -0.999990 -0.000000 0.004444
vn -0.707107 0.000000 -0.707107
vn -0.380629 0.000000 -0.924728
vn -0.380629 0.000000 -0.924728
vn -0.707107 0.000000 -0.707107
vn 0.002222 0.000000 -0.999998
vn 0.002222 0.000000 -0.999998
vn 0.000000 0.000000 -1.000000
vn 0.000000 0.000000 -1.000000
vn 0.707107 0.000000 -0.707107
vn 0.707107 0.000000 -0.707107
# num_vertex_normals: 164

vt 0.399000 0.150000
vt 0.422000 0.055000
vt 0.499000 0.055000
vt 0.499000 0.302000
vt 0.923000 0.329000
vt 0.900000 0.234000
vt 1.000000 0.082000
vt 0.999000 0.329000
vt 0.900000 0.234000
vt 0.837000 0.165000
vt 0.975000 0.054000
vt 1.000000 0.082000
vt 0.837000 0.165000
vt 0.751000 0.139000
vt 0.751000 0.055000
vt 0.975000 0.054000
vt 0.751000 0.139000
vt 0.665000 0.165000
vt 0.528000 0.054000
vt 0.751000 0.055000
vt 0.665000 0.165000
vt 0.603000 0.234000
vt 0.502000 0.082000
vt 0.528000 0.054000
vt 0.603000 0.234000
vt 0.580000 0.329000
vt 0.503000 0.329000
vt 0.502000 0.082000
vt 0.079000 0.055000
vt 0.102000 0.150000
vt 0.002000 0.302000
vt 0.003000 0.055000
vt 0.102000 0.150000
vt 0.165000 0.219000
vt 0.027000 0.330000
vt 0.002000 0.302000
vt 0.165000 0.219000
vt 0.251000 0.245000
vt 0.251000 0.329000
vt 0.027000 0.330000
vt 0.251000 0.245000
vt 0.336000 0.219000
vt 0.474000 0.330000
vt 0.251000 0.329000
vt 0.336000 0.219000
vt 0.399000 0.150000
vt 0.499000 0.302000
vt 0.474000 0.330000
vt 0.499000 0.055000
vt 0.422000 0.055000
vt 0.399000 0.150000
vt 0.499000 0.302000
vt 1.000000 0.082000
vt 0.900000 0.234000
vt 0.923000 0.329000
vt 0.999000 0.329000
vt 0.975000 0.054000
vt 0.837000 0.165000
vt 0.900000 0.234000
vt 1.000000 0.082000
vt 0.751000 0.055000
vt 0.751000 0.139000
vt 0.837000 0.165000
vt 0.975000 0.054000
vt 0.528000 0.054000
vt 0.665000 0.165000
vt 0.751000 0.139000
vt 0.751000 0.055000
vt 0.502000 0.082000
vt 0.603000 0.234000
vt 0.665000 0.165000
vt 0.528000 0.054000
vt 0.503000 0.329000
vt 0.580000 0.329000
vt 0.603000 0.234000
vt 0.502000 0.082000
vt 0.002000 0.302000
vt 0.102000 0.150000
vt 0.079000 0.055000
vt 0.003000 0.055000
vt 0.027000 0.330000
vt 0.165000 0.219000
vt 0.102000 0.150000
vt 0.002000 0.302000
vt 0.251000 0.329000
vt 0.251000 0.245000
vt 0.165000 0.219000
vt 0.027000 0.330000
vt 0.474000 0.330000
vt 0.336000 0.219000
vt 0.251000 0.245000
vt 0.251000 0.329000
vt 0.499000 0.302000
vt 0.399000 0.150000
vt 0.336000 0.219000
vt 0.474000 0.330000
vt 0.000000 0.343000
vt 0.083000 0.343000
vt 0.083000 0.996000
vt 0.000000 0.996000
vt 0.083000 0.343000
vt 0.166000 0.343000
vt 0.166000 0.996000
vt 0.083000 0.996000
vt 0.166000 0.343000
vt 0.249000 0.343000
vt 0.249000 0.996000
vt 0.166000 0.996000
vt 0.249000 0.343000
vt 0.333000 0.343000
vt 0.332000 0.996000
vt 0.249000 0.996000
vt 0.333000 0.343000
vt 0.416000 0.343000
vt 0.416000 0.996000
vt 0.332000 0.996000
vt 0.416000 0.343000
vt 0.499000 0.343000
vt 0.499000 0.996000
vt 0.416000 0.996000
vt 0.499000 0.343000
vt 0.582000 0.343000
vt 0.582000 0.996000
vt 0.499000 0.996000
vt 0.582000 0.343000
vt 0.665000 0.343000
vt 0.666000 0.996000
vt 0.582000 0.996000
vt 0.665000 0.343000
vt 0.749000 0.343000
vt 0.749000 0.996000
vt 0.666000 0.996000
vt 0.749000 0.343000
vt 0.832000 0.343000
vt 0.832000 0.996000
vt 0.749000 0.996000
vt 0.832000 0.343000
vt 0.915000 0.343000
vt 0.915000 0.996000
vt 0.832000 0.996000
vt 0.915000 0.343000
vt 0.998000 0.343000
vt 0.998000 0.996000
vt 0.915000 0.996000
vt 0.083000 0.996000
vt 0.083000 0.343000
vt 0.000000 0.343000
vt 0.000000 0.996000
vt 0.166000 0.996000
vt 0.166000 0.343000
vt 0.083000 0.343000
vt 0.083000 0.996000
vt 0.249000 0.996000
vt 0.249000 0.343000
vt 0.166000 0.343000
vt 0.166000 0.996000
vt 0.332000 0.996000
vt 0.333000 0.343000
vt 0.249000 0.343000
vt 0.249000 0.996000
vt 0.416000 0.996000
vt 0.416000 0.343000
vt 0.333000 0.343000
vt 0.332000 0.996000
vt 0.499000 0.996000
vt 0.499000 0.343000
vt 0.416000 0.343000
vt 0.416000 0.996000
vt 0.582000 0.996000
vt 0.582000 0.343000
vt 0.499000 0.343000
vt 0.499000 0.996000
vt 0.666000 0.996000
vt 0.665000 0.343000
vt 0.582000 0.343000
vt 0.582000 0.996000
vt 0.749000 0.996000
vt 0.749000 0.343000
vt 0.665000 0.343000
vt 0.666000 0.996000
vt 0.832000 0.996000
vt 0.832000 0.343000
vt 0.749000 0.343000
vt 0.749000 0.996000
vt 0.915000 0.996000
vt 0.915000 0.343000
vt 0.832000 0.343000
vt 0.832000 0.996000
vt 0.998000 0.996000
vt 0.998000 0.343000
vt 0.915000 0.343000
vt 0.915000 0.996000
vt 0.840000 0.246000
vt 0.827000 0.291000
vt 0.803000 0.278000
vt 0.812000 0.246000
vt 0.827000 0.291000
vt 0.794000 0.325000
vt 0.779000 0.301000
vt 0.803000 0.278000
vt 0.794000 0.325000
vt 0.747000 0.337000
vt 0.747000 0.309000
vt 0.779000 0.301000
vt 0.747000 0.337000
vt 0.701000 0.325000
vt 0.715000 0.301000
vt 0.747000 0.309000
vt 0.701000 0.325000
vt 0.667000 0.291000
vt 0.692000 0.278000
vt 0.715000 0.301000
vt 0.667000 0.291000
vt 0.655000 0.246000
vt 0.683000 0.246000
vt 0.692000 0.278000
vt 0.655000 0.246000
vt 0.667000 0.201000
vt 0.692000 0.215000
vt 0.683000 0.246000
vt 0.667000 0.201000
vt 0.701000 0.168000
vt 0.715000 0.191000
vt 0.692000 0.215000
vt 0.701000 0.168000
vt 0.747000 0.155000
vt 0.747000 0.183000
vt 0.715000 0.191000
vt 0.747000 0.155000
vt 0.794000 0.168000
vt 0.779000 0.191000
vt 0.747000 0.183000
vt 0.794000 0.168000
vt 0.827000 0.201000
vt 0.803000 0.215000
vt 0.779000 0.191000
vt 0.827000 0.201000
vt 0.840000 0.246000
vt 0.812000 0.246000
vt 0.803000 0.215000
vt 0.472000 0.048000
vt 0.238000 0.048000
vt 0.238000 0.027000
vt 0.472000 0.027000
vt 0.238000 0.048000
vt 0.004000 0.048000
vt 0.004000 0.027000
vt 0.238000 0.027000
vt 0.502000 0.023000
vt 0.476000 0.023000
vt 0.476000 0.002000
vt 0.502000 0.002000
vt 0.476000 0.023000
vt 0.242000 0.023000
vt 0.242000 0.002000
vt 0.476000 0.002000
vt 0.242000 0.023000
vt 0.008000 0.023000
vt 0.008000 0.002000
vt 0.242000 0.002000
vt 0.504000 0.023000
vt 0.531000 0.023000
vt 0.531000 0.002000
vt 0.504000 0.002000
vt 0.531000 0.023000
vt 0.765000 0.023000
vt 0.765000 0.002000
vt 0.531000 0.002000
vt 0.765000 0.023000
vt 0.999000 0.023000
vt 0.999000 0.002000
vt 0.765000 0.002000
vt 0.505000 0.046000
vt 0.531000 0.046000
vt 0.531000 0.025000
vt 0.505000 0.025000
vt 0.531000 0.046000
vt 0.765000 0.046000
vt 0.765000 0.025000
vt 0.531000 0.025000
vt 0.765000 0.046000
vt 0.999000 0.046000
vt 0.999000 0.025000
vt 0.765000 0.025000
vt 0.499000 0.048000
vt 0.472000 0.048000
vt 0.472000 0.027000
vt 0.499000 0.027000
# num_uvs: 288

g Default_Layer
s 1

usemtl roadcone
f 1/1/1 2/2/2 3/3/3 4/4/4 
f 5/5/5 6/6/6 7/7/7 8/8/8 
f 6/9/6 9/10/9 10/11/10 7/12/7 
f 9/13/9 11/14/11 12/15/12 10/16/10 
f 11/17/11 13/18/13 14/19/14 12/20/12 
f 13/21/13 15/22/15 16/23/16 14/24/14 
f 15/25/15 17/26/17 18/27/18 16/28/16 
f 19/29/19 20/30/20 21/31/21 22/32/22 
f 20/33/20 23/34/23 24/35/24 21/36/21 
f 23/37/23 25/38/25 26/39/26 24/40/24 
f 25/41/25 27/42/27 28/43/28 26/44/26 
f 27/45/27 1/46/1 4/47/4 28/48/28 
f 29/49/29 30/50/30 31/51/31 32/52/32 
f 33/53/33 34/54/34 35/55/35 36/56/36 
f 37/57/37 38/58/38 34/59/34 33/60/33 
f 39/61/39 40/62/40 38/63/38 37/64/37 
f 41/65/41 42/66/42 40/67/40 39/68/39 
f 43/69/43 44/70/44 42/71/42 41/72/41 
f 45/73/45 46/74/46 44/75/44 43/76/43 
f 47/77/47 48/78/48 49/79/49 50/80/50 
f 51/81/51 52/82/52 48/83/48 47/84/47 
f 53/85/53 54/86/54 52/87/52 51/88/51 
f 55/89/55 56/90/56 54/91/54 53/92/53 
f 32/93/32 31/94/31 56/95/56 55/96/55 
f 57/97/57 58/98/58 59/99/59 60/100/60 
f 58/101/58 61/102/61 62/103/62 59/104/59 
f 61/105/61 63/106/63 64/107/64 62/108/62 
f 63/109/63 65/110/65 66/111/66 64/112/64 
f 65/113/65 67/114/67 68/115/68 66/116/66 
f 67/117/67 69/118/69 70/119/70 68/120/68 
f 69/121/69 71/122/71 72/123/72 70/124/70 
f 71/125/71 73/126/73 74/127/74 72/128/72 
f 73/129/73 75/130/75 76/131/76 74/132/74 
f 75/133/75 77/134/77 78/135/78 76/136/76 
f 77/137/77 79/138/79 80/139/80 78/140/78 
f 79/141/79 81/142/81 82/143/82 80/144/80 
f 83/145/83 84/146/84 85/147/85 86/148/86 
f 87/149/87 88/150/88 84/151/84 83/152/83 
f 89/153/89 90/154/90 88/155/88 87/156/87 
f 91/157/91 92/158/92 90/159/90 89/160/89 
f 93/161/93 94/162/94 92/163/92 91/164/91 
f 95/165/95 96/166/96 94/167/94 93/168/93 
f 97/169/97 98/170/98 96/171/96 95/172/95 
f 99/173/99 100/174/100 98/175/98 97/176/97 
f 101/177/101 102/178/102 100/179/100 99/180/99 
f 103/181/103 104/182/104 102/183/102 101/184/101 
f 105/185/105 106/186/106 104/187/104 103/188/103 
f 107/189/107 108/190/108 106/191/106 105/192/105 
f 109/193/109 110/194/110 111/195/111 112/196/112 
f 110/197/110 113/198/113 114/199/114 111/200/111 
f 113/201/113 115/202/115 116/203/116 114/204/114 
f 115/205/115 117/206/117 118/207/118 116/208/116 
f 117/209/117 119/210/119 120/211/120 118/212/118 
f 119/213/119 121/214/121 122/215/122 120/216/120 
f 121/217/121 123/218/123 124/219/124 122/220/122 
f 123/221/123 125/222/125 126/223/126 124/224/124 
f 125/225/125 127/226/127 128/227/128 126/228/126 
f 127/229/127 129/230/129 130/231/130 128/232/128 
f 129/233/129 131/234/131 132/235/132 130/236/130 
f 131/237/131 109/238/109 112/239/112 132/240/132 
f 133/241/133 134/242/134 135/243/135 136/244/136 
f 134/245/134 137/246/137 138/247/138 135/248/135 
f 139/249/139 140/250/140 141/251/141 142/252/142 
f 140/253/140 143/254/143 144/255/144 141/256/141 
f 143/257/143 145/258/145 146/259/146 144/260/144 
f 147/261/147 148/262/148 149/263/149 150/264/150 
f 148/265/148 151/266/151 152/267/152 149/268/149 
f 151/269/151 153/270/153 154/271/154 152/272/152 
f 155/273/155 156/274/156 157/275/157 158/276/158 
f 156/277/156 159/278/159 160/279/160 157/280/157 
f 159/281/159 161/282/161 162/283/162 160/284/160 
f 163/285/163 133/286/133 136/287/136 164/288/164 
# num_faces: 72

