# Wavefront MTL file
# Creator: Ultimate Unwrap3D Pro v3.27
# URL: http://www.unwrap3d.com
# Time: Fri Jun 01 18:44:46 2012
# num_materials: 1

newmtl signstop_Smoothing
Ka 0.000000 0.000000 0.000000
Kd 0.588000 0.588000 0.588000
Ks 0.000000 0.000000 0.000000
d 1.000000
illum 2
Ns 1.000000
map_Kd signstop_diffuse.tga

# num_materials: 1
