xof 0303txt 0032

// DirectX 8.0 file
// Creator: Ultimate Unwrap3D Pro v3.27
// Website: http://www.unwrap3d.com
// Time: Fri Jun 01 18:50:09 2012

// Start of Templates

template VertexDuplicationIndices {
 <b8d65549-d7c9-4995-89cf-53a9a8b031e3>
 DWORD nIndices;
 DWORD nOriginalVertices;
 array DWORD indices[nIndices];
}

template FVFData {
 <b6e70a0e-8ef9-4e83-94ad-ecc8b0c04897>
 DWORD dwFVF;
 DWORD nDWords;
 array DWORD data[nDWords];
}

template XSkinMeshHeader {
 <3CF169CE-FF7C-44ab-93C0-F78F62D172E2>
 WORD nMaxSkinWeightsPerVertex;
 WORD nMaxSkinWeightsPerFace;
 WORD nBones;
}

template SkinWeights {
 <6F0D123B-BAD2-4167-A0D0-80224F25FABB>
 STRING transformNodeName;
 DWORD nWeights;
 array DWORD vertexIndices[nWeights];
 array FLOAT weights[nWeights];
 Matrix4x4 matrixOffset;
}

template AnimTicksPerSecond {
 <9E415A43-7BA6-4a73-8743-B73D47E88476>
 DWORD AnimTicksPerSecond;
}

// Start of Frames

Frame signyield {
   FrameTransformMatrix {
    1.000000, 0.000000, 0.000000, 0.000000,
    0.000000, 1.000000, 0.000000, 0.000000,
    0.000000, 0.000000, 1.000000, 0.000000,
    0.000000, 0.000000, 0.000000, 1.000000;;
   }

   Mesh signyield {
    160;
    -0.027000; -0.000000; -0.003000;,
    -0.028000; -0.000000; 0.001000;,
    -0.039000; -0.000000; 0.001000;,
    -0.039000; -0.000000; -0.003000;,
    -0.018000; -0.000000; -0.016000;,
    -0.014000; -0.000000; -0.015000;,
    -0.023000; -0.000000; -0.002000;,
    0.009000; -0.000000; -0.019000;,
    0.010000; -0.000000; -0.015000;,
    -0.013000; -0.000000; -0.019000;,
    0.023000; -0.000000; -0.003000;,
    0.019000; -0.000000; -0.002000;,
    0.014000; -0.000000; -0.016000;,
    0.036000; -0.000000; -0.003000;,
    0.036000; -0.000000; 0.001000;,
    0.024000; -0.000000; 0.001000;,
    -0.027000; 2.452000; -0.003000;,
    -0.039000; 2.452000; -0.003000;,
    -0.039000; 2.452000; 0.001000;,
    -0.028000; 2.452000; 0.001000;,
    -0.018000; 2.452000; -0.016000;,
    -0.023000; 2.452000; -0.002000;,
    -0.014000; 2.452000; -0.015000;,
    -0.013000; 2.452000; -0.019000;,
    0.010000; 2.452000; -0.015000;,
    0.009000; 2.452000; -0.019000;,
    0.023000; 2.452000; -0.003000;,
    0.014000; 2.452000; -0.016000;,
    0.019000; 2.452000; -0.002000;,
    0.036000; 2.452000; -0.003000;,
    0.024000; 2.452000; 0.001000;,
    0.036000; 2.452000; 0.001000;,
    -0.039000; 1.228000; 0.001000;,
    -0.039000; -0.000000; 0.001000;,
    -0.028000; -0.000000; 0.001000;,
    -0.028000; 1.228000; 0.001000;,
    -0.023000; 1.228000; -0.002000;,
    -0.023000; -0.000000; -0.002000;,
    -0.014000; -0.000000; -0.015000;,
    -0.014000; 1.228000; -0.015000;,
    0.010000; -0.000000; -0.015000;,
    0.010000; 1.228000; -0.015000;,
    0.019000; -0.000000; -0.002000;,
    0.019000; 1.228000; -0.002000;,
    0.024000; 1.228000; 0.001000;,
    0.024000; -0.000000; 0.001000;,
    0.036000; -0.000000; 0.001000;,
    0.036000; 1.228000; 0.001000;,
    0.036000; 1.228000; 0.001000;,
    0.036000; -0.000000; 0.001000;,
    0.036000; -0.000000; -0.003000;,
    0.036000; 1.228000; -0.003000;,
    0.036000; 1.228000; -0.003000;,
    0.036000; -0.000000; -0.003000;,
    0.023000; -0.000000; -0.003000;,
    0.023000; 1.228000; -0.003000;,
    0.014000; -0.000000; -0.016000;,
    0.014000; 1.228000; -0.016000;,
    0.009000; 1.228000; -0.019000;,
    0.009000; -0.000000; -0.019000;,
    -0.013000; -0.000000; -0.019000;,
    -0.013000; 1.228000; -0.019000;,
    -0.018000; 1.228000; -0.016000;,
    -0.018000; -0.000000; -0.016000;,
    -0.027000; -0.000000; -0.003000;,
    -0.027000; 1.228000; -0.003000;,
    -0.039000; -0.000000; -0.003000;,
    -0.039000; 1.228000; -0.003000;,
    -0.039000; 1.228000; -0.003000;,
    -0.039000; -0.000000; -0.003000;,
    -0.039000; -0.000000; 0.001000;,
    -0.039000; 1.228000; 0.001000;,
    -0.039000; 1.228000; 0.001000;,
    -0.028000; 1.228000; 0.001000;,
    -0.028000; 2.452000; 0.001000;,
    -0.039000; 2.452000; 0.001000;,
    -0.023000; 1.228000; -0.002000;,
    -0.014000; 1.228000; -0.015000;,
    -0.014000; 2.452000; -0.015000;,
    -0.023000; 2.452000; -0.002000;,
    0.010000; 1.228000; -0.015000;,
    0.010000; 2.452000; -0.015000;,
    0.019000; 1.228000; -0.002000;,
    0.019000; 2.452000; -0.002000;,
    0.024000; 1.228000; 0.001000;,
    0.036000; 1.228000; 0.001000;,
    0.036000; 2.452000; 0.001000;,
    0.024000; 2.452000; 0.001000;,
    0.036000; 1.228000; 0.001000;,
    0.036000; 1.228000; -0.003000;,
    0.036000; 2.452000; -0.003000;,
    0.036000; 2.452000; 0.001000;,
    0.036000; 1.228000; -0.003000;,
    0.023000; 1.228000; -0.003000;,
    0.023000; 2.452000; -0.003000;,
    0.036000; 2.452000; -0.003000;,
    0.014000; 1.228000; -0.016000;,
    0.014000; 2.452000; -0.016000;,
    0.009000; 1.228000; -0.019000;,
    -0.013000; 1.228000; -0.019000;,
    -0.013000; 2.452000; -0.019000;,
    0.009000; 2.452000; -0.019000;,
    -0.018000; 1.228000; -0.016000;,
    -0.027000; 1.228000; -0.003000;,
    -0.027000; 2.452000; -0.003000;,
    -0.018000; 2.452000; -0.016000;,
    -0.039000; 1.228000; -0.003000;,
    -0.039000; 2.452000; -0.003000;,
    -0.039000; 1.228000; -0.003000;,
    -0.039000; 1.228000; 0.001000;,
    -0.039000; 2.452000; 0.001000;,
    -0.039000; 2.452000; -0.003000;,
    0.401000; 2.488000; 0.019000;,
    0.031000; 1.848000; 0.019000;,
    0.031000; 1.848000; 0.009000;,
    0.401000; 2.488000; 0.009000;,
    -0.369000; 2.541000; 0.019000;,
    0.369000; 2.541000; 0.019000;,
    0.369000; 2.541000; 0.009000;,
    -0.369000; 2.541000; 0.009000;,
    -0.031000; 1.848000; 0.019000;,
    -0.401000; 2.488000; 0.019000;,
    -0.401000; 2.488000; 0.009000;,
    -0.031000; 1.848000; 0.009000;,
    0.012000; 1.837000; 0.009000;,
    -0.012000; 1.837000; 0.009000;,
    0.369000; 2.541000; 0.019000;,
    0.401000; 2.488000; 0.019000;,
    0.401000; 2.509000; 0.019000;,
    0.388000; 2.531000; 0.019000;,
    0.388000; 2.531000; 0.019000;,
    0.401000; 2.509000; 0.019000;,
    0.401000; 2.509000; 0.009000;,
    0.388000; 2.531000; 0.009000;,
    0.012000; 1.837000; 0.019000;,
    -0.012000; 1.837000; 0.019000;,
    -0.401000; 2.509000; 0.019000;,
    -0.388000; 2.531000; 0.019000;,
    -0.388000; 2.531000; 0.009000;,
    -0.401000; 2.509000; 0.009000;,
    0.401000; 2.509000; 0.019000;,
    0.401000; 2.488000; 0.019000;,
    0.031000; 1.848000; 0.019000;,
    0.012000; 1.837000; 0.019000;,
    -0.388000; 2.531000; 0.019000;,
    -0.369000; 2.541000; 0.019000;,
    0.369000; 2.541000; 0.019000;,
    0.388000; 2.531000; 0.019000;,
    -0.012000; 1.837000; 0.019000;,
    -0.031000; 1.848000; 0.019000;,
    -0.401000; 2.488000; 0.019000;,
    -0.401000; 2.509000; 0.019000;,
    -0.031000; 1.848000; 0.019000;,
    -0.369000; 2.541000; 0.019000;,
    -0.401000; 2.488000; 0.019000;,
    -0.388000; 2.531000; 0.019000;,
    -0.401000; 2.509000; 0.019000;,
    0.031000; 1.848000; 0.019000;,
    -0.012000; 1.837000; 0.019000;,
    0.012000; 1.837000; 0.019000;;
    74;
    4;0, 1, 2, 3;,
    4;4, 5, 6, 0;,
    4;7, 8, 5, 9;,
    4;10, 11, 8, 12;,
    4;13, 14, 15, 10;,
    4;16, 17, 18, 19;,
    4;20, 16, 21, 22;,
    4;23, 22, 24, 25;,
    4;26, 27, 24, 28;,
    4;29, 26, 30, 31;,
    4;32, 33, 34, 35;,
    4;36, 37, 38, 39;,
    4;39, 38, 40, 41;,
    4;41, 40, 42, 43;,
    4;44, 45, 46, 47;,
    4;48, 49, 50, 51;,
    4;52, 53, 54, 55;,
    4;55, 54, 56, 57;,
    4;58, 59, 60, 61;,
    4;62, 63, 64, 65;,
    4;65, 64, 66, 67;,
    4;68, 69, 70, 71;,
    4;35, 34, 37, 36;,
    4;43, 42, 45, 44;,
    4;57, 56, 59, 58;,
    4;61, 60, 63, 62;,
    4;72, 73, 74, 75;,
    4;76, 77, 78, 79;,
    4;77, 80, 81, 78;,
    4;80, 82, 83, 81;,
    4;84, 85, 86, 87;,
    4;88, 89, 90, 91;,
    4;92, 93, 94, 95;,
    4;93, 96, 97, 94;,
    4;98, 99, 100, 101;,
    4;102, 103, 104, 105;,
    4;103, 106, 107, 104;,
    4;108, 109, 110, 111;,
    4;73, 76, 79, 74;,
    4;82, 84, 87, 83;,
    4;96, 98, 101, 97;,
    4;99, 102, 105, 100;,
    4;112, 113, 114, 115;,
    4;116, 117, 118, 119;,
    4;120, 121, 122, 123;,
    4;123, 114, 124, 125;,
    4;126, 127, 128, 129;,
    4;130, 131, 132, 133;,
    4;125, 124, 134, 135;,
    4;136, 137, 138, 139;,
    4;140, 141, 115, 132;,
    4;124, 114, 142, 143;,
    4;144, 145, 119, 138;,
    4;146, 147, 133, 118;,
    4;123, 125, 148, 149;,
    4;150, 151, 139, 122;,
    4;152, 127, 153, 154;,
    4;154, 153, 155, 156;,
    4;157, 152, 158, 159;,
    4;115, 118, 133, 132;,
    4;119, 122, 139, 138;,
    4;122, 118, 114, 123;,
    3;1, 0, 6;,
    3;11, 10, 15;,
    3;5, 4, 9;,
    3;8, 7, 12;,
    3;21, 16, 19;,
    3;30, 26, 28;,
    3;20, 22, 23;,
    3;25, 24, 27;,
    3;152, 157, 127;,
    3;126, 153, 127;,
    3;122, 119, 118;,
    3;115, 114, 118;;

   MeshNormals {
    160;
    0.000000; -1.000000; 0.000000;,
    0.000000; -1.000000; 0.000000;,
    0.000000; -1.000000; 0.000000;,
    0.000000; -1.000000; 0.000000;,
    0.000000; -1.000000; 0.000000;,
    0.000000; -1.000000; 0.000000;,
    0.000000; -1.000000; 0.000000;,
    0.000000; -1.000000; 0.000000;,
    0.000000; -1.000000; 0.000000;,
    0.000000; -1.000000; 0.000000;,
    0.000000; -1.000000; 0.000000;,
    0.000000; -1.000000; 0.000000;,
    0.000000; -1.000000; 0.000000;,
    0.000000; -1.000000; 0.000000;,
    0.000000; -1.000000; 0.000000;,
    0.000000; -1.000000; 0.000000;,
    0.000000; 1.000000; 0.000000;,
    0.000000; 1.000000; 0.000000;,
    0.000000; 1.000000; 0.000000;,
    0.000000; 1.000000; 0.000000;,
    0.000000; 1.000000; 0.000000;,
    0.000000; 1.000000; 0.000000;,
    0.000000; 1.000000; 0.000000;,
    0.000000; 1.000000; 0.000000;,
    0.000000; 1.000000; 0.000000;,
    0.000000; 1.000000; 0.000000;,
    0.000000; 1.000000; 0.000000;,
    0.000000; 1.000000; 0.000000;,
    0.000000; 1.000000; 0.000000;,
    0.000000; 1.000000; 0.000000;,
    0.000000; 1.000000; 0.000000;,
    0.000000; 1.000000; 0.000000;,
    0.000000; 0.000000; 1.000000;,
    0.000000; 0.000000; 1.000000;,
    0.266934; 0.000000; 0.963715;,
    0.266934; 0.000000; 0.963715;,
    0.683711; 0.000000; 0.729753;,
    0.683711; 0.000000; 0.729753;,
    0.464107; 0.000000; 0.885779;,
    0.464107; 0.000000; 0.885779;,
    -0.464107; 0.000000; 0.885779;,
    -0.464107; 0.000000; 0.885779;,
    -0.683711; 0.000000; 0.729753;,
    -0.683711; 0.000000; 0.729753;,
    -0.266934; 0.000000; 0.963715;,
    -0.266934; 0.000000; 0.963715;,
    0.000000; 0.000000; 1.000000;,
    0.000000; 0.000000; 1.000000;,
    1.000000; 0.000000; 0.000000;,
    1.000000; 0.000000; 0.000000;,
    1.000000; 0.000000; 0.000000;,
    1.000000; 0.000000; 0.000000;,
    0.000000; 0.000000; -1.000000;,
    0.000000; 0.000000; -1.000000;,
    0.464107; 0.000000; -0.885779;,
    0.464107; 0.000000; -0.885779;,
    0.683711; 0.000000; -0.729753;,
    0.683711; 0.000000; -0.729753;,
    0.266934; 0.000000; -0.963715;,
    0.266934; 0.000000; -0.963715;,
    -0.266934; 0.000000; -0.963715;,
    -0.266934; 0.000000; -0.963715;,
    -0.683711; 0.000000; -0.729753;,
    -0.683711; 0.000000; -0.729753;,
    -0.464107; 0.000000; -0.885779;,
    -0.464107; 0.000000; -0.885779;,
    0.000000; 0.000000; -1.000000;,
    0.000000; 0.000000; -1.000000;,
    -1.000000; 0.000000; 0.000000;,
    -1.000000; 0.000000; 0.000000;,
    -1.000000; 0.000000; 0.000000;,
    -1.000000; 0.000000; 0.000000;,
    0.000000; 0.000000; 1.000000;,
    0.266934; 0.000000; 0.963715;,
    0.266934; 0.000000; 0.963715;,
    0.000000; 0.000000; 1.000000;,
    0.683711; 0.000000; 0.729753;,
    0.464107; 0.000000; 0.885779;,
    0.464107; 0.000000; 0.885779;,
    0.683711; 0.000000; 0.729753;,
    -0.464107; 0.000000; 0.885779;,
    -0.464107; 0.000000; 0.885779;,
    -0.683711; 0.000000; 0.729753;,
    -0.683711; 0.000000; 0.729753;,
    -0.266934; 0.000000; 0.963715;,
    0.000000; 0.000000; 1.000000;,
    0.000000; 0.000000; 1.000000;,
    -0.266934; 0.000000; 0.963715;,
    1.000000; 0.000000; 0.000000;,
    1.000000; 0.000000; 0.000000;,
    1.000000; 0.000000; 0.000000;,
    1.000000; 0.000000; 0.000000;,
    0.000000; 0.000000; -1.000000;,
    0.464107; 0.000000; -0.885779;,
    0.464107; 0.000000; -0.885779;,
    0.000000; 0.000000; -1.000000;,
    0.683711; 0.000000; -0.729753;,
    0.683711; 0.000000; -0.729753;,
    0.266934; 0.000000; -0.963715;,
    -0.266934; 0.000000; -0.963715;,
    -0.266934; 0.000000; -0.963715;,
    0.266934; 0.000000; -0.963715;,
    -0.683711; 0.000000; -0.729753;,
    -0.464107; 0.000000; -0.885779;,
    -0.464107; 0.000000; -0.885779;,
    -0.683711; 0.000000; -0.729753;,
    0.000000; 0.000000; -1.000000;,
    0.000000; 0.000000; -1.000000;,
    -1.000000; 0.000000; 0.000000;,
    -1.000000; 0.000000; 0.000000;,
    -1.000000; 0.000000; 0.000000;,
    -1.000000; 0.000000; 0.000000;,
    0.865735; -0.500503; 0.000000;,
    0.865735; -0.500503; 0.000000;,
    0.383016; -0.382779; -0.840701;,
    0.670994; -0.180001; -0.719282;,
    0.000000; 1.000000; 0.000000;,
    0.000000; 1.000000; 0.000000;,
    0.104748; 0.423927; -0.899619;,
    -0.167087; 0.676218; -0.717504;,
    -0.865735; -0.500503; 0.000000;,
    -0.865735; -0.500503; 0.000000;,
    -0.522890; -0.140271; -0.840779;,
    -0.491472; -0.491169; -0.719172;,
    0.230357; -0.857646; -0.459759;,
    -0.230357; -0.857646; -0.459759;,
    0.000000; 0.000000; 1.000000;,
    0.000000; 0.000000; 1.000000;,
    0.000000; 0.000000; 1.000000;,
    0.000000; 0.000000; 1.000000;,
    0.860925; 0.508732; 0.000000;,
    0.860925; 0.508732; 0.000000;,
    0.856392; 0.234117; -0.460197;,
    0.611797; 0.642685; -0.461152;,
    0.000000; -1.000000; 0.000000;,
    0.000000; -1.000000; 0.000000;,
    -0.860925; 0.508732; 0.000000;,
    -0.860925; 0.508732; 0.000000;,
    -0.611797; 0.642685; -0.461152;,
    -0.856392; 0.234117; -0.460197;,
    1.000000; 0.000000; 0.000000;,
    1.000000; 0.000000; 0.000000;,
    0.501038; -0.865426; 0.000000;,
    0.501038; -0.865426; 0.000000;,
    -0.465746; 0.884919; 0.000000;,
    -0.465746; 0.884919; 0.000000;,
    0.465746; 0.884919; 0.000000;,
    0.465746; 0.884919; 0.000000;,
    -0.501038; -0.865426; 0.000000;,
    -0.501038; -0.865426; 0.000000;,
    -1.000000; 0.000000; 0.000000;,
    -1.000000; 0.000000; 0.000000;,
    0.000000; 0.000000; 1.000000;,
    0.000000; 0.000000; 1.000000;,
    0.000000; 0.000000; 1.000000;,
    0.000000; 0.000000; 1.000000;,
    0.000000; 0.000000; 1.000000;,
    0.000000; 0.000000; 1.000000;,
    0.000000; 0.000000; 1.000000;,
    0.000000; 0.000000; 1.000000;;
    74;
    4;0, 1, 2, 3;,
    4;4, 5, 6, 0;,
    4;7, 8, 5, 9;,
    4;10, 11, 8, 12;,
    4;13, 14, 15, 10;,
    4;16, 17, 18, 19;,
    4;20, 16, 21, 22;,
    4;23, 22, 24, 25;,
    4;26, 27, 24, 28;,
    4;29, 26, 30, 31;,
    4;32, 33, 34, 35;,
    4;36, 37, 38, 39;,
    4;39, 38, 40, 41;,
    4;41, 40, 42, 43;,
    4;44, 45, 46, 47;,
    4;48, 49, 50, 51;,
    4;52, 53, 54, 55;,
    4;55, 54, 56, 57;,
    4;58, 59, 60, 61;,
    4;62, 63, 64, 65;,
    4;65, 64, 66, 67;,
    4;68, 69, 70, 71;,
    4;35, 34, 37, 36;,
    4;43, 42, 45, 44;,
    4;57, 56, 59, 58;,
    4;61, 60, 63, 62;,
    4;72, 73, 74, 75;,
    4;76, 77, 78, 79;,
    4;77, 80, 81, 78;,
    4;80, 82, 83, 81;,
    4;84, 85, 86, 87;,
    4;88, 89, 90, 91;,
    4;92, 93, 94, 95;,
    4;93, 96, 97, 94;,
    4;98, 99, 100, 101;,
    4;102, 103, 104, 105;,
    4;103, 106, 107, 104;,
    4;108, 109, 110, 111;,
    4;73, 76, 79, 74;,
    4;82, 84, 87, 83;,
    4;96, 98, 101, 97;,
    4;99, 102, 105, 100;,
    4;112, 113, 114, 115;,
    4;116, 117, 118, 119;,
    4;120, 121, 122, 123;,
    4;123, 114, 124, 125;,
    4;126, 127, 128, 129;,
    4;130, 131, 132, 133;,
    4;125, 124, 134, 135;,
    4;136, 137, 138, 139;,
    4;140, 141, 115, 132;,
    4;124, 114, 142, 143;,
    4;144, 145, 119, 138;,
    4;146, 147, 133, 118;,
    4;123, 125, 148, 149;,
    4;150, 151, 139, 122;,
    4;152, 127, 153, 154;,
    4;154, 153, 155, 156;,
    4;157, 152, 158, 159;,
    4;115, 118, 133, 132;,
    4;119, 122, 139, 138;,
    4;122, 118, 114, 123;,
    3;1, 0, 6;,
    3;11, 10, 15;,
    3;5, 4, 9;,
    3;8, 7, 12;,
    3;21, 16, 19;,
    3;30, 26, 28;,
    3;20, 22, 23;,
    3;25, 24, 27;,
    3;152, 157, 127;,
    3;126, 153, 127;,
    3;122, 119, 118;,
    3;115, 114, 118;;
   }

   MeshTextureCoords {
    160;
    0.461000; 0.522000;,
    0.442000; 0.528000;,
    0.442000; 0.546000;,
    0.465000; 0.546000;,
    0.465000; 0.502000;,
    0.446000; 0.499000;,
    0.442000; 0.519000;,
    0.465000; 0.478000;,
    0.446000; 0.475000;,
    0.465000; 0.496000;,
    0.461000; 0.451000;,
    0.442000; 0.455000;,
    0.465000; 0.471000;,
    0.465000; 0.427000;,
    0.442000; 0.427000;,
    0.442000; 0.446000;,
    0.430000; 0.522000;,
    0.434000; 0.546000;,
    0.410000; 0.546000;,
    0.410000; 0.528000;,
    0.434000; 0.502000;,
    0.410000; 0.519000;,
    0.415000; 0.499000;,
    0.434000; 0.496000;,
    0.415000; 0.475000;,
    0.434000; 0.478000;,
    0.430000; 0.451000;,
    0.434000; 0.471000;,
    0.410000; 0.455000;,
    0.434000; 0.427000;,
    0.410000; 0.446000;,
    0.410000; 0.427000;,
    0.303000; -0.001000;,
    0.303000; 0.997000;,
    0.314000; 0.997000;,
    0.314000; -0.001000;,
    0.332000; -0.001000;,
    0.332000; 0.997000;,
    0.340000; 0.997000;,
    0.340000; -0.001000;,
    0.362000; 0.997000;,
    0.362000; -0.001000;,
    0.370000; 0.997000;,
    0.370000; -0.001000;,
    0.388000; -0.001000;,
    0.388000; 0.997000;,
    0.399000; 0.997000;,
    0.399000; -0.001000;,
    0.211000; -0.001000;,
    0.211000; 0.997000;,
    0.207000; 0.997000;,
    0.207000; -0.001000;,
    0.299000; -0.001000;,
    0.299000; 0.997000;,
    0.287000; 0.997000;,
    0.287000; -0.001000;,
    0.270000; 0.997000;,
    0.270000; -0.001000;,
    0.265000; -0.001000;,
    0.265000; 0.997000;,
    0.245000; 0.997000;,
    0.245000; -0.001000;,
    0.240000; -0.001000;,
    0.240000; 0.997000;,
    0.223000; 0.997000;,
    0.223000; -0.001000;,
    0.211000; 0.997000;,
    0.211000; -0.001000;,
    0.303000; -0.001000;,
    0.303000; 0.997000;,
    0.299000; 0.997000;,
    0.299000; -0.001000;,
    0.099000; 0.996000;,
    0.110000; 0.996000;,
    0.110000; 0.001000;,
    0.099000; 0.001000;,
    0.128000; 0.996000;,
    0.136000; 0.996000;,
    0.136000; 0.001000;,
    0.128000; 0.001000;,
    0.158000; 0.996000;,
    0.158000; 0.001000;,
    0.166000; 0.996000;,
    0.166000; 0.001000;,
    0.185000; 0.996000;,
    0.195000; 0.996000;,
    0.195000; 0.001000;,
    0.185000; 0.001000;,
    0.007000; 0.996000;,
    0.003000; 0.996000;,
    0.003000; 0.001000;,
    0.007000; 0.001000;,
    0.095000; 0.996000;,
    0.083000; 0.996000;,
    0.083000; 0.001000;,
    0.095000; 0.001000;,
    0.066000; 0.996000;,
    0.066000; 0.001000;,
    0.061000; 0.996000;,
    0.041000; 0.996000;,
    0.041000; 0.001000;,
    0.061000; 0.001000;,
    0.036000; 0.996000;,
    0.019000; 0.996000;,
    0.019000; 0.001000;,
    0.036000; 0.001000;,
    0.007000; 0.996000;,
    0.007000; 0.001000;,
    0.099000; 0.996000;,
    0.095000; 0.996000;,
    0.095000; 0.001000;,
    0.099000; 0.001000;,
    0.977000; 0.594000;,
    0.753000; 0.986000;,
    0.744000; 0.984000;,
    0.969000; 0.592000;,
    0.503000; 0.552000;,
    0.947000; 0.552000;,
    0.949000; 0.560000;,
    0.502000; 0.560000;,
    0.702000; 0.986000;,
    0.478000; 0.595000;,
    0.483000; 0.592000;,
    0.707000; 0.984000;,
    0.733000; 0.990000;,
    0.718000; 0.990000;,
    0.961000; 0.016000;,
    0.982000; 0.053000;,
    0.982000; 0.038000;,
    0.974000; 0.024000;,
    0.967000; 0.563000;,
    0.974000; 0.575000;,
    0.969000; 0.580000;,
    0.961000; 0.567000;,
    0.733000; 0.996000;,
    0.719000; 0.996000;,
    0.478000; 0.576000;,
    0.485000; 0.564000;,
    0.491000; 0.567000;,
    0.483000; 0.580000;,
    0.976000; 0.581000;,
    0.976000; 0.593000;,
    0.746000; 0.990000;,
    0.736000; 0.996000;,
    0.487000; 0.559000;,
    0.498000; 0.553000;,
    0.952000; 0.552000;,
    0.962000; 0.558000;,
    0.714000; 0.994000;,
    0.704000; 0.988000;,
    0.476000; 0.592000;,
    0.476000; 0.581000;,
    0.684000; 0.496000;,
    0.449000; 0.016000;,
    0.428000; 0.053000;,
    0.436000; 0.024000;,
    0.428000; 0.038000;,
    0.727000; 0.496000;,
    0.697000; 0.504000;,
    0.714000; 0.504000;;
   }

   FVFData {
    258;
    320;
    0,
    1065353216,
    0,
    1065353216,
    0,
    1065353216,
    0,
    1065353216,
    0,
    1065353216,
    0,
    1065353216,
    0,
    1065353216,
    0,
    1065353216,
    0,
    1065353216,
    0,
    1065353216,
    0,
    1065353216,
    0,
    1065353216,
    0,
    1065353216,
    0,
    1065353216,
    0,
    1065353216,
    0,
    1065353216,
    0,
    1065353216,
    0,
    1065353216,
    0,
    1065353216,
    0,
    1065353216,
    0,
    1065353216,
    0,
    1065353216,
    0,
    1065353216,
    0,
    1065353216,
    0,
    1065353216,
    0,
    1065353216,
    0,
    1065353216,
    0,
    1065353216,
    0,
    1065353216,
    0,
    1065353216,
    0,
    1065353216,
    0,
    1065353216,
    0,
    1065353216,
    0,
    1065353216,
    0,
    1065353216,
    0,
    1065353216,
    0,
    1065353216,
    0,
    1065353216,
    0,
    1065353216,
    0,
    1065353216,
    0,
    1065353216,
    0,
    1065353216,
    0,
    1065353216,
    0,
    1065353216,
    0,
    1065353216,
    0,
    1065353216,
    0,
    1065353216,
    0,
    1065353216,
    0,
    1065353216,
    0,
    1065353216,
    0,
    1065353216,
    0,
    1065353216,
    0,
    1065353216,
    0,
    1065353216,
    0,
    1065353216,
    0,
    1065353216,
    0,
    1065353216,
    0,
    1065353216,
    0,
    1065353216,
    0,
    1065353216,
    0,
    1065353216,
    0,
    1065353216,
    0,
    1065353216,
    0,
    1065353216,
    0,
    1065353216,
    0,
    1065353216,
    0,
    1065353216,
    0,
    1065353216,
    0,
    1065353216,
    0,
    1065353216,
    0,
    1065353216,
    0,
    1065353216,
    0,
    1065353216,
    0,
    1065353216,
    0,
    1065353216,
    0,
    1065353216,
    0,
    1065353216,
    0,
    1065353216,
    0,
    1065353216,
    0,
    1065353216,
    0,
    1065353216,
    0,
    1065353216,
    0,
    1065353216,
    0,
    1065353216,
    0,
    1065353216,
    0,
    1065353216,
    0,
    1065353216,
    0,
    1065353216,
    0,
    1065353216,
    0,
    1065353216,
    0,
    1065353216,
    0,
    1065353216,
    0,
    1065353216,
    0,
    1065353216,
    0,
    1065353216,
    0,
    1065353216,
    0,
    1065353216,
    0,
    1065353216,
    0,
    1065353216,
    0,
    1065353216,
    0,
    1065353216,
    0,
    1065353216,
    0,
    1065353216,
    0,
    1065353216,
    0,
    1065353216,
    0,
    1065353216,
    0,
    1065353216,
    0,
    1065353216,
    0,
    1065353216,
    0,
    1065353216,
    0,
    1065353216,
    0,
    1065353216,
    0,
    1065353216,
    0,
    1065353216,
    0,
    1065353216,
    0,
    1065353216,
    0,
    1065353216,
    0,
    1065353216,
    0,
    1065353216,
    0,
    1065353216,
    0,
    1065353216,
    0,
    1065353216,
    0,
    1065353216,
    0,
    1065353216,
    0,
    1065353216,
    0,
    1065353216,
    0,
    1065353216,
    0,
    1065353216,
    0,
    1065353216,
    0,
    1065353216,
    0,
    1065353216,
    0,
    1065353216,
    0,
    1065353216,
    0,
    1065353216,
    0,
    1065353216,
    0,
    1065353216,
    0,
    1065353216,
    0,
    1065353216,
    0,
    1065353216,
    0,
    1065353216,
    0,
    1065353216,
    0,
    1065353216,
    0,
    1065353216,
    0,
    1065353216,
    0,
    1065353216,
    0,
    1065353216,
    0,
    1065353216,
    0,
    1065353216,
    0,
    1065353216,
    0,
    1065353216,
    0,
    1065353216,
    0,
    1065353216,
    0,
    1065353216,
    0,
    1065353216,
    0,
    1065353216,
    0,
    1065353216,
    0,
    1065353216,
    0,
    1065353216,
    0,
    1065353216,
    0,
    1065353216;
   }

   MeshMaterialList {
    1;
    74;
    0,
    0,
    0,
    0,
    0,
    0,
    0,
    0,
    0,
    0,
    0,
    0,
    0,
    0,
    0,
    0,
    0,
    0,
    0,
    0,
    0,
    0,
    0,
    0,
    0,
    0,
    0,
    0,
    0,
    0,
    0,
    0,
    0,
    0,
    0,
    0,
    0,
    0,
    0,
    0,
    0,
    0,
    0,
    0,
    0,
    0,
    0,
    0,
    0,
    0,
    0,
    0,
    0,
    0,
    0,
    0,
    0,
    0,
    0,
    0,
    0,
    0,
    0,
    0,
    0,
    0,
    0,
    0,
    0,
    0,
    0,
    0,
    0,
    0;

    Material yieldsign_Smoothing {
     0.588000; 0.588000; 0.588000; 1.000000;;
     128.000000;
     0.000000; 0.000000; 0.000000;;
     0.000000; 0.000000; 0.000000;;

     TextureFilename {
      "D:\\new packs\\test\\signyield_diffuse.tga";
     }
    }

   }
  }
}
