xof 0303txt 0032

// DirectX 8.0 file
// Creator: Ultimate Unwrap3D Pro v3.27
// Website: http://www.unwrap3d.com
// Time: Fri Jun 01 18:50:00 2012

// Start of Templates

template VertexDuplicationIndices {
 <b8d65549-d7c9-4995-89cf-53a9a8b031e3>
 DWORD nIndices;
 DWORD nOriginalVertices;
 array DWORD indices[nIndices];
}

template FVFData {
 <b6e70a0e-8ef9-4e83-94ad-ecc8b0c04897>
 DWORD dwFVF;
 DWORD nDWords;
 array DWORD data[nDWords];
}

template XSkinMeshHeader {
 <3CF169CE-FF7C-44ab-93C0-F78F62D172E2>
 WORD nMaxSkinWeightsPerVertex;
 WORD nMaxSkinWeightsPerFace;
 WORD nBones;
}

template SkinWeights {
 <6F0D123B-BAD2-4167-A0D0-80224F25FABB>
 STRING transformNodeName;
 DWORD nWeights;
 array DWORD vertexIndices[nWeights];
 array FLOAT weights[nWeights];
 Matrix4x4 matrixOffset;
}

template AnimTicksPerSecond {
 <9E415A43-7BA6-4a73-8743-B73D47E88476>
 DWORD AnimTicksPerSecond;
}

// Start of Frames

Frame signstop {
   FrameTransformMatrix {
    1.000000, 0.000000, 0.000000, 0.000000,
    0.000000, 1.000000, 0.000000, 0.000000,
    0.000000, 0.000000, 1.000000, 0.000000,
    0.000000, 0.000000, 0.000000, 1.000000;;
   }

   Mesh signstop {
    144;
    0.369500; 2.403000; 0.015500;,
    0.369500; 2.097000; 0.015500;,
    0.369500; 2.097000; 0.004500;,
    0.369500; 2.403000; 0.004500;,
    0.153500; 2.619000; 0.015500;,
    0.369500; 2.403000; 0.015500;,
    0.153500; 2.619000; 0.004500;,
    -0.152500; 2.619000; 0.015500;,
    0.153500; 2.619000; 0.015500;,
    -0.152500; 2.619000; 0.004500;,
    -0.369500; 2.403000; 0.015500;,
    -0.152500; 2.619000; 0.015500;,
    -0.369500; 2.403000; 0.004500;,
    -0.369500; 2.097000; 0.015500;,
    -0.369500; 2.403000; 0.015500;,
    -0.369500; 2.097000; 0.004500;,
    -0.152500; 1.880000; 0.015500;,
    -0.369500; 2.097000; 0.015500;,
    -0.152500; 1.880000; 0.004500;,
    0.153500; 1.880000; 0.015500;,
    -0.152500; 1.880000; 0.015500;,
    0.153500; 1.880000; 0.004500;,
    0.369500; 2.097000; 0.015500;,
    0.153500; 1.880000; 0.015500;,
    -0.152500; 2.619000; 0.015500;,
    0.153500; 1.880000; 0.015500;,
    0.369500; 2.403000; 0.015500;,
    0.153500; 2.619000; 0.015500;,
    -0.369500; 2.097000; 0.015500;,
    -0.369500; 2.403000; 0.015500;,
    -0.025500; -0.000000; 0.000500;,
    -0.026500; -0.000000; 0.004500;,
    -0.037500; -0.000000; 0.004500;,
    -0.037500; -0.000000; 0.000500;,
    -0.016500; -0.000000; -0.012500;,
    -0.012500; -0.000000; -0.011500;,
    -0.021500; -0.000000; 0.001500;,
    0.010500; -0.000000; -0.015500;,
    0.011500; -0.000000; -0.011500;,
    -0.011500; -0.000000; -0.015500;,
    0.024500; -0.000000; 0.000500;,
    0.020500; -0.000000; 0.001500;,
    0.015500; -0.000000; -0.012500;,
    0.037500; -0.000000; 0.000500;,
    0.037500; -0.000000; 0.004500;,
    0.025500; -0.000000; 0.004500;,
    -0.025500; 2.452000; 0.000500;,
    -0.037500; 2.452000; 0.000500;,
    -0.037500; 2.452000; 0.004500;,
    -0.026500; 2.452000; 0.004500;,
    -0.016500; 2.452000; -0.012500;,
    -0.021500; 2.452000; 0.001500;,
    -0.012500; 2.452000; -0.011500;,
    -0.011500; 2.452000; -0.015500;,
    0.011500; 2.452000; -0.011500;,
    0.010500; 2.452000; -0.015500;,
    0.024500; 2.452000; 0.000500;,
    0.015500; 2.452000; -0.012500;,
    0.020500; 2.452000; 0.001500;,
    0.037500; 2.452000; 0.000500;,
    0.025500; 2.452000; 0.004500;,
    0.037500; 2.452000; 0.004500;,
    -0.037500; 1.228000; 0.004500;,
    -0.037500; -0.000000; 0.004500;,
    -0.026500; -0.000000; 0.004500;,
    -0.026500; 1.228000; 0.004500;,
    -0.021500; 1.228000; 0.001500;,
    -0.021500; -0.000000; 0.001500;,
    -0.012500; -0.000000; -0.011500;,
    -0.012500; 1.228000; -0.011500;,
    0.011500; -0.000000; -0.011500;,
    0.011500; 1.228000; -0.011500;,
    0.020500; -0.000000; 0.001500;,
    0.020500; 1.228000; 0.001500;,
    0.025500; 1.228000; 0.004500;,
    0.025500; -0.000000; 0.004500;,
    0.037500; -0.000000; 0.004500;,
    0.037500; 1.228000; 0.004500;,
    0.037500; 1.228000; 0.004500;,
    0.037500; -0.000000; 0.004500;,
    0.037500; -0.000000; 0.000500;,
    0.037500; 1.228000; 0.000500;,
    0.037500; 1.228000; 0.000500;,
    0.037500; -0.000000; 0.000500;,
    0.024500; -0.000000; 0.000500;,
    0.024500; 1.228000; 0.000500;,
    0.015500; -0.000000; -0.012500;,
    0.015500; 1.228000; -0.012500;,
    0.010500; 1.228000; -0.015500;,
    0.010500; -0.000000; -0.015500;,
    -0.011500; -0.000000; -0.015500;,
    -0.011500; 1.228000; -0.015500;,
    -0.016500; 1.228000; -0.012500;,
    -0.016500; -0.000000; -0.012500;,
    -0.025500; -0.000000; 0.000500;,
    -0.025500; 1.228000; 0.000500;,
    -0.037500; -0.000000; 0.000500;,
    -0.037500; 1.228000; 0.000500;,
    -0.037500; 1.228000; 0.000500;,
    -0.037500; -0.000000; 0.000500;,
    -0.037500; -0.000000; 0.004500;,
    -0.037500; 1.228000; 0.004500;,
    -0.037500; 1.228000; 0.004500;,
    -0.026500; 1.228000; 0.004500;,
    -0.026500; 2.452000; 0.004500;,
    -0.037500; 2.452000; 0.004500;,
    -0.021500; 1.228000; 0.001500;,
    -0.012500; 1.228000; -0.011500;,
    -0.012500; 2.452000; -0.011500;,
    -0.021500; 2.452000; 0.001500;,
    0.011500; 1.228000; -0.011500;,
    0.011500; 2.452000; -0.011500;,
    0.020500; 1.228000; 0.001500;,
    0.020500; 2.452000; 0.001500;,
    0.025500; 1.228000; 0.004500;,
    0.037500; 1.228000; 0.004500;,
    0.037500; 2.452000; 0.004500;,
    0.025500; 2.452000; 0.004500;,
    0.037500; 1.228000; 0.004500;,
    0.037500; 1.228000; 0.000500;,
    0.037500; 2.452000; 0.000500;,
    0.037500; 2.452000; 0.004500;,
    0.037500; 1.228000; 0.000500;,
    0.024500; 1.228000; 0.000500;,
    0.024500; 2.452000; 0.000500;,
    0.037500; 2.452000; 0.000500;,
    0.015500; 1.228000; -0.012500;,
    0.015500; 2.452000; -0.012500;,
    0.010500; 1.228000; -0.015500;,
    -0.011500; 1.228000; -0.015500;,
    -0.011500; 2.452000; -0.015500;,
    0.010500; 2.452000; -0.015500;,
    -0.016500; 1.228000; -0.012500;,
    -0.025500; 1.228000; 0.000500;,
    -0.025500; 2.452000; 0.000500;,
    -0.016500; 2.452000; -0.012500;,
    -0.037500; 1.228000; 0.000500;,
    -0.037500; 2.452000; 0.000500;,
    -0.037500; 1.228000; 0.000500;,
    -0.037500; 1.228000; 0.004500;,
    -0.037500; 2.452000; 0.004500;,
    -0.037500; 2.452000; 0.000500;,
    -0.152500; 1.880000; 0.015500;,
    0.369500; 2.097000; 0.015500;;
    66;
    4;0, 1, 2, 3;,
    4;4, 5, 3, 6;,
    4;7, 8, 6, 9;,
    4;10, 11, 9, 12;,
    4;13, 14, 12, 15;,
    4;16, 17, 15, 18;,
    4;19, 20, 18, 21;,
    4;22, 23, 21, 2;,
    4;12, 2, 18, 15;,
    4;6, 2, 12, 9;,
    4;24, 25, 26, 27;,
    4;28, 25, 24, 29;,
    4;30, 31, 32, 33;,
    4;34, 35, 36, 30;,
    4;37, 38, 35, 39;,
    4;40, 41, 38, 42;,
    4;43, 44, 45, 40;,
    4;46, 47, 48, 49;,
    4;50, 46, 51, 52;,
    4;53, 52, 54, 55;,
    4;56, 57, 54, 58;,
    4;59, 56, 60, 61;,
    4;62, 63, 64, 65;,
    4;66, 67, 68, 69;,
    4;69, 68, 70, 71;,
    4;71, 70, 72, 73;,
    4;74, 75, 76, 77;,
    4;78, 79, 80, 81;,
    4;82, 83, 84, 85;,
    4;85, 84, 86, 87;,
    4;88, 89, 90, 91;,
    4;92, 93, 94, 95;,
    4;95, 94, 96, 97;,
    4;98, 99, 100, 101;,
    4;65, 64, 67, 66;,
    4;73, 72, 75, 74;,
    4;87, 86, 89, 88;,
    4;91, 90, 93, 92;,
    4;102, 103, 104, 105;,
    4;106, 107, 108, 109;,
    4;107, 110, 111, 108;,
    4;110, 112, 113, 111;,
    4;114, 115, 116, 117;,
    4;118, 119, 120, 121;,
    4;122, 123, 124, 125;,
    4;123, 126, 127, 124;,
    4;128, 129, 130, 131;,
    4;132, 133, 134, 135;,
    4;133, 136, 137, 134;,
    4;138, 139, 140, 141;,
    4;103, 106, 109, 104;,
    4;112, 114, 117, 113;,
    4;126, 128, 131, 127;,
    4;129, 132, 135, 130;,
    3;6, 3, 2;,
    3;21, 18, 2;,
    3;28, 142, 25;,
    3;143, 26, 25;,
    3;31, 30, 36;,
    3;41, 40, 45;,
    3;35, 34, 39;,
    3;38, 37, 42;,
    3;51, 46, 49;,
    3;60, 56, 58;,
    3;50, 52, 53;,
    3;55, 54, 57;;

   MeshNormals {
    144;
    1.000000; 0.000000; 0.000000;,
    1.000000; 0.000000; 0.000000;,
    0.387774; -0.160097; -0.907744;,
    0.812520; 0.336557; -0.475963;,
    0.707107; 0.707107; 0.000000;,
    0.707107; 0.707107; 0.000000;,
    0.259688; 0.626943; -0.734510;,
    0.000000; 1.000000; 0.000000;,
    0.000000; 1.000000; 0.000000;,
    -0.335655; 0.812996; -0.475787;,
    -0.705472; 0.708738; 0.000000;,
    -0.705472; 0.708738; 0.000000;,
    -0.626481; 0.260345; -0.734672;,
    -1.000000; 0.000000; 0.000000;,
    -1.000000; 0.000000; 0.000000;,
    -0.812520; -0.336557; -0.475963;,
    -0.707107; -0.707107; 0.000000;,
    -0.707107; -0.707107; 0.000000;,
    -0.259688; -0.626943; -0.734510;,
    0.000000; -1.000000; 0.000000;,
    0.000000; -1.000000; 0.000000;,
    0.337458; -0.812043; -0.476140;,
    0.708738; -0.705472; 0.000000;,
    0.708738; -0.705472; 0.000000;,
    0.000000; 0.000000; 1.000000;,
    0.000000; 0.000000; 1.000000;,
    0.000000; 0.000000; 1.000000;,
    0.000000; 0.000000; 1.000000;,
    0.000000; 0.000000; 1.000000;,
    0.000000; 0.000000; 1.000000;,
    0.000000; -1.000000; 0.000000;,
    0.000000; -1.000000; 0.000000;,
    0.000000; -1.000000; 0.000000;,
    0.000000; -1.000000; 0.000000;,
    0.000000; -1.000000; 0.000000;,
    0.000000; -1.000000; 0.000000;,
    0.000000; -1.000000; 0.000000;,
    0.000000; -1.000000; 0.000000;,
    0.000000; -1.000000; 0.000000;,
    0.000000; -1.000000; 0.000000;,
    0.000000; -1.000000; 0.000000;,
    0.000000; -1.000000; 0.000000;,
    0.000000; -1.000000; 0.000000;,
    0.000000; -1.000000; 0.000000;,
    0.000000; -1.000000; 0.000000;,
    0.000000; -1.000000; 0.000000;,
    0.000000; 1.000000; 0.000000;,
    0.000000; 1.000000; 0.000000;,
    0.000000; 1.000000; 0.000000;,
    0.000000; 1.000000; 0.000000;,
    0.000000; 1.000000; 0.000000;,
    0.000000; 1.000000; 0.000000;,
    0.000000; 1.000000; 0.000000;,
    0.000000; 1.000000; 0.000000;,
    0.000000; 1.000000; 0.000000;,
    0.000000; 1.000000; 0.000000;,
    0.000000; 1.000000; 0.000000;,
    0.000000; 1.000000; 0.000000;,
    0.000000; 1.000000; 0.000000;,
    0.000000; 1.000000; 0.000000;,
    0.000000; 1.000000; 0.000000;,
    0.000000; 1.000000; 0.000000;,
    0.000000; 0.000000; 1.000000;,
    0.000000; 0.000000; 1.000000;,
    0.266934; 0.000000; 0.963715;,
    0.266934; 0.000000; 0.963715;,
    0.683711; 0.000000; 0.729753;,
    0.683711; 0.000000; 0.729753;,
    0.464107; 0.000000; 0.885779;,
    0.464107; 0.000000; 0.885779;,
    -0.464107; 0.000000; 0.885779;,
    -0.464107; 0.000000; 0.885779;,
    -0.683711; 0.000000; 0.729753;,
    -0.683711; 0.000000; 0.729753;,
    -0.266934; 0.000000; 0.963715;,
    -0.266934; 0.000000; 0.963715;,
    0.000000; 0.000000; 1.000000;,
    0.000000; 0.000000; 1.000000;,
    1.000000; 0.000000; 0.000000;,
    1.000000; 0.000000; 0.000000;,
    1.000000; 0.000000; 0.000000;,
    1.000000; 0.000000; 0.000000;,
    0.000000; 0.000000; -1.000000;,
    0.000000; 0.000000; -1.000000;,
    0.464107; 0.000000; -0.885779;,
    0.464107; 0.000000; -0.885779;,
    0.683711; 0.000000; -0.729753;,
    0.683711; 0.000000; -0.729753;,
    0.266934; 0.000000; -0.963715;,
    0.266934; 0.000000; -0.963715;,
    -0.266934; 0.000000; -0.963715;,
    -0.266934; 0.000000; -0.963715;,
    -0.683711; 0.000000; -0.729753;,
    -0.683711; 0.000000; -0.729753;,
    -0.464107; 0.000000; -0.885779;,
    -0.464107; 0.000000; -0.885779;,
    0.000000; 0.000000; -1.000000;,
    0.000000; 0.000000; -1.000000;,
    -1.000000; 0.000000; 0.000000;,
    -1.000000; 0.000000; 0.000000;,
    -1.000000; 0.000000; 0.000000;,
    -1.000000; 0.000000; 0.000000;,
    0.000000; 0.000000; 1.000000;,
    0.266934; 0.000000; 0.963715;,
    0.266934; 0.000000; 0.963715;,
    0.000000; 0.000000; 1.000000;,
    0.683711; 0.000000; 0.729753;,
    0.464107; 0.000000; 0.885779;,
    0.464107; 0.000000; 0.885779;,
    0.683711; 0.000000; 0.729753;,
    -0.464107; 0.000000; 0.885779;,
    -0.464107; 0.000000; 0.885779;,
    -0.683711; 0.000000; 0.729753;,
    -0.683711; 0.000000; 0.729753;,
    -0.266934; 0.000000; 0.963715;,
    0.000000; 0.000000; 1.000000;,
    0.000000; 0.000000; 1.000000;,
    -0.266934; 0.000000; 0.963715;,
    1.000000; 0.000000; 0.000000;,
    1.000000; 0.000000; 0.000000;,
    1.000000; 0.000000; 0.000000;,
    1.000000; 0.000000; 0.000000;,
    0.000000; 0.000000; -1.000000;,
    0.464107; 0.000000; -0.885779;,
    0.464107; 0.000000; -0.885779;,
    0.000000; 0.000000; -1.000000;,
    0.683711; 0.000000; -0.729753;,
    0.683711; 0.000000; -0.729753;,
    0.266934; 0.000000; -0.963715;,
    -0.266934; 0.000000; -0.963715;,
    -0.266934; 0.000000; -0.963715;,
    0.266934; 0.000000; -0.963715;,
    -0.683711; 0.000000; -0.729753;,
    -0.464107; 0.000000; -0.885779;,
    -0.464107; 0.000000; -0.885779;,
    -0.683711; 0.000000; -0.729753;,
    0.000000; 0.000000; -1.000000;,
    0.000000; 0.000000; -1.000000;,
    -1.000000; 0.000000; 0.000000;,
    -1.000000; 0.000000; 0.000000;,
    -1.000000; 0.000000; 0.000000;,
    -1.000000; 0.000000; 0.000000;,
    0.000000; 0.000000; 1.000000;,
    0.000000; 0.000000; 1.000000;;
    66;
    4;0, 1, 2, 3;,
    4;4, 5, 3, 6;,
    4;7, 8, 6, 9;,
    4;10, 11, 9, 12;,
    4;13, 14, 12, 15;,
    4;16, 17, 15, 18;,
    4;19, 20, 18, 21;,
    4;22, 23, 21, 2;,
    4;12, 2, 18, 15;,
    4;6, 2, 12, 9;,
    4;24, 25, 26, 27;,
    4;28, 25, 24, 29;,
    4;30, 31, 32, 33;,
    4;34, 35, 36, 30;,
    4;37, 38, 35, 39;,
    4;40, 41, 38, 42;,
    4;43, 44, 45, 40;,
    4;46, 47, 48, 49;,
    4;50, 46, 51, 52;,
    4;53, 52, 54, 55;,
    4;56, 57, 54, 58;,
    4;59, 56, 60, 61;,
    4;62, 63, 64, 65;,
    4;66, 67, 68, 69;,
    4;69, 68, 70, 71;,
    4;71, 70, 72, 73;,
    4;74, 75, 76, 77;,
    4;78, 79, 80, 81;,
    4;82, 83, 84, 85;,
    4;85, 84, 86, 87;,
    4;88, 89, 90, 91;,
    4;92, 93, 94, 95;,
    4;95, 94, 96, 97;,
    4;98, 99, 100, 101;,
    4;65, 64, 67, 66;,
    4;73, 72, 75, 74;,
    4;87, 86, 89, 88;,
    4;91, 90, 93, 92;,
    4;102, 103, 104, 105;,
    4;106, 107, 108, 109;,
    4;107, 110, 111, 108;,
    4;110, 112, 113, 111;,
    4;114, 115, 116, 117;,
    4;118, 119, 120, 121;,
    4;122, 123, 124, 125;,
    4;123, 126, 127, 124;,
    4;128, 129, 130, 131;,
    4;132, 133, 134, 135;,
    4;133, 136, 137, 134;,
    4;138, 139, 140, 141;,
    4;103, 106, 109, 104;,
    4;112, 114, 117, 113;,
    4;126, 128, 131, 127;,
    4;129, 132, 135, 130;,
    3;6, 3, 2;,
    3;21, 18, 2;,
    3;28, 142, 25;,
    3;143, 26, 25;,
    3;31, 30, 36;,
    3;41, 40, 45;,
    3;35, 34, 39;,
    3;38, 37, 42;,
    3;51, 46, 49;,
    3;60, 56, 58;,
    3;50, 52, 53;,
    3;55, 54, 57;;
   }

   MeshTextureCoords {
    144;
    0.933000; 0.654000;,
    0.933000; 0.849000;,
    0.916000; 0.852000;,
    0.916000; 0.651000;,
    0.804000; 0.516000;,
    0.923000; 0.635000;,
    0.789000; 0.526000;,
    0.585000; 0.511000;,
    0.785000; 0.511000;,
    0.586000; 0.526000;,
    0.452000; 0.637000;,
    0.572000; 0.519000;,
    0.459000; 0.651000;,
    0.446000; 0.852000;,
    0.446000; 0.651000;,
    0.459000; 0.851000;,
    0.571000; 0.984000;,
    0.452000; 0.866000;,
    0.586000; 0.977000;,
    0.791000; 0.992000;,
    0.591000; 0.992000;,
    0.789000; 0.977000;,
    0.920000; 0.869000;,
    0.800000; 0.986000;,
    0.587000; 0.006000;,
    0.791000; 0.499000;,
    0.936000; 0.151000;,
    0.791000; 0.006000;,
    0.442000; 0.355000;,
    0.442000; 0.151000;,
    0.461000; 0.522000;,
    0.442000; 0.528000;,
    0.442000; 0.546000;,
    0.465000; 0.546000;,
    0.465000; 0.502000;,
    0.446000; 0.499000;,
    0.442000; 0.519000;,
    0.465000; 0.478000;,
    0.446000; 0.475000;,
    0.465000; 0.496000;,
    0.461000; 0.451000;,
    0.442000; 0.455000;,
    0.465000; 0.471000;,
    0.465000; 0.427000;,
    0.442000; 0.427000;,
    0.442000; 0.446000;,
    0.430000; 0.522000;,
    0.434000; 0.546000;,
    0.410000; 0.546000;,
    0.410000; 0.528000;,
    0.434000; 0.502000;,
    0.410000; 0.519000;,
    0.415000; 0.499000;,
    0.434000; 0.496000;,
    0.415000; 0.475000;,
    0.434000; 0.478000;,
    0.430000; 0.451000;,
    0.434000; 0.471000;,
    0.410000; 0.455000;,
    0.434000; 0.427000;,
    0.410000; 0.446000;,
    0.410000; 0.427000;,
    0.303000; -0.001000;,
    0.303000; 0.997000;,
    0.314000; 0.997000;,
    0.314000; -0.001000;,
    0.332000; -0.001000;,
    0.332000; 0.997000;,
    0.340000; 0.997000;,
    0.340000; -0.001000;,
    0.362000; 0.997000;,
    0.362000; -0.001000;,
    0.370000; 0.997000;,
    0.370000; -0.001000;,
    0.388000; -0.001000;,
    0.388000; 0.997000;,
    0.399000; 0.997000;,
    0.399000; -0.001000;,
    0.211000; -0.001000;,
    0.211000; 0.997000;,
    0.207000; 0.997000;,
    0.207000; -0.001000;,
    0.299000; -0.001000;,
    0.299000; 0.997000;,
    0.287000; 0.997000;,
    0.287000; -0.001000;,
    0.270000; 0.997000;,
    0.270000; -0.001000;,
    0.265000; -0.001000;,
    0.265000; 0.997000;,
    0.245000; 0.997000;,
    0.245000; -0.001000;,
    0.240000; -0.001000;,
    0.240000; 0.997000;,
    0.223000; 0.997000;,
    0.223000; -0.001000;,
    0.211000; 0.997000;,
    0.211000; -0.001000;,
    0.303000; -0.001000;,
    0.303000; 0.997000;,
    0.299000; 0.997000;,
    0.299000; -0.001000;,
    0.099000; 0.996000;,
    0.110000; 0.996000;,
    0.110000; 0.001000;,
    0.099000; 0.001000;,
    0.128000; 0.996000;,
    0.136000; 0.996000;,
    0.136000; 0.001000;,
    0.128000; 0.001000;,
    0.158000; 0.996000;,
    0.158000; 0.001000;,
    0.166000; 0.996000;,
    0.166000; 0.001000;,
    0.185000; 0.996000;,
    0.195000; 0.996000;,
    0.195000; 0.001000;,
    0.185000; 0.001000;,
    0.007000; 0.996000;,
    0.003000; 0.996000;,
    0.003000; 0.001000;,
    0.007000; 0.001000;,
    0.095000; 0.996000;,
    0.083000; 0.996000;,
    0.083000; 0.001000;,
    0.095000; 0.001000;,
    0.066000; 0.996000;,
    0.066000; 0.001000;,
    0.061000; 0.996000;,
    0.041000; 0.996000;,
    0.041000; 0.001000;,
    0.061000; 0.001000;,
    0.036000; 0.996000;,
    0.019000; 0.996000;,
    0.019000; 0.001000;,
    0.036000; 0.001000;,
    0.007000; 0.996000;,
    0.007000; 0.001000;,
    0.099000; 0.996000;,
    0.095000; 0.996000;,
    0.095000; 0.001000;,
    0.099000; 0.001000;,
    0.587000; 0.499000;,
    0.936000; 0.355000;;
   }

   FVFData {
    258;
    288;
    0,
    1065353216,
    0,
    1065353216,
    0,
    1065353216,
    0,
    1065353216,
    0,
    1065353216,
    0,
    1065353216,
    0,
    1065353216,
    0,
    1065353216,
    0,
    1065353216,
    0,
    1065353216,
    0,
    1065353216,
    0,
    1065353216,
    0,
    1065353216,
    0,
    1065353216,
    0,
    1065353216,
    0,
    1065353216,
    0,
    1065353216,
    0,
    1065353216,
    0,
    1065353216,
    0,
    1065353216,
    0,
    1065353216,
    0,
    1065353216,
    0,
    1065353216,
    0,
    1065353216,
    0,
    1065353216,
    0,
    1065353216,
    0,
    1065353216,
    0,
    1065353216,
    0,
    1065353216,
    0,
    1065353216,
    0,
    1065353216,
    0,
    1065353216,
    0,
    1065353216,
    0,
    1065353216,
    0,
    1065353216,
    0,
    1065353216,
    0,
    1065353216,
    0,
    1065353216,
    0,
    1065353216,
    0,
    1065353216,
    0,
    1065353216,
    0,
    1065353216,
    0,
    1065353216,
    0,
    1065353216,
    0,
    1065353216,
    0,
    1065353216,
    0,
    1065353216,
    0,
    1065353216,
    0,
    1065353216,
    0,
    1065353216,
    0,
    1065353216,
    0,
    1065353216,
    0,
    1065353216,
    0,
    1065353216,
    0,
    1065353216,
    0,
    1065353216,
    0,
    1065353216,
    0,
    1065353216,
    0,
    1065353216,
    0,
    1065353216,
    0,
    1065353216,
    0,
    1065353216,
    0,
    1065353216,
    0,
    1065353216,
    0,
    1065353216,
    0,
    1065353216,
    0,
    1065353216,
    0,
    1065353216,
    0,
    1065353216,
    0,
    1065353216,
    0,
    1065353216,
    0,
    1065353216,
    0,
    1065353216,
    0,
    1065353216,
    0,
    1065353216,
    0,
    1065353216,
    0,
    1065353216,
    0,
    1065353216,
    0,
    1065353216,
    0,
    1065353216,
    0,
    1065353216,
    0,
    1065353216,
    0,
    1065353216,
    0,
    1065353216,
    0,
    1065353216,
    0,
    1065353216,
    0,
    1065353216,
    0,
    1065353216,
    0,
    1065353216,
    0,
    1065353216,
    0,
    1065353216,
    0,
    1065353216,
    0,
    1065353216,
    0,
    1065353216,
    0,
    1065353216,
    0,
    1065353216,
    0,
    1065353216,
    0,
    1065353216,
    0,
    1065353216,
    0,
    1065353216,
    0,
    1065353216,
    0,
    1065353216,
    0,
    1065353216,
    0,
    1065353216,
    0,
    1065353216,
    0,
    1065353216,
    0,
    1065353216,
    0,
    1065353216,
    0,
    1065353216,
    0,
    1065353216,
    0,
    1065353216,
    0,
    1065353216,
    0,
    1065353216,
    0,
    1065353216,
    0,
    1065353216,
    0,
    1065353216,
    0,
    1065353216,
    0,
    1065353216,
    0,
    1065353216,
    0,
    1065353216,
    0,
    1065353216,
    0,
    1065353216,
    0,
    1065353216,
    0,
    1065353216,
    0,
    1065353216,
    0,
    1065353216,
    0,
    1065353216,
    0,
    1065353216,
    0,
    1065353216,
    0,
    1065353216,
    0,
    1065353216,
    0,
    1065353216,
    0,
    1065353216,
    0,
    1065353216,
    0,
    1065353216,
    0,
    1065353216,
    0,
    1065353216,
    0,
    1065353216,
    0,
    1065353216,
    0,
    1065353216,
    0,
    1065353216,
    0,
    1065353216,
    0,
    1065353216,
    0,
    1065353216;
   }

   MeshMaterialList {
    1;
    66;
    0,
    0,
    0,
    0,
    0,
    0,
    0,
    0,
    0,
    0,
    0,
    0,
    0,
    0,
    0,
    0,
    0,
    0,
    0,
    0,
    0,
    0,
    0,
    0,
    0,
    0,
    0,
    0,
    0,
    0,
    0,
    0,
    0,
    0,
    0,
    0,
    0,
    0,
    0,
    0,
    0,
    0,
    0,
    0,
    0,
    0,
    0,
    0,
    0,
    0,
    0,
    0,
    0,
    0,
    0,
    0,
    0,
    0,
    0,
    0,
    0,
    0,
    0,
    0,
    0,
    0;

    Material signstop_Smoothing {
     0.588000; 0.588000; 0.588000; 1.000000;;
     128.000000;
     0.000000; 0.000000; 0.000000;;
     0.000000; 0.000000; 0.000000;;

     TextureFilename {
      "D:\\new packs\\test\\signstop_diffuse.tga";
     }
    }

   }
  }
}
