xof 0303txt 0032

// DirectX 8.0 file
// Creator: Ultimate Unwrap3D Pro v3.27
// Website: http://www.unwrap3d.com
// Time: Fri Jun 01 18:50:39 2012

// Start of Templates

template VertexDuplicationIndices {
 <b8d65549-d7c9-4995-89cf-53a9a8b031e3>
 DWORD nIndices;
 DWORD nOriginalVertices;
 array DWORD indices[nIndices];
}

template FVFData {
 <b6e70a0e-8ef9-4e83-94ad-ecc8b0c04897>
 DWORD dwFVF;
 DWORD nDWords;
 array DWORD data[nDWords];
}

template XSkinMeshHeader {
 <3CF169CE-FF7C-44ab-93C0-F78F62D172E2>
 WORD nMaxSkinWeightsPerVertex;
 WORD nMaxSkinWeightsPerFace;
 WORD nBones;
}

template SkinWeights {
 <6F0D123B-BAD2-4167-A0D0-80224F25FABB>
 STRING transformNodeName;
 DWORD nWeights;
 array DWORD vertexIndices[nWeights];
 array FLOAT weights[nWeights];
 Matrix4x4 matrixOffset;
}

template AnimTicksPerSecond {
 <9E415A43-7BA6-4a73-8743-B73D47E88476>
 DWORD AnimTicksPerSecond;
}

// Start of Frames

Frame trafficlight {
   FrameTransformMatrix {
    1.000000, 0.000000, 0.000000, 0.000000,
    0.000000, 1.000000, 0.000000, 0.000000,
    0.000000, 0.000000, 1.000000, 0.000000,
    0.000000, 0.000000, 0.000000, 1.000000;;
   }

   Mesh trafficlight {
    507;
    0.190000; 0.390000; -0.061000;,
    0.190000; 0.010000; -0.061000;,
    0.200000; 0.000000; -0.061000;,
    0.200000; 0.400000; -0.061000;,
    -0.190000; 0.390000; -0.061000;,
    -0.200000; 0.400000; -0.061000;,
    -0.190000; 0.010000; -0.061000;,
    -0.200000; 0.000000; -0.061000;,
    0.190000; 0.790000; -0.061000;,
    0.190000; 0.410000; -0.061000;,
    0.200000; 0.800000; -0.061000;,
    -0.190000; 0.790000; -0.061000;,
    -0.200000; 0.800000; -0.061000;,
    -0.190000; 0.410000; -0.061000;,
    0.190000; 1.190000; -0.061000;,
    0.190000; 0.810000; -0.061000;,
    0.200000; 1.200000; -0.061000;,
    -0.190000; 1.190000; -0.061000;,
    -0.200000; 1.200000; -0.061000;,
    -0.190000; 0.810000; -0.061000;,
    0.190000; 0.390000; -0.031000;,
    0.190000; 0.010000; -0.031000;,
    0.190000; 0.010000; -0.061000;,
    0.190000; 0.390000; -0.061000;,
    -0.190000; 0.390000; -0.031000;,
    0.190000; 0.390000; -0.031000;,
    0.190000; 0.390000; -0.061000;,
    -0.190000; 0.390000; -0.061000;,
    -0.190000; 0.010000; -0.031000;,
    -0.190000; 0.390000; -0.031000;,
    -0.190000; 0.390000; -0.061000;,
    -0.190000; 0.010000; -0.061000;,
    0.190000; 0.010000; -0.031000;,
    -0.190000; 0.010000; -0.031000;,
    -0.190000; 0.010000; -0.061000;,
    0.190000; 0.010000; -0.061000;,
    0.190000; 0.790000; -0.031000;,
    0.190000; 0.410000; -0.031000;,
    0.190000; 0.410000; -0.061000;,
    0.190000; 0.790000; -0.061000;,
    -0.190000; 0.790000; -0.031000;,
    0.190000; 0.790000; -0.031000;,
    0.190000; 0.790000; -0.061000;,
    -0.190000; 0.790000; -0.061000;,
    -0.190000; 0.410000; -0.031000;,
    -0.190000; 0.790000; -0.031000;,
    -0.190000; 0.790000; -0.061000;,
    -0.190000; 0.410000; -0.061000;,
    0.190000; 0.410000; -0.031000;,
    -0.190000; 0.410000; -0.031000;,
    -0.190000; 0.410000; -0.061000;,
    0.190000; 0.410000; -0.061000;,
    0.190000; 1.190000; -0.031000;,
    0.190000; 0.810000; -0.031000;,
    0.190000; 0.810000; -0.061000;,
    0.190000; 1.190000; -0.061000;,
    -0.190000; 1.190000; -0.031000;,
    0.190000; 1.190000; -0.031000;,
    0.190000; 1.190000; -0.061000;,
    -0.190000; 1.190000; -0.061000;,
    -0.190000; 0.810000; -0.031000;,
    -0.190000; 1.190000; -0.031000;,
    -0.190000; 1.190000; -0.061000;,
    -0.190000; 0.810000; -0.061000;,
    0.190000; 0.810000; -0.031000;,
    -0.190000; 0.810000; -0.031000;,
    -0.190000; 0.810000; -0.061000;,
    0.190000; 0.810000; -0.061000;,
    -0.168000; 0.000000; -0.211000;,
    0.168000; 0.000000; -0.211000;,
    0.200000; 0.000000; -0.111000;,
    -0.200000; 0.000000; -0.111000;,
    -0.168000; 0.400000; -0.211000;,
    -0.168000; 0.000000; -0.211000;,
    -0.200000; 0.000000; -0.111000;,
    -0.200000; 0.400000; -0.111000;,
    -0.168000; 0.800000; -0.211000;,
    -0.200000; 0.800000; -0.111000;,
    -0.168000; 1.200000; -0.211000;,
    -0.200000; 1.200000; -0.111000;,
    0.168000; 1.200000; -0.211000;,
    -0.168000; 1.200000; -0.211000;,
    -0.200000; 1.200000; -0.111000;,
    0.200000; 1.200000; -0.111000;,
    0.168000; 0.800000; -0.211000;,
    0.168000; 1.200000; -0.211000;,
    0.200000; 1.200000; -0.111000;,
    0.200000; 0.800000; -0.111000;,
    0.168000; 0.400000; -0.211000;,
    0.200000; 0.400000; -0.111000;,
    0.168000; 0.000000; -0.211000;,
    0.200000; 0.000000; -0.111000;,
    -0.077000; 0.000000; -0.322000;,
    0.077000; 0.000000; -0.322000;,
    -0.077000; 0.400000; -0.322000;,
    -0.077000; 0.000000; -0.322000;,
    -0.077000; 0.800000; -0.322000;,
    -0.077000; 1.200000; -0.322000;,
    0.077000; 1.200000; -0.322000;,
    -0.077000; 1.200000; -0.322000;,
    0.077000; 0.800000; -0.322000;,
    0.077000; 1.200000; -0.322000;,
    0.077000; 0.400000; -0.322000;,
    0.077000; 0.000000; -0.322000;,
    -0.110000; 0.893000; -0.000000;,
    -0.060000; 0.860000; -0.000000;,
    -0.002000; 1.001000; 0.020000;,
    -0.002000; 0.848000; -0.000000;,
    0.057000; 0.860000; -0.000000;,
    0.106000; 0.893000; -0.000000;,
    0.139000; 0.942000; -0.000000;,
    0.151000; 1.001000; -0.000000;,
    0.139000; 1.059000; -0.000000;,
    0.106000; 1.109000; -0.000000;,
    0.057000; 1.142000; -0.000000;,
    -0.002000; 1.154000; -0.000000;,
    -0.060000; 1.142000; -0.000000;,
    -0.110000; 1.109000; -0.000000;,
    -0.143000; 1.059000; -0.000000;,
    -0.155000; 1.001000; -0.000000;,
    -0.143000; 0.942000; -0.000000;,
    -0.110000; 0.490000; -0.000000;,
    -0.060000; 0.457000; -0.000000;,
    -0.002000; 0.598000; 0.020000;,
    -0.002000; 0.445000; -0.000000;,
    0.057000; 0.457000; -0.000000;,
    0.106000; 0.490000; -0.000000;,
    0.139000; 0.540000; -0.000000;,
    0.151000; 0.598000; -0.000000;,
    0.139000; 0.657000; -0.000000;,
    0.106000; 0.706000; -0.000000;,
    0.057000; 0.739000; -0.000000;,
    -0.002000; 0.751000; -0.000000;,
    -0.060000; 0.739000; -0.000000;,
    -0.110000; 0.706000; -0.000000;,
    -0.143000; 0.657000; -0.000000;,
    -0.155000; 0.598000; -0.000000;,
    -0.143000; 0.540000; -0.000000;,
    -0.110000; 0.096000; -0.000000;,
    -0.060000; 0.063000; -0.000000;,
    -0.002000; 0.204000; 0.020000;,
    -0.002000; 0.051000; -0.000000;,
    0.057000; 0.063000; -0.000000;,
    0.106000; 0.096000; -0.000000;,
    0.139000; 0.146000; -0.000000;,
    0.151000; 0.204000; -0.000000;,
    0.139000; 0.263000; -0.000000;,
    0.106000; 0.312000; -0.000000;,
    0.057000; 0.345000; -0.000000;,
    -0.002000; 0.357000; -0.000000;,
    -0.060000; 0.345000; -0.000000;,
    -0.110000; 0.312000; -0.000000;,
    -0.143000; 0.263000; -0.000000;,
    -0.155000; 0.204000; -0.000000;,
    -0.143000; 0.146000; -0.000000;,
    -0.190000; 0.390000; -0.031000;,
    -0.190000; 0.010000; -0.031000;,
    0.190000; 0.010000; -0.031000;,
    0.190000; 0.390000; -0.031000;,
    -0.190000; 0.790000; -0.031000;,
    -0.190000; 0.410000; -0.031000;,
    0.190000; 0.410000; -0.031000;,
    0.190000; 0.790000; -0.031000;,
    -0.190000; 1.190000; -0.031000;,
    -0.190000; 0.810000; -0.031000;,
    0.190000; 0.810000; -0.031000;,
    0.190000; 1.190000; -0.031000;,
    0.077000; 0.400000; -0.322000;,
    0.077000; 0.000000; -0.322000;,
    0.077000; 0.800000; -0.322000;,
    0.077000; 1.200000; -0.322000;,
    -0.153000; 1.063000; -0.032000;,
    -0.165000; 1.001000; -0.032000;,
    -0.165000; 0.987000; 0.322000;,
    -0.153000; 1.049000; 0.322000;,
    -0.117000; 1.116000; -0.032000;,
    -0.117000; 1.102000; 0.322000;,
    -0.064000; 1.152000; -0.032000;,
    -0.064000; 1.137000; 0.322000;,
    -0.002000; 1.164000; -0.032000;,
    -0.002000; 1.150000; 0.322000;,
    0.061000; 1.152000; -0.032000;,
    0.061000; 1.137000; 0.322000;,
    0.113000; 1.116000; -0.032000;,
    0.113000; 1.102000; 0.322000;,
    0.149000; 1.063000; -0.032000;,
    0.149000; 1.049000; 0.322000;,
    0.161000; 1.001000; -0.032000;,
    0.161000; 0.987000; 0.322000;,
    0.149000; 0.939000; -0.032000;,
    0.149000; 0.924000; 0.322000;,
    0.113000; 0.886000; -0.005000;,
    0.113000; 0.871000; 0.322000;,
    -0.153000; 0.939000; -0.032000;,
    -0.117000; 0.886000; -0.005000;,
    -0.117000; 0.871000; 0.322000;,
    -0.153000; 0.924000; 0.322000;,
    -0.155000; 0.987000; 0.322000;,
    -0.143000; 1.045000; 0.322000;,
    -0.153000; 1.049000; 0.322000;,
    -0.165000; 0.987000; 0.322000;,
    -0.143000; 0.928000; 0.322000;,
    -0.153000; 0.924000; 0.322000;,
    -0.110000; 0.879000; 0.322000;,
    -0.117000; 0.871000; 0.322000;,
    -0.060000; 0.860000; -0.000000;,
    -0.110000; 0.893000; -0.000000;,
    -0.117000; 0.886000; -0.005000;,
    -0.064000; 0.850000; -0.005000;,
    -0.002000; 0.848000; -0.000000;,
    -0.002000; 0.838000; -0.005000;,
    0.057000; 0.860000; -0.000000;,
    -0.002000; 0.848000; -0.000000;,
    -0.002000; 0.838000; -0.005000;,
    0.061000; 0.850000; -0.005000;,
    0.106000; 0.893000; -0.000000;,
    0.113000; 0.886000; -0.005000;,
    0.139000; 0.928000; 0.322000;,
    0.106000; 0.879000; 0.322000;,
    0.113000; 0.871000; 0.322000;,
    0.149000; 0.924000; 0.322000;,
    0.151000; 0.987000; 0.322000;,
    0.161000; 0.987000; 0.322000;,
    0.139000; 1.045000; 0.322000;,
    0.149000; 1.049000; 0.322000;,
    0.106000; 1.095000; 0.322000;,
    0.113000; 1.102000; 0.322000;,
    0.057000; 1.128000; 0.322000;,
    0.061000; 1.137000; 0.322000;,
    -0.002000; 1.140000; 0.322000;,
    -0.002000; 1.150000; 0.322000;,
    -0.060000; 1.128000; 0.322000;,
    -0.002000; 1.140000; 0.322000;,
    -0.002000; 1.150000; 0.322000;,
    -0.064000; 1.137000; 0.322000;,
    -0.110000; 1.095000; 0.322000;,
    -0.117000; 1.102000; 0.322000;,
    0.106000; 0.893000; -0.000000;,
    0.113000; 0.886000; -0.005000;,
    0.113000; 0.871000; 0.322000;,
    0.106000; 0.879000; 0.322000;,
    0.139000; 0.942000; -0.000000;,
    0.106000; 0.893000; -0.000000;,
    0.106000; 0.879000; 0.322000;,
    0.139000; 0.928000; 0.322000;,
    0.151000; 1.001000; -0.000000;,
    0.151000; 0.987000; 0.322000;,
    0.139000; 1.059000; -0.000000;,
    0.139000; 1.045000; 0.322000;,
    0.106000; 1.109000; -0.000000;,
    0.106000; 1.095000; 0.322000;,
    0.057000; 1.142000; -0.000000;,
    0.057000; 1.128000; 0.322000;,
    -0.002000; 1.154000; -0.000000;,
    -0.002000; 1.140000; 0.322000;,
    -0.060000; 1.142000; -0.000000;,
    -0.060000; 1.128000; 0.322000;,
    -0.110000; 1.109000; -0.000000;,
    -0.110000; 1.095000; 0.322000;,
    -0.143000; 1.059000; -0.000000;,
    -0.143000; 1.045000; 0.322000;,
    -0.155000; 1.001000; -0.000000;,
    -0.155000; 0.987000; 0.322000;,
    -0.143000; 0.942000; -0.000000;,
    -0.143000; 0.928000; 0.322000;,
    -0.110000; 0.893000; -0.000000;,
    -0.110000; 0.879000; 0.322000;,
    -0.117000; 0.886000; -0.005000;,
    -0.110000; 0.893000; -0.000000;,
    -0.110000; 0.879000; 0.322000;,
    -0.117000; 0.871000; 0.322000;,
    0.061000; 0.850000; -0.032000;,
    0.113000; 0.886000; -0.032000;,
    0.113000; 0.886000; -0.005000;,
    0.061000; 0.850000; -0.005000;,
    -0.117000; 0.886000; -0.032000;,
    -0.064000; 0.850000; -0.032000;,
    -0.064000; 0.850000; -0.005000;,
    -0.117000; 0.886000; -0.005000;,
    -0.002000; 0.838000; -0.032000;,
    -0.002000; 0.838000; -0.005000;,
    -0.153000; 0.661000; -0.032000;,
    -0.165000; 0.598000; -0.032000;,
    -0.165000; 0.584000; 0.322000;,
    -0.153000; 0.646000; 0.322000;,
    -0.117000; 0.713000; -0.032000;,
    -0.117000; 0.699000; 0.322000;,
    -0.064000; 0.749000; -0.032000;,
    -0.064000; 0.735000; 0.322000;,
    -0.002000; 0.761000; -0.032000;,
    -0.002000; 0.747000; 0.322000;,
    0.061000; 0.749000; -0.032000;,
    0.061000; 0.735000; 0.322000;,
    0.113000; 0.713000; -0.032000;,
    0.113000; 0.699000; 0.322000;,
    0.149000; 0.661000; -0.032000;,
    0.149000; 0.646000; 0.322000;,
    0.161000; 0.598000; -0.032000;,
    0.161000; 0.584000; 0.322000;,
    0.149000; 0.536000; -0.032000;,
    0.149000; 0.522000; 0.322000;,
    0.113000; 0.483000; -0.005000;,
    0.113000; 0.469000; 0.322000;,
    -0.153000; 0.536000; -0.032000;,
    -0.117000; 0.483000; -0.005000;,
    -0.117000; 0.469000; 0.322000;,
    -0.153000; 0.522000; 0.322000;,
    -0.155000; 0.584000; 0.322000;,
    -0.143000; 0.642000; 0.322000;,
    -0.153000; 0.646000; 0.322000;,
    -0.165000; 0.584000; 0.322000;,
    -0.143000; 0.525000; 0.322000;,
    -0.153000; 0.522000; 0.322000;,
    -0.110000; 0.476000; 0.322000;,
    -0.117000; 0.469000; 0.322000;,
    -0.060000; 0.457000; -0.000000;,
    -0.110000; 0.490000; -0.000000;,
    -0.117000; 0.483000; -0.005000;,
    -0.064000; 0.447000; -0.005000;,
    -0.002000; 0.445000; -0.000000;,
    -0.002000; 0.435000; -0.005000;,
    0.057000; 0.457000; -0.000000;,
    -0.002000; 0.445000; -0.000000;,
    -0.002000; 0.435000; -0.005000;,
    0.061000; 0.447000; -0.005000;,
    0.106000; 0.490000; -0.000000;,
    0.113000; 0.483000; -0.005000;,
    0.139000; 0.525000; 0.322000;,
    0.106000; 0.476000; 0.322000;,
    0.113000; 0.469000; 0.322000;,
    0.149000; 0.522000; 0.322000;,
    0.151000; 0.584000; 0.322000;,
    0.161000; 0.584000; 0.322000;,
    0.139000; 0.642000; 0.322000;,
    0.149000; 0.646000; 0.322000;,
    0.106000; 0.692000; 0.322000;,
    0.113000; 0.699000; 0.322000;,
    0.057000; 0.725000; 0.322000;,
    0.061000; 0.735000; 0.322000;,
    -0.002000; 0.737000; 0.322000;,
    -0.002000; 0.747000; 0.322000;,
    -0.060000; 0.725000; 0.322000;,
    -0.002000; 0.737000; 0.322000;,
    -0.002000; 0.747000; 0.322000;,
    -0.064000; 0.735000; 0.322000;,
    -0.110000; 0.692000; 0.322000;,
    -0.117000; 0.699000; 0.322000;,
    0.106000; 0.490000; -0.000000;,
    0.113000; 0.483000; -0.005000;,
    0.113000; 0.469000; 0.322000;,
    0.106000; 0.476000; 0.322000;,
    0.139000; 0.540000; -0.000000;,
    0.106000; 0.490000; -0.000000;,
    0.106000; 0.476000; 0.322000;,
    0.139000; 0.525000; 0.322000;,
    0.151000; 0.598000; -0.000000;,
    0.151000; 0.584000; 0.322000;,
    0.139000; 0.657000; -0.000000;,
    0.139000; 0.642000; 0.322000;,
    0.106000; 0.706000; -0.000000;,
    0.106000; 0.692000; 0.322000;,
    0.057000; 0.739000; -0.000000;,
    0.057000; 0.725000; 0.322000;,
    -0.002000; 0.751000; -0.000000;,
    -0.002000; 0.737000; 0.322000;,
    -0.060000; 0.739000; -0.000000;,
    -0.060000; 0.725000; 0.322000;,
    -0.110000; 0.706000; -0.000000;,
    -0.110000; 0.692000; 0.322000;,
    -0.143000; 0.657000; -0.000000;,
    -0.143000; 0.642000; 0.322000;,
    -0.155000; 0.598000; -0.000000;,
    -0.155000; 0.584000; 0.322000;,
    -0.143000; 0.540000; -0.000000;,
    -0.143000; 0.525000; 0.322000;,
    -0.110000; 0.490000; -0.000000;,
    -0.110000; 0.476000; 0.322000;,
    -0.117000; 0.483000; -0.005000;,
    -0.110000; 0.490000; -0.000000;,
    -0.110000; 0.476000; 0.322000;,
    -0.117000; 0.469000; 0.322000;,
    0.061000; 0.447000; -0.032000;,
    0.113000; 0.483000; -0.032000;,
    0.113000; 0.483000; -0.005000;,
    0.061000; 0.447000; -0.005000;,
    -0.117000; 0.483000; -0.032000;,
    -0.064000; 0.447000; -0.032000;,
    -0.064000; 0.447000; -0.005000;,
    -0.117000; 0.483000; -0.005000;,
    -0.002000; 0.435000; -0.032000;,
    -0.002000; 0.435000; -0.005000;,
    -0.153000; 0.266000; -0.032000;,
    -0.165000; 0.204000; -0.032000;,
    -0.165000; 0.190000; 0.322000;,
    -0.153000; 0.252000; 0.322000;,
    -0.117000; 0.319000; -0.032000;,
    -0.117000; 0.305000; 0.322000;,
    -0.064000; 0.355000; -0.032000;,
    -0.064000; 0.340000; 0.322000;,
    -0.002000; 0.367000; -0.032000;,
    -0.002000; 0.353000; 0.322000;,
    0.061000; 0.355000; -0.032000;,
    0.061000; 0.340000; 0.322000;,
    0.113000; 0.319000; -0.032000;,
    0.113000; 0.305000; 0.322000;,
    0.149000; 0.266000; -0.032000;,
    0.149000; 0.252000; 0.322000;,
    0.161000; 0.204000; -0.032000;,
    0.161000; 0.190000; 0.322000;,
    0.149000; 0.142000; -0.032000;,
    0.149000; 0.127000; 0.322000;,
    0.113000; 0.089000; -0.005000;,
    0.113000; 0.075000; 0.322000;,
    -0.153000; 0.142000; -0.032000;,
    -0.117000; 0.089000; -0.005000;,
    -0.117000; 0.075000; 0.322000;,
    -0.153000; 0.127000; 0.322000;,
    -0.155000; 0.190000; 0.322000;,
    -0.143000; 0.248000; 0.322000;,
    -0.153000; 0.252000; 0.322000;,
    -0.165000; 0.190000; 0.322000;,
    -0.143000; 0.131000; 0.322000;,
    -0.153000; 0.127000; 0.322000;,
    -0.110000; 0.082000; 0.322000;,
    -0.117000; 0.075000; 0.322000;,
    -0.060000; 0.063000; -0.000000;,
    -0.110000; 0.096000; -0.000000;,
    -0.117000; 0.089000; -0.005000;,
    -0.064000; 0.053000; -0.005000;,
    -0.002000; 0.051000; -0.000000;,
    -0.002000; 0.041000; -0.005000;,
    0.057000; 0.063000; -0.000000;,
    -0.002000; 0.051000; -0.000000;,
    -0.002000; 0.041000; -0.005000;,
    0.061000; 0.053000; -0.005000;,
    0.106000; 0.096000; -0.000000;,
    0.113000; 0.089000; -0.005000;,
    0.139000; 0.131000; 0.322000;,
    0.106000; 0.082000; 0.322000;,
    0.113000; 0.075000; 0.322000;,
    0.149000; 0.127000; 0.322000;,
    0.151000; 0.190000; 0.322000;,
    0.161000; 0.190000; 0.322000;,
    0.139000; 0.248000; 0.322000;,
    0.149000; 0.252000; 0.322000;,
    0.106000; 0.298000; 0.322000;,
    0.113000; 0.305000; 0.322000;,
    0.057000; 0.331000; 0.322000;,
    0.061000; 0.340000; 0.322000;,
    -0.002000; 0.343000; 0.322000;,
    -0.002000; 0.353000; 0.322000;,
    -0.060000; 0.331000; 0.322000;,
    -0.002000; 0.343000; 0.322000;,
    -0.002000; 0.353000; 0.322000;,
    -0.064000; 0.340000; 0.322000;,
    -0.110000; 0.298000; 0.322000;,
    -0.117000; 0.305000; 0.322000;,
    0.106000; 0.096000; -0.000000;,
    0.113000; 0.089000; -0.005000;,
    0.113000; 0.075000; 0.322000;,
    0.106000; 0.082000; 0.322000;,
    0.139000; 0.146000; -0.000000;,
    0.106000; 0.096000; -0.000000;,
    0.106000; 0.082000; 0.322000;,
    0.139000; 0.131000; 0.322000;,
    0.151000; 0.204000; -0.000000;,
    0.151000; 0.190000; 0.322000;,
    0.139000; 0.263000; -0.000000;,
    0.139000; 0.248000; 0.322000;,
    0.106000; 0.312000; -0.000000;,
    0.106000; 0.298000; 0.322000;,
    0.057000; 0.345000; -0.000000;,
    0.057000; 0.331000; 0.322000;,
    -0.002000; 0.357000; -0.000000;,
    -0.002000; 0.343000; 0.322000;,
    -0.060000; 0.345000; -0.000000;,
    -0.060000; 0.331000; 0.322000;,
    -0.110000; 0.312000; -0.000000;,
    -0.110000; 0.298000; 0.322000;,
    -0.143000; 0.263000; -0.000000;,
    -0.143000; 0.248000; 0.322000;,
    -0.155000; 0.204000; -0.000000;,
    -0.155000; 0.190000; 0.322000;,
    -0.143000; 0.146000; -0.000000;,
    -0.143000; 0.131000; 0.322000;,
    -0.110000; 0.096000; -0.000000;,
    -0.110000; 0.082000; 0.322000;,
    -0.117000; 0.089000; -0.005000;,
    -0.110000; 0.096000; -0.000000;,
    -0.110000; 0.082000; 0.322000;,
    -0.117000; 0.075000; 0.322000;,
    0.061000; 0.053000; -0.032000;,
    0.113000; 0.089000; -0.032000;,
    0.113000; 0.089000; -0.005000;,
    0.061000; 0.053000; -0.005000;,
    -0.117000; 0.089000; -0.032000;,
    -0.064000; 0.053000; -0.032000;,
    -0.064000; 0.053000; -0.005000;,
    -0.117000; 0.089000; -0.005000;,
    -0.002000; 0.041000; -0.032000;,
    -0.002000; 0.041000; -0.005000;,
    0.113000; 0.886000; -0.032000;,
    -0.117000; 0.886000; -0.032000;,
    0.113000; 0.483000; -0.032000;,
    -0.117000; 0.483000; -0.032000;,
    0.113000; 0.089000; -0.032000;,
    -0.117000; 0.089000; -0.032000;;
    246;
    4;0, 1, 2, 3;,
    4;4, 0, 3, 5;,
    4;6, 4, 5, 7;,
    4;1, 6, 7, 2;,
    4;8, 9, 3, 10;,
    4;11, 8, 10, 12;,
    4;13, 11, 12, 5;,
    4;9, 13, 5, 3;,
    4;14, 15, 10, 16;,
    4;17, 14, 16, 18;,
    4;19, 17, 18, 12;,
    4;15, 19, 12, 10;,
    4;20, 21, 22, 23;,
    4;24, 25, 26, 27;,
    4;28, 29, 30, 31;,
    4;32, 33, 34, 35;,
    4;36, 37, 38, 39;,
    4;40, 41, 42, 43;,
    4;44, 45, 46, 47;,
    4;48, 49, 50, 51;,
    4;52, 53, 54, 55;,
    4;56, 57, 58, 59;,
    4;60, 61, 62, 63;,
    4;64, 65, 66, 67;,
    4;68, 69, 70, 71;,
    4;72, 73, 74, 75;,
    4;76, 72, 75, 77;,
    4;78, 76, 77, 79;,
    4;80, 81, 82, 83;,
    4;84, 85, 86, 87;,
    4;88, 84, 87, 89;,
    4;90, 88, 89, 91;,
    4;92, 93, 69, 68;,
    4;94, 95, 73, 72;,
    4;96, 94, 72, 76;,
    4;97, 96, 76, 78;,
    4;98, 99, 81, 80;,
    4;100, 101, 85, 84;,
    4;102, 100, 84, 88;,
    4;103, 102, 88, 90;,
    3;104, 105, 106;,
    3;105, 107, 106;,
    3;107, 108, 106;,
    3;108, 109, 106;,
    3;109, 110, 106;,
    3;110, 111, 106;,
    3;111, 112, 106;,
    3;112, 113, 106;,
    3;113, 114, 106;,
    3;114, 115, 106;,
    3;115, 116, 106;,
    3;116, 117, 106;,
    3;117, 118, 106;,
    3;118, 119, 106;,
    3;119, 120, 106;,
    3;120, 104, 106;,
    3;121, 122, 123;,
    3;122, 124, 123;,
    3;124, 125, 123;,
    3;125, 126, 123;,
    3;126, 127, 123;,
    3;127, 128, 123;,
    3;128, 129, 123;,
    3;129, 130, 123;,
    3;130, 131, 123;,
    3;131, 132, 123;,
    3;132, 133, 123;,
    3;133, 134, 123;,
    3;134, 135, 123;,
    3;135, 136, 123;,
    3;136, 137, 123;,
    3;137, 121, 123;,
    3;138, 139, 140;,
    3;139, 141, 140;,
    3;141, 142, 140;,
    3;142, 143, 140;,
    3;143, 144, 140;,
    3;144, 145, 140;,
    3;145, 146, 140;,
    3;146, 147, 140;,
    3;147, 148, 140;,
    3;148, 149, 140;,
    3;149, 150, 140;,
    3;150, 151, 140;,
    3;151, 152, 140;,
    3;152, 153, 140;,
    3;153, 154, 140;,
    3;154, 138, 140;,
    4;155, 156, 157, 158;,
    4;159, 160, 161, 162;,
    4;163, 164, 165, 166;,
    4;94, 167, 168, 95;,
    4;96, 169, 167, 94;,
    4;97, 170, 169, 96;,
    4;71, 70, 2, 7;,
    4;75, 74, 7, 5;,
    4;77, 75, 5, 12;,
    4;79, 77, 12, 18;,
    4;83, 82, 18, 16;,
    4;87, 86, 16, 10;,
    4;89, 87, 10, 3;,
    4;91, 89, 3, 2;,
    4;171, 172, 173, 174;,
    4;175, 171, 174, 176;,
    4;177, 175, 176, 178;,
    4;179, 177, 178, 180;,
    4;181, 179, 180, 182;,
    4;183, 181, 182, 184;,
    4;185, 183, 184, 186;,
    4;187, 185, 186, 188;,
    4;189, 187, 188, 190;,
    4;191, 189, 190, 192;,
    4;193, 194, 195, 196;,
    4;172, 193, 196, 173;,
    4;197, 198, 199, 200;,
    4;201, 197, 200, 202;,
    4;203, 201, 202, 204;,
    4;205, 206, 207, 208;,
    4;209, 205, 208, 210;,
    4;211, 212, 213, 214;,
    4;215, 211, 214, 216;,
    4;217, 218, 219, 220;,
    4;221, 217, 220, 222;,
    4;223, 221, 222, 224;,
    4;225, 223, 224, 226;,
    4;227, 225, 226, 228;,
    4;229, 227, 228, 230;,
    4;231, 232, 233, 234;,
    4;235, 231, 234, 236;,
    4;198, 235, 236, 199;,
    4;237, 238, 239, 240;,
    4;241, 242, 243, 244;,
    4;245, 241, 244, 246;,
    4;247, 245, 246, 248;,
    4;249, 247, 248, 250;,
    4;251, 249, 250, 252;,
    4;253, 251, 252, 254;,
    4;255, 253, 254, 256;,
    4;257, 255, 256, 258;,
    4;259, 257, 258, 260;,
    4;261, 259, 260, 262;,
    4;263, 261, 262, 264;,
    4;265, 263, 264, 266;,
    4;267, 268, 269, 270;,
    4;271, 272, 273, 274;,
    4;275, 276, 277, 278;,
    4;276, 279, 280, 277;,
    4;279, 271, 274, 280;,
    4;281, 282, 283, 284;,
    4;285, 281, 284, 286;,
    4;287, 285, 286, 288;,
    4;289, 287, 288, 290;,
    4;291, 289, 290, 292;,
    4;293, 291, 292, 294;,
    4;295, 293, 294, 296;,
    4;297, 295, 296, 298;,
    4;299, 297, 298, 300;,
    4;301, 299, 300, 302;,
    4;303, 304, 305, 306;,
    4;282, 303, 306, 283;,
    4;307, 308, 309, 310;,
    4;311, 307, 310, 312;,
    4;313, 311, 312, 314;,
    4;315, 316, 317, 318;,
    4;319, 315, 318, 320;,
    4;321, 322, 323, 324;,
    4;325, 321, 324, 326;,
    4;327, 328, 329, 330;,
    4;331, 327, 330, 332;,
    4;333, 331, 332, 334;,
    4;335, 333, 334, 336;,
    4;337, 335, 336, 338;,
    4;339, 337, 338, 340;,
    4;341, 342, 343, 344;,
    4;345, 341, 344, 346;,
    4;308, 345, 346, 309;,
    4;347, 348, 349, 350;,
    4;351, 352, 353, 354;,
    4;355, 351, 354, 356;,
    4;357, 355, 356, 358;,
    4;359, 357, 358, 360;,
    4;361, 359, 360, 362;,
    4;363, 361, 362, 364;,
    4;365, 363, 364, 366;,
    4;367, 365, 366, 368;,
    4;369, 367, 368, 370;,
    4;371, 369, 370, 372;,
    4;373, 371, 372, 374;,
    4;375, 373, 374, 376;,
    4;377, 378, 379, 380;,
    4;381, 382, 383, 384;,
    4;385, 386, 387, 388;,
    4;386, 389, 390, 387;,
    4;389, 381, 384, 390;,
    4;391, 392, 393, 394;,
    4;395, 391, 394, 396;,
    4;397, 395, 396, 398;,
    4;399, 397, 398, 400;,
    4;401, 399, 400, 402;,
    4;403, 401, 402, 404;,
    4;405, 403, 404, 406;,
    4;407, 405, 406, 408;,
    4;409, 407, 408, 410;,
    4;411, 409, 410, 412;,
    4;413, 414, 415, 416;,
    4;392, 413, 416, 393;,
    4;417, 418, 419, 420;,
    4;421, 417, 420, 422;,
    4;423, 421, 422, 424;,
    4;425, 426, 427, 428;,
    4;429, 425, 428, 430;,
    4;431, 432, 433, 434;,
    4;435, 431, 434, 436;,
    4;437, 438, 439, 440;,
    4;441, 437, 440, 442;,
    4;443, 441, 442, 444;,
    4;445, 443, 444, 446;,
    4;447, 445, 446, 448;,
    4;449, 447, 448, 450;,
    4;451, 452, 453, 454;,
    4;455, 451, 454, 456;,
    4;418, 455, 456, 419;,
    4;457, 458, 459, 460;,
    4;461, 462, 463, 464;,
    4;465, 461, 464, 466;,
    4;467, 465, 466, 468;,
    4;469, 467, 468, 470;,
    4;471, 469, 470, 472;,
    4;473, 471, 472, 474;,
    4;475, 473, 474, 476;,
    4;477, 475, 476, 478;,
    4;479, 477, 478, 480;,
    4;481, 479, 480, 482;,
    4;483, 481, 482, 484;,
    4;485, 483, 484, 486;,
    4;487, 488, 489, 490;,
    4;491, 492, 493, 494;,
    4;495, 496, 497, 498;,
    4;496, 499, 500, 497;,
    4;499, 491, 494, 500;,
    3;189, 191, 501;,
    3;194, 193, 502;,
    3;299, 301, 503;,
    3;304, 303, 504;,
    3;409, 411, 505;,
    3;414, 413, 506;;

   MeshNormals {
    507;
    0.000000; 0.000000; 1.000000;,
    0.000000; 0.000000; 1.000000;,
    0.408248; -0.408248; 0.816497;,
    0.447214; 0.000000; 0.894427;,
    0.000000; 0.000000; 1.000000;,
    -0.447214; 0.000000; 0.894427;,
    0.000000; 0.000000; 1.000000;,
    -0.408248; -0.408248; 0.816497;,
    0.000000; 0.000000; 1.000000;,
    0.000000; 0.000000; 1.000000;,
    0.447214; 0.000000; 0.894427;,
    0.000000; 0.000000; 1.000000;,
    -0.447214; 0.000000; 0.894427;,
    0.000000; 0.000000; 1.000000;,
    0.000000; 0.000000; 1.000000;,
    0.000000; 0.000000; 1.000000;,
    0.408248; 0.408248; 0.816497;,
    0.000000; 0.000000; 1.000000;,
    -0.408248; 0.408248; 0.816497;,
    0.000000; 0.000000; 1.000000;,
    1.000000; 0.000000; 0.000000;,
    1.000000; 0.000000; 0.000000;,
    1.000000; 0.000000; 0.000000;,
    1.000000; 0.000000; 0.000000;,
    0.000000; 1.000000; 0.000000;,
    0.000000; 1.000000; 0.000000;,
    0.000000; 1.000000; 0.000000;,
    0.000000; 1.000000; 0.000000;,
    -1.000000; 0.000000; 0.000000;,
    -1.000000; 0.000000; 0.000000;,
    -1.000000; 0.000000; 0.000000;,
    -1.000000; 0.000000; 0.000000;,
    0.000000; -1.000000; 0.000000;,
    0.000000; -1.000000; 0.000000;,
    0.000000; -1.000000; 0.000000;,
    0.000000; -1.000000; 0.000000;,
    1.000000; 0.000000; 0.000000;,
    1.000000; 0.000000; 0.000000;,
    1.000000; 0.000000; 0.000000;,
    1.000000; 0.000000; 0.000000;,
    0.000000; 1.000000; 0.000000;,
    0.000000; 1.000000; 0.000000;,
    0.000000; 1.000000; 0.000000;,
    0.000000; 1.000000; 0.000000;,
    -1.000000; 0.000000; 0.000000;,
    -1.000000; 0.000000; 0.000000;,
    -1.000000; 0.000000; 0.000000;,
    -1.000000; 0.000000; 0.000000;,
    0.000000; -1.000000; 0.000000;,
    0.000000; -1.000000; 0.000000;,
    0.000000; -1.000000; 0.000000;,
    0.000000; -1.000000; 0.000000;,
    1.000000; 0.000000; 0.000000;,
    1.000000; 0.000000; 0.000000;,
    1.000000; 0.000000; 0.000000;,
    1.000000; 0.000000; 0.000000;,
    0.000000; 1.000000; 0.000000;,
    0.000000; 1.000000; 0.000000;,
    0.000000; 1.000000; 0.000000;,
    0.000000; 1.000000; 0.000000;,
    -1.000000; 0.000000; 0.000000;,
    -1.000000; 0.000000; 0.000000;,
    -1.000000; 0.000000; 0.000000;,
    -1.000000; 0.000000; 0.000000;,
    0.000000; -1.000000; 0.000000;,
    0.000000; -1.000000; 0.000000;,
    0.000000; -1.000000; 0.000000;,
    0.000000; -1.000000; 0.000000;,
    0.000000; -1.000000; 0.000000;,
    0.000000; -1.000000; 0.000000;,
    0.000000; -1.000000; 0.000000;,
    0.000000; -1.000000; 0.000000;,
    -0.878441; 0.000000; -0.477851;,
    -0.878441; 0.000000; -0.477851;,
    -0.988035; 0.000000; -0.154233;,
    -0.988035; 0.000000; -0.154233;,
    -0.878441; 0.000000; -0.477851;,
    -0.988035; 0.000000; -0.154233;,
    -0.878441; 0.000000; -0.477851;,
    -0.988035; 0.000000; -0.154233;,
    0.000000; 1.000000; 0.000000;,
    0.000000; 1.000000; 0.000000;,
    0.000000; 1.000000; 0.000000;,
    0.000000; 1.000000; 0.000000;,
    0.878441; 0.000000; -0.477851;,
    0.878441; 0.000000; -0.477851;,
    0.988035; 0.000000; -0.154233;,
    0.988035; 0.000000; -0.154233;,
    0.878441; 0.000000; -0.477851;,
    0.988035; 0.000000; -0.154233;,
    0.878441; 0.000000; -0.477851;,
    0.988035; 0.000000; -0.154233;,
    0.000000; -1.000000; 0.000000;,
    0.000000; -1.000000; 0.000000;,
    -0.427787; 0.000000; -0.903880;,
    -0.427787; 0.000000; -0.903880;,
    -0.427787; 0.000000; -0.903880;,
    -0.427787; 0.000000; -0.903880;,
    0.000000; 1.000000; 0.000000;,
    0.000000; 1.000000; 0.000000;,
    0.773336; 0.000000; -0.633996;,
    0.773336; 0.000000; -0.633996;,
    0.773336; 0.000000; -0.633996;,
    0.773336; 0.000000; -0.633996;,
    -0.091364; -0.092254; 0.991535;,
    -0.049909; -0.120109; 0.991505;,
    0.000055; -0.000055; 1.000000;,
    -0.000227; -0.129616; 0.991564;,
    0.050129; -0.119669; 0.991547;,
    0.091809; -0.091809; 0.991535;,
    0.119669; -0.050129; 0.991547;,
    0.129616; 0.000227; 0.991564;,
    0.120109; 0.049909; 0.991505;,
    0.092254; 0.091364; 0.991535;,
    0.050129; 0.119669; 0.991547;,
    -0.000227; 0.129616; 0.991564;,
    -0.049909; 0.120109; 0.991505;,
    -0.091809; 0.091809; 0.991535;,
    -0.120109; 0.049909; 0.991505;,
    -0.129616; 0.000227; 0.991564;,
    -0.119669; -0.050129; 0.991547;,
    -0.091809; -0.091809; 0.991535;,
    -0.049909; -0.120109; 0.991505;,
    0.000055; 0.000055; 1.000000;,
    -0.000227; -0.129616; 0.991564;,
    0.050129; -0.119669; 0.991547;,
    0.092254; -0.091364; 0.991535;,
    0.120109; -0.049909; 0.991505;,
    0.129616; -0.000227; 0.991564;,
    0.119669; 0.050129; 0.991547;,
    0.091809; 0.091809; 0.991535;,
    0.050129; 0.119669; 0.991547;,
    -0.000227; 0.129616; 0.991564;,
    -0.049909; 0.120109; 0.991505;,
    -0.091364; 0.092254; 0.991535;,
    -0.119669; 0.050129; 0.991547;,
    -0.129616; -0.000227; 0.991564;,
    -0.120109; -0.049909; 0.991505;,
    -0.091809; -0.091809; 0.991535;,
    -0.049909; -0.120109; 0.991505;,
    0.000055; 0.000055; 1.000000;,
    -0.000227; -0.129616; 0.991564;,
    0.050129; -0.119669; 0.991547;,
    0.092254; -0.091364; 0.991535;,
    0.120109; -0.049909; 0.991505;,
    0.129616; -0.000227; 0.991564;,
    0.119669; 0.050129; 0.991547;,
    0.091809; 0.091809; 0.991535;,
    0.050129; 0.119669; 0.991547;,
    -0.000227; 0.129616; 0.991564;,
    -0.049909; 0.120109; 0.991505;,
    -0.091364; 0.092254; 0.991535;,
    -0.119669; 0.050129; 0.991547;,
    -0.129616; -0.000227; 0.991564;,
    -0.120109; -0.049909; 0.991505;,
    0.000000; 0.000000; 1.000000;,
    0.000000; 0.000000; 1.000000;,
    0.000000; 0.000000; 1.000000;,
    0.000000; 0.000000; 1.000000;,
    0.000000; 0.000000; 1.000000;,
    0.000000; 0.000000; 1.000000;,
    0.000000; 0.000000; 1.000000;,
    0.000000; 0.000000; 1.000000;,
    0.000000; 0.000000; 1.000000;,
    0.000000; 0.000000; 1.000000;,
    0.000000; 0.000000; 1.000000;,
    0.000000; 0.000000; 1.000000;,
    0.000000; 0.000000; -1.000000;,
    0.000000; 0.000000; -1.000000;,
    0.000000; 0.000000; -1.000000;,
    0.000000; 0.000000; -1.000000;,
    -0.923313; 0.383749; 0.015176;,
    -1.000000; 0.000000; -0.000000;,
    -1.000000; 0.000000; -0.000000;,
    -0.923313; 0.383749; 0.015176;,
    -0.706831; 0.706782; 0.029141;,
    -0.706831; 0.706782; 0.029141;,
    -0.383555; 0.922749; 0.037685;,
    -0.383555; 0.922749; 0.037685;,
    -0.001491; 0.999161; 0.040926;,
    -0.001491; 0.999161; 0.040926;,
    0.386302; 0.921595; 0.037864;,
    0.386302; 0.921595; 0.037864;,
    0.709984; 0.703668; 0.027829;,
    0.709984; 0.703668; 0.027829;,
    0.923313; 0.383749; 0.015176;,
    0.923313; 0.383749; 0.015176;,
    1.000000; 0.000001; -0.000273;,
    1.000000; 0.000001; -0.000273;,
    0.893296; -0.449317; -0.011629;,
    0.921150; -0.388814; -0.017496;,
    0.824033; -0.566390; -0.013093;,
    0.820683; -0.570783; -0.026183;,
    -0.893433; -0.449067; -0.010759;,
    -0.824286; -0.566045; -0.012080;,
    -0.821213; -0.570111; -0.024157;,
    -0.921335; -0.388433; -0.016185;,
    0.000000; 0.000000; 1.000000;,
    0.000000; 0.000000; 1.000000;,
    0.000000; 0.000000; 1.000000;,
    0.000000; 0.000000; 1.000000;,
    0.000000; 0.000000; 1.000000;,
    0.000000; 0.000000; 1.000000;,
    0.000000; 0.000000; 1.000000;,
    0.000000; 0.000000; 1.000000;,
    -0.164615; -0.402822; 0.900353;,
    -0.235918; -0.357452; 0.903643;,
    -0.235918; -0.357452; 0.903643;,
    -0.164615; -0.402822; 0.900353;,
    -0.092134; -0.445311; 0.890623;,
    -0.092134; -0.445311; 0.890623;,
    0.170984; -0.400391; 0.900251;,
    0.085051; -0.418167; 0.904380;,
    0.085051; -0.418167; 0.904380;,
    0.170984; -0.400391; 0.900251;,
    0.255598; -0.379524; 0.889174;,
    0.255598; -0.379524; 0.889174;,
    0.000000; 0.000000; 1.000000;,
    0.000000; 0.000000; 1.000000;,
    0.000000; 0.000000; 1.000000;,
    0.000000; 0.000000; 1.000000;,
    0.000000; 0.000000; 1.000000;,
    0.000000; 0.000000; 1.000000;,
    0.000000; 0.000000; 1.000000;,
    0.000000; 0.000000; 1.000000;,
    0.000000; 0.000000; 1.000000;,
    0.000000; 0.000000; 1.000000;,
    0.000000; 0.000000; 1.000000;,
    0.000000; 0.000000; 1.000000;,
    0.000000; 0.000000; 1.000000;,
    0.000000; 0.000000; 1.000000;,
    0.000000; 0.000000; 1.000000;,
    0.000000; 0.000000; 1.000000;,
    0.000000; 0.000000; 1.000000;,
    0.000000; 0.000000; 1.000000;,
    0.000000; 0.000000; 1.000000;,
    0.000000; 0.000000; 1.000000;,
    -0.717508; -0.695893; -0.030256;,
    -0.717508; -0.695893; -0.030256;,
    -0.717508; -0.695893; -0.030256;,
    -0.717508; -0.695893; -0.030256;,
    -0.922230; 0.386276; 0.016795;,
    -0.829192; 0.558436; 0.024280;,
    -0.829192; 0.558436; 0.024280;,
    -0.922230; 0.386276; 0.016795;,
    -0.999999; -0.001683; -0.000073;,
    -0.999999; -0.001683; -0.000073;,
    -0.923378; -0.383529; -0.016675;,
    -0.923378; -0.383529; -0.016675;,
    -0.710089; -0.703448; -0.030585;,
    -0.710089; -0.703448; -0.030585;,
    -0.386068; -0.921600; -0.040070;,
    -0.386068; -0.921600; -0.040070;,
    0.001681; -0.999055; -0.043437;,
    0.001681; -0.999055; -0.043437;,
    0.383318; -0.922745; -0.040119;,
    0.383318; -0.922745; -0.040119;,
    0.706799; -0.706746; -0.030728;,
    0.706799; -0.706746; -0.030728;,
    0.923378; -0.383529; -0.016675;,
    0.923378; -0.383529; -0.016675;,
    0.999999; -0.001683; -0.000073;,
    0.999999; -0.001683; -0.000073;,
    0.922230; 0.386276; 0.016795;,
    0.922230; 0.386276; 0.016795;,
    0.829192; 0.558436; 0.024280;,
    0.829192; 0.558436; 0.024280;,
    0.718047; -0.695264; -0.031893;,
    0.718047; -0.695264; -0.031893;,
    0.718047; -0.695264; -0.031893;,
    0.718047; -0.695264; -0.031893;,
    0.386545; -0.922270; 0.000000;,
    0.569210; -0.822192; 0.000000;,
    0.569210; -0.822192; 0.000000;,
    0.386545; -0.922270; 0.000000;,
    -0.561883; -0.827217; 0.000000;,
    -0.383813; -0.923411; 0.000000;,
    -0.383813; -0.923411; 0.000000;,
    -0.561883; -0.827217; 0.000000;,
    -0.001481; -0.999999; 0.000000;,
    -0.001481; -0.999999; 0.000000;,
    -0.922168; 0.386477; 0.015555;,
    -0.999999; -0.001482; 0.000211;,
    -0.999999; -0.001482; 0.000211;,
    -0.922168; 0.386477; 0.015555;,
    -0.703700; 0.709942; 0.028077;,
    -0.703700; 0.709942; 0.028077;,
    -0.383578; 0.922787; 0.036494;,
    -0.383578; 0.922787; 0.036494;,
    -0.001480; 0.999218; 0.039517;,
    -0.001480; 0.999218; 0.039517;,
    0.386311; 0.921648; 0.036449;,
    0.386311; 0.921648; 0.036449;,
    0.706830; 0.706799; 0.028769;,
    0.706830; 0.706799; 0.028769;,
    0.922162; 0.386470; 0.016106;,
    0.922162; 0.386470; 0.016106;,
    0.999999; -0.001481; -0.000059;,
    0.999999; -0.001481; -0.000059;,
    0.893416; -0.449099; -0.010845;,
    0.921312; -0.388482; -0.016315;,
    0.824253; -0.566089; -0.012207;,
    0.821146; -0.570196; -0.024412;,
    -0.893541; -0.448865; -0.010204;,
    -0.824488; -0.565768; -0.011263;,
    -0.821636; -0.569568; -0.022525;,
    -0.921479; -0.388125; -0.015350;,
    0.000000; 0.000000; 1.000000;,
    0.000000; 0.000000; 1.000000;,
    0.000000; 0.000000; 1.000000;,
    0.000000; 0.000000; 1.000000;,
    0.000000; 0.000000; 1.000000;,
    0.000000; 0.000000; 1.000000;,
    0.000000; 0.000000; 1.000000;,
    0.000000; 0.000000; 1.000000;,
    -0.164615; -0.402822; 0.900353;,
    -0.235919; -0.357453; 0.903643;,
    -0.235919; -0.357453; 0.903643;,
    -0.164615; -0.402822; 0.900353;,
    -0.092133; -0.445310; 0.890623;,
    -0.092133; -0.445310; 0.890623;,
    0.170985; -0.400392; 0.900250;,
    0.085051; -0.418168; 0.904379;,
    0.085051; -0.418168; 0.904379;,
    0.170985; -0.400392; 0.900250;,
    0.255599; -0.379525; 0.889174;,
    0.255599; -0.379525; 0.889174;,
    0.000000; 0.000000; 1.000000;,
    0.000000; 0.000000; 1.000000;,
    0.000000; 0.000000; 1.000000;,
    0.000000; 0.000000; 1.000000;,
    0.000000; 0.000000; 1.000000;,
    0.000000; 0.000000; 1.000000;,
    0.000000; 0.000000; 1.000000;,
    0.000000; 0.000000; 1.000000;,
    0.000000; 0.000000; 1.000000;,
    0.000000; 0.000000; 1.000000;,
    0.000000; 0.000000; 1.000000;,
    0.000000; 0.000000; 1.000000;,
    0.000000; 0.000000; 1.000000;,
    0.000000; 0.000000; 1.000000;,
    0.000000; 0.000000; 1.000000;,
    0.000000; 0.000000; 1.000000;,
    0.000000; 0.000000; 1.000000;,
    0.000000; 0.000000; 1.000000;,
    0.000000; 0.000000; 1.000000;,
    0.000000; 0.000000; 1.000000;,
    -0.717506; -0.695895; -0.030256;,
    -0.717506; -0.695895; -0.030256;,
    -0.717506; -0.695895; -0.030256;,
    -0.717506; -0.695895; -0.030256;,
    -0.923366; 0.383519; 0.017545;,
    -0.834335; 0.550661; 0.025652;,
    -0.834335; 0.550661; 0.025652;,
    -0.923366; 0.383519; 0.017545;,
    -0.999999; 0.001683; -0.000243;,
    -0.999999; 0.001683; -0.000243;,
    -0.922225; -0.386274; -0.017110;,
    -0.922225; -0.386274; -0.017110;,
    -0.706797; -0.706749; -0.030728;,
    -0.706797; -0.706749; -0.030728;,
    -0.386067; -0.921600; -0.040070;,
    -0.386067; -0.921600; -0.040070;,
    0.001681; -0.999055; -0.043437;,
    0.001681; -0.999055; -0.043437;,
    0.383317; -0.922745; -0.040119;,
    0.383317; -0.922745; -0.040119;,
    0.703470; -0.710015; -0.031755;,
    0.703470; -0.710015; -0.031755;,
    0.922218; -0.386266; -0.017678;,
    0.922218; -0.386266; -0.017678;,
    0.999998; 0.001682; 0.000394;,
    0.999998; 0.001682; 0.000394;,
    0.923373; 0.383527; 0.016995;,
    0.923373; 0.383527; 0.016995;,
    0.834370; 0.550685; 0.023943;,
    0.834370; 0.550685; 0.023943;,
    0.717356; -0.696069; -0.029801;,
    0.717356; -0.696069; -0.029801;,
    0.717356; -0.696069; -0.029801;,
    0.717356; -0.696069; -0.029801;,
    0.386546; -0.922270; 0.000000;,
    0.569210; -0.822192; 0.000000;,
    0.569210; -0.822192; 0.000000;,
    0.386546; -0.922270; 0.000000;,
    -0.561883; -0.827217; 0.000000;,
    -0.383813; -0.923411; 0.000000;,
    -0.383813; -0.923411; 0.000000;,
    -0.561883; -0.827217; 0.000000;,
    -0.001481; -0.999999; 0.000000;,
    -0.001481; -0.999999; 0.000000;,
    -0.923313; 0.383748; 0.015176;,
    -1.000000; 0.000000; 0.000000;,
    -1.000000; 0.000000; 0.000000;,
    -0.923313; 0.383748; 0.015176;,
    -0.706831; 0.706782; 0.029141;,
    -0.706831; 0.706782; 0.029141;,
    -0.383554; 0.922749; 0.037685;,
    -0.383554; 0.922749; 0.037685;,
    -0.001491; 0.999161; 0.040926;,
    -0.001491; 0.999161; 0.040926;,
    0.386301; 0.921595; 0.037864;,
    0.386301; 0.921595; 0.037864;,
    0.709984; 0.703668; 0.027829;,
    0.709984; 0.703668; 0.027829;,
    0.923313; 0.383748; 0.015176;,
    0.923313; 0.383748; 0.015176;,
    1.000000; 0.000000; -0.000273;,
    1.000000; 0.000000; -0.000273;,
    0.893414; -0.449099; -0.011027;,
    0.921308; -0.388480; -0.016589;,
    0.824253; -0.566089; -0.012207;,
    0.821146; -0.570196; -0.024412;,
    -0.893433; -0.449067; -0.010759;,
    -0.824285; -0.566046; -0.012080;,
    -0.821212; -0.570111; -0.024157;,
    -0.921334; -0.388434; -0.016185;,
    0.000000; 0.000000; 1.000000;,
    0.000000; 0.000000; 1.000000;,
    0.000000; 0.000000; 1.000000;,
    0.000000; 0.000000; 1.000000;,
    0.000000; 0.000000; 1.000000;,
    0.000000; 0.000000; 1.000000;,
    0.000000; 0.000000; 1.000000;,
    0.000000; 0.000000; 1.000000;,
    -0.164615; -0.402823; 0.900353;,
    -0.235919; -0.357453; 0.903642;,
    -0.235919; -0.357453; 0.903642;,
    -0.164615; -0.402823; 0.900353;,
    -0.092133; -0.445311; 0.890623;,
    -0.092133; -0.445311; 0.890623;,
    0.170985; -0.400392; 0.900250;,
    0.085051; -0.418169; 0.904379;,
    0.085051; -0.418169; 0.904379;,
    0.170985; -0.400392; 0.900250;,
    0.255599; -0.379526; 0.889173;,
    0.255599; -0.379526; 0.889173;,
    0.000000; 0.000000; 1.000000;,
    0.000000; 0.000000; 1.000000;,
    0.000000; 0.000000; 1.000000;,
    0.000000; 0.000000; 1.000000;,
    0.000000; 0.000000; 1.000000;,
    0.000000; 0.000000; 1.000000;,
    0.000000; 0.000000; 1.000000;,
    0.000000; 0.000000; 1.000000;,
    0.000000; 0.000000; 1.000000;,
    0.000000; 0.000000; 1.000000;,
    0.000000; 0.000000; 1.000000;,
    0.000000; 0.000000; 1.000000;,
    0.000000; 0.000000; 1.000000;,
    0.000000; 0.000000; 1.000000;,
    0.000000; 0.000000; 1.000000;,
    0.000000; 0.000000; 1.000000;,
    0.000000; 0.000000; 1.000000;,
    0.000000; 0.000000; 1.000000;,
    0.000000; 0.000000; 1.000000;,
    0.000000; 0.000000; 1.000000;,
    -0.717505; -0.695896; -0.030256;,
    -0.717505; -0.695896; -0.030256;,
    -0.717505; -0.695896; -0.030256;,
    -0.717505; -0.695896; -0.030256;,
    -0.923366; 0.383519; 0.017545;,
    -0.834335; 0.550661; 0.025652;,
    -0.834335; 0.550661; 0.025652;,
    -0.923366; 0.383519; 0.017545;,
    -0.999999; 0.001683; -0.000243;,
    -0.999999; 0.001683; -0.000243;,
    -0.922225; -0.386274; -0.017110;,
    -0.922225; -0.386274; -0.017110;,
    -0.706797; -0.706748; -0.030728;,
    -0.706797; -0.706748; -0.030728;,
    -0.386067; -0.921600; -0.040070;,
    -0.386067; -0.921600; -0.040070;,
    0.001681; -0.999055; -0.043437;,
    0.001681; -0.999055; -0.043437;,
    0.383317; -0.922745; -0.040119;,
    0.383317; -0.922745; -0.040119;,
    0.703470; -0.710015; -0.031754;,
    0.703470; -0.710015; -0.031754;,
    0.922218; -0.386266; -0.017678;,
    0.922218; -0.386266; -0.017678;,
    0.999998; 0.001682; 0.000394;,
    0.999998; 0.001682; 0.000394;,
    0.923373; 0.383527; 0.016995;,
    0.923373; 0.383527; 0.016995;,
    0.834370; 0.550684; 0.023943;,
    0.834370; 0.550684; 0.023943;,
    0.717354; -0.696071; -0.029801;,
    0.717354; -0.696071; -0.029801;,
    0.717354; -0.696071; -0.029801;,
    0.717354; -0.696071; -0.029801;,
    0.386545; -0.922270; 0.000000;,
    0.569210; -0.822192; 0.000000;,
    0.569210; -0.822192; 0.000000;,
    0.386545; -0.922270; 0.000000;,
    -0.561883; -0.827217; 0.000000;,
    -0.383813; -0.923411; 0.000000;,
    -0.383813; -0.923411; 0.000000;,
    -0.561883; -0.827217; 0.000000;,
    -0.001481; -0.999999; 0.000000;,
    -0.001481; -0.999999; 0.000000;,
    0.827217; -0.561883; 0.000000;,
    -0.827217; -0.561883; 0.000000;,
    0.827217; -0.561883; 0.000000;,
    -0.827217; -0.561883; 0.000000;,
    0.827217; -0.561883; 0.000000;,
    -0.827217; -0.561883; 0.000000;;
    246;
    4;0, 1, 2, 3;,
    4;4, 0, 3, 5;,
    4;6, 4, 5, 7;,
    4;1, 6, 7, 2;,
    4;8, 9, 3, 10;,
    4;11, 8, 10, 12;,
    4;13, 11, 12, 5;,
    4;9, 13, 5, 3;,
    4;14, 15, 10, 16;,
    4;17, 14, 16, 18;,
    4;19, 17, 18, 12;,
    4;15, 19, 12, 10;,
    4;20, 21, 22, 23;,
    4;24, 25, 26, 27;,
    4;28, 29, 30, 31;,
    4;32, 33, 34, 35;,
    4;36, 37, 38, 39;,
    4;40, 41, 42, 43;,
    4;44, 45, 46, 47;,
    4;48, 49, 50, 51;,
    4;52, 53, 54, 55;,
    4;56, 57, 58, 59;,
    4;60, 61, 62, 63;,
    4;64, 65, 66, 67;,
    4;68, 69, 70, 71;,
    4;72, 73, 74, 75;,
    4;76, 72, 75, 77;,
    4;78, 76, 77, 79;,
    4;80, 81, 82, 83;,
    4;84, 85, 86, 87;,
    4;88, 84, 87, 89;,
    4;90, 88, 89, 91;,
    4;92, 93, 69, 68;,
    4;94, 95, 73, 72;,
    4;96, 94, 72, 76;,
    4;97, 96, 76, 78;,
    4;98, 99, 81, 80;,
    4;100, 101, 85, 84;,
    4;102, 100, 84, 88;,
    4;103, 102, 88, 90;,
    3;104, 105, 106;,
    3;105, 107, 106;,
    3;107, 108, 106;,
    3;108, 109, 106;,
    3;109, 110, 106;,
    3;110, 111, 106;,
    3;111, 112, 106;,
    3;112, 113, 106;,
    3;113, 114, 106;,
    3;114, 115, 106;,
    3;115, 116, 106;,
    3;116, 117, 106;,
    3;117, 118, 106;,
    3;118, 119, 106;,
    3;119, 120, 106;,
    3;120, 104, 106;,
    3;121, 122, 123;,
    3;122, 124, 123;,
    3;124, 125, 123;,
    3;125, 126, 123;,
    3;126, 127, 123;,
    3;127, 128, 123;,
    3;128, 129, 123;,
    3;129, 130, 123;,
    3;130, 131, 123;,
    3;131, 132, 123;,
    3;132, 133, 123;,
    3;133, 134, 123;,
    3;134, 135, 123;,
    3;135, 136, 123;,
    3;136, 137, 123;,
    3;137, 121, 123;,
    3;138, 139, 140;,
    3;139, 141, 140;,
    3;141, 142, 140;,
    3;142, 143, 140;,
    3;143, 144, 140;,
    3;144, 145, 140;,
    3;145, 146, 140;,
    3;146, 147, 140;,
    3;147, 148, 140;,
    3;148, 149, 140;,
    3;149, 150, 140;,
    3;150, 151, 140;,
    3;151, 152, 140;,
    3;152, 153, 140;,
    3;153, 154, 140;,
    3;154, 138, 140;,
    4;155, 156, 157, 158;,
    4;159, 160, 161, 162;,
    4;163, 164, 165, 166;,
    4;94, 167, 168, 95;,
    4;96, 169, 167, 94;,
    4;97, 170, 169, 96;,
    4;71, 70, 2, 7;,
    4;75, 74, 7, 5;,
    4;77, 75, 5, 12;,
    4;79, 77, 12, 18;,
    4;83, 82, 18, 16;,
    4;87, 86, 16, 10;,
    4;89, 87, 10, 3;,
    4;91, 89, 3, 2;,
    4;171, 172, 173, 174;,
    4;175, 171, 174, 176;,
    4;177, 175, 176, 178;,
    4;179, 177, 178, 180;,
    4;181, 179, 180, 182;,
    4;183, 181, 182, 184;,
    4;185, 183, 184, 186;,
    4;187, 185, 186, 188;,
    4;189, 187, 188, 190;,
    4;191, 189, 190, 192;,
    4;193, 194, 195, 196;,
    4;172, 193, 196, 173;,
    4;197, 198, 199, 200;,
    4;201, 197, 200, 202;,
    4;203, 201, 202, 204;,
    4;205, 206, 207, 208;,
    4;209, 205, 208, 210;,
    4;211, 212, 213, 214;,
    4;215, 211, 214, 216;,
    4;217, 218, 219, 220;,
    4;221, 217, 220, 222;,
    4;223, 221, 222, 224;,
    4;225, 223, 224, 226;,
    4;227, 225, 226, 228;,
    4;229, 227, 228, 230;,
    4;231, 232, 233, 234;,
    4;235, 231, 234, 236;,
    4;198, 235, 236, 199;,
    4;237, 238, 239, 240;,
    4;241, 242, 243, 244;,
    4;245, 241, 244, 246;,
    4;247, 245, 246, 248;,
    4;249, 247, 248, 250;,
    4;251, 249, 250, 252;,
    4;253, 251, 252, 254;,
    4;255, 253, 254, 256;,
    4;257, 255, 256, 258;,
    4;259, 257, 258, 260;,
    4;261, 259, 260, 262;,
    4;263, 261, 262, 264;,
    4;265, 263, 264, 266;,
    4;267, 268, 269, 270;,
    4;271, 272, 273, 274;,
    4;275, 276, 277, 278;,
    4;276, 279, 280, 277;,
    4;279, 271, 274, 280;,
    4;281, 282, 283, 284;,
    4;285, 281, 284, 286;,
    4;287, 285, 286, 288;,
    4;289, 287, 288, 290;,
    4;291, 289, 290, 292;,
    4;293, 291, 292, 294;,
    4;295, 293, 294, 296;,
    4;297, 295, 296, 298;,
    4;299, 297, 298, 300;,
    4;301, 299, 300, 302;,
    4;303, 304, 305, 306;,
    4;282, 303, 306, 283;,
    4;307, 308, 309, 310;,
    4;311, 307, 310, 312;,
    4;313, 311, 312, 314;,
    4;315, 316, 317, 318;,
    4;319, 315, 318, 320;,
    4;321, 322, 323, 324;,
    4;325, 321, 324, 326;,
    4;327, 328, 329, 330;,
    4;331, 327, 330, 332;,
    4;333, 331, 332, 334;,
    4;335, 333, 334, 336;,
    4;337, 335, 336, 338;,
    4;339, 337, 338, 340;,
    4;341, 342, 343, 344;,
    4;345, 341, 344, 346;,
    4;308, 345, 346, 309;,
    4;347, 348, 349, 350;,
    4;351, 352, 353, 354;,
    4;355, 351, 354, 356;,
    4;357, 355, 356, 358;,
    4;359, 357, 358, 360;,
    4;361, 359, 360, 362;,
    4;363, 361, 362, 364;,
    4;365, 363, 364, 366;,
    4;367, 365, 366, 368;,
    4;369, 367, 368, 370;,
    4;371, 369, 370, 372;,
    4;373, 371, 372, 374;,
    4;375, 373, 374, 376;,
    4;377, 378, 379, 380;,
    4;381, 382, 383, 384;,
    4;385, 386, 387, 388;,
    4;386, 389, 390, 387;,
    4;389, 381, 384, 390;,
    4;391, 392, 393, 394;,
    4;395, 391, 394, 396;,
    4;397, 395, 396, 398;,
    4;399, 397, 398, 400;,
    4;401, 399, 400, 402;,
    4;403, 401, 402, 404;,
    4;405, 403, 404, 406;,
    4;407, 405, 406, 408;,
    4;409, 407, 408, 410;,
    4;411, 409, 410, 412;,
    4;413, 414, 415, 416;,
    4;392, 413, 416, 393;,
    4;417, 418, 419, 420;,
    4;421, 417, 420, 422;,
    4;423, 421, 422, 424;,
    4;425, 426, 427, 428;,
    4;429, 425, 428, 430;,
    4;431, 432, 433, 434;,
    4;435, 431, 434, 436;,
    4;437, 438, 439, 440;,
    4;441, 437, 440, 442;,
    4;443, 441, 442, 444;,
    4;445, 443, 444, 446;,
    4;447, 445, 446, 448;,
    4;449, 447, 448, 450;,
    4;451, 452, 453, 454;,
    4;455, 451, 454, 456;,
    4;418, 455, 456, 419;,
    4;457, 458, 459, 460;,
    4;461, 462, 463, 464;,
    4;465, 461, 464, 466;,
    4;467, 465, 466, 468;,
    4;469, 467, 468, 470;,
    4;471, 469, 470, 472;,
    4;473, 471, 472, 474;,
    4;475, 473, 474, 476;,
    4;477, 475, 476, 478;,
    4;479, 477, 478, 480;,
    4;481, 479, 480, 482;,
    4;483, 481, 482, 484;,
    4;485, 483, 484, 486;,
    4;487, 488, 489, 490;,
    4;491, 492, 493, 494;,
    4;495, 496, 497, 498;,
    4;496, 499, 500, 497;,
    4;499, 491, 494, 500;,
    3;189, 191, 501;,
    3;194, 193, 502;,
    3;299, 301, 503;,
    3;304, 303, 504;,
    3;409, 411, 505;,
    3;414, 413, 506;;
   }

   MeshTextureCoords {
    507;
    0.468000; 0.621000;,
    0.468000; 0.840000;,
    0.474000; 0.845000;,
    0.474000; 0.615000;,
    0.250000; 0.621000;,
    0.244000; 0.615000;,
    0.250000; 0.840000;,
    0.244000; 0.845000;,
    0.468000; 0.391000;,
    0.468000; 0.610000;,
    0.474000; 0.385000;,
    0.250000; 0.391000;,
    0.244000; 0.385000;,
    0.250000; 0.610000;,
    0.468000; 0.161000;,
    0.468000; 0.380000;,
    0.474000; 0.155000;,
    0.250000; 0.161000;,
    0.244000; 0.155000;,
    0.250000; 0.380000;,
    0.011000; 0.949000;,
    0.230000; 0.949000;,
    0.230000; 0.966000;,
    0.011000; 0.966000;,
    0.004000; 0.004000;,
    0.222000; 0.004000;,
    0.222000; 0.021000;,
    0.004000; 0.021000;,
    0.230000; 0.969000;,
    0.011000; 0.969000;,
    0.011000; 0.987000;,
    0.230000; 0.987000;,
    0.222000; 0.059000;,
    0.003000; 0.059000;,
    0.003000; 0.076000;,
    0.222000; 0.076000;,
    0.011000; 0.907000;,
    0.229000; 0.907000;,
    0.229000; 0.924000;,
    0.011000; 0.924000;,
    0.004000; 0.021000;,
    0.222000; 0.021000;,
    0.222000; 0.038000;,
    0.004000; 0.038000;,
    0.229000; 0.927000;,
    0.011000; 0.927000;,
    0.011000; 0.945000;,
    0.229000; 0.945000;,
    0.223000; 0.098000;,
    0.005000; 0.098000;,
    0.005000; 0.116000;,
    0.223000; 0.116000;,
    0.010000; 0.867000;,
    0.229000; 0.867000;,
    0.229000; 0.884000;,
    0.010000; 0.884000;,
    0.005000; 0.081000;,
    0.224000; 0.081000;,
    0.224000; 0.098000;,
    0.005000; 0.098000;,
    0.229000; 0.887000;,
    0.010000; 0.887000;,
    0.010000; 0.904000;,
    0.229000; 0.904000;,
    0.223000; 0.041000;,
    0.004000; 0.041000;,
    0.004000; 0.058000;,
    0.223000; 0.058000;,
    0.263000; 0.932000;,
    0.456000; 0.932000;,
    0.474000; 0.874000;,
    0.244000; 0.874000;,
    0.158000; 0.615000;,
    0.158000; 0.845000;,
    0.215000; 0.845000;,
    0.215000; 0.615000;,
    0.158000; 0.385000;,
    0.215000; 0.385000;,
    0.158000; 0.155000;,
    0.215000; 0.155000;,
    0.455000; 0.069000;,
    0.262000; 0.069000;,
    0.244000; 0.126000;,
    0.474000; 0.126000;,
    0.561000; 0.385000;,
    0.561000; 0.155000;,
    0.503000; 0.155000;,
    0.503000; 0.385000;,
    0.561000; 0.615000;,
    0.503000; 0.615000;,
    0.561000; 0.845000;,
    0.503000; 0.845000;,
    0.315000; 0.996000;,
    0.404000; 0.996000;,
    0.093000; 0.615000;,
    0.093000; 0.845000;,
    0.093000; 0.385000;,
    0.093000; 0.155000;,
    0.403000; 0.005000;,
    0.315000; 0.005000;,
    0.625000; 0.385000;,
    0.625000; 0.155000;,
    0.625000; 0.615000;,
    0.625000; 0.845000;,
    0.800000; 0.672000;,
    0.770000; 0.692000;,
    0.734000; 0.606000;,
    0.734000; 0.699000;,
    0.699000; 0.692000;,
    0.668000; 0.672000;,
    0.648000; 0.641000;,
    0.641000; 0.606000;,
    0.648000; 0.570000;,
    0.668000; 0.540000;,
    0.699000; 0.520000;,
    0.734000; 0.512000;,
    0.770000; 0.520000;,
    0.800000; 0.540000;,
    0.821000; 0.570000;,
    0.828000; 0.606000;,
    0.821000; 0.641000;,
    0.957000; 0.811000;,
    0.927000; 0.831000;,
    0.891000; 0.744000;,
    0.891000; 0.838000;,
    0.855000; 0.831000;,
    0.824000; 0.811000;,
    0.804000; 0.780000;,
    0.797000; 0.744000;,
    0.804000; 0.708000;,
    0.824000; 0.678000;,
    0.855000; 0.657000;,
    0.891000; 0.650000;,
    0.927000; 0.657000;,
    0.957000; 0.678000;,
    0.978000; 0.708000;,
    0.985000; 0.744000;,
    0.978000; 0.780000;,
    0.803000; 0.950000;,
    0.772000; 0.971000;,
    0.737000; 0.884000;,
    0.737000; 0.978000;,
    0.701000; 0.971000;,
    0.671000; 0.950000;,
    0.651000; 0.920000;,
    0.643000; 0.884000;,
    0.651000; 0.849000;,
    0.671000; 0.819000;,
    0.701000; 0.798000;,
    0.737000; 0.791000;,
    0.772000; 0.798000;,
    0.803000; 0.819000;,
    0.823000; 0.849000;,
    0.830000; 0.884000;,
    0.823000; 0.920000;,
    0.250000; 0.621000;,
    0.250000; 0.840000;,
    0.468000; 0.840000;,
    0.468000; 0.621000;,
    0.250000; 0.391000;,
    0.250000; 0.610000;,
    0.468000; 0.610000;,
    0.468000; 0.391000;,
    0.250000; 0.161000;,
    0.250000; 0.380000;,
    0.468000; 0.380000;,
    0.468000; 0.161000;,
    0.005000; 0.615000;,
    0.005000; 0.845000;,
    0.005000; 0.385000;,
    0.005000; 0.155000;,
    0.832000; 0.374000;,
    0.832000; 0.415000;,
    0.631000; 0.419000;,
    0.631000; 0.379000;,
    0.832000; 0.333000;,
    0.631000; 0.337000;,
    0.832000; 0.292000;,
    0.631000; 0.294000;,
    0.832000; 0.251000;,
    0.631000; 0.250000;,
    0.832000; 0.209000;,
    0.631000; 0.207000;,
    0.832000; 0.168000;,
    0.631000; 0.164000;,
    0.832000; 0.127000;,
    0.631000; 0.122000;,
    0.832000; 0.086000;,
    0.631000; 0.082000;,
    0.832000; 0.045000;,
    0.631000; 0.043000;,
    0.816000; 0.004000;,
    0.631000; 0.005000;,
    0.832000; 0.456000;,
    0.816000; 0.498000;,
    0.631000; 0.496000;,
    0.631000; 0.458000;,
    0.994000; 0.108000;,
    0.994000; 0.146000;,
    0.999000; 0.146000;,
    0.999000; 0.108000;,
    0.994000; 0.069000;,
    0.999000; 0.069000;,
    0.994000; 0.032000;,
    0.999000; 0.032000;,
    0.574000; 0.006000;,
    0.529000; 0.006000;,
    0.529000; 0.015000;,
    0.574000; 0.015000;,
    0.619000; 0.006000;,
    0.619000; 0.015000;,
    0.482000; 0.006000;,
    0.436000; 0.006000;,
    0.436000; 0.015000;,
    0.482000; 0.015000;,
    0.528000; 0.006000;,
    0.528000; 0.015000;,
    0.994000; 0.302000;,
    0.994000; 0.264000;,
    0.999000; 0.264000;,
    0.999000; 0.302000;,
    0.994000; 0.341000;,
    0.999000; 0.341000;,
    0.994000; 0.379000;,
    0.999000; 0.379000;,
    0.994000; 0.417000;,
    0.999000; 0.417000;,
    0.994000; 0.456000;,
    0.999000; 0.456000;,
    0.994000; 0.494000;,
    0.999000; 0.494000;,
    0.994000; 0.223000;,
    0.994000; 0.261000;,
    0.999000; 0.261000;,
    0.999000; 0.223000;,
    0.994000; 0.184000;,
    0.999000; 0.184000;,
    0.987000; 0.004000;,
    0.987000; 0.010000;,
    0.840000; 0.010000;,
    0.840000; 0.004000;,
    0.988000; 0.065000;,
    0.988000; 0.026000;,
    0.840000; 0.022000;,
    0.840000; 0.061000;,
    0.988000; 0.104000;,
    0.840000; 0.101000;,
    0.988000; 0.143000;,
    0.840000; 0.141000;,
    0.988000; 0.182000;,
    0.840000; 0.180000;,
    0.988000; 0.221000;,
    0.840000; 0.220000;,
    0.988000; 0.260000;,
    0.840000; 0.260000;,
    0.988000; 0.299000;,
    0.840000; 0.300000;,
    0.988000; 0.338000;,
    0.840000; 0.339000;,
    0.988000; 0.377000;,
    0.840000; 0.379000;,
    0.988000; 0.416000;,
    0.840000; 0.419000;,
    0.988000; 0.455000;,
    0.840000; 0.458000;,
    0.988000; 0.494000;,
    0.840000; 0.498000;,
    0.987000; 0.019000;,
    0.987000; 0.012000;,
    0.840000; 0.012000;,
    0.840000; 0.019000;,
    0.509000; 0.037000;,
    0.473000; 0.037000;,
    0.473000; 0.021000;,
    0.509000; 0.021000;,
    0.617000; 0.037000;,
    0.581000; 0.037000;,
    0.581000; 0.021000;,
    0.617000; 0.021000;,
    0.545000; 0.037000;,
    0.545000; 0.021000;,
    0.832000; 0.374000;,
    0.832000; 0.415000;,
    0.631000; 0.419000;,
    0.631000; 0.379000;,
    0.832000; 0.333000;,
    0.631000; 0.337000;,
    0.832000; 0.292000;,
    0.631000; 0.294000;,
    0.832000; 0.251000;,
    0.631000; 0.250000;,
    0.832000; 0.209000;,
    0.631000; 0.207000;,
    0.832000; 0.168000;,
    0.631000; 0.164000;,
    0.832000; 0.127000;,
    0.631000; 0.122000;,
    0.832000; 0.086000;,
    0.631000; 0.082000;,
    0.832000; 0.045000;,
    0.631000; 0.043000;,
    0.816000; 0.004000;,
    0.631000; 0.005000;,
    0.832000; 0.456000;,
    0.816000; 0.498000;,
    0.631000; 0.496000;,
    0.631000; 0.458000;,
    0.994000; 0.108000;,
    0.994000; 0.146000;,
    0.999000; 0.146000;,
    0.999000; 0.108000;,
    0.994000; 0.069000;,
    0.999000; 0.069000;,
    0.994000; 0.032000;,
    0.999000; 0.032000;,
    0.574000; 0.006000;,
    0.529000; 0.006000;,
    0.529000; 0.015000;,
    0.574000; 0.015000;,
    0.619000; 0.006000;,
    0.619000; 0.015000;,
    0.482000; 0.006000;,
    0.436000; 0.006000;,
    0.436000; 0.015000;,
    0.482000; 0.015000;,
    0.528000; 0.006000;,
    0.528000; 0.015000;,
    0.994000; 0.302000;,
    0.994000; 0.264000;,
    0.999000; 0.264000;,
    0.999000; 0.302000;,
    0.994000; 0.341000;,
    0.999000; 0.341000;,
    0.994000; 0.379000;,
    0.999000; 0.379000;,
    0.994000; 0.417000;,
    0.999000; 0.417000;,
    0.994000; 0.456000;,
    0.999000; 0.456000;,
    0.994000; 0.494000;,
    0.999000; 0.494000;,
    0.994000; 0.223000;,
    0.994000; 0.261000;,
    0.999000; 0.261000;,
    0.999000; 0.223000;,
    0.994000; 0.184000;,
    0.999000; 0.184000;,
    0.987000; 0.004000;,
    0.987000; 0.010000;,
    0.840000; 0.010000;,
    0.840000; 0.004000;,
    0.988000; 0.065000;,
    0.988000; 0.026000;,
    0.840000; 0.022000;,
    0.840000; 0.061000;,
    0.988000; 0.104000;,
    0.840000; 0.101000;,
    0.988000; 0.143000;,
    0.840000; 0.141000;,
    0.988000; 0.182000;,
    0.840000; 0.180000;,
    0.988000; 0.221000;,
    0.840000; 0.220000;,
    0.988000; 0.260000;,
    0.840000; 0.260000;,
    0.988000; 0.299000;,
    0.840000; 0.300000;,
    0.988000; 0.338000;,
    0.840000; 0.339000;,
    0.988000; 0.377000;,
    0.840000; 0.379000;,
    0.988000; 0.416000;,
    0.840000; 0.419000;,
    0.988000; 0.455000;,
    0.840000; 0.458000;,
    0.988000; 0.494000;,
    0.840000; 0.498000;,
    0.987000; 0.019000;,
    0.987000; 0.012000;,
    0.840000; 0.012000;,
    0.840000; 0.019000;,
    0.509000; 0.037000;,
    0.473000; 0.037000;,
    0.473000; 0.021000;,
    0.509000; 0.021000;,
    0.617000; 0.037000;,
    0.581000; 0.037000;,
    0.581000; 0.021000;,
    0.617000; 0.021000;,
    0.545000; 0.037000;,
    0.545000; 0.021000;,
    0.832000; 0.374000;,
    0.832000; 0.415000;,
    0.631000; 0.419000;,
    0.631000; 0.379000;,
    0.832000; 0.333000;,
    0.631000; 0.337000;,
    0.832000; 0.292000;,
    0.631000; 0.294000;,
    0.832000; 0.251000;,
    0.631000; 0.250000;,
    0.832000; 0.209000;,
    0.631000; 0.207000;,
    0.832000; 0.168000;,
    0.631000; 0.164000;,
    0.832000; 0.127000;,
    0.631000; 0.122000;,
    0.832000; 0.086000;,
    0.631000; 0.082000;,
    0.832000; 0.045000;,
    0.631000; 0.043000;,
    0.816000; 0.004000;,
    0.631000; 0.005000;,
    0.832000; 0.456000;,
    0.816000; 0.498000;,
    0.631000; 0.496000;,
    0.631000; 0.458000;,
    0.994000; 0.108000;,
    0.994000; 0.146000;,
    0.999000; 0.146000;,
    0.999000; 0.108000;,
    0.994000; 0.069000;,
    0.999000; 0.069000;,
    0.994000; 0.032000;,
    0.999000; 0.032000;,
    0.574000; 0.006000;,
    0.529000; 0.006000;,
    0.529000; 0.015000;,
    0.574000; 0.015000;,
    0.619000; 0.006000;,
    0.619000; 0.015000;,
    0.482000; 0.006000;,
    0.436000; 0.006000;,
    0.436000; 0.015000;,
    0.482000; 0.015000;,
    0.528000; 0.006000;,
    0.528000; 0.015000;,
    0.994000; 0.302000;,
    0.994000; 0.264000;,
    0.999000; 0.264000;,
    0.999000; 0.302000;,
    0.994000; 0.341000;,
    0.999000; 0.341000;,
    0.994000; 0.379000;,
    0.999000; 0.379000;,
    0.994000; 0.417000;,
    0.999000; 0.417000;,
    0.994000; 0.456000;,
    0.999000; 0.456000;,
    0.994000; 0.494000;,
    0.999000; 0.494000;,
    0.994000; 0.223000;,
    0.994000; 0.261000;,
    0.999000; 0.261000;,
    0.999000; 0.223000;,
    0.994000; 0.184000;,
    0.999000; 0.184000;,
    0.987000; 0.004000;,
    0.987000; 0.010000;,
    0.840000; 0.010000;,
    0.840000; 0.004000;,
    0.988000; 0.065000;,
    0.988000; 0.026000;,
    0.840000; 0.022000;,
    0.840000; 0.061000;,
    0.988000; 0.104000;,
    0.840000; 0.101000;,
    0.988000; 0.143000;,
    0.840000; 0.141000;,
    0.988000; 0.182000;,
    0.840000; 0.180000;,
    0.988000; 0.221000;,
    0.840000; 0.220000;,
    0.988000; 0.260000;,
    0.840000; 0.260000;,
    0.988000; 0.299000;,
    0.840000; 0.300000;,
    0.988000; 0.338000;,
    0.840000; 0.339000;,
    0.988000; 0.377000;,
    0.840000; 0.379000;,
    0.988000; 0.416000;,
    0.840000; 0.419000;,
    0.988000; 0.455000;,
    0.840000; 0.458000;,
    0.988000; 0.494000;,
    0.840000; 0.498000;,
    0.987000; 0.019000;,
    0.987000; 0.012000;,
    0.840000; 0.012000;,
    0.840000; 0.019000;,
    0.509000; 0.037000;,
    0.473000; 0.037000;,
    0.473000; 0.021000;,
    0.509000; 0.021000;,
    0.617000; 0.037000;,
    0.581000; 0.037000;,
    0.581000; 0.021000;,
    0.617000; 0.021000;,
    0.545000; 0.037000;,
    0.545000; 0.021000;,
    0.832000; 0.004000;,
    0.832000; 0.498000;,
    0.832000; 0.004000;,
    0.832000; 0.498000;,
    0.832000; 0.004000;,
    0.832000; 0.498000;;
   }

   FVFData {
    258;
    1014;
    0,
    1065353216,
    0,
    1065353216,
    0,
    1065353216,
    0,
    1065353216,
    0,
    1065353216,
    0,
    1065353216,
    0,
    1065353216,
    0,
    1065353216,
    0,
    1065353216,
    0,
    1065353216,
    0,
    1065353216,
    0,
    1065353216,
    0,
    1065353216,
    0,
    1065353216,
    0,
    1065353216,
    0,
    1065353216,
    0,
    1065353216,
    0,
    1065353216,
    0,
    1065353216,
    0,
    1065353216,
    0,
    1065353216,
    0,
    1065353216,
    0,
    1065353216,
    0,
    1065353216,
    0,
    1065353216,
    0,
    1065353216,
    0,
    1065353216,
    0,
    1065353216,
    0,
    1065353216,
    0,
    1065353216,
    0,
    1065353216,
    0,
    1065353216,
    0,
    1065353216,
    0,
    1065353216,
    0,
    1065353216,
    0,
    1065353216,
    0,
    1065353216,
    0,
    1065353216,
    0,
    1065353216,
    0,
    1065353216,
    0,
    1065353216,
    0,
    1065353216,
    0,
    1065353216,
    0,
    1065353216,
    0,
    1065353216,
    0,
    1065353216,
    0,
    1065353216,
    0,
    1065353216,
    0,
    1065353216,
    0,
    1065353216,
    0,
    1065353216,
    0,
    1065353216,
    0,
    1065353216,
    0,
    1065353216,
    0,
    1065353216,
    0,
    1065353216,
    0,
    1065353216,
    0,
    1065353216,
    0,
    1065353216,
    0,
    1065353216,
    0,
    1065353216,
    0,
    1065353216,
    0,
    1065353216,
    0,
    1065353216,
    0,
    1065353216,
    0,
    1065353216,
    0,
    1065353216,
    0,
    1065353216,
    0,
    1065353216,
    0,
    1065353216,
    0,
    1065353216,
    0,
    1065353216,
    0,
    1065353216,
    0,
    1065353216,
    0,
    1065353216,
    0,
    1065353216,
    0,
    1065353216,
    0,
    1065353216,
    0,
    1065353216,
    0,
    1065353216,
    0,
    1065353216,
    0,
    1065353216,
    0,
    1065353216,
    0,
    1065353216,
    0,
    1065353216,
    0,
    1065353216,
    0,
    1065353216,
    0,
    1065353216,
    0,
    1065353216,
    0,
    1065353216,
    0,
    1065353216,
    0,
    1065353216,
    0,
    1065353216,
    0,
    1065353216,
    0,
    1065353216,
    0,
    1065353216,
    0,
    1065353216,
    0,
    1065353216,
    0,
    1065353216,
    0,
    1065353216,
    0,
    1065353216,
    0,
    1065353216,
    0,
    1065353216,
    0,
    1065353216,
    0,
    1065353216,
    0,
    1065353216,
    0,
    1065353216,
    0,
    1065353216,
    0,
    1065353216,
    0,
    1065353216,
    0,
    1065353216,
    0,
    1065353216,
    0,
    1065353216,
    0,
    1065353216,
    0,
    1065353216,
    0,
    1065353216,
    0,
    1065353216,
    0,
    1065353216,
    0,
    1065353216,
    0,
    1065353216,
    0,
    1065353216,
    0,
    1065353216,
    0,
    1065353216,
    0,
    1065353216,
    0,
    1065353216,
    0,
    1065353216,
    0,
    1065353216,
    0,
    1065353216,
    0,
    1065353216,
    0,
    1065353216,
    0,
    1065353216,
    0,
    1065353216,
    0,
    1065353216,
    0,
    1065353216,
    0,
    1065353216,
    0,
    1065353216,
    0,
    1065353216,
    0,
    1065353216,
    0,
    1065353216,
    0,
    1065353216,
    0,
    1065353216,
    0,
    1065353216,
    0,
    1065353216,
    0,
    1065353216,
    0,
    1065353216,
    0,
    1065353216,
    0,
    1065353216,
    0,
    1065353216,
    0,
    1065353216,
    0,
    1065353216,
    0,
    1065353216,
    0,
    1065353216,
    0,
    1065353216,
    0,
    1065353216,
    0,
    1065353216,
    0,
    1065353216,
    0,
    1065353216,
    0,
    1065353216,
    0,
    1065353216,
    0,
    1065353216,
    0,
    1065353216,
    0,
    1065353216,
    0,
    1065353216,
    0,
    1065353216,
    0,
    1065353216,
    0,
    1065353216,
    0,
    1065353216,
    0,
    1065353216,
    0,
    1065353216,
    0,
    1065353216,
    0,
    1065353216,
    0,
    1065353216,
    0,
    1065353216,
    0,
    1065353216,
    0,
    1065353216,
    0,
    1065353216,
    0,
    1065353216,
    0,
    1065353216,
    0,
    1065353216,
    0,
    1065353216,
    0,
    1065353216,
    0,
    1065353216,
    0,
    1065353216,
    0,
    1065353216,
    0,
    1065353216,
    0,
    1065353216,
    0,
    1065353216,
    0,
    1065353216,
    0,
    1065353216,
    0,
    1065353216,
    0,
    1065353216,
    0,
    1065353216,
    0,
    1065353216,
    0,
    1065353216,
    0,
    1065353216,
    0,
    1065353216,
    0,
    1065353216,
    0,
    1065353216,
    0,
    1065353216,
    0,
    1065353216,
    0,
    1065353216,
    0,
    1065353216,
    0,
    1065353216,
    0,
    1065353216,
    0,
    1065353216,
    0,
    1065353216,
    0,
    1065353216,
    0,
    1065353216,
    0,
    1065353216,
    0,
    1065353216,
    0,
    1065353216,
    0,
    1065353216,
    0,
    1065353216,
    0,
    1065353216,
    0,
    1065353216,
    0,
    1065353216,
    0,
    1065353216,
    0,
    1065353216,
    0,
    1065353216,
    0,
    1065353216,
    0,
    1065353216,
    0,
    1065353216,
    0,
    1065353216,
    0,
    1065353216,
    0,
    1065353216,
    0,
    1065353216,
    0,
    1065353216,
    0,
    1065353216,
    0,
    1065353216,
    0,
    1065353216,
    0,
    1065353216,
    0,
    1065353216,
    0,
    1065353216,
    0,
    1065353216,
    0,
    1065353216,
    0,
    1065353216,
    0,
    1065353216,
    0,
    1065353216,
    0,
    1065353216,
    0,
    1065353216,
    0,
    1065353216,
    0,
    1065353216,
    0,
    1065353216,
    0,
    1065353216,
    0,
    1065353216,
    0,
    1065353216,
    0,
    1065353216,
    0,
    1065353216,
    0,
    1065353216,
    0,
    1065353216,
    0,
    1065353216,
    0,
    1065353216,
    0,
    1065353216,
    0,
    1065353216,
    0,
    1065353216,
    0,
    1065353216,
    0,
    1065353216,
    0,
    1065353216,
    0,
    1065353216,
    0,
    1065353216,
    0,
    1065353216,
    0,
    1065353216,
    0,
    1065353216,
    0,
    1065353216,
    0,
    1065353216,
    0,
    1065353216,
    0,
    1065353216,
    0,
    1065353216,
    0,
    1065353216,
    0,
    1065353216,
    0,
    1065353216,
    0,
    1065353216,
    0,
    1065353216,
    0,
    1065353216,
    0,
    1065353216,
    0,
    1065353216,
    0,
    1065353216,
    0,
    1065353216,
    0,
    1065353216,
    0,
    1065353216,
    0,
    1065353216,
    0,
    1065353216,
    0,
    1065353216,
    0,
    1065353216,
    0,
    1065353216,
    0,
    1065353216,
    0,
    1065353216,
    0,
    1065353216,
    0,
    1065353216,
    0,
    1065353216,
    0,
    1065353216,
    0,
    1065353216,
    0,
    1065353216,
    0,
    1065353216,
    0,
    1065353216,
    0,
    1065353216,
    0,
    1065353216,
    0,
    1065353216,
    0,
    1065353216,
    0,
    1065353216,
    0,
    1065353216,
    0,
    1065353216,
    0,
    1065353216,
    0,
    1065353216,
    0,
    1065353216,
    0,
    1065353216,
    0,
    1065353216,
    0,
    1065353216,
    0,
    1065353216,
    0,
    1065353216,
    0,
    1065353216,
    0,
    1065353216,
    0,
    1065353216,
    0,
    1065353216,
    0,
    1065353216,
    0,
    1065353216,
    0,
    1065353216,
    0,
    1065353216,
    0,
    1065353216,
    0,
    1065353216,
    0,
    1065353216,
    0,
    1065353216,
    0,
    1065353216,
    0,
    1065353216,
    0,
    1065353216,
    0,
    1065353216,
    0,
    1065353216,
    0,
    1065353216,
    0,
    1065353216,
    0,
    1065353216,
    0,
    1065353216,
    0,
    1065353216,
    0,
    1065353216,
    0,
    1065353216,
    0,
    1065353216,
    0,
    1065353216,
    0,
    1065353216,
    0,
    1065353216,
    0,
    1065353216,
    0,
    1065353216,
    0,
    1065353216,
    0,
    1065353216,
    0,
    1065353216,
    0,
    1065353216,
    0,
    1065353216,
    0,
    1065353216,
    0,
    1065353216,
    0,
    1065353216,
    0,
    1065353216,
    0,
    1065353216,
    0,
    1065353216,
    0,
    1065353216,
    0,
    1065353216,
    0,
    1065353216,
    0,
    1065353216,
    0,
    1065353216,
    0,
    1065353216,
    0,
    1065353216,
    0,
    1065353216,
    0,
    1065353216,
    0,
    1065353216,
    0,
    1065353216,
    0,
    1065353216,
    0,
    1065353216,
    0,
    1065353216,
    0,
    1065353216,
    0,
    1065353216,
    0,
    1065353216,
    0,
    1065353216,
    0,
    1065353216,
    0,
    1065353216,
    0,
    1065353216,
    0,
    1065353216,
    0,
    1065353216,
    0,
    1065353216,
    0,
    1065353216,
    0,
    1065353216,
    0,
    1065353216,
    0,
    1065353216,
    0,
    1065353216,
    0,
    1065353216,
    0,
    1065353216,
    0,
    1065353216,
    0,
    1065353216,
    0,
    1065353216,
    0,
    1065353216,
    0,
    1065353216,
    0,
    1065353216,
    0,
    1065353216,
    0,
    1065353216,
    0,
    1065353216,
    0,
    1065353216,
    0,
    1065353216,
    0,
    1065353216,
    0,
    1065353216,
    0,
    1065353216,
    0,
    1065353216,
    0,
    1065353216,
    0,
    1065353216,
    0,
    1065353216,
    0,
    1065353216,
    0,
    1065353216,
    0,
    1065353216,
    0,
    1065353216,
    0,
    1065353216,
    0,
    1065353216,
    0,
    1065353216,
    0,
    1065353216,
    0,
    1065353216,
    0,
    1065353216,
    0,
    1065353216,
    0,
    1065353216,
    0,
    1065353216,
    0,
    1065353216,
    0,
    1065353216,
    0,
    1065353216,
    0,
    1065353216,
    0,
    1065353216,
    0,
    1065353216,
    0,
    1065353216,
    0,
    1065353216,
    0,
    1065353216,
    0,
    1065353216,
    0,
    1065353216,
    0,
    1065353216,
    0,
    1065353216,
    0,
    1065353216,
    0,
    1065353216,
    0,
    1065353216,
    0,
    1065353216,
    0,
    1065353216,
    0,
    1065353216,
    0,
    1065353216,
    0,
    1065353216,
    0,
    1065353216,
    0,
    1065353216,
    0,
    1065353216,
    0,
    1065353216,
    0,
    1065353216,
    0,
    1065353216,
    0,
    1065353216,
    0,
    1065353216,
    0,
    1065353216,
    0,
    1065353216,
    0,
    1065353216,
    0,
    1065353216,
    0,
    1065353216,
    0,
    1065353216,
    0,
    1065353216,
    0,
    1065353216,
    0,
    1065353216,
    0,
    1065353216,
    0,
    1065353216,
    0,
    1065353216,
    0,
    1065353216,
    0,
    1065353216,
    0,
    1065353216,
    0,
    1065353216,
    0,
    1065353216,
    0,
    1065353216,
    0,
    1065353216,
    0,
    1065353216,
    0,
    1065353216,
    0,
    1065353216,
    0,
    1065353216,
    0,
    1065353216,
    0,
    1065353216,
    0,
    1065353216,
    0,
    1065353216,
    0,
    1065353216,
    0,
    1065353216,
    0,
    1065353216,
    0,
    1065353216,
    0,
    1065353216,
    0,
    1065353216,
    0,
    1065353216,
    0,
    1065353216,
    0,
    1065353216,
    0,
    1065353216,
    0,
    1065353216,
    0,
    1065353216,
    0,
    1065353216,
    0,
    1065353216,
    0,
    1065353216,
    0,
    1065353216,
    0,
    1065353216,
    0,
    1065353216,
    0,
    1065353216,
    0,
    1065353216,
    0,
    1065353216,
    0,
    1065353216,
    0,
    1065353216,
    0,
    1065353216,
    0,
    1065353216,
    0,
    1065353216,
    0,
    1065353216,
    0,
    1065353216,
    0,
    1065353216,
    0,
    1065353216,
    0,
    1065353216,
    0,
    1065353216,
    0,
    1065353216,
    0,
    1065353216,
    0,
    1065353216,
    0,
    1065353216,
    0,
    1065353216,
    0,
    1065353216;
   }

   MeshMaterialList {
    2;
    246;
    0,
    0,
    0,
    0,
    0,
    0,
    0,
    0,
    0,
    0,
    0,
    0,
    0,
    0,
    0,
    0,
    0,
    0,
    0,
    0,
    0,
    0,
    0,
    0,
    0,
    0,
    0,
    0,
    0,
    0,
    0,
    0,
    0,
    0,
    0,
    0,
    0,
    0,
    0,
    0,
    0,
    0,
    0,
    0,
    0,
    0,
    0,
    0,
    0,
    0,
    0,
    0,
    0,
    0,
    0,
    0,
    0,
    0,
    0,
    0,
    0,
    0,
    0,
    0,
    0,
    0,
    0,
    0,
    0,
    0,
    0,
    0,
    0,
    0,
    0,
    0,
    0,
    0,
    0,
    0,
    0,
    0,
    0,
    0,
    0,
    0,
    0,
    0,
    1,
    1,
    1,
    1,
    1,
    1,
    1,
    1,
    1,
    1,
    1,
    1,
    1,
    1,
    1,
    1,
    1,
    1,
    1,
    1,
    1,
    1,
    1,
    1,
    1,
    1,
    1,
    1,
    1,
    1,
    1,
    1,
    1,
    1,
    1,
    1,
    1,
    1,
    1,
    1,
    1,
    1,
    1,
    1,
    1,
    1,
    1,
    1,
    1,
    1,
    1,
    1,
    1,
    1,
    1,
    1,
    1,
    1,
    1,
    1,
    1,
    1,
    1,
    1,
    1,
    1,
    1,
    1,
    1,
    1,
    1,
    1,
    1,
    1,
    1,
    1,
    1,
    1,
    1,
    1,
    1,
    1,
    1,
    1,
    1,
    1,
    1,
    1,
    1,
    1,
    1,
    1,
    1,
    1,
    1,
    1,
    1,
    1,
    1,
    1,
    1,
    1,
    1,
    1,
    1,
    1,
    1,
    1,
    1,
    1,
    1,
    1,
    1,
    1,
    1,
    1,
    1,
    1,
    1,
    1,
    1,
    1,
    1,
    1,
    1,
    1,
    1,
    1,
    1,
    1,
    1,
    1,
    1,
    1,
    1,
    1,
    1,
    1,
    1,
    1,
    1,
    1,
    1,
    1,
    1,
    1,
    1,
    1,
    1,
    1,
    1,
    1,
    1,
    1,
    1,
    1,
    1,
    1;

    Material trafficlightred {
     0.588000; 0.588000; 0.588000; 1.000000;;
     128.000000;
     0.000000; 0.000000; 0.000000;;
     0.000000; 0.000000; 0.000000;;
    }

    Material trafficlightred_Smoothing {
     0.588000; 0.588000; 0.588000; 1.000000;;
     128.000000;
     0.000000; 0.000000; 0.000000;;
     0.000000; 0.000000; 0.000000;;
    }

   }
  }
}
