xof 0303txt 0032

// DirectX 8.0 file
// Creator: Ultimate Unwrap3D Pro v3.27
// Website: http://www.unwrap3d.com
// Time: Fri Jun 01 18:50:19 2012

// Start of Templates

template VertexDuplicationIndices {
 <b8d65549-d7c9-4995-89cf-53a9a8b031e3>
 DWORD nIndices;
 DWORD nOriginalVertices;
 array DWORD indices[nIndices];
}

template FVFData {
 <b6e70a0e-8ef9-4e83-94ad-ecc8b0c04897>
 DWORD dwFVF;
 DWORD nDWords;
 array DWORD data[nDWords];
}

template XSkinMeshHeader {
 <3CF169CE-FF7C-44ab-93C0-F78F62D172E2>
 WORD nMaxSkinWeightsPerVertex;
 WORD nMaxSkinWeightsPerFace;
 WORD nBones;
}

template SkinWeights {
 <6F0D123B-BAD2-4167-A0D0-80224F25FABB>
 STRING transformNodeName;
 DWORD nWeights;
 array DWORD vertexIndices[nWeights];
 array FLOAT weights[nWeights];
 Matrix4x4 matrixOffset;
}

template AnimTicksPerSecond {
 <9E415A43-7BA6-4a73-8743-B73D47E88476>
 DWORD AnimTicksPerSecond;
}

// Start of Frames

Frame trafficlight {
   FrameTransformMatrix {
    1.000000, 0.000000, 0.000000, 0.000000,
    0.000000, 1.000000, 0.000000, 0.000000,
    0.000000, 0.000000, 1.000000, 0.000000,
    0.000000, 0.000000, 0.000000, 1.000000;;
   }

   Mesh trafficlight {
    507;
    -0.190000; 0.390000; -0.031000;,
    -0.190000; 0.010000; -0.031000;,
    0.190000; 0.010000; -0.031000;,
    0.190000; 0.390000; -0.031000;,
    -0.190000; 0.790000; -0.031000;,
    -0.190000; 0.410000; -0.031000;,
    0.190000; 0.410000; -0.031000;,
    0.190000; 0.790000; -0.031000;,
    -0.190000; 1.190000; -0.031000;,
    -0.190000; 0.810000; -0.031000;,
    0.190000; 0.810000; -0.031000;,
    0.190000; 1.190000; -0.031000;,
    -0.077000; 0.400000; -0.322000;,
    0.077000; 0.400000; -0.322000;,
    0.077000; 0.000000; -0.322000;,
    -0.077000; 0.000000; -0.322000;,
    -0.077000; 0.800000; -0.322000;,
    0.077000; 0.800000; -0.322000;,
    -0.077000; 1.200000; -0.322000;,
    0.077000; 1.200000; -0.322000;,
    -0.200000; 0.000000; -0.111000;,
    0.200000; 0.000000; -0.111000;,
    0.200000; 0.000000; -0.061000;,
    -0.200000; 0.000000; -0.061000;,
    -0.200000; 0.400000; -0.111000;,
    -0.200000; 0.000000; -0.111000;,
    -0.200000; 0.400000; -0.061000;,
    -0.200000; 0.800000; -0.111000;,
    -0.200000; 0.800000; -0.061000;,
    -0.200000; 1.200000; -0.111000;,
    -0.200000; 1.200000; -0.061000;,
    0.200000; 1.200000; -0.111000;,
    -0.200000; 1.200000; -0.111000;,
    0.200000; 1.200000; -0.061000;,
    0.200000; 0.800000; -0.111000;,
    0.200000; 1.200000; -0.111000;,
    0.200000; 0.800000; -0.061000;,
    0.200000; 0.400000; -0.111000;,
    0.200000; 0.400000; -0.061000;,
    0.200000; 0.000000; -0.111000;,
    0.190000; 0.390000; -0.061000;,
    0.190000; 0.010000; -0.061000;,
    -0.190000; 0.390000; -0.061000;,
    -0.190000; 0.010000; -0.061000;,
    0.190000; 0.790000; -0.061000;,
    0.190000; 0.410000; -0.061000;,
    -0.190000; 0.790000; -0.061000;,
    -0.190000; 0.410000; -0.061000;,
    0.190000; 1.190000; -0.061000;,
    0.190000; 0.810000; -0.061000;,
    -0.190000; 1.190000; -0.061000;,
    -0.190000; 0.810000; -0.061000;,
    0.190000; 0.390000; -0.031000;,
    0.190000; 0.010000; -0.031000;,
    0.190000; 0.010000; -0.061000;,
    0.190000; 0.390000; -0.061000;,
    -0.190000; 0.390000; -0.031000;,
    0.190000; 0.390000; -0.031000;,
    0.190000; 0.390000; -0.061000;,
    -0.190000; 0.390000; -0.061000;,
    -0.190000; 0.010000; -0.031000;,
    -0.190000; 0.390000; -0.031000;,
    -0.190000; 0.390000; -0.061000;,
    -0.190000; 0.010000; -0.061000;,
    0.190000; 0.010000; -0.031000;,
    -0.190000; 0.010000; -0.031000;,
    -0.190000; 0.010000; -0.061000;,
    0.190000; 0.010000; -0.061000;,
    0.190000; 0.790000; -0.031000;,
    0.190000; 0.410000; -0.031000;,
    0.190000; 0.410000; -0.061000;,
    0.190000; 0.790000; -0.061000;,
    -0.190000; 0.790000; -0.031000;,
    0.190000; 0.790000; -0.031000;,
    0.190000; 0.790000; -0.061000;,
    -0.190000; 0.790000; -0.061000;,
    -0.190000; 0.410000; -0.031000;,
    -0.190000; 0.790000; -0.031000;,
    -0.190000; 0.790000; -0.061000;,
    -0.190000; 0.410000; -0.061000;,
    0.190000; 0.410000; -0.031000;,
    -0.190000; 0.410000; -0.031000;,
    -0.190000; 0.410000; -0.061000;,
    0.190000; 0.410000; -0.061000;,
    0.190000; 1.190000; -0.031000;,
    0.190000; 0.810000; -0.031000;,
    0.190000; 0.810000; -0.061000;,
    0.190000; 1.190000; -0.061000;,
    -0.190000; 1.190000; -0.031000;,
    0.190000; 1.190000; -0.031000;,
    0.190000; 1.190000; -0.061000;,
    -0.190000; 1.190000; -0.061000;,
    -0.190000; 0.810000; -0.031000;,
    -0.190000; 1.190000; -0.031000;,
    -0.190000; 1.190000; -0.061000;,
    -0.190000; 0.810000; -0.061000;,
    0.190000; 0.810000; -0.031000;,
    -0.190000; 0.810000; -0.031000;,
    -0.190000; 0.810000; -0.061000;,
    0.190000; 0.810000; -0.061000;,
    -0.168000; 0.000000; -0.211000;,
    0.168000; 0.000000; -0.211000;,
    -0.168000; 0.400000; -0.211000;,
    -0.168000; 0.000000; -0.211000;,
    -0.168000; 0.800000; -0.211000;,
    -0.168000; 1.200000; -0.211000;,
    0.168000; 1.200000; -0.211000;,
    -0.168000; 1.200000; -0.211000;,
    0.168000; 0.800000; -0.211000;,
    0.168000; 1.200000; -0.211000;,
    0.168000; 0.400000; -0.211000;,
    0.168000; 0.000000; -0.211000;,
    -0.077000; 0.000000; -0.322000;,
    0.077000; 0.000000; -0.322000;,
    0.077000; 1.200000; -0.322000;,
    -0.077000; 1.200000; -0.322000;,
    0.077000; 0.800000; -0.322000;,
    0.077000; 1.200000; -0.322000;,
    0.077000; 0.400000; -0.322000;,
    0.077000; 0.000000; -0.322000;,
    -0.153000; 1.063000; -0.032000;,
    -0.165000; 1.001000; -0.032000;,
    -0.165000; 0.987000; 0.322000;,
    -0.153000; 1.049000; 0.322000;,
    -0.117000; 1.116000; -0.032000;,
    -0.117000; 1.102000; 0.322000;,
    -0.064000; 1.152000; -0.032000;,
    -0.064000; 1.137000; 0.322000;,
    -0.002000; 1.164000; -0.032000;,
    -0.002000; 1.150000; 0.322000;,
    0.061000; 1.152000; -0.032000;,
    0.061000; 1.137000; 0.322000;,
    0.113000; 1.116000; -0.032000;,
    0.113000; 1.102000; 0.322000;,
    0.149000; 1.063000; -0.032000;,
    0.149000; 1.049000; 0.322000;,
    0.161000; 1.001000; -0.032000;,
    0.161000; 0.987000; 0.322000;,
    0.149000; 0.939000; -0.032000;,
    0.149000; 0.924000; 0.322000;,
    0.113000; 0.886000; -0.005000;,
    0.113000; 0.871000; 0.322000;,
    -0.153000; 0.939000; -0.032000;,
    -0.117000; 0.886000; -0.005000;,
    -0.117000; 0.871000; 0.322000;,
    -0.153000; 0.924000; 0.322000;,
    -0.155000; 0.987000; 0.322000;,
    -0.143000; 1.045000; 0.322000;,
    -0.153000; 1.049000; 0.322000;,
    -0.165000; 0.987000; 0.322000;,
    -0.143000; 0.928000; 0.322000;,
    -0.153000; 0.924000; 0.322000;,
    -0.110000; 0.879000; 0.322000;,
    -0.117000; 0.871000; 0.322000;,
    -0.060000; 0.860000; -0.000000;,
    -0.110000; 0.893000; -0.000000;,
    -0.117000; 0.886000; -0.005000;,
    -0.064000; 0.850000; -0.005000;,
    -0.002000; 0.848000; -0.000000;,
    -0.002000; 0.838000; -0.005000;,
    0.057000; 0.860000; -0.000000;,
    -0.002000; 0.848000; -0.000000;,
    -0.002000; 0.838000; -0.005000;,
    0.061000; 0.850000; -0.005000;,
    0.106000; 0.893000; -0.000000;,
    0.113000; 0.886000; -0.005000;,
    0.139000; 0.928000; 0.322000;,
    0.106000; 0.879000; 0.322000;,
    0.113000; 0.871000; 0.322000;,
    0.149000; 0.924000; 0.322000;,
    0.151000; 0.987000; 0.322000;,
    0.161000; 0.987000; 0.322000;,
    0.139000; 1.045000; 0.322000;,
    0.149000; 1.049000; 0.322000;,
    0.106000; 1.095000; 0.322000;,
    0.113000; 1.102000; 0.322000;,
    0.057000; 1.128000; 0.322000;,
    0.061000; 1.137000; 0.322000;,
    -0.002000; 1.140000; 0.322000;,
    -0.002000; 1.150000; 0.322000;,
    -0.060000; 1.128000; 0.322000;,
    -0.002000; 1.140000; 0.322000;,
    -0.002000; 1.150000; 0.322000;,
    -0.064000; 1.137000; 0.322000;,
    -0.110000; 1.095000; 0.322000;,
    -0.117000; 1.102000; 0.322000;,
    0.106000; 0.893000; -0.000000;,
    0.113000; 0.886000; -0.005000;,
    0.113000; 0.871000; 0.322000;,
    0.106000; 0.879000; 0.322000;,
    0.139000; 0.942000; -0.000000;,
    0.106000; 0.893000; -0.000000;,
    0.106000; 0.879000; 0.322000;,
    0.139000; 0.928000; 0.322000;,
    0.151000; 1.001000; -0.000000;,
    0.151000; 0.987000; 0.322000;,
    0.139000; 1.059000; -0.000000;,
    0.139000; 1.045000; 0.322000;,
    0.106000; 1.109000; -0.000000;,
    0.106000; 1.095000; 0.322000;,
    0.057000; 1.142000; -0.000000;,
    0.057000; 1.128000; 0.322000;,
    -0.002000; 1.154000; -0.000000;,
    -0.002000; 1.140000; 0.322000;,
    -0.060000; 1.142000; -0.000000;,
    -0.060000; 1.128000; 0.322000;,
    -0.110000; 1.109000; -0.000000;,
    -0.110000; 1.095000; 0.322000;,
    -0.143000; 1.059000; -0.000000;,
    -0.143000; 1.045000; 0.322000;,
    -0.155000; 1.001000; -0.000000;,
    -0.155000; 0.987000; 0.322000;,
    -0.143000; 0.942000; -0.000000;,
    -0.143000; 0.928000; 0.322000;,
    -0.110000; 0.893000; -0.000000;,
    -0.110000; 0.879000; 0.322000;,
    -0.117000; 0.886000; -0.005000;,
    -0.110000; 0.893000; -0.000000;,
    -0.110000; 0.879000; 0.322000;,
    -0.117000; 0.871000; 0.322000;,
    0.061000; 0.850000; -0.032000;,
    0.113000; 0.886000; -0.032000;,
    0.113000; 0.886000; -0.005000;,
    0.061000; 0.850000; -0.005000;,
    -0.117000; 0.886000; -0.032000;,
    -0.064000; 0.850000; -0.032000;,
    -0.064000; 0.850000; -0.005000;,
    -0.117000; 0.886000; -0.005000;,
    -0.002000; 0.838000; -0.032000;,
    -0.002000; 0.838000; -0.005000;,
    -0.153000; 0.661000; -0.032000;,
    -0.165000; 0.598000; -0.032000;,
    -0.165000; 0.584000; 0.322000;,
    -0.153000; 0.646000; 0.322000;,
    -0.117000; 0.713000; -0.032000;,
    -0.117000; 0.699000; 0.322000;,
    -0.064000; 0.749000; -0.032000;,
    -0.064000; 0.735000; 0.322000;,
    -0.002000; 0.761000; -0.032000;,
    -0.002000; 0.747000; 0.322000;,
    0.061000; 0.749000; -0.032000;,
    0.061000; 0.735000; 0.322000;,
    0.113000; 0.713000; -0.032000;,
    0.113000; 0.699000; 0.322000;,
    0.149000; 0.661000; -0.032000;,
    0.149000; 0.646000; 0.322000;,
    0.161000; 0.598000; -0.032000;,
    0.161000; 0.584000; 0.322000;,
    0.149000; 0.536000; -0.032000;,
    0.149000; 0.522000; 0.322000;,
    0.113000; 0.483000; -0.005000;,
    0.113000; 0.469000; 0.322000;,
    -0.153000; 0.536000; -0.032000;,
    -0.117000; 0.483000; -0.005000;,
    -0.117000; 0.469000; 0.322000;,
    -0.153000; 0.522000; 0.322000;,
    -0.155000; 0.584000; 0.322000;,
    -0.143000; 0.642000; 0.322000;,
    -0.153000; 0.646000; 0.322000;,
    -0.165000; 0.584000; 0.322000;,
    -0.143000; 0.525000; 0.322000;,
    -0.153000; 0.522000; 0.322000;,
    -0.110000; 0.476000; 0.322000;,
    -0.117000; 0.469000; 0.322000;,
    -0.060000; 0.457000; -0.000000;,
    -0.110000; 0.490000; -0.000000;,
    -0.117000; 0.483000; -0.005000;,
    -0.064000; 0.447000; -0.005000;,
    -0.002000; 0.445000; -0.000000;,
    -0.002000; 0.435000; -0.005000;,
    0.057000; 0.457000; -0.000000;,
    -0.002000; 0.445000; -0.000000;,
    -0.002000; 0.435000; -0.005000;,
    0.061000; 0.447000; -0.005000;,
    0.106000; 0.490000; -0.000000;,
    0.113000; 0.483000; -0.005000;,
    0.139000; 0.525000; 0.322000;,
    0.106000; 0.476000; 0.322000;,
    0.113000; 0.469000; 0.322000;,
    0.149000; 0.522000; 0.322000;,
    0.151000; 0.584000; 0.322000;,
    0.161000; 0.584000; 0.322000;,
    0.139000; 0.642000; 0.322000;,
    0.149000; 0.646000; 0.322000;,
    0.106000; 0.692000; 0.322000;,
    0.113000; 0.699000; 0.322000;,
    0.057000; 0.725000; 0.322000;,
    0.061000; 0.735000; 0.322000;,
    -0.002000; 0.737000; 0.322000;,
    -0.002000; 0.747000; 0.322000;,
    -0.060000; 0.725000; 0.322000;,
    -0.002000; 0.737000; 0.322000;,
    -0.002000; 0.747000; 0.322000;,
    -0.064000; 0.735000; 0.322000;,
    -0.110000; 0.692000; 0.322000;,
    -0.117000; 0.699000; 0.322000;,
    0.106000; 0.490000; -0.000000;,
    0.113000; 0.483000; -0.005000;,
    0.113000; 0.469000; 0.322000;,
    0.106000; 0.476000; 0.322000;,
    0.139000; 0.540000; -0.000000;,
    0.106000; 0.490000; -0.000000;,
    0.106000; 0.476000; 0.322000;,
    0.139000; 0.525000; 0.322000;,
    0.151000; 0.598000; -0.000000;,
    0.151000; 0.584000; 0.322000;,
    0.139000; 0.657000; -0.000000;,
    0.139000; 0.642000; 0.322000;,
    0.106000; 0.706000; -0.000000;,
    0.106000; 0.692000; 0.322000;,
    0.057000; 0.739000; -0.000000;,
    0.057000; 0.725000; 0.322000;,
    -0.002000; 0.751000; -0.000000;,
    -0.002000; 0.737000; 0.322000;,
    -0.060000; 0.739000; -0.000000;,
    -0.060000; 0.725000; 0.322000;,
    -0.110000; 0.706000; -0.000000;,
    -0.110000; 0.692000; 0.322000;,
    -0.143000; 0.657000; -0.000000;,
    -0.143000; 0.642000; 0.322000;,
    -0.155000; 0.598000; -0.000000;,
    -0.155000; 0.584000; 0.322000;,
    -0.143000; 0.540000; -0.000000;,
    -0.143000; 0.525000; 0.322000;,
    -0.110000; 0.490000; -0.000000;,
    -0.110000; 0.476000; 0.322000;,
    -0.117000; 0.483000; -0.005000;,
    -0.110000; 0.490000; -0.000000;,
    -0.110000; 0.476000; 0.322000;,
    -0.117000; 0.469000; 0.322000;,
    0.061000; 0.447000; -0.032000;,
    0.113000; 0.483000; -0.032000;,
    0.113000; 0.483000; -0.005000;,
    0.061000; 0.447000; -0.005000;,
    -0.117000; 0.483000; -0.032000;,
    -0.064000; 0.447000; -0.032000;,
    -0.064000; 0.447000; -0.005000;,
    -0.117000; 0.483000; -0.005000;,
    -0.002000; 0.435000; -0.032000;,
    -0.002000; 0.435000; -0.005000;,
    -0.153000; 0.266000; -0.032000;,
    -0.165000; 0.204000; -0.032000;,
    -0.165000; 0.190000; 0.322000;,
    -0.153000; 0.252000; 0.322000;,
    -0.117000; 0.319000; -0.032000;,
    -0.117000; 0.305000; 0.322000;,
    -0.064000; 0.355000; -0.032000;,
    -0.064000; 0.340000; 0.322000;,
    -0.002000; 0.367000; -0.032000;,
    -0.002000; 0.353000; 0.322000;,
    0.061000; 0.355000; -0.032000;,
    0.061000; 0.340000; 0.322000;,
    0.113000; 0.319000; -0.032000;,
    0.113000; 0.305000; 0.322000;,
    0.149000; 0.266000; -0.032000;,
    0.149000; 0.252000; 0.322000;,
    0.161000; 0.204000; -0.032000;,
    0.161000; 0.190000; 0.322000;,
    0.149000; 0.142000; -0.032000;,
    0.149000; 0.127000; 0.322000;,
    0.113000; 0.089000; -0.005000;,
    0.113000; 0.075000; 0.322000;,
    -0.153000; 0.142000; -0.032000;,
    -0.117000; 0.089000; -0.005000;,
    -0.117000; 0.075000; 0.322000;,
    -0.153000; 0.127000; 0.322000;,
    -0.155000; 0.190000; 0.322000;,
    -0.143000; 0.248000; 0.322000;,
    -0.153000; 0.252000; 0.322000;,
    -0.165000; 0.190000; 0.322000;,
    -0.143000; 0.131000; 0.322000;,
    -0.153000; 0.127000; 0.322000;,
    -0.110000; 0.082000; 0.322000;,
    -0.117000; 0.075000; 0.322000;,
    -0.060000; 0.063000; -0.000000;,
    -0.110000; 0.096000; -0.000000;,
    -0.117000; 0.089000; -0.005000;,
    -0.064000; 0.053000; -0.005000;,
    -0.002000; 0.051000; -0.000000;,
    -0.002000; 0.041000; -0.005000;,
    0.057000; 0.063000; -0.000000;,
    -0.002000; 0.051000; -0.000000;,
    -0.002000; 0.041000; -0.005000;,
    0.061000; 0.053000; -0.005000;,
    0.106000; 0.096000; -0.000000;,
    0.113000; 0.089000; -0.005000;,
    0.139000; 0.131000; 0.322000;,
    0.106000; 0.082000; 0.322000;,
    0.113000; 0.075000; 0.322000;,
    0.149000; 0.127000; 0.322000;,
    0.151000; 0.190000; 0.322000;,
    0.161000; 0.190000; 0.322000;,
    0.139000; 0.248000; 0.322000;,
    0.149000; 0.252000; 0.322000;,
    0.106000; 0.298000; 0.322000;,
    0.113000; 0.305000; 0.322000;,
    0.057000; 0.331000; 0.322000;,
    0.061000; 0.340000; 0.322000;,
    -0.002000; 0.343000; 0.322000;,
    -0.002000; 0.353000; 0.322000;,
    -0.060000; 0.331000; 0.322000;,
    -0.002000; 0.343000; 0.322000;,
    -0.002000; 0.353000; 0.322000;,
    -0.064000; 0.340000; 0.322000;,
    -0.110000; 0.298000; 0.322000;,
    -0.117000; 0.305000; 0.322000;,
    0.106000; 0.096000; -0.000000;,
    0.113000; 0.089000; -0.005000;,
    0.113000; 0.075000; 0.322000;,
    0.106000; 0.082000; 0.322000;,
    0.139000; 0.146000; -0.000000;,
    0.106000; 0.096000; -0.000000;,
    0.106000; 0.082000; 0.322000;,
    0.139000; 0.131000; 0.322000;,
    0.151000; 0.204000; -0.000000;,
    0.151000; 0.190000; 0.322000;,
    0.139000; 0.263000; -0.000000;,
    0.139000; 0.248000; 0.322000;,
    0.106000; 0.312000; -0.000000;,
    0.106000; 0.298000; 0.322000;,
    0.057000; 0.345000; -0.000000;,
    0.057000; 0.331000; 0.322000;,
    -0.002000; 0.357000; -0.000000;,
    -0.002000; 0.343000; 0.322000;,
    -0.060000; 0.345000; -0.000000;,
    -0.060000; 0.331000; 0.322000;,
    -0.110000; 0.312000; -0.000000;,
    -0.110000; 0.298000; 0.322000;,
    -0.143000; 0.263000; -0.000000;,
    -0.143000; 0.248000; 0.322000;,
    -0.155000; 0.204000; -0.000000;,
    -0.155000; 0.190000; 0.322000;,
    -0.143000; 0.146000; -0.000000;,
    -0.143000; 0.131000; 0.322000;,
    -0.110000; 0.096000; -0.000000;,
    -0.110000; 0.082000; 0.322000;,
    -0.117000; 0.089000; -0.005000;,
    -0.110000; 0.096000; -0.000000;,
    -0.110000; 0.082000; 0.322000;,
    -0.117000; 0.075000; 0.322000;,
    0.061000; 0.053000; -0.032000;,
    0.113000; 0.089000; -0.032000;,
    0.113000; 0.089000; -0.005000;,
    0.061000; 0.053000; -0.005000;,
    -0.117000; 0.089000; -0.032000;,
    -0.064000; 0.053000; -0.032000;,
    -0.064000; 0.053000; -0.005000;,
    -0.117000; 0.089000; -0.005000;,
    -0.002000; 0.041000; -0.032000;,
    -0.002000; 0.041000; -0.005000;,
    0.113000; 0.886000; -0.032000;,
    -0.117000; 0.886000; -0.032000;,
    -0.110000; 0.893000; -0.000000;,
    -0.060000; 0.860000; -0.000000;,
    -0.002000; 1.001000; 0.020000;,
    -0.002000; 0.848000; -0.000000;,
    0.057000; 0.860000; -0.000000;,
    0.106000; 0.893000; -0.000000;,
    0.139000; 0.942000; -0.000000;,
    0.151000; 1.001000; -0.000000;,
    0.139000; 1.059000; -0.000000;,
    0.106000; 1.109000; -0.000000;,
    0.057000; 1.142000; -0.000000;,
    -0.002000; 1.154000; -0.000000;,
    -0.060000; 1.142000; -0.000000;,
    -0.110000; 1.109000; -0.000000;,
    -0.143000; 1.059000; -0.000000;,
    -0.155000; 1.001000; -0.000000;,
    -0.143000; 0.942000; -0.000000;,
    0.113000; 0.483000; -0.032000;,
    -0.117000; 0.483000; -0.032000;,
    -0.110000; 0.490000; -0.000000;,
    -0.060000; 0.457000; -0.000000;,
    -0.002000; 0.598000; 0.020000;,
    -0.002000; 0.445000; -0.000000;,
    0.057000; 0.457000; -0.000000;,
    0.106000; 0.490000; -0.000000;,
    0.139000; 0.540000; -0.000000;,
    0.151000; 0.598000; -0.000000;,
    0.139000; 0.657000; -0.000000;,
    0.106000; 0.706000; -0.000000;,
    0.057000; 0.739000; -0.000000;,
    -0.002000; 0.751000; -0.000000;,
    -0.060000; 0.739000; -0.000000;,
    -0.110000; 0.706000; -0.000000;,
    -0.143000; 0.657000; -0.000000;,
    -0.155000; 0.598000; -0.000000;,
    -0.143000; 0.540000; -0.000000;,
    0.113000; 0.089000; -0.032000;,
    -0.117000; 0.089000; -0.032000;,
    -0.110000; 0.096000; -0.000000;,
    -0.060000; 0.063000; -0.000000;,
    -0.002000; 0.204000; 0.020000;,
    -0.002000; 0.051000; -0.000000;,
    0.057000; 0.063000; -0.000000;,
    0.106000; 0.096000; -0.000000;,
    0.139000; 0.146000; -0.000000;,
    0.151000; 0.204000; -0.000000;,
    0.139000; 0.263000; -0.000000;,
    0.106000; 0.312000; -0.000000;,
    0.057000; 0.345000; -0.000000;,
    -0.002000; 0.357000; -0.000000;,
    -0.060000; 0.345000; -0.000000;,
    -0.110000; 0.312000; -0.000000;,
    -0.143000; 0.263000; -0.000000;,
    -0.155000; 0.204000; -0.000000;,
    -0.143000; 0.146000; -0.000000;;
    246;
    4;0, 1, 2, 3;,
    4;4, 5, 6, 7;,
    4;8, 9, 10, 11;,
    4;12, 13, 14, 15;,
    4;16, 17, 13, 12;,
    4;18, 19, 17, 16;,
    4;20, 21, 22, 23;,
    4;24, 25, 23, 26;,
    4;27, 24, 26, 28;,
    4;29, 27, 28, 30;,
    4;31, 32, 30, 33;,
    4;34, 35, 33, 36;,
    4;37, 34, 36, 38;,
    4;39, 37, 38, 22;,
    4;40, 41, 22, 38;,
    4;42, 40, 38, 26;,
    4;43, 42, 26, 23;,
    4;41, 43, 23, 22;,
    4;44, 45, 38, 36;,
    4;46, 44, 36, 28;,
    4;47, 46, 28, 26;,
    4;45, 47, 26, 38;,
    4;48, 49, 36, 33;,
    4;50, 48, 33, 30;,
    4;51, 50, 30, 28;,
    4;49, 51, 28, 36;,
    4;52, 53, 54, 55;,
    4;56, 57, 58, 59;,
    4;60, 61, 62, 63;,
    4;64, 65, 66, 67;,
    4;68, 69, 70, 71;,
    4;72, 73, 74, 75;,
    4;76, 77, 78, 79;,
    4;80, 81, 82, 83;,
    4;84, 85, 86, 87;,
    4;88, 89, 90, 91;,
    4;92, 93, 94, 95;,
    4;96, 97, 98, 99;,
    4;100, 101, 21, 20;,
    4;102, 103, 25, 24;,
    4;104, 102, 24, 27;,
    4;105, 104, 27, 29;,
    4;106, 107, 32, 31;,
    4;108, 109, 35, 34;,
    4;110, 108, 34, 37;,
    4;111, 110, 37, 39;,
    4;112, 113, 101, 100;,
    4;12, 15, 103, 102;,
    4;16, 12, 102, 104;,
    4;18, 16, 104, 105;,
    4;114, 115, 107, 106;,
    4;116, 117, 109, 108;,
    4;118, 116, 108, 110;,
    4;119, 118, 110, 111;,
    4;120, 121, 122, 123;,
    4;124, 120, 123, 125;,
    4;126, 124, 125, 127;,
    4;128, 126, 127, 129;,
    4;130, 128, 129, 131;,
    4;132, 130, 131, 133;,
    4;134, 132, 133, 135;,
    4;136, 134, 135, 137;,
    4;138, 136, 137, 139;,
    4;140, 138, 139, 141;,
    4;142, 143, 144, 145;,
    4;121, 142, 145, 122;,
    4;146, 147, 148, 149;,
    4;150, 146, 149, 151;,
    4;152, 150, 151, 153;,
    4;154, 155, 156, 157;,
    4;158, 154, 157, 159;,
    4;160, 161, 162, 163;,
    4;164, 160, 163, 165;,
    4;166, 167, 168, 169;,
    4;170, 166, 169, 171;,
    4;172, 170, 171, 173;,
    4;174, 172, 173, 175;,
    4;176, 174, 175, 177;,
    4;178, 176, 177, 179;,
    4;180, 181, 182, 183;,
    4;184, 180, 183, 185;,
    4;147, 184, 185, 148;,
    4;186, 187, 188, 189;,
    4;190, 191, 192, 193;,
    4;194, 190, 193, 195;,
    4;196, 194, 195, 197;,
    4;198, 196, 197, 199;,
    4;200, 198, 199, 201;,
    4;202, 200, 201, 203;,
    4;204, 202, 203, 205;,
    4;206, 204, 205, 207;,
    4;208, 206, 207, 209;,
    4;210, 208, 209, 211;,
    4;212, 210, 211, 213;,
    4;214, 212, 213, 215;,
    4;216, 217, 218, 219;,
    4;220, 221, 222, 223;,
    4;224, 225, 226, 227;,
    4;225, 228, 229, 226;,
    4;228, 220, 223, 229;,
    4;230, 231, 232, 233;,
    4;234, 230, 233, 235;,
    4;236, 234, 235, 237;,
    4;238, 236, 237, 239;,
    4;240, 238, 239, 241;,
    4;242, 240, 241, 243;,
    4;244, 242, 243, 245;,
    4;246, 244, 245, 247;,
    4;248, 246, 247, 249;,
    4;250, 248, 249, 251;,
    4;252, 253, 254, 255;,
    4;231, 252, 255, 232;,
    4;256, 257, 258, 259;,
    4;260, 256, 259, 261;,
    4;262, 260, 261, 263;,
    4;264, 265, 266, 267;,
    4;268, 264, 267, 269;,
    4;270, 271, 272, 273;,
    4;274, 270, 273, 275;,
    4;276, 277, 278, 279;,
    4;280, 276, 279, 281;,
    4;282, 280, 281, 283;,
    4;284, 282, 283, 285;,
    4;286, 284, 285, 287;,
    4;288, 286, 287, 289;,
    4;290, 291, 292, 293;,
    4;294, 290, 293, 295;,
    4;257, 294, 295, 258;,
    4;296, 297, 298, 299;,
    4;300, 301, 302, 303;,
    4;304, 300, 303, 305;,
    4;306, 304, 305, 307;,
    4;308, 306, 307, 309;,
    4;310, 308, 309, 311;,
    4;312, 310, 311, 313;,
    4;314, 312, 313, 315;,
    4;316, 314, 315, 317;,
    4;318, 316, 317, 319;,
    4;320, 318, 319, 321;,
    4;322, 320, 321, 323;,
    4;324, 322, 323, 325;,
    4;326, 327, 328, 329;,
    4;330, 331, 332, 333;,
    4;334, 335, 336, 337;,
    4;335, 338, 339, 336;,
    4;338, 330, 333, 339;,
    4;340, 341, 342, 343;,
    4;344, 340, 343, 345;,
    4;346, 344, 345, 347;,
    4;348, 346, 347, 349;,
    4;350, 348, 349, 351;,
    4;352, 350, 351, 353;,
    4;354, 352, 353, 355;,
    4;356, 354, 355, 357;,
    4;358, 356, 357, 359;,
    4;360, 358, 359, 361;,
    4;362, 363, 364, 365;,
    4;341, 362, 365, 342;,
    4;366, 367, 368, 369;,
    4;370, 366, 369, 371;,
    4;372, 370, 371, 373;,
    4;374, 375, 376, 377;,
    4;378, 374, 377, 379;,
    4;380, 381, 382, 383;,
    4;384, 380, 383, 385;,
    4;386, 387, 388, 389;,
    4;390, 386, 389, 391;,
    4;392, 390, 391, 393;,
    4;394, 392, 393, 395;,
    4;396, 394, 395, 397;,
    4;398, 396, 397, 399;,
    4;400, 401, 402, 403;,
    4;404, 400, 403, 405;,
    4;367, 404, 405, 368;,
    4;406, 407, 408, 409;,
    4;410, 411, 412, 413;,
    4;414, 410, 413, 415;,
    4;416, 414, 415, 417;,
    4;418, 416, 417, 419;,
    4;420, 418, 419, 421;,
    4;422, 420, 421, 423;,
    4;424, 422, 423, 425;,
    4;426, 424, 425, 427;,
    4;428, 426, 427, 429;,
    4;430, 428, 429, 431;,
    4;432, 430, 431, 433;,
    4;434, 432, 433, 435;,
    4;436, 437, 438, 439;,
    4;440, 441, 442, 443;,
    4;444, 445, 446, 447;,
    4;445, 448, 449, 446;,
    4;448, 440, 443, 449;,
    3;138, 140, 450;,
    3;143, 142, 451;,
    3;452, 453, 454;,
    3;453, 455, 454;,
    3;455, 456, 454;,
    3;456, 457, 454;,
    3;457, 458, 454;,
    3;458, 459, 454;,
    3;459, 460, 454;,
    3;460, 461, 454;,
    3;461, 462, 454;,
    3;462, 463, 454;,
    3;463, 464, 454;,
    3;464, 465, 454;,
    3;465, 466, 454;,
    3;466, 467, 454;,
    3;467, 468, 454;,
    3;468, 452, 454;,
    3;248, 250, 469;,
    3;253, 252, 470;,
    3;471, 472, 473;,
    3;472, 474, 473;,
    3;474, 475, 473;,
    3;475, 476, 473;,
    3;476, 477, 473;,
    3;477, 478, 473;,
    3;478, 479, 473;,
    3;479, 480, 473;,
    3;480, 481, 473;,
    3;481, 482, 473;,
    3;482, 483, 473;,
    3;483, 484, 473;,
    3;484, 485, 473;,
    3;485, 486, 473;,
    3;486, 487, 473;,
    3;487, 471, 473;,
    3;358, 360, 488;,
    3;363, 362, 489;,
    3;490, 491, 492;,
    3;491, 493, 492;,
    3;493, 494, 492;,
    3;494, 495, 492;,
    3;495, 496, 492;,
    3;496, 497, 492;,
    3;497, 498, 492;,
    3;498, 499, 492;,
    3;499, 500, 492;,
    3;500, 501, 492;,
    3;501, 502, 492;,
    3;502, 503, 492;,
    3;503, 504, 492;,
    3;504, 505, 492;,
    3;505, 506, 492;,
    3;506, 490, 492;;

   MeshNormals {
    507;
    0.000000; 0.000000; 1.000000;,
    0.000000; 0.000000; 1.000000;,
    0.000000; 0.000000; 1.000000;,
    0.000000; 0.000000; 1.000000;,
    0.000000; 0.000000; 1.000000;,
    0.000000; 0.000000; 1.000000;,
    0.000000; 0.000000; 1.000000;,
    0.000000; 0.000000; 1.000000;,
    0.000000; 0.000000; 1.000000;,
    0.000000; 0.000000; 1.000000;,
    0.000000; 0.000000; 1.000000;,
    0.000000; 0.000000; 1.000000;,
    -0.427787; 0.000000; -0.903880;,
    0.000000; 0.000000; -1.000000;,
    0.000000; 0.000000; -1.000000;,
    -0.427787; 0.000000; -0.903880;,
    -0.427787; 0.000000; -0.903880;,
    0.000000; 0.000000; -1.000000;,
    -0.427787; 0.000000; -0.903880;,
    0.000000; 0.000000; -1.000000;,
    0.000000; -1.000000; 0.000000;,
    0.000000; -1.000000; 0.000000;,
    0.408248; -0.408248; 0.816497;,
    -0.408248; -0.408248; 0.816497;,
    -0.988035; 0.000000; -0.154233;,
    -0.988035; 0.000000; -0.154233;,
    -0.447214; 0.000000; 0.894427;,
    -0.988035; 0.000000; -0.154233;,
    -0.447214; 0.000000; 0.894427;,
    -0.988035; 0.000000; -0.154233;,
    -0.408248; 0.408248; 0.816497;,
    0.000000; 1.000000; 0.000000;,
    0.000000; 1.000000; 0.000000;,
    0.408248; 0.408248; 0.816497;,
    0.988035; 0.000000; -0.154233;,
    0.988035; 0.000000; -0.154233;,
    0.447214; 0.000000; 0.894427;,
    0.988035; 0.000000; -0.154233;,
    0.447214; 0.000000; 0.894427;,
    0.988035; 0.000000; -0.154233;,
    0.000000; 0.000000; 1.000000;,
    0.000000; 0.000000; 1.000000;,
    0.000000; 0.000000; 1.000000;,
    0.000000; 0.000000; 1.000000;,
    0.000000; 0.000000; 1.000000;,
    0.000000; 0.000000; 1.000000;,
    0.000000; 0.000000; 1.000000;,
    0.000000; 0.000000; 1.000000;,
    0.000000; 0.000000; 1.000000;,
    0.000000; 0.000000; 1.000000;,
    0.000000; 0.000000; 1.000000;,
    0.000000; 0.000000; 1.000000;,
    1.000000; 0.000000; 0.000000;,
    1.000000; 0.000000; 0.000000;,
    1.000000; 0.000000; 0.000000;,
    1.000000; 0.000000; 0.000000;,
    0.000000; 1.000000; 0.000000;,
    0.000000; 1.000000; 0.000000;,
    0.000000; 1.000000; 0.000000;,
    0.000000; 1.000000; 0.000000;,
    -1.000000; 0.000000; 0.000000;,
    -1.000000; 0.000000; 0.000000;,
    -1.000000; 0.000000; 0.000000;,
    -1.000000; 0.000000; 0.000000;,
    0.000000; -1.000000; 0.000000;,
    0.000000; -1.000000; 0.000000;,
    0.000000; -1.000000; 0.000000;,
    0.000000; -1.000000; 0.000000;,
    1.000000; 0.000000; 0.000000;,
    1.000000; 0.000000; 0.000000;,
    1.000000; 0.000000; 0.000000;,
    1.000000; 0.000000; 0.000000;,
    0.000000; 1.000000; 0.000000;,
    0.000000; 1.000000; 0.000000;,
    0.000000; 1.000000; 0.000000;,
    0.000000; 1.000000; 0.000000;,
    -1.000000; 0.000000; 0.000000;,
    -1.000000; 0.000000; 0.000000;,
    -1.000000; 0.000000; 0.000000;,
    -1.000000; 0.000000; 0.000000;,
    0.000000; -1.000000; 0.000000;,
    0.000000; -1.000000; 0.000000;,
    0.000000; -1.000000; 0.000000;,
    0.000000; -1.000000; 0.000000;,
    1.000000; 0.000000; 0.000000;,
    1.000000; 0.000000; 0.000000;,
    1.000000; 0.000000; 0.000000;,
    1.000000; 0.000000; 0.000000;,
    0.000000; 1.000000; 0.000000;,
    0.000000; 1.000000; 0.000000;,
    0.000000; 1.000000; 0.000000;,
    0.000000; 1.000000; 0.000000;,
    -1.000000; 0.000000; 0.000000;,
    -1.000000; 0.000000; 0.000000;,
    -1.000000; 0.000000; 0.000000;,
    -1.000000; 0.000000; 0.000000;,
    0.000000; -1.000000; 0.000000;,
    0.000000; -1.000000; 0.000000;,
    0.000000; -1.000000; 0.000000;,
    0.000000; -1.000000; 0.000000;,
    0.000000; -1.000000; 0.000000;,
    0.000000; -1.000000; 0.000000;,
    -0.878441; 0.000000; -0.477851;,
    -0.878441; 0.000000; -0.477851;,
    -0.878441; 0.000000; -0.477851;,
    -0.878441; 0.000000; -0.477851;,
    0.000000; 1.000000; 0.000000;,
    0.000000; 1.000000; 0.000000;,
    0.878441; 0.000000; -0.477851;,
    0.878441; 0.000000; -0.477851;,
    0.878441; 0.000000; -0.477851;,
    0.878441; 0.000000; -0.477851;,
    0.000000; -1.000000; 0.000000;,
    0.000000; -1.000000; 0.000000;,
    0.000000; 1.000000; 0.000000;,
    0.000000; 1.000000; 0.000000;,
    0.773336; 0.000000; -0.633996;,
    0.773336; 0.000000; -0.633996;,
    0.773336; 0.000000; -0.633996;,
    0.773336; 0.000000; -0.633996;,
    -0.923313; 0.383749; 0.015176;,
    -1.000000; 0.000000; -0.000000;,
    -1.000000; 0.000000; -0.000000;,
    -0.923313; 0.383749; 0.015176;,
    -0.706831; 0.706782; 0.029141;,
    -0.706831; 0.706782; 0.029141;,
    -0.383555; 0.922749; 0.037685;,
    -0.383555; 0.922749; 0.037685;,
    -0.001491; 0.999161; 0.040926;,
    -0.001491; 0.999161; 0.040926;,
    0.386302; 0.921595; 0.037864;,
    0.386302; 0.921595; 0.037864;,
    0.709984; 0.703668; 0.027829;,
    0.709984; 0.703668; 0.027829;,
    0.923313; 0.383749; 0.015176;,
    0.923313; 0.383749; 0.015176;,
    1.000000; 0.000001; -0.000273;,
    1.000000; 0.000001; -0.000273;,
    0.893296; -0.449317; -0.011629;,
    0.921150; -0.388814; -0.017496;,
    0.824033; -0.566390; -0.013093;,
    0.820683; -0.570783; -0.026183;,
    -0.893433; -0.449067; -0.010759;,
    -0.824286; -0.566045; -0.012080;,
    -0.821213; -0.570111; -0.024157;,
    -0.921335; -0.388433; -0.016185;,
    0.000000; 0.000000; 1.000000;,
    0.000000; 0.000000; 1.000000;,
    0.000000; 0.000000; 1.000000;,
    0.000000; 0.000000; 1.000000;,
    0.000000; 0.000000; 1.000000;,
    0.000000; 0.000000; 1.000000;,
    0.000000; 0.000000; 1.000000;,
    0.000000; 0.000000; 1.000000;,
    -0.164615; -0.402822; 0.900353;,
    -0.235918; -0.357452; 0.903643;,
    -0.235918; -0.357452; 0.903643;,
    -0.164615; -0.402822; 0.900353;,
    -0.092134; -0.445311; 0.890623;,
    -0.092134; -0.445311; 0.890623;,
    0.170984; -0.400391; 0.900251;,
    0.085051; -0.418167; 0.904380;,
    0.085051; -0.418167; 0.904380;,
    0.170984; -0.400391; 0.900251;,
    0.255598; -0.379524; 0.889174;,
    0.255598; -0.379524; 0.889174;,
    0.000000; 0.000000; 1.000000;,
    0.000000; 0.000000; 1.000000;,
    0.000000; 0.000000; 1.000000;,
    0.000000; 0.000000; 1.000000;,
    0.000000; 0.000000; 1.000000;,
    0.000000; 0.000000; 1.000000;,
    0.000000; 0.000000; 1.000000;,
    0.000000; 0.000000; 1.000000;,
    0.000000; 0.000000; 1.000000;,
    0.000000; 0.000000; 1.000000;,
    0.000000; 0.000000; 1.000000;,
    0.000000; 0.000000; 1.000000;,
    0.000000; 0.000000; 1.000000;,
    0.000000; 0.000000; 1.000000;,
    0.000000; 0.000000; 1.000000;,
    0.000000; 0.000000; 1.000000;,
    0.000000; 0.000000; 1.000000;,
    0.000000; 0.000000; 1.000000;,
    0.000000; 0.000000; 1.000000;,
    0.000000; 0.000000; 1.000000;,
    -0.717508; -0.695893; -0.030256;,
    -0.717508; -0.695893; -0.030256;,
    -0.717508; -0.695893; -0.030256;,
    -0.717508; -0.695893; -0.030256;,
    -0.922230; 0.386276; 0.016795;,
    -0.829192; 0.558436; 0.024280;,
    -0.829192; 0.558436; 0.024280;,
    -0.922230; 0.386276; 0.016795;,
    -0.999999; -0.001683; -0.000073;,
    -0.999999; -0.001683; -0.000073;,
    -0.923378; -0.383529; -0.016675;,
    -0.923378; -0.383529; -0.016675;,
    -0.710089; -0.703448; -0.030585;,
    -0.710089; -0.703448; -0.030585;,
    -0.386068; -0.921600; -0.040070;,
    -0.386068; -0.921600; -0.040070;,
    0.001681; -0.999055; -0.043437;,
    0.001681; -0.999055; -0.043437;,
    0.383318; -0.922745; -0.040119;,
    0.383318; -0.922745; -0.040119;,
    0.706799; -0.706746; -0.030728;,
    0.706799; -0.706746; -0.030728;,
    0.923378; -0.383529; -0.016675;,
    0.923378; -0.383529; -0.016675;,
    0.999999; -0.001683; -0.000073;,
    0.999999; -0.001683; -0.000073;,
    0.922230; 0.386276; 0.016795;,
    0.922230; 0.386276; 0.016795;,
    0.829192; 0.558436; 0.024280;,
    0.829192; 0.558436; 0.024280;,
    0.718047; -0.695264; -0.031893;,
    0.718047; -0.695264; -0.031893;,
    0.718047; -0.695264; -0.031893;,
    0.718047; -0.695264; -0.031893;,
    0.386545; -0.922270; 0.000000;,
    0.569210; -0.822192; 0.000000;,
    0.569210; -0.822192; 0.000000;,
    0.386545; -0.922270; 0.000000;,
    -0.561883; -0.827217; 0.000000;,
    -0.383813; -0.923411; 0.000000;,
    -0.383813; -0.923411; 0.000000;,
    -0.561883; -0.827217; 0.000000;,
    -0.001481; -0.999999; 0.000000;,
    -0.001481; -0.999999; 0.000000;,
    -0.922168; 0.386477; 0.015555;,
    -0.999999; -0.001482; 0.000211;,
    -0.999999; -0.001482; 0.000211;,
    -0.922168; 0.386477; 0.015555;,
    -0.703700; 0.709942; 0.028077;,
    -0.703700; 0.709942; 0.028077;,
    -0.383578; 0.922787; 0.036494;,
    -0.383578; 0.922787; 0.036494;,
    -0.001480; 0.999218; 0.039517;,
    -0.001480; 0.999218; 0.039517;,
    0.386311; 0.921648; 0.036449;,
    0.386311; 0.921648; 0.036449;,
    0.706830; 0.706799; 0.028769;,
    0.706830; 0.706799; 0.028769;,
    0.922162; 0.386470; 0.016106;,
    0.922162; 0.386470; 0.016106;,
    0.999999; -0.001481; -0.000059;,
    0.999999; -0.001481; -0.000059;,
    0.893416; -0.449099; -0.010845;,
    0.921312; -0.388482; -0.016315;,
    0.824253; -0.566089; -0.012207;,
    0.821146; -0.570196; -0.024412;,
    -0.893541; -0.448865; -0.010204;,
    -0.824488; -0.565768; -0.011263;,
    -0.821636; -0.569568; -0.022525;,
    -0.921479; -0.388125; -0.015350;,
    0.000000; 0.000000; 1.000000;,
    0.000000; 0.000000; 1.000000;,
    0.000000; 0.000000; 1.000000;,
    0.000000; 0.000000; 1.000000;,
    0.000000; 0.000000; 1.000000;,
    0.000000; 0.000000; 1.000000;,
    0.000000; 0.000000; 1.000000;,
    0.000000; 0.000000; 1.000000;,
    -0.164615; -0.402822; 0.900353;,
    -0.235919; -0.357453; 0.903643;,
    -0.235919; -0.357453; 0.903643;,
    -0.164615; -0.402822; 0.900353;,
    -0.092133; -0.445310; 0.890623;,
    -0.092133; -0.445310; 0.890623;,
    0.170985; -0.400392; 0.900250;,
    0.085051; -0.418168; 0.904379;,
    0.085051; -0.418168; 0.904379;,
    0.170985; -0.400392; 0.900250;,
    0.255599; -0.379525; 0.889174;,
    0.255599; -0.379525; 0.889174;,
    0.000000; 0.000000; 1.000000;,
    0.000000; 0.000000; 1.000000;,
    0.000000; 0.000000; 1.000000;,
    0.000000; 0.000000; 1.000000;,
    0.000000; 0.000000; 1.000000;,
    0.000000; 0.000000; 1.000000;,
    0.000000; 0.000000; 1.000000;,
    0.000000; 0.000000; 1.000000;,
    0.000000; 0.000000; 1.000000;,
    0.000000; 0.000000; 1.000000;,
    0.000000; 0.000000; 1.000000;,
    0.000000; 0.000000; 1.000000;,
    0.000000; 0.000000; 1.000000;,
    0.000000; 0.000000; 1.000000;,
    0.000000; 0.000000; 1.000000;,
    0.000000; 0.000000; 1.000000;,
    0.000000; 0.000000; 1.000000;,
    0.000000; 0.000000; 1.000000;,
    0.000000; 0.000000; 1.000000;,
    0.000000; 0.000000; 1.000000;,
    -0.717506; -0.695895; -0.030256;,
    -0.717506; -0.695895; -0.030256;,
    -0.717506; -0.695895; -0.030256;,
    -0.717506; -0.695895; -0.030256;,
    -0.923366; 0.383519; 0.017545;,
    -0.834335; 0.550661; 0.025652;,
    -0.834335; 0.550661; 0.025652;,
    -0.923366; 0.383519; 0.017545;,
    -0.999999; 0.001683; -0.000243;,
    -0.999999; 0.001683; -0.000243;,
    -0.922225; -0.386274; -0.017110;,
    -0.922225; -0.386274; -0.017110;,
    -0.706797; -0.706749; -0.030728;,
    -0.706797; -0.706749; -0.030728;,
    -0.386067; -0.921600; -0.040070;,
    -0.386067; -0.921600; -0.040070;,
    0.001681; -0.999055; -0.043437;,
    0.001681; -0.999055; -0.043437;,
    0.383317; -0.922745; -0.040119;,
    0.383317; -0.922745; -0.040119;,
    0.703470; -0.710015; -0.031755;,
    0.703470; -0.710015; -0.031755;,
    0.922218; -0.386266; -0.017678;,
    0.922218; -0.386266; -0.017678;,
    0.999998; 0.001682; 0.000394;,
    0.999998; 0.001682; 0.000394;,
    0.923373; 0.383527; 0.016995;,
    0.923373; 0.383527; 0.016995;,
    0.834370; 0.550685; 0.023943;,
    0.834370; 0.550685; 0.023943;,
    0.717356; -0.696069; -0.029801;,
    0.717356; -0.696069; -0.029801;,
    0.717356; -0.696069; -0.029801;,
    0.717356; -0.696069; -0.029801;,
    0.386546; -0.922270; 0.000000;,
    0.569210; -0.822192; 0.000000;,
    0.569210; -0.822192; 0.000000;,
    0.386546; -0.922270; 0.000000;,
    -0.561883; -0.827217; 0.000000;,
    -0.383813; -0.923411; 0.000000;,
    -0.383813; -0.923411; 0.000000;,
    -0.561883; -0.827217; 0.000000;,
    -0.001481; -0.999999; 0.000000;,
    -0.001481; -0.999999; 0.000000;,
    -0.923313; 0.383748; 0.015176;,
    -1.000000; 0.000000; 0.000000;,
    -1.000000; 0.000000; 0.000000;,
    -0.923313; 0.383748; 0.015176;,
    -0.706831; 0.706782; 0.029141;,
    -0.706831; 0.706782; 0.029141;,
    -0.383554; 0.922749; 0.037685;,
    -0.383554; 0.922749; 0.037685;,
    -0.001491; 0.999161; 0.040926;,
    -0.001491; 0.999161; 0.040926;,
    0.386301; 0.921595; 0.037864;,
    0.386301; 0.921595; 0.037864;,
    0.709984; 0.703668; 0.027829;,
    0.709984; 0.703668; 0.027829;,
    0.923313; 0.383748; 0.015176;,
    0.923313; 0.383748; 0.015176;,
    1.000000; 0.000000; -0.000273;,
    1.000000; 0.000000; -0.000273;,
    0.893414; -0.449099; -0.011027;,
    0.921308; -0.388480; -0.016589;,
    0.824253; -0.566089; -0.012207;,
    0.821146; -0.570196; -0.024412;,
    -0.893433; -0.449067; -0.010759;,
    -0.824285; -0.566046; -0.012080;,
    -0.821212; -0.570111; -0.024157;,
    -0.921334; -0.388434; -0.016185;,
    0.000000; 0.000000; 1.000000;,
    0.000000; 0.000000; 1.000000;,
    0.000000; 0.000000; 1.000000;,
    0.000000; 0.000000; 1.000000;,
    0.000000; 0.000000; 1.000000;,
    0.000000; 0.000000; 1.000000;,
    0.000000; 0.000000; 1.000000;,
    0.000000; 0.000000; 1.000000;,
    -0.164615; -0.402823; 0.900353;,
    -0.235919; -0.357453; 0.903642;,
    -0.235919; -0.357453; 0.903642;,
    -0.164615; -0.402823; 0.900353;,
    -0.092133; -0.445311; 0.890623;,
    -0.092133; -0.445311; 0.890623;,
    0.170985; -0.400392; 0.900250;,
    0.085051; -0.418169; 0.904379;,
    0.085051; -0.418169; 0.904379;,
    0.170985; -0.400392; 0.900250;,
    0.255599; -0.379526; 0.889173;,
    0.255599; -0.379526; 0.889173;,
    0.000000; 0.000000; 1.000000;,
    0.000000; 0.000000; 1.000000;,
    0.000000; 0.000000; 1.000000;,
    0.000000; 0.000000; 1.000000;,
    0.000000; 0.000000; 1.000000;,
    0.000000; 0.000000; 1.000000;,
    0.000000; 0.000000; 1.000000;,
    0.000000; 0.000000; 1.000000;,
    0.000000; 0.000000; 1.000000;,
    0.000000; 0.000000; 1.000000;,
    0.000000; 0.000000; 1.000000;,
    0.000000; 0.000000; 1.000000;,
    0.000000; 0.000000; 1.000000;,
    0.000000; 0.000000; 1.000000;,
    0.000000; 0.000000; 1.000000;,
    0.000000; 0.000000; 1.000000;,
    0.000000; 0.000000; 1.000000;,
    0.000000; 0.000000; 1.000000;,
    0.000000; 0.000000; 1.000000;,
    0.000000; 0.000000; 1.000000;,
    -0.717505; -0.695896; -0.030256;,
    -0.717505; -0.695896; -0.030256;,
    -0.717505; -0.695896; -0.030256;,
    -0.717505; -0.695896; -0.030256;,
    -0.923366; 0.383519; 0.017545;,
    -0.834335; 0.550661; 0.025652;,
    -0.834335; 0.550661; 0.025652;,
    -0.923366; 0.383519; 0.017545;,
    -0.999999; 0.001683; -0.000243;,
    -0.999999; 0.001683; -0.000243;,
    -0.922225; -0.386274; -0.017110;,
    -0.922225; -0.386274; -0.017110;,
    -0.706797; -0.706748; -0.030728;,
    -0.706797; -0.706748; -0.030728;,
    -0.386067; -0.921600; -0.040070;,
    -0.386067; -0.921600; -0.040070;,
    0.001681; -0.999055; -0.043437;,
    0.001681; -0.999055; -0.043437;,
    0.383317; -0.922745; -0.040119;,
    0.383317; -0.922745; -0.040119;,
    0.703470; -0.710015; -0.031754;,
    0.703470; -0.710015; -0.031754;,
    0.922218; -0.386266; -0.017678;,
    0.922218; -0.386266; -0.017678;,
    0.999998; 0.001682; 0.000394;,
    0.999998; 0.001682; 0.000394;,
    0.923373; 0.383527; 0.016995;,
    0.923373; 0.383527; 0.016995;,
    0.834370; 0.550684; 0.023943;,
    0.834370; 0.550684; 0.023943;,
    0.717354; -0.696071; -0.029801;,
    0.717354; -0.696071; -0.029801;,
    0.717354; -0.696071; -0.029801;,
    0.717354; -0.696071; -0.029801;,
    0.386545; -0.922270; 0.000000;,
    0.569210; -0.822192; 0.000000;,
    0.569210; -0.822192; 0.000000;,
    0.386545; -0.922270; 0.000000;,
    -0.561883; -0.827217; 0.000000;,
    -0.383813; -0.923411; 0.000000;,
    -0.383813; -0.923411; 0.000000;,
    -0.561883; -0.827217; 0.000000;,
    -0.001481; -0.999999; 0.000000;,
    -0.001481; -0.999999; 0.000000;,
    0.827217; -0.561883; 0.000000;,
    -0.827217; -0.561883; 0.000000;,
    -0.091364; -0.092254; 0.991535;,
    -0.049909; -0.120109; 0.991505;,
    0.000055; -0.000055; 1.000000;,
    -0.000227; -0.129616; 0.991564;,
    0.050129; -0.119669; 0.991547;,
    0.091809; -0.091809; 0.991535;,
    0.119669; -0.050129; 0.991547;,
    0.129616; 0.000227; 0.991564;,
    0.120109; 0.049909; 0.991505;,
    0.092254; 0.091364; 0.991535;,
    0.050129; 0.119669; 0.991547;,
    -0.000227; 0.129616; 0.991564;,
    -0.049909; 0.120109; 0.991505;,
    -0.091809; 0.091809; 0.991535;,
    -0.120109; 0.049909; 0.991505;,
    -0.129616; 0.000227; 0.991564;,
    -0.119669; -0.050129; 0.991547;,
    0.827217; -0.561883; 0.000000;,
    -0.827217; -0.561883; 0.000000;,
    -0.091809; -0.091809; 0.991535;,
    -0.049909; -0.120109; 0.991505;,
    0.000055; 0.000055; 1.000000;,
    -0.000227; -0.129616; 0.991564;,
    0.050129; -0.119669; 0.991547;,
    0.092254; -0.091364; 0.991535;,
    0.120109; -0.049909; 0.991505;,
    0.129616; -0.000227; 0.991564;,
    0.119669; 0.050129; 0.991547;,
    0.091809; 0.091809; 0.991535;,
    0.050129; 0.119669; 0.991547;,
    -0.000227; 0.129616; 0.991564;,
    -0.049909; 0.120109; 0.991505;,
    -0.091364; 0.092254; 0.991535;,
    -0.119669; 0.050129; 0.991547;,
    -0.129616; -0.000227; 0.991564;,
    -0.120109; -0.049909; 0.991505;,
    0.827217; -0.561883; 0.000000;,
    -0.827217; -0.561883; 0.000000;,
    -0.091809; -0.091809; 0.991535;,
    -0.049909; -0.120109; 0.991505;,
    0.000055; 0.000055; 1.000000;,
    -0.000227; -0.129616; 0.991564;,
    0.050129; -0.119669; 0.991547;,
    0.092254; -0.091364; 0.991535;,
    0.120109; -0.049909; 0.991505;,
    0.129616; -0.000227; 0.991564;,
    0.119669; 0.050129; 0.991547;,
    0.091809; 0.091809; 0.991535;,
    0.050129; 0.119669; 0.991547;,
    -0.000227; 0.129616; 0.991564;,
    -0.049909; 0.120109; 0.991505;,
    -0.091364; 0.092254; 0.991535;,
    -0.119669; 0.050129; 0.991547;,
    -0.129616; -0.000227; 0.991564;,
    -0.120109; -0.049909; 0.991505;;
    246;
    4;0, 1, 2, 3;,
    4;4, 5, 6, 7;,
    4;8, 9, 10, 11;,
    4;12, 13, 14, 15;,
    4;16, 17, 13, 12;,
    4;18, 19, 17, 16;,
    4;20, 21, 22, 23;,
    4;24, 25, 23, 26;,
    4;27, 24, 26, 28;,
    4;29, 27, 28, 30;,
    4;31, 32, 30, 33;,
    4;34, 35, 33, 36;,
    4;37, 34, 36, 38;,
    4;39, 37, 38, 22;,
    4;40, 41, 22, 38;,
    4;42, 40, 38, 26;,
    4;43, 42, 26, 23;,
    4;41, 43, 23, 22;,
    4;44, 45, 38, 36;,
    4;46, 44, 36, 28;,
    4;47, 46, 28, 26;,
    4;45, 47, 26, 38;,
    4;48, 49, 36, 33;,
    4;50, 48, 33, 30;,
    4;51, 50, 30, 28;,
    4;49, 51, 28, 36;,
    4;52, 53, 54, 55;,
    4;56, 57, 58, 59;,
    4;60, 61, 62, 63;,
    4;64, 65, 66, 67;,
    4;68, 69, 70, 71;,
    4;72, 73, 74, 75;,
    4;76, 77, 78, 79;,
    4;80, 81, 82, 83;,
    4;84, 85, 86, 87;,
    4;88, 89, 90, 91;,
    4;92, 93, 94, 95;,
    4;96, 97, 98, 99;,
    4;100, 101, 21, 20;,
    4;102, 103, 25, 24;,
    4;104, 102, 24, 27;,
    4;105, 104, 27, 29;,
    4;106, 107, 32, 31;,
    4;108, 109, 35, 34;,
    4;110, 108, 34, 37;,
    4;111, 110, 37, 39;,
    4;112, 113, 101, 100;,
    4;12, 15, 103, 102;,
    4;16, 12, 102, 104;,
    4;18, 16, 104, 105;,
    4;114, 115, 107, 106;,
    4;116, 117, 109, 108;,
    4;118, 116, 108, 110;,
    4;119, 118, 110, 111;,
    4;120, 121, 122, 123;,
    4;124, 120, 123, 125;,
    4;126, 124, 125, 127;,
    4;128, 126, 127, 129;,
    4;130, 128, 129, 131;,
    4;132, 130, 131, 133;,
    4;134, 132, 133, 135;,
    4;136, 134, 135, 137;,
    4;138, 136, 137, 139;,
    4;140, 138, 139, 141;,
    4;142, 143, 144, 145;,
    4;121, 142, 145, 122;,
    4;146, 147, 148, 149;,
    4;150, 146, 149, 151;,
    4;152, 150, 151, 153;,
    4;154, 155, 156, 157;,
    4;158, 154, 157, 159;,
    4;160, 161, 162, 163;,
    4;164, 160, 163, 165;,
    4;166, 167, 168, 169;,
    4;170, 166, 169, 171;,
    4;172, 170, 171, 173;,
    4;174, 172, 173, 175;,
    4;176, 174, 175, 177;,
    4;178, 176, 177, 179;,
    4;180, 181, 182, 183;,
    4;184, 180, 183, 185;,
    4;147, 184, 185, 148;,
    4;186, 187, 188, 189;,
    4;190, 191, 192, 193;,
    4;194, 190, 193, 195;,
    4;196, 194, 195, 197;,
    4;198, 196, 197, 199;,
    4;200, 198, 199, 201;,
    4;202, 200, 201, 203;,
    4;204, 202, 203, 205;,
    4;206, 204, 205, 207;,
    4;208, 206, 207, 209;,
    4;210, 208, 209, 211;,
    4;212, 210, 211, 213;,
    4;214, 212, 213, 215;,
    4;216, 217, 218, 219;,
    4;220, 221, 222, 223;,
    4;224, 225, 226, 227;,
    4;225, 228, 229, 226;,
    4;228, 220, 223, 229;,
    4;230, 231, 232, 233;,
    4;234, 230, 233, 235;,
    4;236, 234, 235, 237;,
    4;238, 236, 237, 239;,
    4;240, 238, 239, 241;,
    4;242, 240, 241, 243;,
    4;244, 242, 243, 245;,
    4;246, 244, 245, 247;,
    4;248, 246, 247, 249;,
    4;250, 248, 249, 251;,
    4;252, 253, 254, 255;,
    4;231, 252, 255, 232;,
    4;256, 257, 258, 259;,
    4;260, 256, 259, 261;,
    4;262, 260, 261, 263;,
    4;264, 265, 266, 267;,
    4;268, 264, 267, 269;,
    4;270, 271, 272, 273;,
    4;274, 270, 273, 275;,
    4;276, 277, 278, 279;,
    4;280, 276, 279, 281;,
    4;282, 280, 281, 283;,
    4;284, 282, 283, 285;,
    4;286, 284, 285, 287;,
    4;288, 286, 287, 289;,
    4;290, 291, 292, 293;,
    4;294, 290, 293, 295;,
    4;257, 294, 295, 258;,
    4;296, 297, 298, 299;,
    4;300, 301, 302, 303;,
    4;304, 300, 303, 305;,
    4;306, 304, 305, 307;,
    4;308, 306, 307, 309;,
    4;310, 308, 309, 311;,
    4;312, 310, 311, 313;,
    4;314, 312, 313, 315;,
    4;316, 314, 315, 317;,
    4;318, 316, 317, 319;,
    4;320, 318, 319, 321;,
    4;322, 320, 321, 323;,
    4;324, 322, 323, 325;,
    4;326, 327, 328, 329;,
    4;330, 331, 332, 333;,
    4;334, 335, 336, 337;,
    4;335, 338, 339, 336;,
    4;338, 330, 333, 339;,
    4;340, 341, 342, 343;,
    4;344, 340, 343, 345;,
    4;346, 344, 345, 347;,
    4;348, 346, 347, 349;,
    4;350, 348, 349, 351;,
    4;352, 350, 351, 353;,
    4;354, 352, 353, 355;,
    4;356, 354, 355, 357;,
    4;358, 356, 357, 359;,
    4;360, 358, 359, 361;,
    4;362, 363, 364, 365;,
    4;341, 362, 365, 342;,
    4;366, 367, 368, 369;,
    4;370, 366, 369, 371;,
    4;372, 370, 371, 373;,
    4;374, 375, 376, 377;,
    4;378, 374, 377, 379;,
    4;380, 381, 382, 383;,
    4;384, 380, 383, 385;,
    4;386, 387, 388, 389;,
    4;390, 386, 389, 391;,
    4;392, 390, 391, 393;,
    4;394, 392, 393, 395;,
    4;396, 394, 395, 397;,
    4;398, 396, 397, 399;,
    4;400, 401, 402, 403;,
    4;404, 400, 403, 405;,
    4;367, 404, 405, 368;,
    4;406, 407, 408, 409;,
    4;410, 411, 412, 413;,
    4;414, 410, 413, 415;,
    4;416, 414, 415, 417;,
    4;418, 416, 417, 419;,
    4;420, 418, 419, 421;,
    4;422, 420, 421, 423;,
    4;424, 422, 423, 425;,
    4;426, 424, 425, 427;,
    4;428, 426, 427, 429;,
    4;430, 428, 429, 431;,
    4;432, 430, 431, 433;,
    4;434, 432, 433, 435;,
    4;436, 437, 438, 439;,
    4;440, 441, 442, 443;,
    4;444, 445, 446, 447;,
    4;445, 448, 449, 446;,
    4;448, 440, 443, 449;,
    3;138, 140, 450;,
    3;143, 142, 451;,
    3;452, 453, 454;,
    3;453, 455, 454;,
    3;455, 456, 454;,
    3;456, 457, 454;,
    3;457, 458, 454;,
    3;458, 459, 454;,
    3;459, 460, 454;,
    3;460, 461, 454;,
    3;461, 462, 454;,
    3;462, 463, 454;,
    3;463, 464, 454;,
    3;464, 465, 454;,
    3;465, 466, 454;,
    3;466, 467, 454;,
    3;467, 468, 454;,
    3;468, 452, 454;,
    3;248, 250, 469;,
    3;253, 252, 470;,
    3;471, 472, 473;,
    3;472, 474, 473;,
    3;474, 475, 473;,
    3;475, 476, 473;,
    3;476, 477, 473;,
    3;477, 478, 473;,
    3;478, 479, 473;,
    3;479, 480, 473;,
    3;480, 481, 473;,
    3;481, 482, 473;,
    3;482, 483, 473;,
    3;483, 484, 473;,
    3;484, 485, 473;,
    3;485, 486, 473;,
    3;486, 487, 473;,
    3;487, 471, 473;,
    3;358, 360, 488;,
    3;363, 362, 489;,
    3;490, 491, 492;,
    3;491, 493, 492;,
    3;493, 494, 492;,
    3;494, 495, 492;,
    3;495, 496, 492;,
    3;496, 497, 492;,
    3;497, 498, 492;,
    3;498, 499, 492;,
    3;499, 500, 492;,
    3;500, 501, 492;,
    3;501, 502, 492;,
    3;502, 503, 492;,
    3;503, 504, 492;,
    3;504, 505, 492;,
    3;505, 506, 492;,
    3;506, 490, 492;;
   }

   MeshTextureCoords {
    507;
    0.250000; 0.621000;,
    0.250000; 0.840000;,
    0.468000; 0.840000;,
    0.468000; 0.621000;,
    0.250000; 0.391000;,
    0.250000; 0.610000;,
    0.468000; 0.610000;,
    0.468000; 0.391000;,
    0.250000; 0.161000;,
    0.250000; 0.380000;,
    0.468000; 0.380000;,
    0.468000; 0.161000;,
    0.093000; 0.615000;,
    0.005000; 0.615000;,
    0.005000; 0.845000;,
    0.093000; 0.845000;,
    0.093000; 0.385000;,
    0.005000; 0.385000;,
    0.093000; 0.155000;,
    0.005000; 0.155000;,
    0.244000; 0.874000;,
    0.474000; 0.874000;,
    0.474000; 0.845000;,
    0.244000; 0.845000;,
    0.215000; 0.615000;,
    0.215000; 0.845000;,
    0.244000; 0.615000;,
    0.215000; 0.385000;,
    0.244000; 0.385000;,
    0.215000; 0.155000;,
    0.244000; 0.155000;,
    0.474000; 0.126000;,
    0.244000; 0.126000;,
    0.474000; 0.155000;,
    0.503000; 0.385000;,
    0.503000; 0.155000;,
    0.474000; 0.385000;,
    0.503000; 0.615000;,
    0.474000; 0.615000;,
    0.503000; 0.845000;,
    0.468000; 0.621000;,
    0.468000; 0.840000;,
    0.250000; 0.621000;,
    0.250000; 0.840000;,
    0.468000; 0.391000;,
    0.468000; 0.610000;,
    0.250000; 0.391000;,
    0.250000; 0.610000;,
    0.468000; 0.161000;,
    0.468000; 0.380000;,
    0.250000; 0.161000;,
    0.250000; 0.380000;,
    0.011000; 0.949000;,
    0.230000; 0.949000;,
    0.230000; 0.966000;,
    0.011000; 0.966000;,
    0.004000; 0.004000;,
    0.222000; 0.004000;,
    0.222000; 0.021000;,
    0.004000; 0.021000;,
    0.230000; 0.969000;,
    0.011000; 0.969000;,
    0.011000; 0.987000;,
    0.230000; 0.987000;,
    0.222000; 0.059000;,
    0.003000; 0.059000;,
    0.003000; 0.076000;,
    0.222000; 0.076000;,
    0.011000; 0.907000;,
    0.229000; 0.907000;,
    0.229000; 0.924000;,
    0.011000; 0.924000;,
    0.004000; 0.021000;,
    0.222000; 0.021000;,
    0.222000; 0.038000;,
    0.004000; 0.038000;,
    0.229000; 0.927000;,
    0.011000; 0.927000;,
    0.011000; 0.945000;,
    0.229000; 0.945000;,
    0.223000; 0.098000;,
    0.005000; 0.098000;,
    0.005000; 0.116000;,
    0.223000; 0.116000;,
    0.010000; 0.867000;,
    0.229000; 0.867000;,
    0.229000; 0.884000;,
    0.010000; 0.884000;,
    0.005000; 0.081000;,
    0.224000; 0.081000;,
    0.224000; 0.098000;,
    0.005000; 0.098000;,
    0.229000; 0.887000;,
    0.010000; 0.887000;,
    0.010000; 0.904000;,
    0.229000; 0.904000;,
    0.223000; 0.041000;,
    0.004000; 0.041000;,
    0.004000; 0.058000;,
    0.223000; 0.058000;,
    0.263000; 0.932000;,
    0.456000; 0.932000;,
    0.158000; 0.615000;,
    0.158000; 0.845000;,
    0.158000; 0.385000;,
    0.158000; 0.155000;,
    0.455000; 0.069000;,
    0.262000; 0.069000;,
    0.561000; 0.385000;,
    0.561000; 0.155000;,
    0.561000; 0.615000;,
    0.561000; 0.845000;,
    0.315000; 0.996000;,
    0.404000; 0.996000;,
    0.403000; 0.005000;,
    0.315000; 0.005000;,
    0.625000; 0.385000;,
    0.625000; 0.155000;,
    0.625000; 0.615000;,
    0.625000; 0.845000;,
    0.832000; 0.374000;,
    0.832000; 0.415000;,
    0.631000; 0.419000;,
    0.631000; 0.379000;,
    0.832000; 0.333000;,
    0.631000; 0.337000;,
    0.832000; 0.292000;,
    0.631000; 0.294000;,
    0.832000; 0.251000;,
    0.631000; 0.250000;,
    0.832000; 0.209000;,
    0.631000; 0.207000;,
    0.832000; 0.168000;,
    0.631000; 0.164000;,
    0.832000; 0.127000;,
    0.631000; 0.122000;,
    0.832000; 0.086000;,
    0.631000; 0.082000;,
    0.832000; 0.045000;,
    0.631000; 0.043000;,
    0.816000; 0.004000;,
    0.631000; 0.005000;,
    0.832000; 0.456000;,
    0.816000; 0.498000;,
    0.631000; 0.496000;,
    0.631000; 0.458000;,
    0.994000; 0.108000;,
    0.994000; 0.146000;,
    0.999000; 0.146000;,
    0.999000; 0.108000;,
    0.994000; 0.069000;,
    0.999000; 0.069000;,
    0.994000; 0.032000;,
    0.999000; 0.032000;,
    0.574000; 0.006000;,
    0.529000; 0.006000;,
    0.529000; 0.015000;,
    0.574000; 0.015000;,
    0.619000; 0.006000;,
    0.619000; 0.015000;,
    0.482000; 0.006000;,
    0.436000; 0.006000;,
    0.436000; 0.015000;,
    0.482000; 0.015000;,
    0.528000; 0.006000;,
    0.528000; 0.015000;,
    0.994000; 0.302000;,
    0.994000; 0.264000;,
    0.999000; 0.264000;,
    0.999000; 0.302000;,
    0.994000; 0.341000;,
    0.999000; 0.341000;,
    0.994000; 0.379000;,
    0.999000; 0.379000;,
    0.994000; 0.417000;,
    0.999000; 0.417000;,
    0.994000; 0.456000;,
    0.999000; 0.456000;,
    0.994000; 0.494000;,
    0.999000; 0.494000;,
    0.994000; 0.223000;,
    0.994000; 0.261000;,
    0.999000; 0.261000;,
    0.999000; 0.223000;,
    0.994000; 0.184000;,
    0.999000; 0.184000;,
    0.987000; 0.004000;,
    0.987000; 0.010000;,
    0.840000; 0.010000;,
    0.840000; 0.004000;,
    0.988000; 0.065000;,
    0.988000; 0.026000;,
    0.840000; 0.022000;,
    0.840000; 0.061000;,
    0.988000; 0.104000;,
    0.840000; 0.101000;,
    0.988000; 0.143000;,
    0.840000; 0.141000;,
    0.988000; 0.182000;,
    0.840000; 0.180000;,
    0.988000; 0.221000;,
    0.840000; 0.220000;,
    0.988000; 0.260000;,
    0.840000; 0.260000;,
    0.988000; 0.299000;,
    0.840000; 0.300000;,
    0.988000; 0.338000;,
    0.840000; 0.339000;,
    0.988000; 0.377000;,
    0.840000; 0.379000;,
    0.988000; 0.416000;,
    0.840000; 0.419000;,
    0.988000; 0.455000;,
    0.840000; 0.458000;,
    0.988000; 0.494000;,
    0.840000; 0.498000;,
    0.987000; 0.019000;,
    0.987000; 0.012000;,
    0.840000; 0.012000;,
    0.840000; 0.019000;,
    0.509000; 0.037000;,
    0.473000; 0.037000;,
    0.473000; 0.021000;,
    0.509000; 0.021000;,
    0.617000; 0.037000;,
    0.581000; 0.037000;,
    0.581000; 0.021000;,
    0.617000; 0.021000;,
    0.545000; 0.037000;,
    0.545000; 0.021000;,
    0.832000; 0.374000;,
    0.832000; 0.415000;,
    0.631000; 0.419000;,
    0.631000; 0.379000;,
    0.832000; 0.333000;,
    0.631000; 0.337000;,
    0.832000; 0.292000;,
    0.631000; 0.294000;,
    0.832000; 0.251000;,
    0.631000; 0.250000;,
    0.832000; 0.209000;,
    0.631000; 0.207000;,
    0.832000; 0.168000;,
    0.631000; 0.164000;,
    0.832000; 0.127000;,
    0.631000; 0.122000;,
    0.832000; 0.086000;,
    0.631000; 0.082000;,
    0.832000; 0.045000;,
    0.631000; 0.043000;,
    0.816000; 0.004000;,
    0.631000; 0.005000;,
    0.832000; 0.456000;,
    0.816000; 0.498000;,
    0.631000; 0.496000;,
    0.631000; 0.458000;,
    0.994000; 0.108000;,
    0.994000; 0.146000;,
    0.999000; 0.146000;,
    0.999000; 0.108000;,
    0.994000; 0.069000;,
    0.999000; 0.069000;,
    0.994000; 0.032000;,
    0.999000; 0.032000;,
    0.574000; 0.006000;,
    0.529000; 0.006000;,
    0.529000; 0.015000;,
    0.574000; 0.015000;,
    0.619000; 0.006000;,
    0.619000; 0.015000;,
    0.482000; 0.006000;,
    0.436000; 0.006000;,
    0.436000; 0.015000;,
    0.482000; 0.015000;,
    0.528000; 0.006000;,
    0.528000; 0.015000;,
    0.994000; 0.302000;,
    0.994000; 0.264000;,
    0.999000; 0.264000;,
    0.999000; 0.302000;,
    0.994000; 0.341000;,
    0.999000; 0.341000;,
    0.994000; 0.379000;,
    0.999000; 0.379000;,
    0.994000; 0.417000;,
    0.999000; 0.417000;,
    0.994000; 0.456000;,
    0.999000; 0.456000;,
    0.994000; 0.494000;,
    0.999000; 0.494000;,
    0.994000; 0.223000;,
    0.994000; 0.261000;,
    0.999000; 0.261000;,
    0.999000; 0.223000;,
    0.994000; 0.184000;,
    0.999000; 0.184000;,
    0.987000; 0.004000;,
    0.987000; 0.010000;,
    0.840000; 0.010000;,
    0.840000; 0.004000;,
    0.988000; 0.065000;,
    0.988000; 0.026000;,
    0.840000; 0.022000;,
    0.840000; 0.061000;,
    0.988000; 0.104000;,
    0.840000; 0.101000;,
    0.988000; 0.143000;,
    0.840000; 0.141000;,
    0.988000; 0.182000;,
    0.840000; 0.180000;,
    0.988000; 0.221000;,
    0.840000; 0.220000;,
    0.988000; 0.260000;,
    0.840000; 0.260000;,
    0.988000; 0.299000;,
    0.840000; 0.300000;,
    0.988000; 0.338000;,
    0.840000; 0.339000;,
    0.988000; 0.377000;,
    0.840000; 0.379000;,
    0.988000; 0.416000;,
    0.840000; 0.419000;,
    0.988000; 0.455000;,
    0.840000; 0.458000;,
    0.988000; 0.494000;,
    0.840000; 0.498000;,
    0.987000; 0.019000;,
    0.987000; 0.012000;,
    0.840000; 0.012000;,
    0.840000; 0.019000;,
    0.509000; 0.037000;,
    0.473000; 0.037000;,
    0.473000; 0.021000;,
    0.509000; 0.021000;,
    0.617000; 0.037000;,
    0.581000; 0.037000;,
    0.581000; 0.021000;,
    0.617000; 0.021000;,
    0.545000; 0.037000;,
    0.545000; 0.021000;,
    0.832000; 0.374000;,
    0.832000; 0.415000;,
    0.631000; 0.419000;,
    0.631000; 0.379000;,
    0.832000; 0.333000;,
    0.631000; 0.337000;,
    0.832000; 0.292000;,
    0.631000; 0.294000;,
    0.832000; 0.251000;,
    0.631000; 0.250000;,
    0.832000; 0.209000;,
    0.631000; 0.207000;,
    0.832000; 0.168000;,
    0.631000; 0.164000;,
    0.832000; 0.127000;,
    0.631000; 0.122000;,
    0.832000; 0.086000;,
    0.631000; 0.082000;,
    0.832000; 0.045000;,
    0.631000; 0.043000;,
    0.816000; 0.004000;,
    0.631000; 0.005000;,
    0.832000; 0.456000;,
    0.816000; 0.498000;,
    0.631000; 0.496000;,
    0.631000; 0.458000;,
    0.994000; 0.108000;,
    0.994000; 0.146000;,
    0.999000; 0.146000;,
    0.999000; 0.108000;,
    0.994000; 0.069000;,
    0.999000; 0.069000;,
    0.994000; 0.032000;,
    0.999000; 0.032000;,
    0.574000; 0.006000;,
    0.529000; 0.006000;,
    0.529000; 0.015000;,
    0.574000; 0.015000;,
    0.619000; 0.006000;,
    0.619000; 0.015000;,
    0.482000; 0.006000;,
    0.436000; 0.006000;,
    0.436000; 0.015000;,
    0.482000; 0.015000;,
    0.528000; 0.006000;,
    0.528000; 0.015000;,
    0.994000; 0.302000;,
    0.994000; 0.264000;,
    0.999000; 0.264000;,
    0.999000; 0.302000;,
    0.994000; 0.341000;,
    0.999000; 0.341000;,
    0.994000; 0.379000;,
    0.999000; 0.379000;,
    0.994000; 0.417000;,
    0.999000; 0.417000;,
    0.994000; 0.456000;,
    0.999000; 0.456000;,
    0.994000; 0.494000;,
    0.999000; 0.494000;,
    0.994000; 0.223000;,
    0.994000; 0.261000;,
    0.999000; 0.261000;,
    0.999000; 0.223000;,
    0.994000; 0.184000;,
    0.999000; 0.184000;,
    0.987000; 0.004000;,
    0.987000; 0.010000;,
    0.840000; 0.010000;,
    0.840000; 0.004000;,
    0.988000; 0.065000;,
    0.988000; 0.026000;,
    0.840000; 0.022000;,
    0.840000; 0.061000;,
    0.988000; 0.104000;,
    0.840000; 0.101000;,
    0.988000; 0.143000;,
    0.840000; 0.141000;,
    0.988000; 0.182000;,
    0.840000; 0.180000;,
    0.988000; 0.221000;,
    0.840000; 0.220000;,
    0.988000; 0.260000;,
    0.840000; 0.260000;,
    0.988000; 0.299000;,
    0.840000; 0.300000;,
    0.988000; 0.338000;,
    0.840000; 0.339000;,
    0.988000; 0.377000;,
    0.840000; 0.379000;,
    0.988000; 0.416000;,
    0.840000; 0.419000;,
    0.988000; 0.455000;,
    0.840000; 0.458000;,
    0.988000; 0.494000;,
    0.840000; 0.498000;,
    0.987000; 0.019000;,
    0.987000; 0.012000;,
    0.840000; 0.012000;,
    0.840000; 0.019000;,
    0.509000; 0.037000;,
    0.473000; 0.037000;,
    0.473000; 0.021000;,
    0.509000; 0.021000;,
    0.617000; 0.037000;,
    0.581000; 0.037000;,
    0.581000; 0.021000;,
    0.617000; 0.021000;,
    0.545000; 0.037000;,
    0.545000; 0.021000;,
    0.832000; 0.004000;,
    0.832000; 0.498000;,
    0.800000; 0.672000;,
    0.770000; 0.692000;,
    0.734000; 0.606000;,
    0.734000; 0.699000;,
    0.699000; 0.692000;,
    0.668000; 0.672000;,
    0.648000; 0.641000;,
    0.641000; 0.606000;,
    0.648000; 0.570000;,
    0.668000; 0.540000;,
    0.699000; 0.520000;,
    0.734000; 0.512000;,
    0.770000; 0.520000;,
    0.800000; 0.540000;,
    0.821000; 0.570000;,
    0.828000; 0.606000;,
    0.821000; 0.641000;,
    0.832000; 0.004000;,
    0.832000; 0.498000;,
    0.957000; 0.811000;,
    0.927000; 0.831000;,
    0.891000; 0.744000;,
    0.891000; 0.838000;,
    0.855000; 0.831000;,
    0.824000; 0.811000;,
    0.804000; 0.780000;,
    0.797000; 0.744000;,
    0.804000; 0.708000;,
    0.824000; 0.678000;,
    0.855000; 0.657000;,
    0.891000; 0.650000;,
    0.927000; 0.657000;,
    0.957000; 0.678000;,
    0.978000; 0.708000;,
    0.985000; 0.744000;,
    0.978000; 0.780000;,
    0.832000; 0.004000;,
    0.832000; 0.498000;,
    0.803000; 0.950000;,
    0.772000; 0.971000;,
    0.737000; 0.884000;,
    0.737000; 0.978000;,
    0.701000; 0.971000;,
    0.671000; 0.950000;,
    0.651000; 0.920000;,
    0.643000; 0.884000;,
    0.651000; 0.849000;,
    0.671000; 0.819000;,
    0.701000; 0.798000;,
    0.737000; 0.791000;,
    0.772000; 0.798000;,
    0.803000; 0.819000;,
    0.823000; 0.849000;,
    0.830000; 0.884000;,
    0.823000; 0.920000;;
   }

   FVFData {
    258;
    1014;
    0,
    1065353216,
    0,
    1065353216,
    0,
    1065353216,
    0,
    1065353216,
    0,
    1065353216,
    0,
    1065353216,
    0,
    1065353216,
    0,
    1065353216,
    0,
    1065353216,
    0,
    1065353216,
    0,
    1065353216,
    0,
    1065353216,
    0,
    1065353216,
    0,
    1065353216,
    0,
    1065353216,
    0,
    1065353216,
    0,
    1065353216,
    0,
    1065353216,
    0,
    1065353216,
    0,
    1065353216,
    0,
    1065353216,
    0,
    1065353216,
    0,
    1065353216,
    0,
    1065353216,
    0,
    1065353216,
    0,
    1065353216,
    0,
    1065353216,
    0,
    1065353216,
    0,
    1065353216,
    0,
    1065353216,
    0,
    1065353216,
    0,
    1065353216,
    0,
    1065353216,
    0,
    1065353216,
    0,
    1065353216,
    0,
    1065353216,
    0,
    1065353216,
    0,
    1065353216,
    0,
    1065353216,
    0,
    1065353216,
    0,
    1065353216,
    0,
    1065353216,
    0,
    1065353216,
    0,
    1065353216,
    0,
    1065353216,
    0,
    1065353216,
    0,
    1065353216,
    0,
    1065353216,
    0,
    1065353216,
    0,
    1065353216,
    0,
    1065353216,
    0,
    1065353216,
    0,
    1065353216,
    0,
    1065353216,
    0,
    1065353216,
    0,
    1065353216,
    0,
    1065353216,
    0,
    1065353216,
    0,
    1065353216,
    0,
    1065353216,
    0,
    1065353216,
    0,
    1065353216,
    0,
    1065353216,
    0,
    1065353216,
    0,
    1065353216,
    0,
    1065353216,
    0,
    1065353216,
    0,
    1065353216,
    0,
    1065353216,
    0,
    1065353216,
    0,
    1065353216,
    0,
    1065353216,
    0,
    1065353216,
    0,
    1065353216,
    0,
    1065353216,
    0,
    1065353216,
    0,
    1065353216,
    0,
    1065353216,
    0,
    1065353216,
    0,
    1065353216,
    0,
    1065353216,
    0,
    1065353216,
    0,
    1065353216,
    0,
    1065353216,
    0,
    1065353216,
    0,
    1065353216,
    0,
    1065353216,
    0,
    1065353216,
    0,
    1065353216,
    0,
    1065353216,
    0,
    1065353216,
    0,
    1065353216,
    0,
    1065353216,
    0,
    1065353216,
    0,
    1065353216,
    0,
    1065353216,
    0,
    1065353216,
    0,
    1065353216,
    0,
    1065353216,
    0,
    1065353216,
    0,
    1065353216,
    0,
    1065353216,
    0,
    1065353216,
    0,
    1065353216,
    0,
    1065353216,
    0,
    1065353216,
    0,
    1065353216,
    0,
    1065353216,
    0,
    1065353216,
    0,
    1065353216,
    0,
    1065353216,
    0,
    1065353216,
    0,
    1065353216,
    0,
    1065353216,
    0,
    1065353216,
    0,
    1065353216,
    0,
    1065353216,
    0,
    1065353216,
    0,
    1065353216,
    0,
    1065353216,
    0,
    1065353216,
    0,
    1065353216,
    0,
    1065353216,
    0,
    1065353216,
    0,
    1065353216,
    0,
    1065353216,
    0,
    1065353216,
    0,
    1065353216,
    0,
    1065353216,
    0,
    1065353216,
    0,
    1065353216,
    0,
    1065353216,
    0,
    1065353216,
    0,
    1065353216,
    0,
    1065353216,
    0,
    1065353216,
    0,
    1065353216,
    0,
    1065353216,
    0,
    1065353216,
    0,
    1065353216,
    0,
    1065353216,
    0,
    1065353216,
    0,
    1065353216,
    0,
    1065353216,
    0,
    1065353216,
    0,
    1065353216,
    0,
    1065353216,
    0,
    1065353216,
    0,
    1065353216,
    0,
    1065353216,
    0,
    1065353216,
    0,
    1065353216,
    0,
    1065353216,
    0,
    1065353216,
    0,
    1065353216,
    0,
    1065353216,
    0,
    1065353216,
    0,
    1065353216,
    0,
    1065353216,
    0,
    1065353216,
    0,
    1065353216,
    0,
    1065353216,
    0,
    1065353216,
    0,
    1065353216,
    0,
    1065353216,
    0,
    1065353216,
    0,
    1065353216,
    0,
    1065353216,
    0,
    1065353216,
    0,
    1065353216,
    0,
    1065353216,
    0,
    1065353216,
    0,
    1065353216,
    0,
    1065353216,
    0,
    1065353216,
    0,
    1065353216,
    0,
    1065353216,
    0,
    1065353216,
    0,
    1065353216,
    0,
    1065353216,
    0,
    1065353216,
    0,
    1065353216,
    0,
    1065353216,
    0,
    1065353216,
    0,
    1065353216,
    0,
    1065353216,
    0,
    1065353216,
    0,
    1065353216,
    0,
    1065353216,
    0,
    1065353216,
    0,
    1065353216,
    0,
    1065353216,
    0,
    1065353216,
    0,
    1065353216,
    0,
    1065353216,
    0,
    1065353216,
    0,
    1065353216,
    0,
    1065353216,
    0,
    1065353216,
    0,
    1065353216,
    0,
    1065353216,
    0,
    1065353216,
    0,
    1065353216,
    0,
    1065353216,
    0,
    1065353216,
    0,
    1065353216,
    0,
    1065353216,
    0,
    1065353216,
    0,
    1065353216,
    0,
    1065353216,
    0,
    1065353216,
    0,
    1065353216,
    0,
    1065353216,
    0,
    1065353216,
    0,
    1065353216,
    0,
    1065353216,
    0,
    1065353216,
    0,
    1065353216,
    0,
    1065353216,
    0,
    1065353216,
    0,
    1065353216,
    0,
    1065353216,
    0,
    1065353216,
    0,
    1065353216,
    0,
    1065353216,
    0,
    1065353216,
    0,
    1065353216,
    0,
    1065353216,
    0,
    1065353216,
    0,
    1065353216,
    0,
    1065353216,
    0,
    1065353216,
    0,
    1065353216,
    0,
    1065353216,
    0,
    1065353216,
    0,
    1065353216,
    0,
    1065353216,
    0,
    1065353216,
    0,
    1065353216,
    0,
    1065353216,
    0,
    1065353216,
    0,
    1065353216,
    0,
    1065353216,
    0,
    1065353216,
    0,
    1065353216,
    0,
    1065353216,
    0,
    1065353216,
    0,
    1065353216,
    0,
    1065353216,
    0,
    1065353216,
    0,
    1065353216,
    0,
    1065353216,
    0,
    1065353216,
    0,
    1065353216,
    0,
    1065353216,
    0,
    1065353216,
    0,
    1065353216,
    0,
    1065353216,
    0,
    1065353216,
    0,
    1065353216,
    0,
    1065353216,
    0,
    1065353216,
    0,
    1065353216,
    0,
    1065353216,
    0,
    1065353216,
    0,
    1065353216,
    0,
    1065353216,
    0,
    1065353216,
    0,
    1065353216,
    0,
    1065353216,
    0,
    1065353216,
    0,
    1065353216,
    0,
    1065353216,
    0,
    1065353216,
    0,
    1065353216,
    0,
    1065353216,
    0,
    1065353216,
    0,
    1065353216,
    0,
    1065353216,
    0,
    1065353216,
    0,
    1065353216,
    0,
    1065353216,
    0,
    1065353216,
    0,
    1065353216,
    0,
    1065353216,
    0,
    1065353216,
    0,
    1065353216,
    0,
    1065353216,
    0,
    1065353216,
    0,
    1065353216,
    0,
    1065353216,
    0,
    1065353216,
    0,
    1065353216,
    0,
    1065353216,
    0,
    1065353216,
    0,
    1065353216,
    0,
    1065353216,
    0,
    1065353216,
    0,
    1065353216,
    0,
    1065353216,
    0,
    1065353216,
    0,
    1065353216,
    0,
    1065353216,
    0,
    1065353216,
    0,
    1065353216,
    0,
    1065353216,
    0,
    1065353216,
    0,
    1065353216,
    0,
    1065353216,
    0,
    1065353216,
    0,
    1065353216,
    0,
    1065353216,
    0,
    1065353216,
    0,
    1065353216,
    0,
    1065353216,
    0,
    1065353216,
    0,
    1065353216,
    0,
    1065353216,
    0,
    1065353216,
    0,
    1065353216,
    0,
    1065353216,
    0,
    1065353216,
    0,
    1065353216,
    0,
    1065353216,
    0,
    1065353216,
    0,
    1065353216,
    0,
    1065353216,
    0,
    1065353216,
    0,
    1065353216,
    0,
    1065353216,
    0,
    1065353216,
    0,
    1065353216,
    0,
    1065353216,
    0,
    1065353216,
    0,
    1065353216,
    0,
    1065353216,
    0,
    1065353216,
    0,
    1065353216,
    0,
    1065353216,
    0,
    1065353216,
    0,
    1065353216,
    0,
    1065353216,
    0,
    1065353216,
    0,
    1065353216,
    0,
    1065353216,
    0,
    1065353216,
    0,
    1065353216,
    0,
    1065353216,
    0,
    1065353216,
    0,
    1065353216,
    0,
    1065353216,
    0,
    1065353216,
    0,
    1065353216,
    0,
    1065353216,
    0,
    1065353216,
    0,
    1065353216,
    0,
    1065353216,
    0,
    1065353216,
    0,
    1065353216,
    0,
    1065353216,
    0,
    1065353216,
    0,
    1065353216,
    0,
    1065353216,
    0,
    1065353216,
    0,
    1065353216,
    0,
    1065353216,
    0,
    1065353216,
    0,
    1065353216,
    0,
    1065353216,
    0,
    1065353216,
    0,
    1065353216,
    0,
    1065353216,
    0,
    1065353216,
    0,
    1065353216,
    0,
    1065353216,
    0,
    1065353216,
    0,
    1065353216,
    0,
    1065353216,
    0,
    1065353216,
    0,
    1065353216,
    0,
    1065353216,
    0,
    1065353216,
    0,
    1065353216,
    0,
    1065353216,
    0,
    1065353216,
    0,
    1065353216,
    0,
    1065353216,
    0,
    1065353216,
    0,
    1065353216,
    0,
    1065353216,
    0,
    1065353216,
    0,
    1065353216,
    0,
    1065353216,
    0,
    1065353216,
    0,
    1065353216,
    0,
    1065353216,
    0,
    1065353216,
    0,
    1065353216,
    0,
    1065353216,
    0,
    1065353216,
    0,
    1065353216,
    0,
    1065353216,
    0,
    1065353216,
    0,
    1065353216,
    0,
    1065353216,
    0,
    1065353216,
    0,
    1065353216,
    0,
    1065353216,
    0,
    1065353216,
    0,
    1065353216,
    0,
    1065353216,
    0,
    1065353216,
    0,
    1065353216,
    0,
    1065353216,
    0,
    1065353216,
    0,
    1065353216,
    0,
    1065353216,
    0,
    1065353216,
    0,
    1065353216,
    0,
    1065353216,
    0,
    1065353216,
    0,
    1065353216,
    0,
    1065353216,
    0,
    1065353216,
    0,
    1065353216,
    0,
    1065353216,
    0,
    1065353216,
    0,
    1065353216,
    0,
    1065353216,
    0,
    1065353216,
    0,
    1065353216,
    0,
    1065353216,
    0,
    1065353216,
    0,
    1065353216,
    0,
    1065353216,
    0,
    1065353216,
    0,
    1065353216,
    0,
    1065353216,
    0,
    1065353216,
    0,
    1065353216,
    0,
    1065353216,
    0,
    1065353216,
    0,
    1065353216,
    0,
    1065353216,
    0,
    1065353216,
    0,
    1065353216,
    0,
    1065353216,
    0,
    1065353216,
    0,
    1065353216,
    0,
    1065353216,
    0,
    1065353216,
    0,
    1065353216,
    0,
    1065353216,
    0,
    1065353216,
    0,
    1065353216,
    0,
    1065353216,
    0,
    1065353216,
    0,
    1065353216,
    0,
    1065353216,
    0,
    1065353216,
    0,
    1065353216,
    0,
    1065353216,
    0,
    1065353216,
    0,
    1065353216,
    0,
    1065353216,
    0,
    1065353216,
    0,
    1065353216,
    0,
    1065353216,
    0,
    1065353216,
    0,
    1065353216,
    0,
    1065353216,
    0,
    1065353216,
    0,
    1065353216,
    0,
    1065353216,
    0,
    1065353216,
    0,
    1065353216,
    0,
    1065353216,
    0,
    1065353216,
    0,
    1065353216,
    0,
    1065353216,
    0,
    1065353216,
    0,
    1065353216,
    0,
    1065353216,
    0,
    1065353216,
    0,
    1065353216,
    0,
    1065353216,
    0,
    1065353216,
    0,
    1065353216,
    0,
    1065353216,
    0,
    1065353216,
    0,
    1065353216,
    0,
    1065353216,
    0,
    1065353216,
    0,
    1065353216,
    0,
    1065353216,
    0,
    1065353216,
    0,
    1065353216,
    0,
    1065353216,
    0,
    1065353216,
    0,
    1065353216,
    0,
    1065353216,
    0,
    1065353216,
    0,
    1065353216,
    0,
    1065353216,
    0,
    1065353216,
    0,
    1065353216,
    0,
    1065353216;
   }

   MeshMaterialList {
    1;
    246;
    0,
    0,
    0,
    0,
    0,
    0,
    0,
    0,
    0,
    0,
    0,
    0,
    0,
    0,
    0,
    0,
    0,
    0,
    0,
    0,
    0,
    0,
    0,
    0,
    0,
    0,
    0,
    0,
    0,
    0,
    0,
    0,
    0,
    0,
    0,
    0,
    0,
    0,
    0,
    0,
    0,
    0,
    0,
    0,
    0,
    0,
    0,
    0,
    0,
    0,
    0,
    0,
    0,
    0,
    0,
    0,
    0,
    0,
    0,
    0,
    0,
    0,
    0,
    0,
    0,
    0,
    0,
    0,
    0,
    0,
    0,
    0,
    0,
    0,
    0,
    0,
    0,
    0,
    0,
    0,
    0,
    0,
    0,
    0,
    0,
    0,
    0,
    0,
    0,
    0,
    0,
    0,
    0,
    0,
    0,
    0,
    0,
    0,
    0,
    0,
    0,
    0,
    0,
    0,
    0,
    0,
    0,
    0,
    0,
    0,
    0,
    0,
    0,
    0,
    0,
    0,
    0,
    0,
    0,
    0,
    0,
    0,
    0,
    0,
    0,
    0,
    0,
    0,
    0,
    0,
    0,
    0,
    0,
    0,
    0,
    0,
    0,
    0,
    0,
    0,
    0,
    0,
    0,
    0,
    0,
    0,
    0,
    0,
    0,
    0,
    0,
    0,
    0,
    0,
    0,
    0,
    0,
    0,
    0,
    0,
    0,
    0,
    0,
    0,
    0,
    0,
    0,
    0,
    0,
    0,
    0,
    0,
    0,
    0,
    0,
    0,
    0,
    0,
    0,
    0,
    0,
    0,
    0,
    0,
    0,
    0,
    0,
    0,
    0,
    0,
    0,
    0,
    0,
    0,
    0,
    0,
    0,
    0,
    0,
    0,
    0,
    0,
    0,
    0,
    0,
    0,
    0,
    0,
    0,
    0,
    0,
    0,
    0,
    0,
    0,
    0,
    0,
    0,
    0,
    0,
    0,
    0,
    0,
    0,
    0,
    0,
    0,
    0,
    0,
    0,
    0,
    0,
    0,
    0,
    0,
    0,
    0,
    0,
    0,
    0,
    0,
    0,
    0,
    0,
    0,
    0;

    Material trafficlightred {
     0.588000; 0.588000; 0.588000; 1.000000;;
     128.000000;
     0.000000; 0.000000; 0.000000;;
     0.000000; 0.000000; 0.000000;;

     TextureFilename {
      "D:\\new packs\\test\\trafficlightred_diffuse.tga";
     }
    }

   }
  }
}
