xof 0303txt 0032

// DirectX 8.0 file
// Creator: Ultimate Unwrap3D Pro v3.27
// Website: http://www.unwrap3d.com
// Time: Fri Jun 01 18:50:59 2012

// Start of Templates

template VertexDuplicationIndices {
 <b8d65549-d7c9-4995-89cf-53a9a8b031e3>
 DWORD nIndices;
 DWORD nOriginalVertices;
 array DWORD indices[nIndices];
}

template FVFData {
 <b6e70a0e-8ef9-4e83-94ad-ecc8b0c04897>
 DWORD dwFVF;
 DWORD nDWords;
 array DWORD data[nDWords];
}

template XSkinMeshHeader {
 <3CF169CE-FF7C-44ab-93C0-F78F62D172E2>
 WORD nMaxSkinWeightsPerVertex;
 WORD nMaxSkinWeightsPerFace;
 WORD nBones;
}

template SkinWeights {
 <6F0D123B-BAD2-4167-A0D0-80224F25FABB>
 STRING transformNodeName;
 DWORD nWeights;
 array DWORD vertexIndices[nWeights];
 array FLOAT weights[nWeights];
 Matrix4x4 matrixOffset;
}

template AnimTicksPerSecond {
 <9E415A43-7BA6-4a73-8743-B73D47E88476>
 DWORD AnimTicksPerSecond;
}

// Start of Frames

Frame trafficpolesingle {
   FrameTransformMatrix {
    1.000000, 0.000000, 0.000000, 0.000000,
    0.000000, 1.000000, 0.000000, 0.000000,
    0.000000, 0.000000, 1.000000, 0.000000,
    0.000000, 0.000000, 0.000000, 1.000000;;
   }

   Mesh trafficpolesingle {
    95;
    0.098500; 2.673000; -0.041500;,
    0.098500; 2.673000; 0.040500;,
    0.106500; 0.605000; 0.043500;,
    0.106500; 0.605000; -0.044500;,
    0.041500; 2.673000; -0.098500;,
    0.098500; 2.673000; -0.041500;,
    0.106500; 0.605000; -0.044500;,
    0.044500; 0.605000; -0.106500;,
    -0.040500; 2.673000; -0.098500;,
    -0.043500; 0.605000; -0.106500;,
    -0.097500; 2.673000; -0.041500;,
    -0.105500; 0.605000; -0.044500;,
    -0.097500; 2.673000; 0.040500;,
    -0.105500; 0.605000; 0.043500;,
    -0.040500; 2.673000; 0.097500;,
    -0.043500; 0.605000; 0.105500;,
    0.041500; 2.673000; 0.097500;,
    0.044500; 0.605000; 0.105500;,
    0.090500; 4.927000; -0.037500;,
    0.090500; 4.927000; 0.036500;,
    0.098500; 2.673000; 0.040500;,
    0.098500; 2.673000; -0.041500;,
    0.037500; 4.927000; -0.090500;,
    0.090500; 4.927000; -0.037500;,
    0.098500; 2.673000; -0.041500;,
    0.041500; 2.673000; -0.098500;,
    -0.036500; 4.927000; -0.090500;,
    -0.040500; 2.673000; -0.098500;,
    -0.089500; 4.927000; -0.037500;,
    -0.097500; 2.673000; -0.041500;,
    -0.089500; 4.927000; 0.036500;,
    -0.097500; 2.673000; 0.040500;,
    -0.036500; 4.927000; 0.089500;,
    -0.040500; 2.673000; 0.097500;,
    0.037500; 4.927000; 0.089500;,
    0.041500; 2.673000; 0.097500;,
    -0.257500; 0.000000; -0.240500;,
    0.258500; 0.000000; 0.239500;,
    -0.239500; 0.000000; 0.258500;,
    -0.258500; 0.000000; 0.239500;,
    0.240500; 0.000000; -0.258500;,
    -0.239500; 0.000000; -0.258500;,
    -0.036500; 4.927000; -0.090500;,
    0.037500; 4.927000; 0.089500;,
    0.090500; 4.927000; -0.037500;,
    0.037500; 4.927000; -0.090500;,
    -0.089500; 4.927000; 0.036500;,
    -0.089500; 4.927000; -0.037500;,
    0.169500; 0.605000; 0.151500;,
    0.169500; 0.605000; -0.152500;,
    0.106500; 0.605000; -0.044500;,
    0.106500; 0.605000; 0.043500;,
    0.152500; 0.605000; 0.168500;,
    0.044500; 0.605000; 0.105500;,
    -0.151500; 0.605000; 0.168500;,
    -0.043500; 0.605000; 0.105500;,
    -0.168500; 0.605000; 0.151500;,
    -0.105500; 0.605000; 0.043500;,
    -0.168500; 0.605000; -0.152500;,
    -0.105500; 0.605000; -0.044500;,
    -0.151500; 0.605000; -0.169500;,
    -0.043500; 0.605000; -0.106500;,
    0.152500; 0.605000; -0.169500;,
    0.044500; 0.605000; -0.106500;,
    0.179500; 0.591000; 0.160500;,
    0.179500; 0.591000; -0.161500;,
    0.169500; 0.605000; -0.152500;,
    0.169500; 0.605000; 0.151500;,
    0.161500; 0.591000; 0.178500;,
    0.152500; 0.605000; 0.168500;,
    -0.160500; 0.591000; 0.178500;,
    -0.151500; 0.605000; 0.168500;,
    -0.178500; 0.591000; 0.160500;,
    -0.168500; 0.605000; 0.151500;,
    -0.178500; 0.591000; -0.161500;,
    -0.168500; 0.605000; -0.152500;,
    -0.160500; 0.591000; -0.179500;,
    -0.151500; 0.605000; -0.169500;,
    0.161500; 0.591000; -0.179500;,
    0.152500; 0.605000; -0.169500;,
    0.179500; 0.591000; -0.161500;,
    0.169500; 0.605000; -0.152500;,
    0.258500; 0.000000; 0.239500;,
    0.258500; 0.000000; -0.240500;,
    0.240500; 0.000000; 0.257500;,
    -0.239500; 0.000000; 0.258500;,
    -0.258500; 0.000000; 0.239500;,
    -0.257500; 0.000000; -0.240500;,
    -0.239500; 0.000000; -0.258500;,
    0.240500; 0.000000; -0.258500;,
    0.258500; 0.000000; -0.240500;,
    0.258500; 0.000000; -0.240500;,
    0.240500; 0.000000; 0.257500;,
    -0.036500; 4.927000; 0.089500;,
    0.090500; 4.927000; 0.036500;;
    48;
    4;0, 1, 2, 3;,
    4;4, 5, 6, 7;,
    4;8, 4, 7, 9;,
    4;10, 8, 9, 11;,
    4;12, 10, 11, 13;,
    4;14, 12, 13, 15;,
    4;16, 14, 15, 17;,
    4;1, 16, 17, 2;,
    4;18, 19, 20, 21;,
    4;22, 23, 24, 25;,
    4;26, 22, 25, 27;,
    4;28, 26, 27, 29;,
    4;30, 28, 29, 31;,
    4;32, 30, 31, 33;,
    4;34, 32, 33, 35;,
    4;19, 34, 35, 20;,
    4;36, 37, 38, 39;,
    4;40, 37, 36, 41;,
    4;42, 43, 44, 45;,
    4;46, 43, 42, 47;,
    4;48, 49, 50, 51;,
    4;52, 48, 51, 53;,
    4;54, 52, 53, 55;,
    4;56, 54, 55, 57;,
    4;58, 56, 57, 59;,
    4;60, 58, 59, 61;,
    4;62, 60, 61, 63;,
    4;49, 62, 63, 50;,
    4;64, 65, 66, 67;,
    4;68, 64, 67, 69;,
    4;70, 68, 69, 71;,
    4;72, 70, 71, 73;,
    4;74, 72, 73, 75;,
    4;76, 74, 75, 77;,
    4;78, 76, 77, 79;,
    4;80, 78, 79, 81;,
    4;82, 83, 65, 64;,
    4;84, 82, 64, 68;,
    4;85, 84, 68, 70;,
    4;86, 85, 70, 72;,
    4;87, 86, 72, 74;,
    4;88, 87, 74, 76;,
    4;89, 88, 76, 78;,
    4;90, 89, 78, 80;,
    3;40, 91, 37;,
    3;92, 38, 37;,
    3;46, 93, 43;,
    3;94, 44, 43;;

   MeshNormals {
    95;
    0.999993; 0.003868; 0.000000;,
    0.923872; 0.004129; 0.382680;,
    0.923872; 0.004129; 0.382680;,
    0.999993; 0.003868; 0.000000;,
    0.382680; 0.004129; -0.923872;,
    0.707102; 0.003761; -0.707102;,
    0.707102; 0.003761; -0.707102;,
    0.382680; 0.004129; -0.923872;,
    -0.382680; 0.004129; -0.923872;,
    -0.382680; 0.004129; -0.923872;,
    -0.923872; 0.004129; -0.382680;,
    -0.923872; 0.004129; -0.382680;,
    -0.923872; 0.004129; 0.382680;,
    -0.923872; 0.004129; 0.382680;,
    -0.382680; 0.004129; 0.923872;,
    -0.382680; 0.004129; 0.923872;,
    0.382680; 0.004129; 0.923872;,
    0.382680; 0.004129; 0.923872;,
    0.999994; 0.003549; 0.000000;,
    0.923872; 0.003958; 0.382680;,
    0.923872; 0.003958; 0.382680;,
    0.999994; 0.003549; 0.000000;,
    0.382680; 0.003958; -0.923872;,
    0.707102; 0.003765; -0.707102;,
    0.707102; 0.003765; -0.707102;,
    0.382680; 0.003958; -0.923872;,
    -0.382680; 0.003958; -0.923872;,
    -0.382680; 0.003958; -0.923872;,
    -0.923872; 0.003958; -0.382680;,
    -0.923872; 0.003958; -0.382680;,
    -0.923872; 0.003958; 0.382680;,
    -0.923872; 0.003958; 0.382680;,
    -0.382680; 0.003958; 0.923872;,
    -0.382680; 0.003958; 0.923872;,
    0.382680; 0.003958; 0.923872;,
    0.382680; 0.003958; 0.923872;,
    0.000000; -1.000000; 0.000000;,
    0.000000; -1.000000; 0.000000;,
    0.000000; -1.000000; 0.000000;,
    0.000000; -1.000000; 0.000000;,
    0.000000; -1.000000; 0.000000;,
    0.000000; -1.000000; 0.000000;,
    0.000000; 1.000000; 0.000000;,
    0.000000; 1.000000; 0.000000;,
    0.000000; 1.000000; 0.000000;,
    0.000000; 1.000000; 0.000000;,
    0.000000; 1.000000; 0.000000;,
    0.000000; 1.000000; 0.000000;,
    0.000000; 1.000000; 0.000000;,
    0.000000; 1.000000; 0.000000;,
    0.000000; 1.000000; 0.000000;,
    0.000000; 1.000000; 0.000000;,
    0.000000; 1.000000; 0.000000;,
    0.000000; 1.000000; 0.000000;,
    0.000000; 1.000000; 0.000000;,
    0.000000; 1.000000; 0.000000;,
    0.000000; 1.000000; 0.000000;,
    0.000000; 1.000000; 0.000000;,
    0.000000; 1.000000; 0.000000;,
    0.000000; 1.000000; 0.000000;,
    0.000000; 1.000000; 0.000000;,
    0.000000; 1.000000; 0.000000;,
    0.000000; 1.000000; 0.000000;,
    0.000000; 1.000000; 0.000000;,
    0.833337; 0.440735; 0.333619;,
    0.929933; 0.367729; 0.000000;,
    0.813734; 0.581237; 0.000000;,
    0.694382; 0.668005; 0.267588;,
    0.334086; 0.440977; 0.833023;,
    0.267588; 0.668005; 0.694382;,
    -0.332998; 0.441419; 0.833224;,
    -0.267588; 0.668005; 0.694382;,
    -0.833349; 0.441158; 0.333031;,
    -0.694382; 0.668005; 0.267588;,
    -0.833147; 0.440715; -0.334119;,
    -0.694382; 0.668005; -0.267588;,
    -0.333619; 0.440735; -0.833337;,
    -0.267588; 0.668005; -0.694382;,
    0.333619; 0.440735; -0.833337;,
    0.267588; 0.668005; -0.694382;,
    0.628559; 0.458068; -0.628559;,
    0.510189; 0.692397; -0.510189;,
    0.910802; 0.171921; 0.375344;,
    0.991184; 0.132493; 0.000000;,
    0.376289; 0.172586; 0.910286;,
    -0.374290; 0.173344; 0.910966;,
    -0.911074; 0.172752; 0.374301;,
    -0.910393; 0.171995; -0.376301;,
    -0.375344; 0.171921; -0.910802;,
    0.375345; 0.171921; -0.910801;,
    0.694801; 0.185751; -0.694801;,
    0.000000; -1.000000; 0.000000;,
    0.000000; -1.000000; 0.000000;,
    0.000000; 1.000000; 0.000000;,
    0.000000; 1.000000; 0.000000;;
    48;
    4;0, 1, 2, 3;,
    4;4, 5, 6, 7;,
    4;8, 4, 7, 9;,
    4;10, 8, 9, 11;,
    4;12, 10, 11, 13;,
    4;14, 12, 13, 15;,
    4;16, 14, 15, 17;,
    4;1, 16, 17, 2;,
    4;18, 19, 20, 21;,
    4;22, 23, 24, 25;,
    4;26, 22, 25, 27;,
    4;28, 26, 27, 29;,
    4;30, 28, 29, 31;,
    4;32, 30, 31, 33;,
    4;34, 32, 33, 35;,
    4;19, 34, 35, 20;,
    4;36, 37, 38, 39;,
    4;40, 37, 36, 41;,
    4;42, 43, 44, 45;,
    4;46, 43, 42, 47;,
    4;48, 49, 50, 51;,
    4;52, 48, 51, 53;,
    4;54, 52, 53, 55;,
    4;56, 54, 55, 57;,
    4;58, 56, 57, 59;,
    4;60, 58, 59, 61;,
    4;62, 60, 61, 63;,
    4;49, 62, 63, 50;,
    4;64, 65, 66, 67;,
    4;68, 64, 67, 69;,
    4;70, 68, 69, 71;,
    4;72, 70, 71, 73;,
    4;74, 72, 73, 75;,
    4;76, 74, 75, 77;,
    4;78, 76, 77, 79;,
    4;80, 78, 79, 81;,
    4;82, 83, 65, 64;,
    4;84, 82, 64, 68;,
    4;85, 84, 68, 70;,
    4;86, 85, 70, 72;,
    4;87, 86, 72, 74;,
    4;88, 87, 74, 76;,
    4;89, 88, 76, 78;,
    4;90, 89, 78, 80;,
    3;40, 91, 37;,
    3;92, 38, 37;,
    3;46, 93, 43;,
    3;94, 44, 43;;
   }

   MeshTextureCoords {
    95;
    0.489000; 0.000000;,
    0.459000; 0.000000;,
    0.459000; 0.961000;,
    0.489000; 0.961000;,
    0.277000; 0.000000;,
    0.247000; 0.000000;,
    0.247000; 0.961000;,
    0.277000; 0.961000;,
    0.308000; 0.000000;,
    0.308000; 0.961000;,
    0.338000; 0.000000;,
    0.338000; 0.961000;,
    0.368000; 0.000000;,
    0.368000; 0.961000;,
    0.398000; 0.000000;,
    0.398000; 0.961000;,
    0.428000; 0.000000;,
    0.428000; 0.961000;,
    0.245000; 0.000000;,
    0.215000; 0.000000;,
    0.215000; 0.997000;,
    0.245000; 0.997000;,
    0.034000; 0.000000;,
    0.004000; 0.000000;,
    0.004000; 0.997000;,
    0.034000; 0.997000;,
    0.064000; 0.000000;,
    0.064000; 0.997000;,
    0.094000; 0.000000;,
    0.094000; 0.997000;,
    0.124000; 0.000000;,
    0.124000; 0.997000;,
    0.155000; 0.000000;,
    0.155000; 0.997000;,
    0.185000; 0.000000;,
    0.185000; 0.997000;,
    0.872000; 0.268000;,
    0.940000; 0.334000;,
    0.874000; 0.336000;,
    0.872000; 0.334000;,
    0.937000; 0.266000;,
    0.874000; 0.266000;,
    0.835000; 0.194000;,
    0.882000; 0.147000;,
    0.835000; 0.147000;,
    0.825000; 0.170000;,
    0.882000; 0.194000;,
    0.858000; 0.204000;,
    0.986000; 0.211000;,
    0.825000; 0.211000;,
    0.882000; 0.244000;,
    0.929000; 0.244000;,
    0.995000; 0.220000;,
    0.962000; 0.277000;,
    0.995000; 0.381000;,
    0.962000; 0.324000;,
    0.986000; 0.390000;,
    0.929000; 0.356000;,
    0.825000; 0.390000;,
    0.882000; 0.356000;,
    0.816000; 0.381000;,
    0.850000; 0.324000;,
    0.816000; 0.220000;,
    0.850000; 0.277000;,
    0.812000; 0.535000;,
    0.812000; 0.394000;,
    0.808000; 0.394000;,
    0.808000; 0.535000;,
    0.812000; 0.545000;,
    0.808000; 0.545000;,
    0.812000; 0.686000;,
    0.808000; 0.686000;,
    0.812000; 0.696000;,
    0.808000; 0.696000;,
    0.812000; 0.837000;,
    0.808000; 0.837000;,
    0.812000; 0.848000;,
    0.808000; 0.848000;,
    0.812000; 0.989000;,
    0.808000; 0.989000;,
    0.812000; 0.999000;,
    0.808000; 0.999000;,
    0.999000; 0.535000;,
    0.999000; 0.392000;,
    0.999000; 0.545000;,
    0.999000; 0.686000;,
    0.999000; 0.696000;,
    0.999000; 0.837000;,
    0.999000; 0.848000;,
    0.999000; 0.989000;,
    0.999000; 0.999000;,
    0.940000; 0.268000;,
    0.937000; 0.336000;,
    0.892000; 0.170000;,
    0.858000; 0.137000;;
   }

   FVFData {
    258;
    190;
    0,
    1065353216,
    0,
    1065353216,
    0,
    1065353216,
    0,
    1065353216,
    0,
    1065353216,
    0,
    1065353216,
    0,
    1065353216,
    0,
    1065353216,
    0,
    1065353216,
    0,
    1065353216,
    0,
    1065353216,
    0,
    1065353216,
    0,
    1065353216,
    0,
    1065353216,
    0,
    1065353216,
    0,
    1065353216,
    0,
    1065353216,
    0,
    1065353216,
    0,
    1065353216,
    0,
    1065353216,
    0,
    1065353216,
    0,
    1065353216,
    0,
    1065353216,
    0,
    1065353216,
    0,
    1065353216,
    0,
    1065353216,
    0,
    1065353216,
    0,
    1065353216,
    0,
    1065353216,
    0,
    1065353216,
    0,
    1065353216,
    0,
    1065353216,
    0,
    1065353216,
    0,
    1065353216,
    0,
    1065353216,
    0,
    1065353216,
    0,
    1065353216,
    0,
    1065353216,
    0,
    1065353216,
    0,
    1065353216,
    0,
    1065353216,
    0,
    1065353216,
    0,
    1065353216,
    0,
    1065353216,
    0,
    1065353216,
    0,
    1065353216,
    0,
    1065353216,
    0,
    1065353216,
    0,
    1065353216,
    0,
    1065353216,
    0,
    1065353216,
    0,
    1065353216,
    0,
    1065353216,
    0,
    1065353216,
    0,
    1065353216,
    0,
    1065353216,
    0,
    1065353216,
    0,
    1065353216,
    0,
    1065353216,
    0,
    1065353216,
    0,
    1065353216,
    0,
    1065353216,
    0,
    1065353216,
    0,
    1065353216,
    0,
    1065353216,
    0,
    1065353216,
    0,
    1065353216,
    0,
    1065353216,
    0,
    1065353216,
    0,
    1065353216,
    0,
    1065353216,
    0,
    1065353216,
    0,
    1065353216,
    0,
    1065353216,
    0,
    1065353216,
    0,
    1065353216,
    0,
    1065353216,
    0,
    1065353216,
    0,
    1065353216,
    0,
    1065353216,
    0,
    1065353216,
    0,
    1065353216,
    0,
    1065353216,
    0,
    1065353216,
    0,
    1065353216,
    0,
    1065353216,
    0,
    1065353216,
    0,
    1065353216,
    0,
    1065353216,
    0,
    1065353216,
    0,
    1065353216,
    0,
    1065353216,
    0,
    1065353216,
    0,
    1065353216,
    0,
    1065353216;
   }

   MeshMaterialList {
    1;
    48;
    0,
    0,
    0,
    0,
    0,
    0,
    0,
    0,
    0,
    0,
    0,
    0,
    0,
    0,
    0,
    0,
    0,
    0,
    0,
    0,
    0,
    0,
    0,
    0,
    0,
    0,
    0,
    0,
    0,
    0,
    0,
    0,
    0,
    0,
    0,
    0,
    0,
    0,
    0,
    0,
    0,
    0,
    0,
    0,
    0,
    0,
    0,
    0;

    Material trafficpole {
     0.588000; 0.588000; 0.588000; 1.000000;;
     128.000000;
     0.000000; 0.000000; 0.000000;;
     0.000000; 0.000000; 0.000000;;

     TextureFilename {
      "D:\\new packs\\test\\trafficpole_diffuse.tga";
     }
    }

   }
  }
}
