<?xml version="1.0" encoding="utf-8"?>
<COLLADA xmlns="http://www.collada.org/2005/11/COLLADASchema" version="1.4.1">
  <asset>
    <contributor>
      <author>Ultimate Unwrap3D Pro</author>
      <authoring_tool>Ultimate Unwrap3D Pro v3.27</authoring_tool>
      <comments>Exported from Ultimate Unwrap3D Pro on Fri Jun 01 18:58:23 2012</comments>
      <source_data>file:///D:/new%20packs/test/trafficlight.dae</source_data>
    </contributor>
    <created>2012-06-01T16:58:23Z</created>
    <modified>2012-06-01T16:58:23Z</modified>
    <unit meter="1" name="meter"/>
    <up_axis>Y_UP</up_axis>
  </asset>
  <library_images>
    <image id="Image" name="trafficlightred_diffuse">
      <init_from>file:///D:/new%20packs/test/trafficlightred_diffuse.tga</init_from>
    </image>
  </library_images>
  <library_materials>
    <material id="VisualMaterial1" name="Unassigned">
      <instance_effect url="#Effect"/>
    </material>
    <material id="VisualMaterial" name="trafficlightred">
      <instance_effect url="#Effect1"/>
    </material>
  </library_materials>
  <library_effects>
    <effect id="Effect" name="Unassigned_eff">
      <profile_COMMON>
        <technique sid="common">
          <phong>
            <ambient>
              <color>1 1 1 1</color>
            </ambient>
            <diffuse>
              <color>1 1 1 1</color>
            </diffuse>
            <specular>
              <color>0 0 0 1</color>
            </specular>
            <shininess>
              <float>100</float>
            </shininess>
            <reflective>
              <color>0 0 0 1</color>
            </reflective>
            <reflectivity>
              <float>1</float>
            </reflectivity>
            <transparent opaque="A_ONE">
              <color>1 1 1 1</color>
            </transparent>
            <transparency>
              <float>0</float>
            </transparency>
            <index_of_refraction>
              <float>0</float>
            </index_of_refraction>
          </phong>
          <extra>
            <technique profile="FCOLLADA">
              <spec_level>
                <float>0</float>
              </spec_level>
              <emission_level>
                <float>0</float>
              </emission_level>
            </technique>
          </extra>
        </technique>
      </profile_COMMON>
      <extra>
        <technique profile="MAX3D">
          <faceted>0</faceted>
          <double_sided>0</double_sided>
          <wireframe>0</wireframe>
          <face_map>0</face_map>
        </technique>
      </extra>
    </effect>
    <effect id="Effect1" name="trafficlightred_eff">
      <profile_COMMON>
        <newparam sid="Image-surface">
          <surface type="2D">
            <init_from>Image</init_from>
            <format>A8R8G8B8</format>
          </surface>
        </newparam>
        <newparam sid="Image-sampler">
          <sampler2D>
            <source>Image-surface</source>
            <minfilter>LINEAR_MIPMAP_LINEAR</minfilter>
            <magfilter>LINEAR</magfilter>
          </sampler2D>
        </newparam>
        <technique sid="common">
          <phong>
            <ambient>
              <color>1 1 1 1</color>
            </ambient>
            <diffuse>
              <texture texture="Image-sampler" texcoord="UVSET0">
                <extra>
                  <technique profile="MAX3D">
                    <amount>1</amount>
                  </technique>
                </extra>
              </texture>
            </diffuse>
            <specular>
              <color>0 0 0 1</color>
            </specular>
            <shininess>
              <float>100</float>
            </shininess>
            <reflective>
              <color>0 0 0 1</color>
            </reflective>
            <reflectivity>
              <float>1</float>
            </reflectivity>
            <transparent opaque="A_ONE">
              <color>1 1 1 1</color>
            </transparent>
            <transparency>
              <float>0</float>
            </transparency>
            <index_of_refraction>
              <float>0</float>
            </index_of_refraction>
          </phong>
          <extra>
            <technique profile="FCOLLADA">
              <spec_level>
                <float>0</float>
              </spec_level>
              <emission_level>
                <float>0</float>
              </emission_level>
            </technique>
          </extra>
        </technique>
      </profile_COMMON>
      <extra>
        <technique profile="MAX3D">
          <faceted>0</faceted>
          <double_sided>0</double_sided>
          <wireframe>0</wireframe>
          <face_map>0</face_map>
        </technique>
      </extra>
    </effect>
  </library_effects>
  <library_geometries>
    <geometry id="geomU3D1_id" name="geomU3D1">
      <mesh>
        <source id="PositionSrc_id" name="PositionSrc">
          <float_array id="PositionSrc_id-array" count="1521">0.19 0.39 0.031 0.19 0.009999 0.031 -0.19 0.009999 0.031 -0.19 0.39 0.031 0.19 0.79 0.031 0.19 0.41 0.031 -0.19 0.41 0.031 -0.19 0.79 0.031 0.19 1.19 0.031 0.19 0.81 0.031 -0.19 0.81 0.031 -0.19 1.19 0.031 -0.077 0 0.322 0.077 0 0.322 0.077 0.4 0.322 -0.077 0.4 0.322 0.077 0.8 0.322 -0.077 0.8 0.322 0.077 1.2 0.322 -0.077 1.2 0.322 -0.2 0 0.061 0.2 0 0.061 0.2 0 0.111 -0.2 0 0.111 -0.2 0.4 0.061 -0.2 0 0.111 -0.2 0.4 0.111 -0.2 0.8 0.061 -0.2 0.8 0.111 -0.2 1.2 0.061 -0.2 1.2 0.111 0.2 1.2 0.061 -0.2 1.2 0.111 0.2 1.2 0.111 0.2 0.8 0.061 0.2 1.2 0.111 0.2 0.8 0.111 0.2 0.4 0.061 0.2 0.4 0.111 0.2 0 0.111 0.19 0.009999 0.061 0.19 0.39 0.061 -0.19 0.39 0.061 -0.19 0.009999 0.061 0.19 0.41 0.061 0.19 0.79 0.061 -0.19 0.79 0.061 -0.19 0.41 0.061 0.19 0.81 0.061 0.19 1.19 0.061 -0.19 1.19 0.061 -0.19 0.81 0.061 0.19 0.39 0.061 0.19 0.009999 0.061 0.19 0.009999 0.031 0.19 0.39 0.031 -0.19 0.39 0.061 0.19 0.39 0.061 0.19 0.39 0.031 -0.19 0.39 0.031 -0.19 0.009999 0.061 -0.19 0.39 0.061 -0.19 0.39 0.031 -0.19 0.009999 0.031 0.19 0.009999 0.061 -0.19 0.009999 0.061 -0.19 0.009999 0.031 0.19 0.009999 0.031 0.19 0.79 0.061 0.19 0.41 0.061 0.19 0.41 0.031 0.19 0.79 0.031 -0.19 0.79 0.061 0.19 0.79 0.061 0.19 0.79 0.031 -0.19 0.79 0.031 -0.19 0.41 0.061 -0.19 0.79 0.061 -0.19 0.79 0.031 -0.19 0.41 0.031 0.19 0.41 0.061 -0.19 0.41 0.061 -0.19 0.41 0.031 0.19 0.41 0.031 0.19 1.19 0.061 0.19 0.81 0.061 0.19 0.81 0.031 0.19 1.19 0.031 -0.19 1.19 0.061 0.19 1.19 0.061 0.19 1.19 0.031 -0.19 1.19 0.031 -0.19 0.81 0.061 -0.19 1.19 0.061 -0.19 1.19 0.031 -0.19 0.81 0.031 0.19 0.81 0.061 -0.19 0.81 0.061 -0.19 0.81 0.031 0.19 0.81 0.031 0.168 0 0.211 -0.168 0 0.211 -0.168 0 0.211 -0.168 0.4 0.211 -0.168 0.8 0.211 -0.168 1.2 0.211 -0.168 1.2 0.211 0.168 1.2 0.211 0.168 1.2 0.211 0.168 0.8 0.211 0.168 0.4 0.211 0.168 0 0.211 0.077 0 0.322 -0.077 0 0.322 -0.077 1.2 0.322 0.077 1.2 0.322 0.077 1.2 0.322 0.077 0.8 0.322 0.077 0.4 0.322 0.077 0 0.322 -0.153 1.049 -0.322 -0.165 0.987 -0.322 -0.165 1.001 0.032 -0.153 1.063 0.032 -0.117 1.102 -0.322 -0.117 1.116 0.032 -0.064 1.137 -0.322 -0.064 1.152 0.032 -0.002 1.15 -0.322 -0.002 1.164 0.032 0.061 1.137 -0.322 0.061 1.152 0.032 0.113 1.102 -0.322 0.113 1.116 0.032 0.149 1.049 -0.322 0.149 1.063 0.032 0.161 0.987 -0.322 0.161 1.001 0.032 0.149 0.924 -0.322 0.149 0.939 0.032 0.113 0.871 -0.322 0.113 0.886 0.005 -0.153 0.924 -0.322 -0.117 0.871 -0.322 -0.117 0.886 0.005 -0.153 0.939 0.032 -0.165 0.987 -0.322 -0.153 1.049 -0.322 -0.143 1.045 -0.322 -0.155 0.987 -0.322 -0.153 0.924 -0.322 -0.143 0.928 -0.322 -0.117 0.871 -0.322 -0.11 0.879 -0.322 -0.064 0.85 0.005 -0.117 0.886 0.005 -0.11 0.893 0 -0.06 0.86 0 -0.002 0.838 0.005 -0.002 0.848 0 0.061 0.85 0.005 -0.002 0.838 0.005 -0.002 0.848 0 0.057 0.86 0 0.113 0.886 0.005 0.106 0.893 0 0.149 0.924 -0.322 0.113 0.871 -0.322 0.106 0.879 -0.322 0.139 0.928 -0.322 0.161 0.987 -0.322 0.151 0.987 -0.322 0.149 1.049 -0.322 0.139 1.045 -0.322 0.113 1.102 -0.322 0.106 1.095 -0.322 0.061 1.137 -0.322 0.057 1.128 -0.322 -0.002 1.15 -0.322 -0.002 1.14 -0.322 -0.064 1.137 -0.322 -0.002 1.15 -0.322 -0.002 1.14 -0.322 -0.06 1.128 -0.322 -0.117 1.102 -0.322 -0.11 1.095 -0.322 0.106 0.879 -0.322 0.113 0.871 -0.322 0.113 0.886 0.005 0.106 0.893 0 0.139 0.928 -0.322 0.106 0.879 -0.322 0.106 0.893 0 0.139 0.942 0 0.151 0.987 -0.322 0.151 1.001 0 0.139 1.045 -0.322 0.139 1.059 0 0.106 1.095 -0.322 0.106 1.109 0 0.057 1.128 -0.322 0.057 1.142 0 -0.002 1.14 -0.322 -0.002 1.154 0 -0.06 1.128 -0.322 -0.06 1.142 0 -0.11 1.095 -0.322 -0.11 1.109 0 -0.143 1.045 -0.322 -0.143 1.059 0 -0.155 0.987 -0.322 -0.155 1.001 0 -0.143 0.928 -0.322 -0.143 0.942 0 -0.11 0.879 -0.322 -0.11 0.893 0 -0.117 0.871 -0.322 -0.11 0.879 -0.322 -0.11 0.893 0 -0.117 0.886 0.005 0.061 0.85 0.005 0.113 0.886 0.005 0.113 0.886 0.032 0.061 0.85 0.032 -0.117 0.886 0.005 -0.064 0.85 0.005 -0.064 0.85 0.032 -0.117 0.886 0.032 -0.002 0.838 0.005 -0.002 0.838 0.032 -0.153 0.646 -0.322 -0.165 0.584 -0.322 -0.165 0.598 0.032 -0.153 0.661 0.032 -0.117 0.699 -0.322 -0.117 0.713 0.032 -0.064 0.735 -0.322 -0.064 0.749 0.032 -0.002 0.747 -0.322 -0.002 0.761 0.032 0.061 0.735 -0.322 0.061 0.749 0.032 0.113 0.699 -0.322 0.113 0.713 0.032 0.149 0.646 -0.322 0.149 0.661 0.032 0.161 0.584 -0.322 0.161 0.598 0.032 0.149 0.522 -0.322 0.149 0.536 0.032 0.113 0.469 -0.322 0.113 0.483 0.005 -0.153 0.522 -0.322 -0.117 0.469 -0.322 -0.117 0.483 0.005 -0.153 0.536 0.032 -0.165 0.584 -0.322 -0.153 0.646 -0.322 -0.143 0.642 -0.322 -0.155 0.584 -0.322 -0.153 0.522 -0.322 -0.143 0.525 -0.322 -0.117 0.469 -0.322 -0.11 0.476 -0.322 -0.064 0.447 0.005 -0.117 0.483 0.005 -0.11 0.49 0 -0.06 0.457 0 -0.002 0.435 0.005 -0.002 0.445 0 0.061 0.447 0.005 -0.002 0.435 0.005 -0.002 0.445 0 0.057 0.457 0 0.113 0.483 0.005 0.106 0.49 0 0.149 0.522 -0.322 0.113 0.469 -0.322 0.106 0.476 -0.322 0.139 0.525 -0.322 0.161 0.584 -0.322 0.151 0.584 -0.322 0.149 0.646 -0.322 0.139 0.642 -0.322 0.113 0.699 -0.322 0.106 0.692 -0.322 0.061 0.735 -0.322 0.057 0.725 -0.322 -0.002 0.747 -0.322 -0.002 0.737 -0.322 -0.064 0.735 -0.322 -0.002 0.747 -0.322 -0.002 0.737 -0.322 -0.06 0.725 -0.322 -0.117 0.699 -0.322 -0.11 0.692 -0.322 0.106 0.476 -0.322 0.113 0.469 -0.322 0.113 0.483 0.005 0.106 0.49 0 0.139 0.525 -0.322 0.106 0.476 -0.322 0.106 0.49 0 0.139 0.54 0 0.151 0.584 -0.322 0.151 0.598 0 0.139 0.642 -0.322 0.139 0.657 0 0.106 0.692 -0.322 0.106 0.706 0 0.057 0.725 -0.322 0.057 0.739 0 -0.002 0.737 -0.322 -0.002 0.751 0 -0.06 0.725 -0.322 -0.06 0.739 0 -0.11 0.692 -0.322 -0.11 0.706 0 -0.143 0.642 -0.322 -0.143 0.657 0 -0.155 0.584 -0.322 -0.155 0.598 0 -0.143 0.525 -0.322 -0.143 0.54 0 -0.11 0.476 -0.322 -0.11 0.49 0 -0.117 0.469 -0.322 -0.11 0.476 -0.322 -0.11 0.49 0 -0.117 0.483 0.005 0.061 0.447 0.005 0.113 0.483 0.005 0.113 0.483 0.032 0.061 0.447 0.032 -0.117 0.483 0.005 -0.064 0.447 0.005 -0.064 0.447 0.032 -0.117 0.483 0.032 -0.002 0.435 0.005 -0.002 0.435 0.032 -0.153 0.252 -0.322 -0.165 0.19 -0.322 -0.165 0.204 0.032 -0.153 0.266 0.032 -0.117 0.305 -0.322 -0.117 0.319 0.032 -0.064 0.34 -0.322 -0.064 0.355 0.032 -0.002 0.353 -0.322 -0.002 0.367 0.032 0.061 0.34 -0.322 0.061 0.355 0.032 0.113 0.305 -0.322 0.113 0.319 0.032 0.149 0.252 -0.322 0.149 0.266 0.032 0.161 0.19 -0.322 0.161 0.204 0.032 0.149 0.127 -0.322 0.149 0.142 0.032 0.113 0.075 -0.322 0.113 0.089 0.005 -0.153 0.127 -0.322 -0.117 0.075 -0.322 -0.117 0.089 0.005 -0.153 0.142 0.032 -0.165 0.19 -0.322 -0.153 0.252 -0.322 -0.143 0.248 -0.322 -0.155 0.19 -0.322 -0.153 0.127 -0.322 -0.143 0.131 -0.322 -0.117 0.075 -0.322 -0.11 0.082 -0.322 -0.064 0.053 0.005 -0.117 0.089 0.005 -0.11 0.096 0 -0.06 0.063 0 -0.002 0.041 0.005 -0.002 0.051 0 0.061 0.053 0.005 -0.002 0.041 0.005 -0.002 0.051 0 0.057 0.063 0 0.113 0.089 0.005 0.106 0.096 0 0.149 0.127 -0.322 0.113 0.075 -0.322 0.106 0.082 -0.322 0.139 0.131 -0.322 0.161 0.19 -0.322 0.151 0.19 -0.322 0.149 0.252 -0.322 0.139 0.248 -0.322 0.113 0.305 -0.322 0.106 0.298 -0.322 0.061 0.34 -0.322 0.057 0.331 -0.322 -0.002 0.353 -0.322 -0.002 0.343 -0.322 -0.064 0.34 -0.322 -0.002 0.353 -0.322 -0.002 0.343 -0.322 -0.06 0.331 -0.322 -0.117 0.305 -0.322 -0.11 0.298 -0.322 0.106 0.082 -0.322 0.113 0.075 -0.322 0.113 0.089 0.005 0.106 0.096 0 0.139 0.131 -0.322 0.106 0.082 -0.322 0.106 0.096 0 0.139 0.146 0 0.151 0.19 -0.322 0.151 0.204 0 0.139 0.248 -0.322 0.139 0.263 0 0.106 0.298 -0.322 0.106 0.312 0 0.057 0.331 -0.322 0.057 0.345 0 -0.002 0.343 -0.322 -0.002 0.357 0 -0.06 0.331 -0.322 -0.06 0.345 0 -0.11 0.298 -0.322 -0.11 0.312 0 -0.143 0.248 -0.322 -0.143 0.263 0 -0.155 0.19 -0.322 -0.155 0.204 0 -0.143 0.131 -0.322 -0.143 0.146 0 -0.11 0.082 -0.322 -0.11 0.096 0 -0.117 0.075 -0.322 -0.11 0.082 -0.322 -0.11 0.096 0 -0.117 0.089 0.005 0.061 0.053 0.005 0.113 0.089 0.005 0.113 0.089 0.032 0.061 0.053 0.032 -0.117 0.089 0.005 -0.064 0.053 0.005 -0.064 0.053 0.032 -0.117 0.089 0.032 -0.002 0.041 0.005 -0.002 0.041 0.032 0.113 0.886 0.032 -0.117 0.886 0.032 -0.002 1.001 -0.02 -0.06 0.86 0 -0.11 0.893 0 -0.002 0.848 0 0.057 0.86 0 0.106 0.893 0 0.139 0.942 0 0.151 1.001 0 0.139 1.059 0 0.106 1.109 0 0.057 1.142 0 -0.002 1.154 0 -0.06 1.142 0 -0.11 1.109 0 -0.143 1.059 0 -0.155 1.001 0 -0.143 0.942 0 0.113 0.483 0.032 -0.117 0.483 0.032 -0.002 0.598 -0.02 -0.06 0.457 0 -0.11 0.49 0 -0.002 0.445 0 0.057 0.457 0 0.106 0.49 0 0.139 0.54 0 0.151 0.598 0 0.139 0.657 0 0.106 0.706 0 0.057 0.739 0 -0.002 0.751 0 -0.06 0.739 0 -0.11 0.706 0 -0.143 0.657 0 -0.155 0.598 0 -0.143 0.54 0 0.113 0.089 0.032 -0.117 0.089 0.032 -0.002 0.204 -0.02 -0.06 0.063 0 -0.11 0.096 0 -0.002 0.051 0 0.057 0.063 0 0.106 0.096 0 0.139 0.146 0 0.151 0.204 0 0.139 0.263 0 0.106 0.312 0 0.057 0.345 0 -0.002 0.357 0 -0.06 0.345 0 -0.11 0.312 0 -0.143 0.263 0 -0.155 0.204 0 -0.143 0.146 0</float_array>
          <technique_common>
            <accessor source="#PositionSrc_id-array" count="507" stride="3">
              <param name="X" type="float"/>
              <param name="Y" type="float"/>
              <param name="Z" type="float"/>
            </accessor>
          </technique_common>
        </source>
        <source id="NormalSrc_id" name="NormalSrc">
          <float_array id="NormalSrc_id-array" count="1521">0 0 -1 0 0 -1 0 0 -1 0 0 -1 0 0 -1 0 0 -1 0 0 -1 0 0 -1 0 0 -1 0 0 -1 0 0 -1 0 0 -1 -0.427787 0 0.90388 0 0 1 0 0 1 -0.427787 0 0.90388 0 0 1 -0.427787 0 0.90388 0 0 1 -0.427787 0 0.90388 -0.408248 -0.408248 -0.816497 0.408248 -0.408248 -0.816497 0 -1 0 0 -1 0 -0.447214 0 -0.894427 -0.988035 0 0.154233 -0.988035 0 0.154233 -0.447214 0 -0.894427 -0.988035 0 0.154233 -0.408248 0.408248 -0.816497 -0.988035 0 0.154233 0.408248 0.408248 -0.816497 0 1 0 0 1 0 0.447214 0 -0.894427 0.988035 0 0.154233 0.988035 0 0.154233 0.447214 0 -0.894427 0.988035 0 0.154233 0.988035 0 0.154233 0 0 -1 0 0 -1 0 0 -1 0 0 -1 0 0 -1 0 0 -1 0 0 -1 0 0 -1 0 0 -1 0 0 -1 0 0 -1 0 0 -1 1 0 0 1 0 0 1 0 0 1 0 0 0 1 0 0 1 0 0 1 0 0 1 0 -1 0 0 -1 0 0 -1 0 0 -1 0 0 0 -1 0 0 -1 0 0 -1 0 0 -1 0 1 0 0 1 0 0 1 0 0 1 0 0 0 1 0 0 1 0 0 1 0 0 1 0 -1 0 0 -1 0 0 -1 0 0 -1 0 0 0 -1 0 0 -1 0 0 -1 0 0 -1 0 1 0 0 1 0 0 1 0 0 1 0 0 0 1 0 0 1 0 0 1 0 0 1 0 -1 0 0 -1 0 0 -1 0 0 -1 0 0 0 -1 0 0 -1 0 0 -1 0 0 -1 0 0 -1 0 0 -1 0 -0.878441 0 0.477851 -0.878441 0 0.477851 -0.878441 0 0.477851 -0.878441 0 0.477851 0 1 0 0 1 0 0.878441 0 0.477851 0.878441 0 0.477851 0.878441 0 0.477851 0.878441 0 0.477851 0 -1 0 0 -1 0 0 1 0 0 1 0 0.773336 0 0.633996 0.773336 0 0.633996 0.773336 0 0.633996 0.773336 0 0.633996 -0.923313 0.383749 -0.015176 -1 0.000000 0 -1 0.000000 0 -0.923313 0.383749 -0.015176 -0.706831 0.706782 -0.02914 -0.706831 0.706782 -0.02914 -0.383555 0.922749 -0.037685 -0.383555 0.922749 -0.037685 -0.001491 0.999161 -0.040926 -0.001491 0.999161 -0.040926 0.386302 0.921595 -0.037864 0.386302 0.921595 -0.037864 0.709984 0.703668 -0.027828 0.709984 0.703668 -0.027828 0.923313 0.383749 -0.015176 0.923313 0.383749 -0.015176 1 0.000000 0.000273 1 0.000000 0.000273 0.92115 -0.388814 0.017495 0.893296 -0.449317 0.011629 0.820683 -0.570783 0.026182 0.824033 -0.56639 0.013092 -0.921335 -0.388433 0.016184 -0.821213 -0.570111 0.024157 -0.824286 -0.566045 0.012079 -0.893433 -0.449067 0.010758 0 0 -1 0 0 -1 0 0 -1 0 0 -1 0 0 -1 0 0 -1 0 0 -1 0 0 -1 -0.164615 -0.402822 -0.900353 -0.235918 -0.357452 -0.903643 -0.235918 -0.357452 -0.903643 -0.164615 -0.402822 -0.900353 -0.092133 -0.445311 -0.890623 -0.092133 -0.445311 -0.890623 0.170984 -0.400391 -0.900251 0.085051 -0.418167 -0.90438 0.085051 -0.418167 -0.90438 0.170984 -0.400391 -0.900251 0.255598 -0.379524 -0.889174 0.255598 -0.379524 -0.889174 0 0 -1 0 0 -1 0 0 -1 0 0 -1 0 0 -1 0 0 -1 0 0 -1 0 0 -1 0 0 -1 0 0 -1 0 0 -1 0 0 -1 0 0 -1 0 0 -1 0 0 -1 0 0 -1 0 0 -1 0 0 -1 0 0 -1 0 0 -1 -0.717508 -0.695893 0.030256 -0.717508 -0.695893 0.030256 -0.717508 -0.695893 0.030256 -0.717508 -0.695893 0.030256 -0.92223 0.386276 -0.016794 -0.829192 0.558436 -0.024279 -0.829192 0.558436 -0.024279 -0.92223 0.386276 -0.016794 -0.999999 -0.001682 0.000073 -0.999999 -0.001682 0.000073 -0.923378 -0.383529 0.016675 -0.923378 -0.383529 0.016675 -0.710089 -0.703448 0.030584 -0.710089 -0.703448 0.030584 -0.386068 -0.9216 0.040069 -0.386068 -0.9216 0.040069 0.001681 -0.999055 0.043437 0.001681 -0.999055 0.043437 0.383318 -0.922745 0.040119 0.383318 -0.922745 0.040119 0.706799 -0.706746 0.030728 0.706799 -0.706746 0.030728 0.923378 -0.383529 0.016675 0.923378 -0.383529 0.016675 0.999999 -0.001682 0.000073 0.999999 -0.001682 0.000073 0.92223 0.386276 -0.016794 0.92223 0.386276 -0.016794 0.829192 0.558436 -0.024279 0.829192 0.558436 -0.024279 0.718047 -0.695264 0.031892 0.718047 -0.695264 0.031892 0.718047 -0.695264 0.031892 0.718047 -0.695264 0.031892 0.386545 -0.92227 0 0.56921 -0.822192 0 0.56921 -0.822192 0 0.386545 -0.92227 0 -0.561883 -0.827217 0 -0.383813 -0.923411 0 -0.383813 -0.923411 0 -0.561883 -0.827217 0 -0.001481 -0.999999 0 -0.001481 -0.999999 0 -0.922168 0.386477 -0.015554 -0.999999 -0.001481 -0.00021 -0.999999 -0.001481 -0.00021 -0.922168 0.386477 -0.015554 -0.7037 0.709942 -0.028076 -0.7037 0.709942 -0.028076 -0.383578 0.922787 -0.036494 -0.383578 0.922787 -0.036494 -0.00148 0.999218 -0.039517 -0.00148 0.999218 -0.039517 0.386311 0.921648 -0.036449 0.386311 0.921648 -0.036449 0.70683 0.706799 -0.028769 0.70683 0.706799 -0.028769 0.922162 0.38647 -0.016105 0.922162 0.38647 -0.016105 0.999999 -0.001481 0.000058 0.999999 -0.001481 0.000058 0.921312 -0.388482 0.016315 0.893416 -0.449099 0.010845 0.821146 -0.570196 0.024412 0.824253 -0.566089 0.012207 -0.921479 -0.388125 0.015349 -0.821636 -0.569568 0.022525 -0.824488 -0.565768 0.011263 -0.893541 -0.448865 0.010203 0 0 -1 0 0 -1 0 0 -1 0 0 -1 0 0 -1 0 0 -1 0 0 -1 0 0 -1 -0.164615 -0.402822 -0.900353 -0.235919 -0.357453 -0.903643 -0.235919 -0.357453 -0.903643 -0.164615 -0.402822 -0.900353 -0.092133 -0.44531 -0.890623 -0.092133 -0.44531 -0.890623 0.170985 -0.400392 -0.90025 0.085051 -0.418168 -0.904379 0.085051 -0.418168 -0.904379 0.170985 -0.400392 -0.90025 0.255599 -0.379525 -0.889174 0.255599 -0.379525 -0.889174 0 0 -1 0 0 -1 0 0 -1 0 0 -1 0 0 -1 0 0 -1 0 0 -1 0 0 -1 0 0 -1 0 0 -1 0 0 -1 0 0 -1 0 0 -1 0 0 -1 0 0 -1 0 0 -1 0 0 -1 0 0 -1 0 0 -1 0 0 -1 -0.717506 -0.695895 0.030256 -0.717506 -0.695895 0.030256 -0.717506 -0.695895 0.030256 -0.717506 -0.695895 0.030256 -0.923366 0.383519 -0.017545 -0.834335 0.550661 -0.025651 -0.834335 0.550661 -0.025651 -0.923366 0.383519 -0.017545 -0.999999 0.001682 0.000242 -0.999999 0.001682 0.000242 -0.922225 -0.386274 0.01711 -0.922225 -0.386274 0.01711 -0.706797 -0.706749 0.030728 -0.706797 -0.706749 0.030728 -0.386067 -0.9216 0.040069 -0.386067 -0.9216 0.040069 0.001681 -0.999055 0.043437 0.001681 -0.999055 0.043437 0.383317 -0.922745 0.040119 0.383317 -0.922745 0.040119 0.70347 -0.710015 0.031754 0.70347 -0.710015 0.031754 0.922218 -0.386266 0.017678 0.922218 -0.386266 0.017678 0.999998 0.001681 -0.000394 0.999998 0.001681 -0.000394 0.923373 0.383527 -0.016995 0.923373 0.383527 -0.016995 0.83437 0.550685 -0.023942 0.83437 0.550685 -0.023942 0.717356 -0.696069 0.029801 0.717356 -0.696069 0.029801 0.717356 -0.696069 0.029801 0.717356 -0.696069 0.029801 0.386546 -0.92227 0 0.56921 -0.822192 0 0.56921 -0.822192 0 0.386546 -0.92227 0 -0.561883 -0.827217 0 -0.383813 -0.923411 0 -0.383813 -0.923411 0 -0.561883 -0.827217 0 -0.001481 -0.999999 0 -0.001481 -0.999999 0 -0.923313 0.383748 -0.015176 -1 0 0 -1 0 0 -0.923313 0.383748 -0.015176 -0.706831 0.706782 -0.02914 -0.706831 0.706782 -0.02914 -0.383554 0.922749 -0.037684 -0.383554 0.922749 -0.037684 -0.001491 0.999161 -0.040926 -0.001491 0.999161 -0.040926 0.386301 0.921595 -0.037864 0.386301 0.921595 -0.037864 0.709984 0.703668 -0.027828 0.709984 0.703668 -0.027828 0.923313 0.383748 -0.015176 0.923313 0.383748 -0.015176 1 0.000000 0.000273 1 0.000000 0.000273 0.921308 -0.38848 0.016589 0.893414 -0.449099 0.011027 0.821146 -0.570196 0.024412 0.824253 -0.566089 0.012207 -0.921334 -0.388434 0.016184 -0.821212 -0.570111 0.024157 -0.824285 -0.566046 0.012079 -0.893433 -0.449067 0.010758 0 0 -1 0 0 -1 0 0 -1 0 0 -1 0 0 -1 0 0 -1 0 0 -1 0 0 -1 -0.164615 -0.402823 -0.900353 -0.235919 -0.357453 -0.903642 -0.235919 -0.357453 -0.903642 -0.164615 -0.402823 -0.900353 -0.092133 -0.445311 -0.890623 -0.092133 -0.445311 -0.890623 0.170985 -0.400392 -0.90025 0.085051 -0.418169 -0.904379 0.085051 -0.418169 -0.904379 0.170985 -0.400392 -0.90025 0.255599 -0.379526 -0.889173 0.255599 -0.379526 -0.889173 0 0 -1 0 0 -1 0 0 -1 0 0 -1 0 0 -1 0 0 -1 0 0 -1 0 0 -1 0 0 -1 0 0 -1 0 0 -1 0 0 -1 0 0 -1 0 0 -1 0 0 -1 0 0 -1 0 0 -1 0 0 -1 0 0 -1 0 0 -1 -0.717505 -0.695896 0.030256 -0.717505 -0.695896 0.030256 -0.717505 -0.695896 0.030256 -0.717505 -0.695896 0.030256 -0.923366 0.383519 -0.017545 -0.834335 0.550661 -0.025651 -0.834335 0.550661 -0.025651 -0.923366 0.383519 -0.017545 -0.999999 0.001683 0.000242 -0.999999 0.001683 0.000242 -0.922225 -0.386274 0.01711 -0.922225 -0.386274 0.01711 -0.706797 -0.706748 0.030728 -0.706797 -0.706748 0.030728 -0.386067 -0.9216 0.040069 -0.386067 -0.9216 0.040069 0.001681 -0.999055 0.043437 0.001681 -0.999055 0.043437 0.383317 -0.922745 0.040119 0.383317 -0.922745 0.040119 0.70347 -0.710015 0.031754 0.70347 -0.710015 0.031754 0.922218 -0.386266 0.017678 0.922218 -0.386266 0.017678 0.999998 0.001681 -0.000394 0.999998 0.001681 -0.000394 0.923373 0.383527 -0.016995 0.923373 0.383527 -0.016995 0.83437 0.550684 -0.023942 0.83437 0.550684 -0.023942 0.717354 -0.696071 0.029801 0.717354 -0.696071 0.029801 0.717354 -0.696071 0.029801 0.717354 -0.696071 0.029801 0.386545 -0.92227 0 0.56921 -0.822192 0 0.56921 -0.822192 0 0.386545 -0.92227 0 -0.561883 -0.827217 0 -0.383813 -0.923411 0 -0.383813 -0.923411 0 -0.561883 -0.827217 0 -0.001481 -0.999999 0 -0.001481 -0.999999 0 0.827217 -0.561883 0 -0.827217 -0.561883 0 0.000055 -0.000055 -1 -0.049908 -0.120109 -0.991505 -0.091363 -0.092253 -0.991535 -0.000227 -0.129616 -0.991564 0.050129 -0.119669 -0.991547 0.091808 -0.091808 -0.991535 0.119669 -0.050128 -0.991547 0.129616 0.000227 -0.991564 0.120109 0.049908 -0.991505 0.092253 0.091364 -0.991535 0.050129 0.119669 -0.991547 -0.000227 0.129616 -0.991564 -0.049908 0.120109 -0.991505 -0.091808 0.091808 -0.991535 -0.120109 0.049908 -0.991505 -0.129616 0.000227 -0.991564 -0.119669 -0.050128 -0.991547 0.827217 -0.561883 0 -0.827217 -0.561883 0 0.000055 0.000055 -1 -0.049908 -0.120109 -0.991505 -0.091808 -0.091808 -0.991535 -0.000227 -0.129616 -0.991564 0.050128 -0.119669 -0.991547 0.092253 -0.091363 -0.991535 0.120109 -0.049908 -0.991505 0.129616 -0.000227 -0.991564 0.119669 0.050129 -0.991547 0.091808 0.091808 -0.991535 0.050129 0.119669 -0.991547 -0.000227 0.129616 -0.991564 -0.049908 0.120109 -0.991505 -0.091363 0.092253 -0.991535 -0.119669 0.050129 -0.991547 -0.129616 -0.000227 -0.991564 -0.120109 -0.049908 -0.991505 0.827217 -0.561883 0 -0.827217 -0.561883 0 0.000055 0.000055 -1 -0.049908 -0.120109 -0.991505 -0.091808 -0.091808 -0.991535 -0.000227 -0.129616 -0.991564 0.050128 -0.119669 -0.991547 0.092253 -0.091363 -0.991535 0.120109 -0.049908 -0.991505 0.129616 -0.000227 -0.991564 0.119669 0.050128 -0.991547 0.091808 0.091808 -0.991535 0.050128 0.119669 -0.991547 -0.000227 0.129616 -0.991564 -0.049908 0.120109 -0.991505 -0.091363 0.092253 -0.991535 -0.119669 0.050129 -0.991547 -0.129616 -0.000227 -0.991564 -0.120109 -0.049908 -0.991505</float_array>
          <technique_common>
            <accessor source="#NormalSrc_id-array" count="507" stride="3">
              <param name="X" type="float"/>
              <param name="Y" type="float"/>
              <param name="Z" type="float"/>
            </accessor>
          </technique_common>
        </source>
        <source id="Tex1Src_id" name="Tex1Src">
          <float_array id="Tex1Src_id-array" count="1860">0.468 0.379 0.468 0.16 0.25 0.16 0.25 0.379 0.468 0.609 0.468 0.39 0.25 0.39 0.25 0.609 0.468 0.839 0.468 0.62 0.25 0.62 0.25 0.839 0.093 0.155 0.005 0.155 0.005 0.385 0.093 0.385 0.093 0.385 0.005 0.385 0.005 0.615 0.093 0.615 0.093 0.615 0.005 0.615 0.005 0.845 0.093 0.845 0.244 0.155 0.474 0.155 0.474 0.126 0.244 0.126 0.244 0.385 0.244 0.155 0.215 0.155 0.215 0.385 0.244 0.615 0.244 0.385 0.215 0.385 0.215 0.615 0.244 0.845 0.244 0.615 0.215 0.615 0.215 0.845 0.474 0.845 0.244 0.845 0.244 0.874 0.474 0.874 0.474 0.615 0.474 0.845 0.503 0.845 0.503 0.615 0.474 0.385 0.474 0.615 0.503 0.615 0.503 0.385 0.474 0.155 0.474 0.385 0.503 0.385 0.503 0.155 0.474 0.385 0.474 0.155 0.468 0.16 0.468 0.379 0.244 0.385 0.474 0.385 0.468 0.379 0.25 0.379 0.244 0.155 0.244 0.385 0.25 0.379 0.25 0.16 0.474 0.155 0.244 0.155 0.25 0.16 0.468 0.16 0.474 0.615 0.474 0.385 0.468 0.39 0.468 0.609 0.244 0.615 0.474 0.615 0.468 0.609 0.25 0.609 0.244 0.385 0.244 0.615 0.25 0.609 0.25 0.39 0.474 0.385 0.244 0.385 0.25 0.39 0.468 0.39 0.474 0.845 0.474 0.615 0.468 0.62 0.468 0.839 0.244 0.845 0.474 0.845 0.468 0.839 0.25 0.839 0.244 0.615 0.244 0.845 0.25 0.839 0.25 0.62 0.474 0.615 0.244 0.615 0.25 0.62 0.468 0.62 0.011 0.034 0.23 0.034 0.23 0.051 0.011 0.051 0.004 0.979 0.222 0.979 0.222 0.996 0.004 0.996 0.23 0.013 0.011 0.013 0.011 0.031 0.23 0.031 0.222 0.924 0.003 0.924 0.003 0.941 0.222 0.941 0.011 0.076 0.229 0.076 0.229 0.093 0.011 0.093 0.004 0.962 0.222 0.962 0.222 0.979 0.004 0.979 0.229 0.055 0.011 0.055 0.011 0.073 0.229 0.073 0.223 0.884 0.005 0.884 0.005 0.902 0.223 0.902 0.01 0.116 0.229 0.116 0.229 0.133 0.01 0.133 0.005 0.902 0.224 0.902 0.224 0.919 0.005 0.919 0.229 0.096 0.01 0.096 0.01 0.113 0.229 0.113 0.223 0.942 0.004 0.942 0.004 0.959 0.223 0.959 0.244 0.126 0.474 0.126 0.456 0.068 0.263 0.068 0.215 0.385 0.215 0.155 0.158 0.155 0.158 0.385 0.215 0.615 0.215 0.385 0.158 0.385 0.158 0.615 0.215 0.845 0.215 0.615 0.158 0.615 0.158 0.845 0.474 0.874 0.244 0.874 0.262 0.931 0.455 0.931 0.503 0.615 0.503 0.845 0.561 0.845 0.561 0.615 0.503 0.385 0.503 0.615 0.561 0.615 0.561 0.385 0.503 0.155 0.503 0.385 0.561 0.385 0.561 0.155 0.263 0.068 0.456 0.068 0.404 0.004 0.315 0.004 0.158 0.385 0.158 0.155 0.093 0.155 0.093 0.385 0.158 0.615 0.158 0.385 0.093 0.385 0.093 0.615 0.158 0.845 0.158 0.615 0.093 0.615 0.093 0.845 0.455 0.931 0.262 0.931 0.315 0.995 0.403 0.995 0.561 0.615 0.561 0.845 0.625 0.845 0.625 0.615 0.561 0.385 0.561 0.615 0.625 0.615 0.625 0.385 0.561 0.155 0.561 0.385 0.625 0.385 0.625 0.155 0.631 0.621 0.631 0.581 0.832 0.585 0.832 0.626 0.631 0.663 0.631 0.621 0.832 0.626 0.832 0.667 0.631 0.706 0.631 0.663 0.832 0.667 0.832 0.708 0.631 0.75 0.631 0.706 0.832 0.708 0.832 0.749 0.631 0.793 0.631 0.75 0.832 0.749 0.832 0.791 0.631 0.836 0.631 0.793 0.832 0.791 0.832 0.832 0.631 0.878 0.631 0.836 0.832 0.832 0.832 0.873 0.631 0.918 0.631 0.878 0.832 0.873 0.832 0.914 0.631 0.957 0.631 0.918 0.832 0.914 0.832 0.955 0.631 0.995 0.631 0.957 0.832 0.955 0.816 0.996 0.631 0.542 0.631 0.504 0.816 0.502 0.832 0.544 0.631 0.581 0.631 0.542 0.832 0.544 0.832 0.585 0.999 0.892 0.999 0.854 0.994 0.854 0.994 0.892 0.999 0.931 0.999 0.892 0.994 0.892 0.994 0.931 0.999 0.968 0.999 0.931 0.994 0.931 0.994 0.968 0.574 0.985 0.529 0.985 0.529 0.994 0.574 0.994 0.619 0.985 0.574 0.985 0.574 0.994 0.619 0.994 0.482 0.985 0.436 0.985 0.436 0.994 0.482 0.994 0.528 0.985 0.482 0.985 0.482 0.994 0.528 0.994 0.999 0.698 0.999 0.736 0.994 0.736 0.994 0.698 0.999 0.659 0.999 0.698 0.994 0.698 0.994 0.659 0.999 0.621 0.999 0.659 0.994 0.659 0.994 0.621 0.999 0.583 0.999 0.621 0.994 0.621 0.994 0.583 0.999 0.544 0.999 0.583 0.994 0.583 0.994 0.544 0.999 0.506 0.999 0.544 0.994 0.544 0.994 0.506 0.999 0.777 0.999 0.739 0.994 0.739 0.994 0.777 0.999 0.816 0.999 0.777 0.994 0.777 0.994 0.816 0.999 0.854 0.999 0.816 0.994 0.816 0.994 0.854 0.84 0.996 0.84 0.99 0.987 0.99 0.987 0.996 0.84 0.939 0.84 0.978 0.988 0.974 0.988 0.935 0.84 0.899 0.84 0.939 0.988 0.935 0.988 0.896 0.84 0.859 0.84 0.899 0.988 0.896 0.988 0.857 0.84 0.82 0.84 0.859 0.988 0.857 0.988 0.818 0.84 0.78 0.84 0.82 0.988 0.818 0.988 0.779 0.84 0.74 0.84 0.78 0.988 0.779 0.988 0.74 0.84 0.7 0.84 0.74 0.988 0.74 0.988 0.701 0.84 0.661 0.84 0.7 0.988 0.701 0.988 0.662 0.84 0.621 0.84 0.661 0.988 0.662 0.988 0.623 0.84 0.581 0.84 0.621 0.988 0.623 0.988 0.584 0.84 0.542 0.84 0.581 0.988 0.584 0.988 0.545 0.84 0.502 0.84 0.542 0.988 0.545 0.988 0.506 0.84 0.981 0.84 0.988 0.987 0.988 0.987 0.981 0.509 0.979 0.473 0.979 0.473 0.963 0.509 0.963 0.617 0.979 0.581 0.979 0.581 0.963 0.617 0.963 0.581 0.979 0.545 0.979 0.545 0.963 0.581 0.963 0.545 0.979 0.509 0.979 0.509 0.963 0.545 0.963 0.631 0.621 0.631 0.581 0.832 0.585 0.832 0.626 0.631 0.663 0.631 0.621 0.832 0.626 0.832 0.667 0.631 0.706 0.631 0.663 0.832 0.667 0.832 0.708 0.631 0.75 0.631 0.706 0.832 0.708 0.832 0.749 0.631 0.793 0.631 0.75 0.832 0.749 0.832 0.791 0.631 0.836 0.631 0.793 0.832 0.791 0.832 0.832 0.631 0.878 0.631 0.836 0.832 0.832 0.832 0.873 0.631 0.918 0.631 0.878 0.832 0.873 0.832 0.914 0.631 0.957 0.631 0.918 0.832 0.914 0.832 0.955 0.631 0.995 0.631 0.957 0.832 0.955 0.816 0.996 0.631 0.542 0.631 0.504 0.816 0.502 0.832 0.544 0.631 0.581 0.631 0.542 0.832 0.544 0.832 0.585 0.999 0.892 0.999 0.854 0.994 0.854 0.994 0.892 0.999 0.931 0.999 0.892 0.994 0.892 0.994 0.931 0.999 0.968 0.999 0.931 0.994 0.931 0.994 0.968 0.574 0.985 0.529 0.985 0.529 0.994 0.574 0.994 0.619 0.985 0.574 0.985 0.574 0.994 0.619 0.994 0.482 0.985 0.436 0.985 0.436 0.994 0.482 0.994 0.528 0.985 0.482 0.985 0.482 0.994 0.528 0.994 0.999 0.698 0.999 0.736 0.994 0.736 0.994 0.698 0.999 0.659 0.999 0.698 0.994 0.698 0.994 0.659 0.999 0.621 0.999 0.659 0.994 0.659 0.994 0.621 0.999 0.583 0.999 0.621 0.994 0.621 0.994 0.583 0.999 0.544 0.999 0.583 0.994 0.583 0.994 0.544 0.999 0.506 0.999 0.544 0.994 0.544 0.994 0.506 0.999 0.777 0.999 0.739 0.994 0.739 0.994 0.777 0.999 0.816 0.999 0.777 0.994 0.777 0.994 0.816 0.999 0.854 0.999 0.816 0.994 0.816 0.994 0.854 0.84 0.996 0.84 0.99 0.987 0.99 0.987 0.996 0.84 0.939 0.84 0.978 0.988 0.974 0.988 0.935 0.84 0.899 0.84 0.939 0.988 0.935 0.988 0.896 0.84 0.859 0.84 0.899 0.988 0.896 0.988 0.857 0.84 0.82 0.84 0.859 0.988 0.857 0.988 0.818 0.84 0.78 0.84 0.82 0.988 0.818 0.988 0.779 0.84 0.74 0.84 0.78 0.988 0.779 0.988 0.74 0.84 0.7 0.84 0.74 0.988 0.74 0.988 0.701 0.84 0.661 0.84 0.7 0.988 0.701 0.988 0.662 0.84 0.621 0.84 0.661 0.988 0.662 0.988 0.623 0.84 0.581 0.84 0.621 0.988 0.623 0.988 0.584 0.84 0.542 0.84 0.581 0.988 0.584 0.988 0.545 0.84 0.502 0.84 0.542 0.988 0.545 0.988 0.506 0.84 0.981 0.84 0.988 0.987 0.988 0.987 0.981 0.509 0.979 0.473 0.979 0.473 0.963 0.509 0.963 0.617 0.979 0.581 0.979 0.581 0.963 0.617 0.963 0.581 0.979 0.545 0.979 0.545 0.963 0.581 0.963 0.545 0.979 0.509 0.979 0.509 0.963 0.545 0.963 0.631 0.621 0.631 0.581 0.832 0.585 0.832 0.626 0.631 0.663 0.631 0.621 0.832 0.626 0.832 0.667 0.631 0.706 0.631 0.663 0.832 0.667 0.832 0.708 0.631 0.75 0.631 0.706 0.832 0.708 0.832 0.749 0.631 0.793 0.631 0.75 0.832 0.749 0.832 0.791 0.631 0.836 0.631 0.793 0.832 0.791 0.832 0.832 0.631 0.878 0.631 0.836 0.832 0.832 0.832 0.873 0.631 0.918 0.631 0.878 0.832 0.873 0.832 0.914 0.631 0.957 0.631 0.918 0.832 0.914 0.832 0.955 0.631 0.995 0.631 0.957 0.832 0.955 0.816 0.996 0.631 0.542 0.631 0.504 0.816 0.502 0.832 0.544 0.631 0.581 0.631 0.542 0.832 0.544 0.832 0.585 0.999 0.892 0.999 0.854 0.994 0.854 0.994 0.892 0.999 0.931 0.999 0.892 0.994 0.892 0.994 0.931 0.999 0.968 0.999 0.931 0.994 0.931 0.994 0.968 0.574 0.985 0.529 0.985 0.529 0.994 0.574 0.994 0.619 0.985 0.574 0.985 0.574 0.994 0.619 0.994 0.482 0.985 0.436 0.985 0.436 0.994 0.482 0.994 0.528 0.985 0.482 0.985 0.482 0.994 0.528 0.994 0.999 0.698 0.999 0.736 0.994 0.736 0.994 0.698 0.999 0.659 0.999 0.698 0.994 0.698 0.994 0.659 0.999 0.621 0.999 0.659 0.994 0.659 0.994 0.621 0.999 0.583 0.999 0.621 0.994 0.621 0.994 0.583 0.999 0.544 0.999 0.583 0.994 0.583 0.994 0.544 0.999 0.506 0.999 0.544 0.994 0.544 0.994 0.506 0.999 0.777 0.999 0.739 0.994 0.739 0.994 0.777 0.999 0.816 0.999 0.777 0.994 0.777 0.994 0.816 0.999 0.854 0.999 0.816 0.994 0.816 0.994 0.854 0.84 0.996 0.84 0.99 0.987 0.99 0.987 0.996 0.84 0.939 0.84 0.978 0.988 0.974 0.988 0.935 0.84 0.899 0.84 0.939 0.988 0.935 0.988 0.896 0.84 0.859 0.84 0.899 0.988 0.896 0.988 0.857 0.84 0.82 0.84 0.859 0.988 0.857 0.988 0.818 0.84 0.78 0.84 0.82 0.988 0.818 0.988 0.779 0.84 0.74 0.84 0.78 0.988 0.779 0.988 0.74 0.84 0.7 0.84 0.74 0.988 0.74 0.988 0.701 0.84 0.661 0.84 0.7 0.988 0.701 0.988 0.662 0.84 0.621 0.84 0.661 0.988 0.662 0.988 0.623 0.84 0.581 0.84 0.621 0.988 0.623 0.988 0.584 0.84 0.542 0.84 0.581 0.988 0.584 0.988 0.545 0.84 0.502 0.84 0.542 0.988 0.545 0.988 0.506 0.84 0.981 0.84 0.988 0.987 0.988 0.987 0.981 0.509 0.979 0.473 0.979 0.473 0.963 0.509 0.963 0.617 0.979 0.581 0.979 0.581 0.963 0.617 0.963 0.581 0.979 0.545 0.979 0.545 0.963 0.581 0.963 0.545 0.979 0.509 0.979 0.509 0.963 0.545 0.963 0.832 0.996 0.816 0.996 0.832 0.955 0.832 0.502 0.832 0.544 0.816 0.502 0.734 0.394 0.77 0.308 0.8 0.328 0.734 0.394 0.734 0.301 0.77 0.308 0.734 0.394 0.699 0.308 0.734 0.301 0.734 0.394 0.668 0.328 0.699 0.308 0.734 0.394 0.648 0.359 0.668 0.328 0.734 0.394 0.641 0.394 0.648 0.359 0.734 0.394 0.648 0.43 0.641 0.394 0.734 0.394 0.668 0.46 0.648 0.43 0.734 0.394 0.699 0.48 0.668 0.46 0.734 0.394 0.734 0.488 0.699 0.48 0.734 0.394 0.77 0.48 0.734 0.488 0.734 0.394 0.8 0.46 0.77 0.48 0.734 0.394 0.821 0.43 0.8 0.46 0.734 0.394 0.828 0.394 0.821 0.43 0.734 0.394 0.821 0.359 0.828 0.394 0.734 0.394 0.8 0.328 0.821 0.359 0.832 0.996 0.816 0.996 0.832 0.955 0.832 0.502 0.832 0.544 0.816 0.502 0.891 0.256 0.927 0.169 0.957 0.189 0.891 0.256 0.891 0.162 0.927 0.169 0.891 0.256 0.855 0.169 0.891 0.162 0.891 0.256 0.824 0.189 0.855 0.169 0.891 0.256 0.804 0.22 0.824 0.189 0.891 0.256 0.797 0.256 0.804 0.22 0.891 0.256 0.804 0.292 0.797 0.256 0.891 0.256 0.824 0.322 0.804 0.292 0.891 0.256 0.855 0.343 0.824 0.322 0.891 0.256 0.891 0.35 0.855 0.343 0.891 0.256 0.927 0.343 0.891 0.35 0.891 0.256 0.957 0.322 0.927 0.343 0.891 0.256 0.978 0.292 0.957 0.322 0.891 0.256 0.985 0.256 0.978 0.292 0.891 0.256 0.978 0.22 0.985 0.256 0.891 0.256 0.957 0.189 0.978 0.22 0.832 0.996 0.816 0.996 0.832 0.955 0.832 0.502 0.832 0.544 0.816 0.502 0.737 0.116 0.772 0.029 0.803 0.05 0.737 0.116 0.737 0.022 0.772 0.029 0.737 0.116 0.701 0.029 0.737 0.022 0.737 0.116 0.671 0.05 0.701 0.029 0.737 0.116 0.651 0.08 0.671 0.05 0.737 0.116 0.643 0.116 0.651 0.08 0.737 0.116 0.651 0.151 0.643 0.116 0.737 0.116 0.671 0.181 0.651 0.151 0.737 0.116 0.701 0.202 0.671 0.181 0.737 0.116 0.737 0.209 0.701 0.202 0.737 0.116 0.772 0.202 0.737 0.209 0.737 0.116 0.803 0.181 0.772 0.202 0.737 0.116 0.823 0.151 0.803 0.181 0.737 0.116 0.83 0.116 0.823 0.151 0.737 0.116 0.823 0.08 0.83 0.116 0.737 0.116 0.803 0.05 0.823 0.08</float_array>
          <technique_common>
            <accessor source="#Tex1Src_id-array" count="930" stride="2">
              <param name="S" type="float"/>
              <param name="T" type="float"/>
            </accessor>
          </technique_common>
        </source>
        <source id="Tex2Src_id" name="Tex2Src">
          <float_array id="Tex2Src_id-array" count="1860">0 0 0 0 0 0 0 0 0 0 0 0 0 0 0 0 0 0 0 0 0 0 0 0 0 0 0 0 0 0 0 0 0 0 0 0 0 0 0 0 0 0 0 0 0 0 0 0 0 0 0 0 0 0 0 0 0 0 0 0 0 0 0 0 0 0 0 0 0 0 0 0 0 0 0 0 0 0 0 0 0 0 0 0 0 0 0 0 0 0 0 0 0 0 0 0 0 0 0 0 0 0 0 0 0 0 0 0 0 0 0 0 0 0 0 0 0 0 0 0 0 0 0 0 0 0 0 0 0 0 0 0 0 0 0 0 0 0 0 0 0 0 0 0 0 0 0 0 0 0 0 0 0 0 0 0 0 0 0 0 0 0 0 0 0 0 0 0 0 0 0 0 0 0 0 0 0 0 0 0 0 0 0 0 0 0 0 0 0 0 0 0 0 0 0 0 0 0 0 0 0 0 0 0 0 0 0 0 0 0 0 0 0 0 0 0 0 0 0 0 0 0 0 0 0 0 0 0 0 0 0 0 0 0 0 0 0 0 0 0 0 0 0 0 0 0 0 0 0 0 0 0 0 0 0 0 0 0 0 0 0 0 0 0 0 0 0 0 0 0 0 0 0 0 0 0 0 0 0 0 0 0 0 0 0 0 0 0 0 0 0 0 0 0 0 0 0 0 0 0 0 0 0 0 0 0 0 0 0 0 0 0 0 0 0 0 0 0 0 0 0 0 0 0 0 0 0 0 0 0 0 0 0 0 0 0 0 0 0 0 0 0 0 0 0 0 0 0 0 0 0 0 0 0 0 0 0 0 0 0 0 0 0 0 0 0 0 0 0 0 0 0 0 0 0 0 0 0 0 0 0 0 0 0 0 0 0 0 0 0 0 0 0 0 0 0 0 0 0 0 0 0 0 0 0 0 0 0 0 0 0 0 0 0 0 0 0 0 0 0 0 0 0 0 0 0 0 0 0 0 0 0 0 0 0 0 0 0 0 0 0 0 0 0 0 0 0 0 0 0 0 0 0 0 0 0 0 0 0 0 0 0 0 0 0 0 0 0 0 0 0 0 0 0 0 0 0 0 0 0 0 0 0 0 0 0 0 0 0 0 0 0 0 0 0 0 0 0 0 0 0 0 0 0 0 0 0 0 0 0 0 0 0 0 0 0 0 0 0 0 0 0 0 0 0 0 0 0 0 0 0 0 0 0 0 0 0 0 0 0 0 0 0 0 0 0 0 0 0 0 0 0 0 0 0 0 0 0 0 0 0 0 0 0 0 0 0 0 0 0 0 0 0 0 0 0 0 0 0 0 0 0 0 0 0 0 0 0 0 0 0 0 0 0 0 0 0 0 0 0 0 0 0 0 0 0 0 0 0 0 0 0 0 0 0 0 0 0 0 0 0 0 0 0 0 0 0 0 0 0 0 0 0 0 0 0 0 0 0 0 0 0 0 0 0 0 0 0 0 0 0 0 0 0 0 0 0 0 0 0 0 0 0 0 0 0 0 0 0 0 0 0 0 0 0 0 0 0 0 0 0 0 0 0 0 0 0 0 0 0 0 0 0 0 0 0 0 0 0 0 0 0 0 0 0 0 0 0 0 0 0 0 0 0 0 0 0 0 0 0 0 0 0 0 0 0 0 0 0 0 0 0 0 0 0 0 0 0 0 0 0 0 0 0 0 0 0 0 0 0 0 0 0 0 0 0 0 0 0 0 0 0 0 0 0 0 0 0 0 0 0 0 0 0 0 0 0 0 0 0 0 0 0 0 0 0 0 0 0 0 0 0 0 0 0 0 0 0 0 0 0 0 0 0 0 0 0 0 0 0 0 0 0 0 0 0 0 0 0 0 0 0 0 0 0 0 0 0 0 0 0 0 0 0 0 0 0 0 0 0 0 0 0 0 0 0 0 0 0 0 0 0 0 0 0 0 0 0 0 0 0 0 0 0 0 0 0 0 0 0 0 0 0 0 0 0 0 0 0 0 0 0 0 0 0 0 0 0 0 0 0 0 0 0 0 0 0 0 0 0 0 0 0 0 0 0 0 0 0 0 0 0 0 0 0 0 0 0 0 0 0 0 0 0 0 0 0 0 0 0 0 0 0 0 0 0 0 0 0 0 0 0 0 0 0 0 0 0 0 0 0 0 0 0 0 0 0 0 0 0 0 0 0 0 0 0 0 0 0 0 0 0 0 0 0 0 0 0 0 0 0 0 0 0 0 0 0 0 0 0 0 0 0 0 0 0 0 0 0 0 0 0 0 0 0 0 0 0 0 0 0 0 0 0 0 0 0 0 0 0 0 0 0 0 0 0 0 0 0 0 0 0 0 0 0 0 0 0 0 0 0 0 0 0 0 0 0 0 0 0 0 0 0 0 0 0 0 0 0 0 0 0 0 0 0 0 0 0 0 0 0 0 0 0 0 0 0 0 0 0 0 0 0 0 0 0 0 0 0 0 0 0 0 0 0 0 0 0 0 0 0 0 0 0 0 0 0 0 0 0 0 0 0 0 0 0 0 0 0 0 0 0 0 0 0 0 0 0 0 0 0 0 0 0 0 0 0 0 0 0 0 0 0 0 0 0 0 0 0 0 0 0 0 0 0 0 0 0 0 0 0 0 0 0 0 0 0 0 0 0 0 0 0 0 0 0 0 0 0 0 0 0 0 0 0 0 0 0 0 0 0 0 0 0 0 0 0 0 0 0 0 0 0 0 0 0 0 0 0 0 0 0 0 0 0 0 0 0 0 0 0 0 0 0 0 0 0 0 0 0 0 0 0 0 0 0 0 0 0 0 0 0 0 0 0 0 0 0 0 0 0 0 0 0 0 0 0 0 0 0 0 0 0 0 0 0 0 0 0 0 0 0 0 0 0 0 0 0 0 0 0 0 0 0 0 0 0 0 0 0 0 0 0 0 0 0 0 0 0 0 0 0 0 0 0 0 0 0 0 0 0 0 0 0 0 0 0 0 0 0 0 0 0 0 0 0 0 0 0 0 0 0 0 0 0 0 0 0 0 0 0 0 0 0 0 0 0 0 0 0 0 0 0 0 0 0 0 0 0 0 0 0 0 0 0 0 0 0 0 0 0 0 0 0 0 0 0 0 0 0 0 0 0 0 0 0 0 0 0 0 0 0 0 0 0 0 0 0 0 0 0 0 0 0 0 0 0 0 0 0 0 0 0 0 0 0 0 0 0 0 0 0 0 0 0 0 0 0 0 0 0 0 0 0 0 0 0 0 0 0 0 0 0 0 0 0 0 0 0 0 0 0 0 0 0 0 0 0 0 0 0 0 0 0 0 0 0 0 0 0 0 0 0 0 0 0 0 0 0 0 0 0 0 0 0 0 0 0 0 0 0 0 0 0 0 0 0 0 0 0 0 0 0 0 0 0 0 0 0 0 0 0 0 0 0 0 0 0 0 0 0 0 0 0 0 0 0 0 0 0 0 0 0 0 0 0 0 0 0 0 0 0 0 0 0 0 0 0 0 0 0 0 0 0 0 0 0 0 0 0 0 0 0 0 0 0 0 0 0 0 0 0 0 0 0 0 0 0 0 0 0 0 0 0 0 0 0 0 0 0 0 0 0 0 0 0 0 0 0 0 0 0 0 0 0 0 0 0 0 0 0 0 0 0 0 0 0 0 0 0 0 0 0 0 0 0 0 0 0 0 0 0 0 0 0 0 0 0 0 0 0 0 0 0 0 0 0 0 0 0 0 0 0 0 0 0 0 0 0 0 0 0 0 0 0 0 0 0 0 0 0 0 0 0 0 0 0 0 0 0 0 0 0 0 0 0 0 0 0 0 0 0 0 0 0 0 0 0 0 0 0 0 0 0 0 0 0 0 0 0 0 0 0 0 0 0 0 0 0 0 0 0 0 0 0 0 0 0 0 0 0 0 0 0 0 0 0 0 0 0 0 0 0 0 0 0 0 0 0 0 0 0 0 0 0 0 0 0 0 0 0 0 0 0 0 0 0 0 0 0 0 0 0 0 0 0 0 0 0 0 0 0 0 0 0 0 0 0 0 0 0 0 0 0 0 0 0 0 0 0 0 0 0 0 0 0 0 0 0 0 0 0 0 0 0 0 0 0 0 0 0 0 0 0 0 0 0 0 0 0 0 0 0 0 0 0 0 0 0 0 0 0 0 0 0 0 0 0 0 0 0 0 0 0 0 0 0 0 0 0</float_array>
          <technique_common>
            <accessor source="#Tex2Src_id-array" count="930" stride="2">
              <param name="S" type="float"/>
              <param name="T" type="float"/>
            </accessor>
          </technique_common>
        </source>
        <vertices id="geomU3D1_id-vertices">
          <input semantic="POSITION" source="#PositionSrc_id"/>
        </vertices>
        <polylist material="VisualMaterial0" count="246">
          <input semantic="VERTEX" source="#geomU3D1_id-vertices" offset="0"/>
          <input semantic="NORMAL" source="#NormalSrc_id" offset="1"/>
          <input semantic="TEXCOORD" source="#Tex1Src_id" offset="2" set="0"/>
          <input semantic="TEXCOORD" source="#Tex2Src_id" offset="3" set="1"/>
          <vcount>4 4 4 4 4 4 4 4 4 4 4 4 4 4 4 4 4 4 4 4 4 4 4 4 4 4 4 4 4 4 4 4 4 4 4 4 4 4 4 4 4 4 4 4 4 4 4 4 4 4 4 4 4 4 4 4 4 4 4 4 4 4 4 4 4 4 4 4 4 4 4 4 4 4 4 4 4 4 4 4 4 4 4 4 4 4 4 4 4 4 4 4 4 4 4 4 4 4 4 4 4 4 4 4 4 4 4 4 4 4 4 4 4 4 4 4 4 4 4 4 4 4 4 4 4 4 4 4 4 4 4 4 4 4 4 4 4 4 4 4 4 4 4 4 4 4 4 4 4 4 4 4 4 4 4 4 4 4 4 4 4 4 4 4 4 4 4 4 4 4 4 4 4 4 4 4 4 4 4 4 4 4 4 4 4 4 4 4 4 4 4 4 3 3 3 3 3 3 3 3 3 3 3 3 3 3 3 3 3 3 3 3 3 3 3 3 3 3 3 3 3 3 3 3 3 3 3 3 3 3 3 3 3 3 3 3 3 3 3 3 3 3 3 3 3 3</vcount>
          <p>0 0 0 0 1 1 1 1 2 2 2 2 3 3 3 3 4 4 4 4 5 5 5 5 6 6 6 6 7 7 7 7 8 8 8 8 9 9 9 9 10 10 10 10 11 11 11 11 12 12 12 12 13 13 13 13 14 14 14 14 15 15 15 15 15 15 16 16 14 14 17 17 16 16 18 18 17 17 19 19 17 17 20 20 16 16 21 21 18 18 22 22 19 19 23 23 20 20 24 24 21 21 25 25 22 22 26 26 23 23 27 27 24 24 28 28 20 20 29 29 25 25 30 30 26 26 31 31 27 27 32 32 24 24 33 33 26 26 34 34 28 28 35 35 29 29 36 36 27 27 37 37 28 28 38 38 30 30 39 39 31 31 40 40 29 29 41 41 32 32 42 42 33 33 43 43 34 34 44 44 31 31 45 45 35 35 46 46 36 36 47 47 37 37 48 48 34 34 49 49 36 36 50 50 38 38 51 51 21 21 52 52 37 37 53 53 38 38 54 54 39 39 55 55 37 37 56 56 21 21 57 57 40 40 58 58 41 41 59 59 24 24 60 60 37 37 61 61 41 41 62 62 42 42 63 63 20 20 64 64 24 24 65 65 42 42 66 66 43 43 67 67 21 21 68 68 20 20 69 69 43 43 70 70 40 40 71 71 34 34 72 72 37 37 73 73 44 44 74 74 45 45 75 75 27 27 76 76 34 34 77 77 45 45 78 78 46 46 79 79 24 24 80 80 27 27 81 81 46 46 82 82 47 47 83 83 37 37 84 84 24 24 85 85 47 47 86 86 44 44 87 87 31 31 88 88 34 34 89 89 48 48 90 90 49 49 91 91 29 29 92 92 31 31 93 93 49 49 94 94 50 50 95 95 27 27 96 96 29 29 97 97 50 50 98 98 51 51 99 99 34 34 100 100 27 27 101 101 51 51 102 102 48 48 103 103 52 52 104 104 53 53 105 105 54 54 106 106 55 55 107 107 56 56 108 108 57 57 109 109 58 58 110 110 59 59 111 111 60 60 112 112 61 61 113 113 62 62 114 114 63 63 115 115 64 64 116 116 65 65 117 117 66 66 118 118 67 67 119 119 68 68 120 120 69 69 121 121 70 70 122 122 71 71 123 123 72 72 124 124 73 73 125 125 74 74 126 126 75 75 127 127 76 76 128 128 77 77 129 129 78 78 130 130 79 79 131 131 80 80 132 132 81 81 133 133 82 82 134 134 83 83 135 135 84 84 136 136 85 85 137 137 86 86 138 138 87 87 139 139 88 88 140 140 89 89 141 141 90 90 142 142 91 91 143 143 92 92 144 144 93 93 145 145 94 94 146 146 95 95 147 147 96 96 148 148 97 97 149 149 98 98 150 150 99 99 151 151 23 23 152 152 22 22 153 153 100 100 154 154 101 101 155 155 26 26 156 156 25 25 157 157 102 102 158 158 103 103 159 159 28 28 160 160 26 26 161 161 103 103 162 162 104 104 163 163 30 30 164 164 28 28 165 165 104 104 166 166 105 105 167 167 33 33 168 168 32 32 169 169 106 106 170 170 107 107 171 171 36 36 172 172 35 35 173 173 108 108 174 174 109 109 175 175 38 38 176 176 36 36 177 177 109 109 178 178 110 110 179 179 39 39 180 180 38 38 181 181 110 110 182 182 111 111 183 183 101 101 184 184 100 100 185 185 112 112 186 186 113 113 187 187 103 103 188 188 102 102 189 189 12 12 190 190 15 15 191 191 104 104 192 192 103 103 193 193 15 15 194 194 17 17 195 195 105 105 196 196 104 104 197 197 17 17 198 198 19 19 199 199 107 107 200 200 106 106 201 201 114 114 202 202 115 115 203 203 109 109 204 204 108 108 205 205 116 116 206 206 117 117 207 207 110 110 208 208 109 109 209 209 117 117 210 210 118 118 211 211 111 111 212 212 110 110 213 213 118 118 214 214 119 119 215 215 120 120 216 216 121 121 217 217 122 122 218 218 123 123 219 219 124 124 220 220 120 120 221 221 123 123 222 222 125 125 223 223 126 126 224 224 124 124 225 225 125 125 226 226 127 127 227 227 128 128 228 228 126 126 229 229 127 127 230 230 129 129 231 231 130 130 232 232 128 128 233 233 129 129 234 234 131 131 235 235 132 132 236 236 130 130 237 237 131 131 238 238 133 133 239 239 134 134 240 240 132 132 241 241 133 133 242 242 135 135 243 243 136 136 244 244 134 134 245 245 135 135 246 246 137 137 247 247 138 138 248 248 136 136 249 249 137 137 250 250 139 139 251 251 140 140 252 252 138 138 253 253 139 139 254 254 141 141 255 255 142 142 256 256 143 143 257 257 144 144 258 258 145 145 259 259 121 121 260 260 142 142 261 261 145 145 262 262 122 122 263 263 146 146 264 264 147 147 265 265 148 148 266 266 149 149 267 267 150 150 268 268 146 146 269 269 149 149 270 270 151 151 271 271 152 152 272 272 150 150 273 273 151 151 274 274 153 153 275 275 154 154 276 276 155 155 277 277 156 156 278 278 157 157 279 279 158 158 280 280 154 154 281 281 157 157 282 282 159 159 283 283 160 160 284 284 161 161 285 285 162 162 286 286 163 163 287 287 164 164 288 288 160 160 289 289 163 163 290 290 165 165 291 291 166 166 292 292 167 167 293 293 168 168 294 294 169 169 295 295 170 170 296 296 166 166 297 297 169 169 298 298 171 171 299 299 172 172 300 300 170 170 301 301 171 171 302 302 173 173 303 303 174 174 304 304 172 172 305 305 173 173 306 306 175 175 307 307 176 176 308 308 174 174 309 309 175 175 310 310 177 177 311 311 178 178 312 312 176 176 313 313 177 177 314 314 179 179 315 315 180 180 316 316 181 181 317 317 182 182 318 318 183 183 319 319 184 184 320 320 180 180 321 321 183 183 322 322 185 185 323 323 147 147 324 324 184 184 325 325 185 185 326 326 148 148 327 327 186 186 328 328 187 187 329 329 188 188 330 330 189 189 331 331 190 190 332 332 191 191 333 333 192 192 334 334 193 193 335 335 194 194 336 336 190 190 337 337 193 193 338 338 195 195 339 339 196 196 340 340 194 194 341 341 195 195 342 342 197 197 343 343 198 198 344 344 196 196 345 345 197 197 346 346 199 199 347 347 200 200 348 348 198 198 349 349 199 199 350 350 201 201 351 351 202 202 352 352 200 200 353 353 201 201 354 354 203 203 355 355 204 204 356 356 202 202 357 357 203 203 358 358 205 205 359 359 206 206 360 360 204 204 361 361 205 205 362 362 207 207 363 363 208 208 364 364 206 206 365 365 207 207 366 366 209 209 367 367 210 210 368 368 208 208 369 369 209 209 370 370 211 211 371 371 212 212 372 372 210 210 373 373 211 211 374 374 213 213 375 375 214 214 376 376 212 212 377 377 213 213 378 378 215 215 379 379 216 216 380 380 217 217 381 381 218 218 382 382 219 219 383 383 220 220 384 384 221 221 385 385 222 222 386 386 223 223 387 387 224 224 388 388 225 225 389 389 226 226 390 390 227 227 391 391 225 225 392 392 228 228 393 393 229 229 394 394 226 226 395 395 228 228 396 396 220 220 397 397 223 223 398 398 229 229 399 399 230 230 400 400 231 231 401 401 232 232 402 402 233 233 403 403 234 234 404 404 230 230 405 405 233 233 406 406 235 235 407 407 236 236 408 408 234 234 409 409 235 235 410 410 237 237 411 411 238 238 412 412 236 236 413 413 237 237 414 414 239 239 415 415 240 240 416 416 238 238 417 417 239 239 418 418 241 241 419 419 242 242 420 420 240 240 421 421 241 241 422 422 243 243 423 423 244 244 424 424 242 242 425 425 243 243 426 426 245 245 427 427 246 246 428 428 244 244 429 429 245 245 430 430 247 247 431 431 248 248 432 432 246 246 433 433 247 247 434 434 249 249 435 435 250 250 436 436 248 248 437 437 249 249 438 438 251 251 439 439 252 252 440 440 253 253 441 441 254 254 442 442 255 255 443 443 231 231 444 444 252 252 445 445 255 255 446 446 232 232 447 447 256 256 448 448 257 257 449 449 258 258 450 450 259 259 451 451 260 260 452 452 256 256 453 453 259 259 454 454 261 261 455 455 262 262 456 456 260 260 457 457 261 261 458 458 263 263 459 459 264 264 460 460 265 265 461 461 266 266 462 462 267 267 463 463 268 268 464 464 264 264 465 465 267 267 466 466 269 269 467 467 270 270 468 468 271 271 469 469 272 272 470 470 273 273 471 471 274 274 472 472 270 270 473 473 273 273 474 474 275 275 475 475 276 276 476 476 277 277 477 477 278 278 478 478 279 279 479 479 280 280 480 480 276 276 481 481 279 279 482 482 281 281 483 483 282 282 484 484 280 280 485 485 281 281 486 486 283 283 487 487 284 284 488 488 282 282 489 489 283 283 490 490 285 285 491 491 286 286 492 492 284 284 493 493 285 285 494 494 287 287 495 495 288 288 496 496 286 286 497 497 287 287 498 498 289 289 499 499 290 290 500 500 291 291 501 501 292 292 502 502 293 293 503 503 294 294 504 504 290 290 505 505 293 293 506 506 295 295 507 507 257 257 508 508 294 294 509 509 295 295 510 510 258 258 511 511 296 296 512 512 297 297 513 513 298 298 514 514 299 299 515 515 300 300 516 516 301 301 517 517 302 302 518 518 303 303 519 519 304 304 520 520 300 300 521 521 303 303 522 522 305 305 523 523 306 306 524 524 304 304 525 525 305 305 526 526 307 307 527 527 308 308 528 528 306 306 529 529 307 307 530 530 309 309 531 531 310 310 532 532 308 308 533 533 309 309 534 534 311 311 535 535 312 312 536 536 310 310 537 537 311 311 538 538 313 313 539 539 314 314 540 540 312 312 541 541 313 313 542 542 315 315 543 543 316 316 544 544 314 314 545 545 315 315 546 546 317 317 547 547 318 318 548 548 316 316 549 549 317 317 550 550 319 319 551 551 320 320 552 552 318 318 553 553 319 319 554 554 321 321 555 555 322 322 556 556 320 320 557 557 321 321 558 558 323 323 559 559 324 324 560 560 322 322 561 561 323 323 562 562 325 325 563 563 326 326 564 564 327 327 565 565 328 328 566 566 329 329 567 567 330 330 568 568 331 331 569 569 332 332 570 570 333 333 571 571 334 334 572 572 335 335 573 573 336 336 574 574 337 337 575 575 335 335 576 576 338 338 577 577 339 339 578 578 336 336 579 579 338 338 580 580 330 330 581 581 333 333 582 582 339 339 583 583 340 340 584 584 341 341 585 585 342 342 586 586 343 343 587 587 344 344 588 588 340 340 589 589 343 343 590 590 345 345 591 591 346 346 592 592 344 344 593 593 345 345 594 594 347 347 595 595 348 348 596 596 346 346 597 597 347 347 598 598 349 349 599 599 350 350 600 600 348 348 601 601 349 349 602 602 351 351 603 603 352 352 604 604 350 350 605 605 351 351 606 606 353 353 607 607 354 354 608 608 352 352 609 609 353 353 610 610 355 355 611 611 356 356 612 612 354 354 613 613 355 355 614 614 357 357 615 615 358 358 616 616 356 356 617 617 357 357 618 618 359 359 619 619 360 360 620 620 358 358 621 621 359 359 622 622 361 361 623 623 362 362 624 624 363 363 625 625 364 364 626 626 365 365 627 627 341 341 628 628 362 362 629 629 365 365 630 630 342 342 631 631 366 366 632 632 367 367 633 633 368 368 634 634 369 369 635 635 370 370 636 636 366 366 637 637 369 369 638 638 371 371 639 639 372 372 640 640 370 370 641 641 371 371 642 642 373 373 643 643 374 374 644 644 375 375 645 645 376 376 646 646 377 377 647 647 378 378 648 648 374 374 649 649 377 377 650 650 379 379 651 651 380 380 652 652 381 381 653 653 382 382 654 654 383 383 655 655 384 384 656 656 380 380 657 657 383 383 658 658 385 385 659 659 386 386 660 660 387 387 661 661 388 388 662 662 389 389 663 663 390 390 664 664 386 386 665 665 389 389 666 666 391 391 667 667 392 392 668 668 390 390 669 669 391 391 670 670 393 393 671 671 394 394 672 672 392 392 673 673 393 393 674 674 395 395 675 675 396 396 676 676 394 394 677 677 395 395 678 678 397 397 679 679 398 398 680 680 396 396 681 681 397 397 682 682 399 399 683 683 400 400 684 684 401 401 685 685 402 402 686 686 403 403 687 687 404 404 688 688 400 400 689 689 403 403 690 690 405 405 691 691 367 367 692 692 404 404 693 693 405 405 694 694 368 368 695 695 406 406 696 696 407 407 697 697 408 408 698 698 409 409 699 699 410 410 700 700 411 411 701 701 412 412 702 702 413 413 703 703 414 414 704 704 410 410 705 705 413 413 706 706 415 415 707 707 416 416 708 708 414 414 709 709 415 415 710 710 417 417 711 711 418 418 712 712 416 416 713 713 417 417 714 714 419 419 715 715 420 420 716 716 418 418 717 717 419 419 718 718 421 421 719 719 422 422 720 720 420 420 721 721 421 421 722 722 423 423 723 723 424 424 724 724 422 422 725 725 423 423 726 726 425 425 727 727 426 426 728 728 424 424 729 729 425 425 730 730 427 427 731 731 428 428 732 732 426 426 733 733 427 427 734 734 429 429 735 735 430 430 736 736 428 428 737 737 429 429 738 738 431 431 739 739 432 432 740 740 430 430 741 741 431 431 742 742 433 433 743 743 434 434 744 744 432 432 745 745 433 433 746 746 435 435 747 747 436 436 748 748 437 437 749 749 438 438 750 750 439 439 751 751 440 440 752 752 441 441 753 753 442 442 754 754 443 443 755 755 444 444 756 756 445 445 757 757 446 446 758 758 447 447 759 759 445 445 760 760 448 448 761 761 449 449 762 762 446 446 763 763 448 448 764 764 440 440 765 765 443 443 766 766 449 449 767 767 450 450 768 768 141 141 769 769 139 139 770 770 451 451 771 771 145 145 772 772 144 144 773 773 452 452 774 774 453 453 775 775 454 454 776 776 452 452 777 777 455 455 778 778 453 453 779 779 452 452 780 780 456 456 781 781 455 455 782 782 452 452 783 783 457 457 784 784 456 456 785 785 452 452 786 786 458 458 787 787 457 457 788 788 452 452 789 789 459 459 790 790 458 458 791 791 452 452 792 792 460 460 793 793 459 459 794 794 452 452 795 795 461 461 796 796 460 460 797 797 452 452 798 798 462 462 799 799 461 461 800 800 452 452 801 801 463 463 802 802 462 462 803 803 452 452 804 804 464 464 805 805 463 463 806 806 452 452 807 807 465 465 808 808 464 464 809 809 452 452 810 810 466 466 811 811 465 465 812 812 452 452 813 813 467 467 814 814 466 466 815 815 452 452 816 816 468 468 817 817 467 467 818 818 452 452 819 819 454 454 820 820 468 468 821 821 469 469 822 822 251 251 823 823 249 249 824 824 470 470 825 825 255 255 826 826 254 254 827 827 471 471 828 828 472 472 829 829 473 473 830 830 471 471 831 831 474 474 832 832 472 472 833 833 471 471 834 834 475 475 835 835 474 474 836 836 471 471 837 837 476 476 838 838 475 475 839 839 471 471 840 840 477 477 841 841 476 476 842 842 471 471 843 843 478 478 844 844 477 477 845 845 471 471 846 846 479 479 847 847 478 478 848 848 471 471 849 849 480 480 850 850 479 479 851 851 471 471 852 852 481 481 853 853 480 480 854 854 471 471 855 855 482 482 856 856 481 481 857 857 471 471 858 858 483 483 859 859 482 482 860 860 471 471 861 861 484 484 862 862 483 483 863 863 471 471 864 864 485 485 865 865 484 484 866 866 471 471 867 867 486 486 868 868 485 485 869 869 471 471 870 870 487 487 871 871 486 486 872 872 471 471 873 873 473 473 874 874 487 487 875 875 488 488 876 876 361 361 877 877 359 359 878 878 489 489 879 879 365 365 880 880 364 364 881 881 490 490 882 882 491 491 883 883 492 492 884 884 490 490 885 885 493 493 886 886 491 491 887 887 490 490 888 888 494 494 889 889 493 493 890 890 490 490 891 891 495 495 892 892 494 494 893 893 490 490 894 894 496 496 895 895 495 495 896 896 490 490 897 897 497 497 898 898 496 496 899 899 490 490 900 900 498 498 901 901 497 497 902 902 490 490 903 903 499 499 904 904 498 498 905 905 490 490 906 906 500 500 907 907 499 499 908 908 490 490 909 909 501 501 910 910 500 500 911 911 490 490 912 912 502 502 913 913 501 501 914 914 490 490 915 915 503 503 916 916 502 502 917 917 490 490 918 918 504 504 919 919 503 503 920 920 490 490 921 921 505 505 922 922 504 504 923 923 490 490 924 924 506 506 925 925 505 505 926 926 490 490 927 927 492 492 928 928 506 506 929 929</p>
        </polylist>
      </mesh>
    </geometry>
  </library_geometries>
  <library_visual_scenes>
    <visual_scene id="VisualSceneNode" name="rootU3D">
      <node id="trafficlight_id" name="trafficlight" type="NODE">
        <translate>0 0 0</translate>
        <rotate>1 0 0 0</rotate>
        <scale>1 1 1</scale>
        <instance_geometry url="#geomU3D1_id">
          <bind_material>
            <technique_common>
              <instance_material symbol="VisualMaterial0" target="#VisualMaterial">
                <bind_vertex_input semantic="UVSET0" input_semantic="TEXCOORD" input_set="0"/>
              </instance_material>
            </technique_common>
          </bind_material>
        </instance_geometry>
      </node>
    </visual_scene>
  </library_visual_scenes>
  <scene>
    <instance_visual_scene url="#VisualSceneNode"/>
  </scene>
</COLLADA>
