xof 0303txt 0032

// DirectX 8.0 file
// Creator: Ultimate Unwrap3D Pro v3.27
// Website: http://www.unwrap3d.com
// Time: Fri Jun 01 18:50:49 2012

// Start of Templates

template VertexDuplicationIndices {
 <b8d65549-d7c9-4995-89cf-53a9a8b031e3>
 DWORD nIndices;
 DWORD nOriginalVertices;
 array DWORD indices[nIndices];
}

template FVFData {
 <b6e70a0e-8ef9-4e83-94ad-ecc8b0c04897>
 DWORD dwFVF;
 DWORD nDWords;
 array DWORD data[nDWords];
}

template XSkinMeshHeader {
 <3CF169CE-FF7C-44ab-93C0-F78F62D172E2>
 WORD nMaxSkinWeightsPerVertex;
 WORD nMaxSkinWeightsPerFace;
 WORD nBones;
}

template SkinWeights {
 <6F0D123B-BAD2-4167-A0D0-80224F25FABB>
 STRING transformNodeName;
 DWORD nWeights;
 array DWORD vertexIndices[nWeights];
 array FLOAT weights[nWeights];
 Matrix4x4 matrixOffset;
}

template AnimTicksPerSecond {
 <9E415A43-7BA6-4a73-8743-B73D47E88476>
 DWORD AnimTicksPerSecond;
}

// Start of Frames

Frame trafficpolemultiple {
   FrameTransformMatrix {
    1.000000, 0.000000, 0.000000, 0.000000,
    0.000000, 1.000000, 0.000000, 0.000000,
    0.000000, 0.000000, 1.000000, 0.000000,
    0.000000, 0.000000, 0.000000, 1.000000;;
   }

   Mesh trafficpolemultiple {
    181;
    3.122500; 3.286000; -0.041500;,
    3.122500; 3.286000; 0.040500;,
    3.130500; 0.605000; 0.043500;,
    3.130500; 0.605000; -0.044500;,
    3.065500; 3.286000; -0.098500;,
    3.122500; 3.286000; -0.041500;,
    3.130500; 0.605000; -0.044500;,
    3.068500; 0.605000; -0.106500;,
    2.983500; 3.286000; -0.098500;,
    2.980500; 0.605000; -0.106500;,
    2.926500; 3.286000; -0.041500;,
    2.918500; 0.605000; -0.044500;,
    2.926500; 3.286000; 0.040500;,
    2.918500; 0.605000; 0.043500;,
    2.983500; 3.286000; 0.097500;,
    2.980500; 0.605000; 0.105500;,
    3.065500; 3.286000; 0.097500;,
    3.068500; 0.605000; 0.105500;,
    3.114500; 6.064000; -0.037500;,
    3.114500; 6.064000; 0.036500;,
    3.122500; 3.286000; 0.040500;,
    3.122500; 3.286000; -0.041500;,
    3.061500; 6.064000; -0.090500;,
    3.114500; 6.064000; -0.037500;,
    3.122500; 3.286000; -0.041500;,
    3.065500; 3.286000; -0.098500;,
    2.987500; 6.064000; -0.090500;,
    2.983500; 3.286000; -0.098500;,
    2.934500; 6.064000; -0.037500;,
    2.926500; 3.286000; -0.041500;,
    2.934500; 6.064000; 0.036500;,
    2.926500; 3.286000; 0.040500;,
    2.987500; 6.064000; 0.089500;,
    2.983500; 3.286000; 0.097500;,
    3.061500; 6.064000; 0.089500;,
    3.065500; 3.286000; 0.097500;,
    2.766500; 0.000000; -0.240500;,
    3.282500; 0.000000; 0.239500;,
    2.784500; 0.000000; 0.258500;,
    2.765500; 0.000000; 0.239500;,
    3.264500; 0.000000; -0.258500;,
    2.784500; 0.000000; -0.258500;,
    2.987500; 6.064000; -0.090500;,
    3.061500; 6.064000; 0.089500;,
    3.114500; 6.064000; -0.037500;,
    3.061500; 6.064000; -0.090500;,
    2.934500; 6.064000; 0.036500;,
    2.934500; 6.064000; -0.037500;,
    3.193500; 0.605000; 0.151500;,
    3.193500; 0.605000; -0.152500;,
    3.130500; 0.605000; -0.044500;,
    3.130500; 0.605000; 0.043500;,
    3.176500; 0.605000; 0.168500;,
    3.068500; 0.605000; 0.105500;,
    2.872500; 0.605000; 0.168500;,
    2.980500; 0.605000; 0.105500;,
    2.855500; 0.605000; 0.151500;,
    2.918500; 0.605000; 0.043500;,
    2.855500; 0.605000; -0.152500;,
    2.918500; 0.605000; -0.044500;,
    2.872500; 0.605000; -0.169500;,
    2.980500; 0.605000; -0.106500;,
    3.176500; 0.605000; -0.169500;,
    3.068500; 0.605000; -0.106500;,
    3.203500; 0.591000; 0.160500;,
    3.203500; 0.591000; -0.161500;,
    3.193500; 0.605000; -0.152500;,
    3.193500; 0.605000; 0.151500;,
    3.185500; 0.591000; 0.178500;,
    3.176500; 0.605000; 0.168500;,
    2.863500; 0.591000; 0.178500;,
    2.872500; 0.605000; 0.168500;,
    2.845500; 0.591000; 0.160500;,
    2.855500; 0.605000; 0.151500;,
    2.845500; 0.591000; -0.161500;,
    2.855500; 0.605000; -0.152500;,
    2.863500; 0.591000; -0.179500;,
    2.872500; 0.605000; -0.169500;,
    3.185500; 0.591000; -0.179500;,
    3.176500; 0.605000; -0.169500;,
    3.203500; 0.591000; -0.161500;,
    3.193500; 0.605000; -0.152500;,
    3.282500; 0.000000; 0.239500;,
    3.282500; 0.000000; -0.240500;,
    3.264500; 0.000000; 0.257500;,
    2.784500; 0.000000; 0.258500;,
    2.765500; 0.000000; 0.239500;,
    2.766500; 0.000000; -0.240500;,
    2.784500; 0.000000; -0.258500;,
    3.264500; 0.000000; -0.258500;,
    3.282500; 0.000000; -0.240500;,
    -0.123500; 5.809000; -0.000500;,
    -0.123500; 5.792000; 0.041500;,
    2.916500; 5.795000; 0.044500;,
    2.910500; 5.814000; -0.000500;,
    -0.123500; 5.792000; -0.042500;,
    2.916500; 5.795000; -0.045500;,
    -0.123500; 5.750000; -0.059500;,
    2.929500; 5.750000; -0.064500;,
    -0.123500; 5.708000; -0.042500;,
    2.916500; 5.704000; -0.045500;,
    -0.123500; 5.690000; -0.000500;,
    2.910500; 5.685000; -0.000500;,
    -0.123500; 5.708000; 0.041500;,
    2.916500; 5.704000; 0.044500;,
    -0.123500; 5.750000; 0.058500;,
    2.929500; 5.750000; 0.063500;,
    -0.123500; 5.792000; 0.041500;,
    2.916500; 5.795000; 0.044500;,
    -3.282500; 5.804000; -0.000500;,
    -3.282500; 5.788000; 0.038500;,
    -0.123500; 5.792000; 0.041500;,
    -0.123500; 5.809000; -0.000500;,
    -3.282500; 5.788000; -0.039500;,
    -0.123500; 5.792000; -0.042500;,
    -3.282500; 5.750000; -0.055500;,
    -0.123500; 5.750000; -0.059500;,
    -3.282500; 5.711000; -0.039500;,
    -0.123500; 5.708000; -0.042500;,
    -3.282500; 5.695000; -0.000500;,
    -0.123500; 5.690000; -0.000500;,
    -3.282500; 5.711000; 0.038500;,
    -0.123500; 5.708000; 0.041500;,
    -3.282500; 5.750000; 0.054500;,
    -0.123500; 5.750000; 0.058500;,
    -3.282500; 5.788000; 0.038500;,
    -0.123500; 5.792000; 0.041500;,
    -3.282500; 5.750000; -0.055500;,
    -3.282500; 5.750000; 0.054500;,
    -3.282500; 5.804000; -0.000500;,
    -3.282500; 5.788000; -0.039500;,
    -3.282500; 5.695000; -0.000500;,
    -3.282500; 5.711000; -0.039500;,
    2.986500; 5.830000; -0.088500;,
    2.986500; 5.750000; -0.089500;,
    2.953500; 5.750000; -0.080500;,
    2.953500; 5.830000; -0.080500;,
    2.986500; 5.669000; -0.088500;,
    2.953500; 5.669000; -0.080500;,
    2.986500; 5.669000; 0.087500;,
    2.986500; 5.750000; 0.088500;,
    2.953500; 5.750000; 0.079500;,
    2.953500; 5.669000; 0.079500;,
    2.986500; 5.830000; 0.087500;,
    2.953500; 5.830000; 0.079500;,
    2.929500; 5.830000; 0.063500;,
    2.910500; 5.830000; -0.000500;,
    2.910500; 5.814000; -0.000500;,
    2.916500; 5.795000; 0.044500;,
    2.910500; 5.669000; -0.000500;,
    2.929500; 5.670000; 0.063500;,
    2.916500; 5.704000; 0.044500;,
    2.910500; 5.685000; -0.000500;,
    2.929500; 5.670000; -0.064500;,
    2.916500; 5.704000; -0.045500;,
    2.929500; 5.830000; -0.064500;,
    2.916500; 5.795000; -0.045500;,
    2.986500; 5.830000; -0.088500;,
    2.953500; 5.830000; -0.080500;,
    2.929500; 5.830000; -0.064500;,
    2.986500; 5.830000; -0.000500;,
    2.953500; 5.669000; -0.080500;,
    2.986500; 5.669000; -0.088500;,
    2.986500; 5.669000; -0.000500;,
    2.929500; 5.670000; -0.064500;,
    2.929500; 5.750000; -0.064500;,
    2.953500; 5.830000; 0.079500;,
    2.986500; 5.830000; 0.087500;,
    2.929500; 5.830000; 0.063500;,
    2.929500; 5.750000; 0.063500;,
    2.986500; 5.669000; 0.087500;,
    2.953500; 5.669000; 0.079500;,
    2.929500; 5.670000; 0.063500;,
    3.282500; 0.000000; -0.240500;,
    3.264500; 0.000000; 0.257500;,
    2.987500; 6.064000; 0.089500;,
    3.114500; 6.064000; 0.036500;,
    -3.282500; 5.711000; 0.038500;,
    -3.282500; 5.788000; 0.038500;,
    2.910500; 5.830000; -0.000500;,
    2.910500; 5.669000; -0.000500;;
    92;
    4;0, 1, 2, 3;,
    4;4, 5, 6, 7;,
    4;8, 4, 7, 9;,
    4;10, 8, 9, 11;,
    4;12, 10, 11, 13;,
    4;14, 12, 13, 15;,
    4;16, 14, 15, 17;,
    4;1, 16, 17, 2;,
    4;18, 19, 20, 21;,
    4;22, 23, 24, 25;,
    4;26, 22, 25, 27;,
    4;28, 26, 27, 29;,
    4;30, 28, 29, 31;,
    4;32, 30, 31, 33;,
    4;34, 32, 33, 35;,
    4;19, 34, 35, 20;,
    4;36, 37, 38, 39;,
    4;40, 37, 36, 41;,
    4;42, 43, 44, 45;,
    4;46, 43, 42, 47;,
    4;48, 49, 50, 51;,
    4;52, 48, 51, 53;,
    4;54, 52, 53, 55;,
    4;56, 54, 55, 57;,
    4;58, 56, 57, 59;,
    4;60, 58, 59, 61;,
    4;62, 60, 61, 63;,
    4;49, 62, 63, 50;,
    4;64, 65, 66, 67;,
    4;68, 64, 67, 69;,
    4;70, 68, 69, 71;,
    4;72, 70, 71, 73;,
    4;74, 72, 73, 75;,
    4;76, 74, 75, 77;,
    4;78, 76, 77, 79;,
    4;80, 78, 79, 81;,
    4;82, 83, 65, 64;,
    4;84, 82, 64, 68;,
    4;85, 84, 68, 70;,
    4;86, 85, 70, 72;,
    4;87, 86, 72, 74;,
    4;88, 87, 74, 76;,
    4;89, 88, 76, 78;,
    4;90, 89, 78, 80;,
    4;91, 92, 93, 94;,
    4;95, 91, 94, 96;,
    4;97, 95, 96, 98;,
    4;99, 97, 98, 100;,
    4;101, 99, 100, 102;,
    4;103, 101, 102, 104;,
    4;105, 103, 104, 106;,
    4;107, 105, 106, 108;,
    4;109, 110, 111, 112;,
    4;113, 109, 112, 114;,
    4;115, 113, 114, 116;,
    4;117, 115, 116, 118;,
    4;119, 117, 118, 120;,
    4;121, 119, 120, 122;,
    4;123, 121, 122, 124;,
    4;125, 123, 124, 126;,
    4;127, 128, 129, 130;,
    4;131, 128, 127, 132;,
    4;133, 134, 135, 136;,
    4;134, 137, 138, 135;,
    4;139, 140, 141, 142;,
    4;140, 143, 144, 141;,
    4;145, 146, 147, 148;,
    4;149, 150, 151, 152;,
    4;153, 149, 152, 154;,
    4;146, 155, 156, 147;,
    4;157, 158, 159, 160;,
    4;161, 162, 163, 164;,
    4;135, 138, 153, 165;,
    4;136, 135, 165, 155;,
    4;166, 167, 160, 168;,
    4;141, 144, 145, 169;,
    4;142, 141, 169, 150;,
    4;170, 171, 172, 163;,
    3;40, 173, 37;,
    3;174, 38, 37;,
    3;46, 175, 43;,
    3;176, 44, 43;,
    3;131, 177, 128;,
    3;178, 129, 128;,
    3;179, 168, 160;,
    3;159, 179, 160;,
    3;180, 164, 163;,
    3;172, 180, 163;,
    3;148, 169, 145;,
    3;169, 151, 150;,
    3;154, 165, 153;,
    3;165, 156, 155;;

   MeshNormals {
    181;
    0.999996; 0.002984; 0.000000;,
    0.923874; 0.003185; 0.382682;,
    0.923874; 0.003185; 0.382682;,
    0.999996; 0.002984; 0.000000;,
    0.382681; 0.003185; -0.923875;,
    0.707103; 0.002901; -0.707105;,
    0.707103; 0.002901; -0.707105;,
    0.382681; 0.003185; -0.923875;,
    -0.382681; 0.003185; -0.923875;,
    -0.382681; 0.003185; -0.923875;,
    -0.923874; 0.003185; -0.382682;,
    -0.923874; 0.003185; -0.382682;,
    -0.923874; 0.003185; 0.382682;,
    -0.923874; 0.003185; 0.382682;,
    -0.382681; 0.003185; 0.923875;,
    -0.382681; 0.003185; 0.923875;,
    0.382681; 0.003185; 0.923875;,
    0.382681; 0.003185; 0.923875;,
    0.999996; 0.002880; 0.000000;,
    0.923875; 0.003212; 0.382681;,
    0.923875; 0.003212; 0.382681;,
    0.999996; 0.002880; 0.000000;,
    0.382681; 0.003212; -0.923875;,
    0.707104; 0.003054; -0.707103;,
    0.707104; 0.003054; -0.707103;,
    0.382681; 0.003212; -0.923875;,
    -0.382681; 0.003212; -0.923875;,
    -0.382681; 0.003212; -0.923875;,
    -0.923875; 0.003212; -0.382681;,
    -0.923875; 0.003212; -0.382681;,
    -0.923875; 0.003212; 0.382681;,
    -0.923875; 0.003212; 0.382681;,
    -0.382681; 0.003212; 0.923875;,
    -0.382681; 0.003212; 0.923875;,
    0.382681; 0.003212; 0.923875;,
    0.382681; 0.003212; 0.923875;,
    0.000000; -1.000000; 0.000000;,
    0.000000; -1.000000; 0.000000;,
    0.000000; -1.000000; 0.000000;,
    0.000000; -1.000000; 0.000000;,
    0.000000; -1.000000; 0.000000;,
    0.000000; -1.000000; 0.000000;,
    0.000000; 1.000000; 0.000000;,
    0.000000; 1.000000; 0.000000;,
    0.000000; 1.000000; 0.000000;,
    0.000000; 1.000000; 0.000000;,
    0.000000; 1.000000; 0.000000;,
    0.000000; 1.000000; 0.000000;,
    0.000000; 1.000000; 0.000000;,
    0.000000; 1.000000; 0.000000;,
    0.000000; 1.000000; 0.000000;,
    0.000000; 1.000000; 0.000000;,
    0.000000; 1.000000; 0.000000;,
    0.000000; 1.000000; 0.000000;,
    0.000000; 1.000000; 0.000000;,
    0.000000; 1.000000; 0.000000;,
    0.000000; 1.000000; 0.000000;,
    0.000000; 1.000000; 0.000000;,
    0.000000; 1.000000; 0.000000;,
    0.000000; 1.000000; 0.000000;,
    0.000000; 1.000000; 0.000000;,
    0.000000; 1.000000; 0.000000;,
    0.000000; 1.000000; 0.000000;,
    0.000000; 1.000000; 0.000000;,
    0.833339; 0.440733; 0.333618;,
    0.929934; 0.367727; 0.000000;,
    0.813737; 0.581233; 0.000000;,
    0.694385; 0.668002; 0.267588;,
    0.334087; 0.440975; 0.833023;,
    0.267590; 0.668003; 0.694383;,
    -0.332998; 0.441417; 0.833224;,
    -0.267590; 0.668002; 0.694384;,
    -0.833350; 0.441156; 0.333031;,
    -0.694385; 0.668001; 0.267588;,
    -0.833149; 0.440713; -0.334118;,
    -0.694385; 0.668002; -0.267588;,
    -0.333621; 0.440733; -0.833338;,
    -0.267590; 0.668003; -0.694383;,
    0.333621; 0.440733; -0.833338;,
    0.267590; 0.668002; -0.694384;,
    0.628562; 0.458066; -0.628558;,
    0.510193; 0.692394; -0.510190;,
    0.910802; 0.171921; 0.375343;,
    0.991184; 0.132493; 0.000000;,
    0.376290; 0.172586; 0.910285;,
    -0.374289; 0.173344; 0.910966;,
    -0.911073; 0.172752; 0.374302;,
    -0.910394; 0.171995; -0.376299;,
    -0.375346; 0.171922; -0.910801;,
    0.375346; 0.171922; -0.910801;,
    0.694803; 0.185751; -0.694799;,
    -0.001517; 0.999999; -0.000000;,
    -0.001528; 0.926944; 0.375196;,
    -0.001528; 0.926944; 0.375196;,
    -0.001517; 0.999999; -0.000000;,
    -0.001522; 0.707105; -0.707107;,
    -0.001522; 0.707105; -0.707107;,
    -0.001579; 0.000002; -0.999999;,
    -0.001579; 0.000002; -0.999999;,
    -0.001581; -0.699899; -0.714240;,
    -0.001581; -0.699899; -0.714240;,
    -0.001693; -0.999999; -0.000000;,
    -0.001693; -0.999999; -0.000000;,
    -0.001685; -0.699899; 0.714240;,
    -0.001685; -0.699899; 0.714240;,
    -0.001512; 0.000002; 0.999999;,
    -0.001512; 0.000002; 0.999999;,
    -0.001285; 0.375194; 0.926946;,
    -0.001285; 0.375194; 0.926946;,
    -0.001619; 0.999999; 0.000000;,
    -0.001464; 0.925169; 0.379552;,
    -0.001464; 0.925169; 0.379552;,
    -0.001619; 0.999999; 0.000000;,
    -0.001460; 0.710354; -0.703843;,
    -0.001460; 0.710354; -0.703843;,
    -0.001303; 0.004603; -0.999989;,
    -0.001303; 0.004603; -0.999989;,
    -0.001465; -0.707104; -0.707108;,
    -0.001465; -0.707104; -0.707108;,
    -0.001461; -0.999999; 0.000000;,
    -0.001461; -0.999999; 0.000000;,
    -0.001306; -0.707104; 0.707108;,
    -0.001306; -0.707104; 0.707108;,
    -0.001374; 0.004602; 0.999988;,
    -0.001374; 0.004602; 0.999988;,
    -0.001367; 0.388056; 0.921635;,
    -0.001367; 0.388056; 0.921635;,
    -1.000000; 0.000000; 0.000000;,
    -1.000000; 0.000000; 0.000000;,
    -1.000000; 0.000000; 0.000000;,
    -1.000000; 0.000000; 0.000000;,
    -1.000000; 0.000000; 0.000000;,
    -1.000000; 0.000000; 0.000000;,
    -0.235583; 0.012147; -0.971778;,
    -0.249384; 0.000119; -0.968405;,
    -0.407796; 0.000060; -0.913073;,
    -0.401284; 0.006168; -0.915933;,
    -0.263099; -0.011910; -0.964695;,
    -0.414256; -0.006033; -0.910140;,
    -0.235583; -0.011997; 0.971780;,
    -0.249384; 0.000031; 0.968405;,
    -0.407796; 0.000016; 0.913073;,
    -0.401284; -0.006092; 0.915933;,
    -0.263098; 0.012059; 0.964694;,
    -0.414256; 0.006108; 0.910140;,
    -0.808697; 0.068886; 0.584179;,
    -0.994622; 0.103528; -0.002940;,
    -0.994622; 0.103528; -0.002940;,
    -0.897663; 0.100494; 0.429071;,
    -0.994414; -0.105537; 0.001539;,
    -0.811945; 0.000000; 0.583733;,
    -0.902903; 0.000000; 0.429843;,
    -0.994414; -0.105537; 0.001539;,
    -0.807992; -0.070166; -0.585001;,
    -0.896809; -0.102375; -0.430409;,
    -0.811945; 0.000000; -0.583733;,
    -0.902903; 0.000000; -0.429843;,
    0.000000; 1.000000; 0.000000;,
    0.000000; 1.000000; 0.000000;,
    0.000000; 1.000000; 0.000000;,
    0.000000; 1.000000; 0.000000;,
    0.023698; -0.994928; 0.097756;,
    0.023698; -0.994928; 0.097756;,
    0.005931; -0.999683; 0.024464;,
    0.011869; -0.999083; 0.041132;,
    -0.702835; 0.000000; -0.711353;,
    0.000000; 1.000000; 0.000000;,
    0.000000; 1.000000; 0.000000;,
    0.000000; 1.000000; 0.000000;,
    -0.702835; 0.000000; 0.711353;,
    0.000000; -1.000000; 0.000000;,
    0.000000; -1.000000; 0.000000;,
    0.000000; -0.999969; 0.007815;,
    0.000000; -1.000000; 0.000000;,
    0.000000; -1.000000; 0.000000;,
    0.000000; 1.000000; 0.000000;,
    0.000000; 1.000000; 0.000000;,
    -1.000000; 0.000000; 0.000000;,
    -1.000000; 0.000000; 0.000000;,
    0.000000; 1.000000; 0.000000;,
    0.000000; -1.000000; 0.000000;;
    92;
    4;0, 1, 2, 3;,
    4;4, 5, 6, 7;,
    4;8, 4, 7, 9;,
    4;10, 8, 9, 11;,
    4;12, 10, 11, 13;,
    4;14, 12, 13, 15;,
    4;16, 14, 15, 17;,
    4;1, 16, 17, 2;,
    4;18, 19, 20, 21;,
    4;22, 23, 24, 25;,
    4;26, 22, 25, 27;,
    4;28, 26, 27, 29;,
    4;30, 28, 29, 31;,
    4;32, 30, 31, 33;,
    4;34, 32, 33, 35;,
    4;19, 34, 35, 20;,
    4;36, 37, 38, 39;,
    4;40, 37, 36, 41;,
    4;42, 43, 44, 45;,
    4;46, 43, 42, 47;,
    4;48, 49, 50, 51;,
    4;52, 48, 51, 53;,
    4;54, 52, 53, 55;,
    4;56, 54, 55, 57;,
    4;58, 56, 57, 59;,
    4;60, 58, 59, 61;,
    4;62, 60, 61, 63;,
    4;49, 62, 63, 50;,
    4;64, 65, 66, 67;,
    4;68, 64, 67, 69;,
    4;70, 68, 69, 71;,
    4;72, 70, 71, 73;,
    4;74, 72, 73, 75;,
    4;76, 74, 75, 77;,
    4;78, 76, 77, 79;,
    4;80, 78, 79, 81;,
    4;82, 83, 65, 64;,
    4;84, 82, 64, 68;,
    4;85, 84, 68, 70;,
    4;86, 85, 70, 72;,
    4;87, 86, 72, 74;,
    4;88, 87, 74, 76;,
    4;89, 88, 76, 78;,
    4;90, 89, 78, 80;,
    4;91, 92, 93, 94;,
    4;95, 91, 94, 96;,
    4;97, 95, 96, 98;,
    4;99, 97, 98, 100;,
    4;101, 99, 100, 102;,
    4;103, 101, 102, 104;,
    4;105, 103, 104, 106;,
    4;107, 105, 106, 108;,
    4;109, 110, 111, 112;,
    4;113, 109, 112, 114;,
    4;115, 113, 114, 116;,
    4;117, 115, 116, 118;,
    4;119, 117, 118, 120;,
    4;121, 119, 120, 122;,
    4;123, 121, 122, 124;,
    4;125, 123, 124, 126;,
    4;127, 128, 129, 130;,
    4;131, 128, 127, 132;,
    4;133, 134, 135, 136;,
    4;134, 137, 138, 135;,
    4;139, 140, 141, 142;,
    4;140, 143, 144, 141;,
    4;145, 146, 147, 148;,
    4;149, 150, 151, 152;,
    4;153, 149, 152, 154;,
    4;146, 155, 156, 147;,
    4;157, 158, 159, 160;,
    4;161, 162, 163, 164;,
    4;135, 138, 153, 165;,
    4;136, 135, 165, 155;,
    4;166, 167, 160, 168;,
    4;141, 144, 145, 169;,
    4;142, 141, 169, 150;,
    4;170, 171, 172, 163;,
    3;40, 173, 37;,
    3;174, 38, 37;,
    3;46, 175, 43;,
    3;176, 44, 43;,
    3;131, 177, 128;,
    3;178, 129, 128;,
    3;179, 168, 160;,
    3;159, 179, 160;,
    3;180, 164, 163;,
    3;172, 180, 163;,
    3;148, 169, 145;,
    3;169, 151, 150;,
    3;154, 165, 153;,
    3;165, 156, 155;;
   }

   MeshTextureCoords {
    181;
    0.489000; 0.000000;,
    0.459000; 0.000000;,
    0.459000; 0.961000;,
    0.489000; 0.961000;,
    0.277000; 0.000000;,
    0.247000; 0.000000;,
    0.247000; 0.961000;,
    0.277000; 0.961000;,
    0.308000; 0.000000;,
    0.308000; 0.961000;,
    0.338000; 0.000000;,
    0.338000; 0.961000;,
    0.368000; 0.000000;,
    0.368000; 0.961000;,
    0.398000; 0.000000;,
    0.398000; 0.961000;,
    0.428000; 0.000000;,
    0.428000; 0.961000;,
    0.245000; 0.000000;,
    0.215000; 0.000000;,
    0.215000; 0.997000;,
    0.245000; 0.997000;,
    0.034000; 0.000000;,
    0.004000; 0.000000;,
    0.004000; 0.997000;,
    0.034000; 0.997000;,
    0.064000; 0.000000;,
    0.064000; 0.997000;,
    0.094000; 0.000000;,
    0.094000; 0.997000;,
    0.124000; 0.000000;,
    0.124000; 0.997000;,
    0.155000; 0.000000;,
    0.155000; 0.997000;,
    0.185000; 0.000000;,
    0.185000; 0.997000;,
    0.872000; 0.268000;,
    0.940000; 0.334000;,
    0.874000; 0.336000;,
    0.872000; 0.334000;,
    0.937000; 0.266000;,
    0.874000; 0.266000;,
    0.835000; 0.194000;,
    0.882000; 0.147000;,
    0.835000; 0.147000;,
    0.825000; 0.170000;,
    0.882000; 0.194000;,
    0.858000; 0.204000;,
    0.986000; 0.211000;,
    0.825000; 0.211000;,
    0.882000; 0.244000;,
    0.929000; 0.244000;,
    0.995000; 0.220000;,
    0.962000; 0.277000;,
    0.995000; 0.381000;,
    0.962000; 0.324000;,
    0.986000; 0.390000;,
    0.929000; 0.356000;,
    0.825000; 0.390000;,
    0.882000; 0.356000;,
    0.816000; 0.381000;,
    0.850000; 0.324000;,
    0.816000; 0.220000;,
    0.850000; 0.277000;,
    0.812000; 0.535000;,
    0.812000; 0.394000;,
    0.808000; 0.394000;,
    0.808000; 0.535000;,
    0.812000; 0.545000;,
    0.808000; 0.545000;,
    0.812000; 0.686000;,
    0.808000; 0.686000;,
    0.812000; 0.696000;,
    0.808000; 0.696000;,
    0.812000; 0.837000;,
    0.808000; 0.837000;,
    0.812000; 0.848000;,
    0.808000; 0.848000;,
    0.812000; 0.989000;,
    0.808000; 0.989000;,
    0.812000; 0.999000;,
    0.808000; 0.999000;,
    0.999000; 0.535000;,
    0.999000; 0.392000;,
    0.999000; 0.545000;,
    0.999000; 0.686000;,
    0.999000; 0.696000;,
    0.999000; 0.837000;,
    0.999000; 0.848000;,
    0.999000; 0.989000;,
    0.999000; 0.999000;,
    0.767000; 0.000000;,
    0.784000; 0.000000;,
    0.784000; 0.961000;,
    0.767000; 0.959000;,
    0.749000; 0.000000;,
    0.749000; 0.961000;,
    0.731000; 0.000000;,
    0.731000; 0.965000;,
    0.713000; 0.000000;,
    0.713000; 0.961000;,
    0.695000; 0.000000;,
    0.695000; 0.959000;,
    0.677000; 0.000000;,
    0.677000; 0.961000;,
    0.660000; 0.000000;,
    0.660000; 0.965000;,
    0.642000; 0.000000;,
    0.642000; 0.961000;,
    0.622000; 0.000000;,
    0.640000; 0.000000;,
    0.640000; 0.997000;,
    0.622000; 0.997000;,
    0.604000; 0.000000;,
    0.604000; 0.997000;,
    0.586000; 0.000000;,
    0.586000; 0.997000;,
    0.568000; 0.000000;,
    0.568000; 0.997000;,
    0.550000; 0.000000;,
    0.550000; 0.997000;,
    0.533000; 0.000000;,
    0.533000; 0.997000;,
    0.515000; 0.000000;,
    0.515000; 0.997000;,
    0.497000; 0.000000;,
    0.497000; 0.997000;,
    0.906000; 0.103000;,
    0.946000; 0.064000;,
    0.906000; 0.064000;,
    0.898000; 0.083000;,
    0.946000; 0.103000;,
    0.926000; 0.111000;,
    0.858000; 0.038000;,
    0.858000; 0.085000;,
    0.874000; 0.085000;,
    0.874000; 0.038000;,
    0.858000; 0.132000;,
    0.874000; 0.132000;,
    0.996000; 0.132000;,
    0.996000; 0.085000;,
    0.980000; 0.085000;,
    0.980000; 0.132000;,
    0.996000; 0.038000;,
    0.980000; 0.038000;,
    0.965000; 0.038000;,
    0.927000; 0.038000;,
    0.927000; 0.047000;,
    0.954000; 0.058000;,
    0.927000; 0.133000;,
    0.965000; 0.132000;,
    0.954000; 0.112000;,
    0.927000; 0.123000;,
    0.889000; 0.132000;,
    0.900000; 0.112000;,
    0.889000; 0.038000;,
    0.900000; 0.058000;,
    0.964000; 0.037000;,
    0.961000; 0.023000;,
    0.954000; 0.012000;,
    0.927000; 0.037000;,
    0.893000; 0.148000;,
    0.889000; 0.133000;,
    0.927000; 0.133000;,
    0.900000; 0.158000;,
    0.889000; 0.085000;,
    0.893000; 0.023000;,
    0.889000; 0.037000;,
    0.900000; 0.012000;,
    0.965000; 0.085000;,
    0.964000; 0.133000;,
    0.961000; 0.148000;,
    0.954000; 0.158000;,
    0.940000; 0.268000;,
    0.937000; 0.336000;,
    0.892000; 0.170000;,
    0.858000; 0.137000;,
    0.954000; 0.083000;,
    0.926000; 0.055000;,
    0.927000; 0.004000;,
    0.927000; 0.166000;;
   }

   FVFData {
    258;
    362;
    0,
    1065353216,
    0,
    1065353216,
    0,
    1065353216,
    0,
    1065353216,
    0,
    1065353216,
    0,
    1065353216,
    0,
    1065353216,
    0,
    1065353216,
    0,
    1065353216,
    0,
    1065353216,
    0,
    1065353216,
    0,
    1065353216,
    0,
    1065353216,
    0,
    1065353216,
    0,
    1065353216,
    0,
    1065353216,
    0,
    1065353216,
    0,
    1065353216,
    0,
    1065353216,
    0,
    1065353216,
    0,
    1065353216,
    0,
    1065353216,
    0,
    1065353216,
    0,
    1065353216,
    0,
    1065353216,
    0,
    1065353216,
    0,
    1065353216,
    0,
    1065353216,
    0,
    1065353216,
    0,
    1065353216,
    0,
    1065353216,
    0,
    1065353216,
    0,
    1065353216,
    0,
    1065353216,
    0,
    1065353216,
    0,
    1065353216,
    0,
    1065353216,
    0,
    1065353216,
    0,
    1065353216,
    0,
    1065353216,
    0,
    1065353216,
    0,
    1065353216,
    0,
    1065353216,
    0,
    1065353216,
    0,
    1065353216,
    0,
    1065353216,
    0,
    1065353216,
    0,
    1065353216,
    0,
    1065353216,
    0,
    1065353216,
    0,
    1065353216,
    0,
    1065353216,
    0,
    1065353216,
    0,
    1065353216,
    0,
    1065353216,
    0,
    1065353216,
    0,
    1065353216,
    0,
    1065353216,
    0,
    1065353216,
    0,
    1065353216,
    0,
    1065353216,
    0,
    1065353216,
    0,
    1065353216,
    0,
    1065353216,
    0,
    1065353216,
    0,
    1065353216,
    0,
    1065353216,
    0,
    1065353216,
    0,
    1065353216,
    0,
    1065353216,
    0,
    1065353216,
    0,
    1065353216,
    0,
    1065353216,
    0,
    1065353216,
    0,
    1065353216,
    0,
    1065353216,
    0,
    1065353216,
    0,
    1065353216,
    0,
    1065353216,
    0,
    1065353216,
    0,
    1065353216,
    0,
    1065353216,
    0,
    1065353216,
    0,
    1065353216,
    0,
    1065353216,
    0,
    1065353216,
    0,
    1065353216,
    0,
    1065353216,
    0,
    1065353216,
    0,
    1065353216,
    0,
    1065353216,
    0,
    1065353216,
    0,
    1065353216,
    0,
    1065353216,
    0,
    1065353216,
    0,
    1065353216,
    0,
    1065353216,
    0,
    1065353216,
    0,
    1065353216,
    0,
    1065353216,
    0,
    1065353216,
    0,
    1065353216,
    0,
    1065353216,
    0,
    1065353216,
    0,
    1065353216,
    0,
    1065353216,
    0,
    1065353216,
    0,
    1065353216,
    0,
    1065353216,
    0,
    1065353216,
    0,
    1065353216,
    0,
    1065353216,
    0,
    1065353216,
    0,
    1065353216,
    0,
    1065353216,
    0,
    1065353216,
    0,
    1065353216,
    0,
    1065353216,
    0,
    1065353216,
    0,
    1065353216,
    0,
    1065353216,
    0,
    1065353216,
    0,
    1065353216,
    0,
    1065353216,
    0,
    1065353216,
    0,
    1065353216,
    0,
    1065353216,
    0,
    1065353216,
    0,
    1065353216,
    0,
    1065353216,
    0,
    1065353216,
    0,
    1065353216,
    0,
    1065353216,
    0,
    1065353216,
    0,
    1065353216,
    0,
    1065353216,
    0,
    1065353216,
    0,
    1065353216,
    0,
    1065353216,
    0,
    1065353216,
    0,
    1065353216,
    0,
    1065353216,
    0,
    1065353216,
    0,
    1065353216,
    0,
    1065353216,
    0,
    1065353216,
    0,
    1065353216,
    0,
    1065353216,
    0,
    1065353216,
    0,
    1065353216,
    0,
    1065353216,
    0,
    1065353216,
    0,
    1065353216,
    0,
    1065353216,
    0,
    1065353216,
    0,
    1065353216,
    0,
    1065353216,
    0,
    1065353216,
    0,
    1065353216,
    0,
    1065353216,
    0,
    1065353216,
    0,
    1065353216,
    0,
    1065353216,
    0,
    1065353216,
    0,
    1065353216,
    0,
    1065353216,
    0,
    1065353216,
    0,
    1065353216,
    0,
    1065353216,
    0,
    1065353216,
    0,
    1065353216,
    0,
    1065353216,
    0,
    1065353216,
    0,
    1065353216,
    0,
    1065353216,
    0,
    1065353216,
    0,
    1065353216,
    0,
    1065353216,
    0,
    1065353216,
    0,
    1065353216,
    0,
    1065353216;
   }

   MeshMaterialList {
    1;
    92;
    0,
    0,
    0,
    0,
    0,
    0,
    0,
    0,
    0,
    0,
    0,
    0,
    0,
    0,
    0,
    0,
    0,
    0,
    0,
    0,
    0,
    0,
    0,
    0,
    0,
    0,
    0,
    0,
    0,
    0,
    0,
    0,
    0,
    0,
    0,
    0,
    0,
    0,
    0,
    0,
    0,
    0,
    0,
    0,
    0,
    0,
    0,
    0,
    0,
    0,
    0,
    0,
    0,
    0,
    0,
    0,
    0,
    0,
    0,
    0,
    0,
    0,
    0,
    0,
    0,
    0,
    0,
    0,
    0,
    0,
    0,
    0,
    0,
    0,
    0,
    0,
    0,
    0,
    0,
    0,
    0,
    0,
    0,
    0,
    0,
    0,
    0,
    0,
    0,
    0,
    0,
    0;

    Material trafficpole {
     0.588000; 0.588000; 0.588000; 1.000000;;
     128.000000;
     0.000000; 0.000000; 0.000000;;
     0.000000; 0.000000; 0.000000;;

     TextureFilename {
      "D:\\new packs\\test\\trafficpole_diffuse.tga";
     }
    }

   }
  }
}
