xof 0303txt 0032

// DirectX 8.0 file
// Creator: Ultimate Unwrap3D Pro v3.27
// Website: http://www.unwrap3d.com
// Time: Fri Jun 01 18:51:09 2012

// Start of Templates

template VertexDuplicationIndices {
 <b8d65549-d7c9-4995-89cf-53a9a8b031e3>
 DWORD nIndices;
 DWORD nOriginalVertices;
 array DWORD indices[nIndices];
}

template FVFData {
 <b6e70a0e-8ef9-4e83-94ad-ecc8b0c04897>
 DWORD dwFVF;
 DWORD nDWords;
 array DWORD data[nDWords];
}

template XSkinMeshHeader {
 <3CF169CE-FF7C-44ab-93C0-F78F62D172E2>
 WORD nMaxSkinWeightsPerVertex;
 WORD nMaxSkinWeightsPerFace;
 WORD nBones;
}

template SkinWeights {
 <6F0D123B-BAD2-4167-A0D0-80224F25FABB>
 STRING transformNodeName;
 DWORD nWeights;
 array DWORD vertexIndices[nWeights];
 array FLOAT weights[nWeights];
 Matrix4x4 matrixOffset;
}

template AnimTicksPerSecond {
 <9E415A43-7BA6-4a73-8743-B73D47E88476>
 DWORD AnimTicksPerSecond;
}

// Start of Frames

Frame Default_Layer {
   FrameTransformMatrix {
    1.000000, 0.000000, 0.000000, 0.000000,
    0.000000, 1.000000, 0.000000, 0.000000,
    0.000000, 0.000000, 1.000000, 0.000000,
    0.000000, 0.000000, 0.000000, 1.000000;;
   }

   Mesh Default_Layer {
    122;
    0.610000; 1.552000; 0.000000;,
    0.554000; 0.000000; -0.000000;,
    0.480000; 0.000000; -0.278000;,
    0.528000; 1.552000; -0.306000;,
    0.528000; 1.552000; -0.306000;,
    0.480000; 0.000000; -0.278000;,
    0.278000; 0.000000; -0.480000;,
    0.306000; 1.552000; -0.528000;,
    0.000000; 0.000000; -0.554000;,
    0.000000; 1.552000; -0.610000;,
    -0.278000; 0.000000; -0.480000;,
    -0.306000; 1.552000; -0.528000;,
    -0.480000; 0.000000; -0.278000;,
    -0.528000; 1.552000; -0.306000;,
    -0.554000; 0.000000; -0.000000;,
    -0.610000; 1.552000; 0.000000;,
    -0.480000; 0.000000; 0.278000;,
    -0.528000; 1.552000; 0.306000;,
    -0.528000; 1.552000; 0.306000;,
    -0.480000; 0.000000; 0.278000;,
    -0.278000; 0.000000; 0.480000;,
    -0.306000; 1.552000; 0.528000;,
    0.000000; 0.000000; 0.554000;,
    0.000000; 1.552000; 0.610000;,
    0.278000; 0.000000; 0.480000;,
    0.306000; 1.552000; 0.528000;,
    0.480000; 0.000000; 0.278000;,
    0.528000; 1.552000; 0.306000;,
    0.554000; 0.000000; -0.000000;,
    -0.278000; 0.000000; -0.480000;,
    0.278000; 0.000000; -0.480000;,
    0.480000; 0.000000; -0.278000;,
    0.278000; 0.000000; 0.480000;,
    -0.278000; 0.000000; 0.480000;,
    0.480000; 0.000000; 0.278000;,
    -0.554000; 0.000000; -0.000000;,
    -0.480000; 0.000000; 0.278000;,
    0.516000; 1.730000; -0.298000;,
    0.464000; 0.020000; -0.268000;,
    0.534000; 0.020000; -0.000000;,
    0.596000; 1.730000; 0.000000;,
    0.298000; 1.730000; -0.516000;,
    0.268000; 0.020000; -0.464000;,
    0.464000; 0.020000; -0.268000;,
    0.516000; 1.730000; -0.298000;,
    0.000000; 1.730000; -0.596000;,
    0.000000; 0.020000; -0.534000;,
    -0.298000; 1.730000; -0.516000;,
    -0.268000; 0.018000; -0.464000;,
    -0.516000; 1.730000; -0.298000;,
    -0.464000; 0.020000; -0.268000;,
    -0.596000; 1.730000; 0.000000;,
    -0.534000; 0.020000; -0.000000;,
    -0.516000; 1.730000; 0.298000;,
    -0.464000; 0.018000; 0.268000;,
    -0.298000; 1.730000; 0.516000;,
    -0.268000; 0.020000; 0.464000;,
    -0.464000; 0.018000; 0.268000;,
    -0.516000; 1.730000; 0.298000;,
    0.000000; 1.730000; 0.596000;,
    0.000000; 0.020000; 0.534000;,
    0.298000; 1.730000; 0.516000;,
    0.268000; 0.020000; 0.464000;,
    0.516000; 1.730000; 0.298000;,
    0.464000; 0.020000; 0.268000;,
    0.268000; 0.020000; -0.464000;,
    -0.268000; 0.018000; -0.464000;,
    0.534000; 0.020000; -0.000000;,
    0.464000; 0.020000; -0.268000;,
    -0.534000; 0.020000; -0.000000;,
    -0.268000; 0.020000; 0.464000;,
    -0.464000; 0.020000; -0.268000;,
    0.268000; 0.020000; 0.464000;,
    0.622000; 1.730000; 0.000000;,
    0.538000; 1.730000; -0.310000;,
    0.516000; 1.730000; -0.298000;,
    0.596000; 1.730000; 0.000000;,
    0.538000; 1.730000; -0.310000;,
    0.310000; 1.730000; -0.538000;,
    0.298000; 1.730000; -0.516000;,
    0.516000; 1.730000; -0.298000;,
    0.000000; 1.730000; -0.622000;,
    0.000000; 1.730000; -0.596000;,
    -0.310000; 1.730000; -0.538000;,
    -0.298000; 1.730000; -0.516000;,
    -0.538000; 1.730000; -0.310000;,
    -0.516000; 1.730000; -0.298000;,
    -0.622000; 1.730000; 0.000000;,
    -0.596000; 1.730000; 0.000000;,
    -0.538000; 1.730000; 0.310000;,
    -0.516000; 1.730000; 0.298000;,
    -0.538000; 1.730000; 0.310000;,
    -0.310000; 1.730000; 0.538000;,
    -0.298000; 1.730000; 0.516000;,
    -0.516000; 1.730000; 0.298000;,
    0.000000; 1.730000; 0.622000;,
    0.000000; 1.730000; 0.596000;,
    0.310000; 1.730000; 0.538000;,
    0.298000; 1.730000; 0.516000;,
    0.538000; 1.730000; 0.310000;,
    0.516000; 1.730000; 0.298000;,
    0.616000; 1.564000; 0.000000;,
    0.534000; 1.564000; -0.308000;,
    0.534000; 1.564000; -0.308000;,
    0.308000; 1.564000; -0.534000;,
    0.000000; 1.564000; -0.616000;,
    -0.308000; 1.564000; -0.534000;,
    -0.534000; 1.564000; -0.308000;,
    -0.616000; 1.564000; 0.000000;,
    -0.534000; 1.564000; 0.308000;,
    -0.534000; 1.564000; 0.308000;,
    -0.308000; 1.564000; 0.534000;,
    0.000000; 1.564000; 0.616000;,
    0.308000; 1.564000; 0.534000;,
    0.534000; 1.564000; 0.308000;,
    0.000000; 0.000000; 0.554000;,
    -0.480000; 0.000000; -0.278000;,
    0.000000; 0.000000; -0.554000;,
    0.000000; 0.020000; -0.534000;,
    -0.464000; 0.018000; 0.268000;,
    0.000000; 0.020000; 0.534000;,
    0.464000; 0.020000; 0.268000;;
    74;
    4;0, 1, 2, 3;,
    4;4, 5, 6, 7;,
    4;7, 6, 8, 9;,
    4;9, 8, 10, 11;,
    4;11, 10, 12, 13;,
    4;13, 12, 14, 15;,
    4;15, 14, 16, 17;,
    4;18, 19, 20, 21;,
    4;21, 20, 22, 23;,
    4;23, 22, 24, 25;,
    4;25, 24, 26, 27;,
    4;27, 26, 1, 0;,
    4;28, 29, 30, 31;,
    4;32, 33, 28, 34;,
    4;35, 29, 33, 36;,
    4;37, 38, 39, 40;,
    4;41, 42, 43, 44;,
    4;45, 46, 42, 41;,
    4;47, 48, 46, 45;,
    4;49, 50, 48, 47;,
    4;51, 52, 50, 49;,
    4;53, 54, 52, 51;,
    4;55, 56, 57, 58;,
    4;59, 60, 56, 55;,
    4;61, 62, 60, 59;,
    4;63, 64, 62, 61;,
    4;40, 39, 64, 63;,
    4;65, 66, 67, 68;,
    4;69, 70, 66, 71;,
    4;70, 72, 67, 66;,
    4;73, 74, 75, 76;,
    4;77, 78, 79, 80;,
    4;78, 81, 82, 79;,
    4;81, 83, 84, 82;,
    4;83, 85, 86, 84;,
    4;85, 87, 88, 86;,
    4;87, 89, 90, 88;,
    4;91, 92, 93, 94;,
    4;92, 95, 96, 93;,
    4;95, 97, 98, 96;,
    4;97, 99, 100, 98;,
    4;99, 73, 76, 100;,
    4;101, 102, 74, 73;,
    4;103, 104, 78, 77;,
    4;104, 105, 81, 78;,
    4;105, 106, 83, 81;,
    4;106, 107, 85, 83;,
    4;107, 108, 87, 85;,
    4;108, 109, 89, 87;,
    4;110, 111, 92, 91;,
    4;111, 112, 95, 92;,
    4;112, 113, 97, 95;,
    4;113, 114, 99, 97;,
    4;114, 101, 73, 99;,
    4;0, 3, 102, 101;,
    4;4, 7, 104, 103;,
    4;7, 9, 105, 104;,
    4;9, 11, 106, 105;,
    4;11, 13, 107, 106;,
    4;13, 15, 108, 107;,
    4;15, 17, 109, 108;,
    4;18, 21, 111, 110;,
    4;21, 23, 112, 111;,
    4;23, 25, 113, 112;,
    4;25, 27, 114, 113;,
    4;27, 0, 101, 114;,
    3;32, 115, 33;,
    3;35, 116, 29;,
    3;28, 33, 29;,
    3;30, 29, 117;,
    3;65, 118, 66;,
    3;69, 119, 70;,
    3;70, 120, 72;,
    3;67, 72, 121;;

   MeshNormals {
    122;
    0.966556; -0.256453; -0.001059;,
    0.999355; -0.035899; 0.000001;,
    0.965334; -0.034832; -0.258684;,
    0.937685; -0.240014; -0.251275;,
    0.687247; -0.235334; -0.687247;,
    0.706683; -0.034606; -0.706683;,
    0.499689; -0.035782; -0.865465;,
    0.484763; -0.254039; -0.836940;,
    0.000001; -0.035899; -0.999355;,
    -0.001059; -0.256453; -0.966556;,
    -0.499688; -0.035942; -0.865460;,
    -0.484940; -0.245560; -0.839365;,
    -0.865465; -0.035782; -0.499689;,
    -0.836940; -0.254039; -0.484763;,
    -0.999355; -0.035899; -0.000001;,
    -0.966556; -0.256453; 0.001059;,
    -0.965334; -0.034832; 0.258684;,
    -0.937685; -0.240014; 0.251275;,
    -0.687247; -0.235334; 0.687247;,
    -0.706683; -0.034606; 0.706683;,
    -0.499689; -0.035782; 0.865465;,
    -0.484763; -0.254039; 0.836940;,
    -0.000001; -0.035899; 0.999355;,
    0.001059; -0.256453; 0.966556;,
    0.499688; -0.035942; 0.865460;,
    0.484940; -0.245560; 0.839365;,
    0.865465; -0.035782; 0.499689;,
    0.836940; -0.254039; 0.484763;,
    0.000000; -1.000000; 0.000000;,
    0.000000; -1.000000; 0.000000;,
    0.000000; -1.000000; 0.000000;,
    0.000000; -1.000000; 0.000000;,
    0.000000; -1.000000; 0.000000;,
    0.000000; -1.000000; 0.000000;,
    0.000000; -1.000000; 0.000000;,
    0.000000; -1.000000; 0.000000;,
    0.000000; -1.000000; 0.000000;,
    -0.965248; 0.033899; 0.259127;,
    -0.965248; 0.033899; 0.259127;,
    -0.999364; 0.035666; 0.000005;,
    -0.999364; 0.035666; 0.000005;,
    -0.499891; 0.035654; 0.865354;,
    -0.499891; 0.035654; 0.865354;,
    -0.706701; 0.033889; 0.706701;,
    -0.706701; 0.033889; 0.706701;,
    0.000005; 0.035645; 0.999365;,
    0.000005; 0.035645; 0.999365;,
    0.499897; 0.035065; 0.865375;,
    0.499897; 0.035065; 0.865375;,
    0.865354; 0.035654; 0.499891;,
    0.865354; 0.035654; 0.499891;,
    0.999365; 0.035645; -0.000005;,
    0.999365; 0.035645; -0.000005;,
    0.965249; 0.033859; -0.259127;,
    0.965249; 0.033859; -0.259127;,
    0.499891; 0.035654; -0.865354;,
    0.499891; 0.035654; -0.865354;,
    0.706701; 0.033889; -0.706701;,
    0.706701; 0.033889; -0.706701;,
    -0.000005; 0.035666; -0.999364;,
    -0.000005; 0.035666; -0.999364;,
    -0.499897; 0.035086; -0.865374;,
    -0.499897; 0.035086; -0.865374;,
    -0.865354; 0.035654; -0.499891;,
    -0.865354; 0.035654; -0.499891;,
    -0.003731; 0.999953; 0.009008;,
    -0.001866; 0.999990; 0.003965;,
    -0.001244; 0.999999; 0.000525;,
    -0.003731; 0.999986; 0.003731;,
    -0.011953; 0.999905; 0.006852;,
    -0.005976; 0.999978; 0.002887;,
    0.000000; 1.000000; 0.000000;,
    0.000000; 1.000000; -0.000718;,
    0.705833; 0.708378; 0.000025;,
    0.695129; 0.694656; -0.185067;,
    0.000000; 1.000000; 0.000000;,
    0.000000; 1.000000; 0.000000;,
    0.506347; 0.698015; -0.506347;,
    0.351488; 0.710251; -0.609917;,
    0.000000; 1.000000; 0.000000;,
    0.000000; 1.000000; 0.000000;,
    0.000025; 0.708378; -0.705833;,
    0.000000; 1.000000; 0.000000;,
    -0.352263; 0.708751; -0.611214;,
    0.000000; 1.000000; 0.000000;,
    -0.609917; 0.710251; -0.351488;,
    0.000000; 1.000000; 0.000000;,
    -0.705833; 0.708378; -0.000025;,
    0.000000; 1.000000; 0.000000;,
    -0.695129; 0.694656; 0.185067;,
    0.000000; 1.000000; 0.000000;,
    -0.506347; 0.698015; 0.506347;,
    -0.351488; 0.710251; 0.609917;,
    0.000000; 1.000000; 0.000000;,
    0.000000; 1.000000; 0.000000;,
    -0.000025; 0.708378; 0.705833;,
    0.000000; 1.000000; 0.000000;,
    0.352263; 0.708751; 0.611214;,
    0.000000; 1.000000; 0.000000;,
    0.609917; 0.710251; 0.351488;,
    0.000000; 1.000000; 0.000000;,
    0.967102; -0.254387; -0.001042;,
    0.937891; -0.240051; -0.250472;,
    0.687994; -0.230928; -0.687994;,
    0.484962; -0.249773; -0.838108;,
    -0.001042; -0.254387; -0.967102;,
    -0.484878; -0.243341; -0.840047;,
    -0.838108; -0.249773; -0.484962;,
    -0.967102; -0.254387; 0.001042;,
    -0.937891; -0.240051; 0.250472;,
    -0.687994; -0.230928; 0.687994;,
    -0.484962; -0.249773; 0.838108;,
    0.001042; -0.254387; 0.967102;,
    0.484878; -0.243341; 0.840047;,
    0.838108; -0.249773; 0.484962;,
    0.000000; -1.000000; 0.000000;,
    0.000000; -1.000000; 0.000000;,
    0.000000; -1.000000; 0.000000;,
    -0.003731; 0.999891; 0.014284;,
    -0.023903; 0.999620; 0.013703;,
    0.000000; 1.000000; 0.000000;,
    0.000000; 1.000000; 0.000000;;
    74;
    4;0, 1, 2, 3;,
    4;4, 5, 6, 7;,
    4;7, 6, 8, 9;,
    4;9, 8, 10, 11;,
    4;11, 10, 12, 13;,
    4;13, 12, 14, 15;,
    4;15, 14, 16, 17;,
    4;18, 19, 20, 21;,
    4;21, 20, 22, 23;,
    4;23, 22, 24, 25;,
    4;25, 24, 26, 27;,
    4;27, 26, 1, 0;,
    4;28, 29, 30, 31;,
    4;32, 33, 28, 34;,
    4;35, 29, 33, 36;,
    4;37, 38, 39, 40;,
    4;41, 42, 43, 44;,
    4;45, 46, 42, 41;,
    4;47, 48, 46, 45;,
    4;49, 50, 48, 47;,
    4;51, 52, 50, 49;,
    4;53, 54, 52, 51;,
    4;55, 56, 57, 58;,
    4;59, 60, 56, 55;,
    4;61, 62, 60, 59;,
    4;63, 64, 62, 61;,
    4;40, 39, 64, 63;,
    4;65, 66, 67, 68;,
    4;69, 70, 66, 71;,
    4;70, 72, 67, 66;,
    4;73, 74, 75, 76;,
    4;77, 78, 79, 80;,
    4;78, 81, 82, 79;,
    4;81, 83, 84, 82;,
    4;83, 85, 86, 84;,
    4;85, 87, 88, 86;,
    4;87, 89, 90, 88;,
    4;91, 92, 93, 94;,
    4;92, 95, 96, 93;,
    4;95, 97, 98, 96;,
    4;97, 99, 100, 98;,
    4;99, 73, 76, 100;,
    4;101, 102, 74, 73;,
    4;103, 104, 78, 77;,
    4;104, 105, 81, 78;,
    4;105, 106, 83, 81;,
    4;106, 107, 85, 83;,
    4;107, 108, 87, 85;,
    4;108, 109, 89, 87;,
    4;110, 111, 92, 91;,
    4;111, 112, 95, 92;,
    4;112, 113, 97, 95;,
    4;113, 114, 99, 97;,
    4;114, 101, 73, 99;,
    4;0, 3, 102, 101;,
    4;4, 7, 104, 103;,
    4;7, 9, 105, 104;,
    4;9, 11, 106, 105;,
    4;11, 13, 107, 106;,
    4;13, 15, 108, 107;,
    4;15, 17, 109, 108;,
    4;18, 21, 111, 110;,
    4;21, 23, 112, 111;,
    4;23, 25, 113, 112;,
    4;25, 27, 114, 113;,
    4;27, 0, 101, 114;,
    3;32, 115, 33;,
    3;35, 116, 29;,
    3;28, 33, 29;,
    3;30, 29, 117;,
    3;65, 118, 66;,
    3;69, 119, 70;,
    3;70, 120, 72;,
    3;67, 72, 121;;
   }

   MeshTextureCoords {
    122;
    0.743000; 0.079000;,
    0.743000; 0.669000;,
    0.890000; 0.669000;,
    0.890000; 0.079000;,
    0.007000; 0.079000;,
    0.007000; 0.669000;,
    0.154000; 0.669000;,
    0.154000; 0.079000;,
    0.301000; 0.669000;,
    0.301000; 0.079000;,
    0.447000; 0.669000;,
    0.447000; 0.079000;,
    0.594000; 0.669000;,
    0.594000; 0.079000;,
    0.741000; 0.669000;,
    0.741000; 0.079000;,
    0.887000; 0.669000;,
    0.887000; 0.079000;,
    0.010000; 0.079000;,
    0.010000; 0.669000;,
    0.156000; 0.669000;,
    0.156000; 0.079000;,
    0.303000; 0.669000;,
    0.303000; 0.079000;,
    0.450000; 0.669000;,
    0.450000; 0.079000;,
    0.597000; 0.669000;,
    0.597000; 0.079000;,
    0.210000; 0.678000;,
    0.003000; 0.877000;,
    0.049000; 0.718000;,
    0.125000; 0.677000;,
    0.324000; 0.799000;,
    0.277000; 0.958000;,
    0.283000; 0.723000;,
    0.117000; 0.997000;,
    0.202000; 0.999000;,
    0.890000; 0.010000;,
    0.890000; 0.669000;,
    0.743000; 0.669000;,
    0.743000; 0.010000;,
    0.154000; 0.010000;,
    0.154000; 0.669000;,
    0.007000; 0.669000;,
    0.007000; 0.010000;,
    0.301000; 0.010000;,
    0.301000; 0.669000;,
    0.447000; 0.010000;,
    0.447000; 0.669000;,
    0.594000; 0.010000;,
    0.594000; 0.669000;,
    0.741000; 0.010000;,
    0.741000; 0.669000;,
    0.887000; 0.010000;,
    0.887000; 0.669000;,
    0.156000; 0.010000;,
    0.156000; 0.669000;,
    0.010000; 0.669000;,
    0.010000; 0.010000;,
    0.303000; 0.010000;,
    0.303000; 0.669000;,
    0.450000; 0.010000;,
    0.450000; 0.669000;,
    0.597000; 0.010000;,
    0.597000; 0.669000;,
    0.049000; 0.718000;,
    0.003000; 0.877000;,
    0.210000; 0.678000;,
    0.125000; 0.677000;,
    0.117000; 0.997000;,
    0.277000; 0.958000;,
    0.043000; 0.953000;,
    0.324000; 0.799000;,
    0.743000; 0.010000;,
    0.890000; 0.010000;,
    0.890000; 0.004000;,
    0.743000; 0.004000;,
    0.007000; 0.010000;,
    0.154000; 0.010000;,
    0.154000; 0.004000;,
    0.007000; 0.004000;,
    0.301000; 0.010000;,
    0.301000; 0.004000;,
    0.447000; 0.010000;,
    0.447000; 0.004000;,
    0.594000; 0.010000;,
    0.594000; 0.004000;,
    0.741000; 0.010000;,
    0.741000; 0.004000;,
    0.887000; 0.010000;,
    0.887000; 0.004000;,
    0.010000; 0.010000;,
    0.156000; 0.010000;,
    0.156000; 0.004000;,
    0.010000; 0.004000;,
    0.303000; 0.010000;,
    0.303000; 0.004000;,
    0.450000; 0.010000;,
    0.450000; 0.004000;,
    0.597000; 0.010000;,
    0.597000; 0.004000;,
    0.743000; 0.074000;,
    0.890000; 0.074000;,
    0.007000; 0.074000;,
    0.154000; 0.074000;,
    0.301000; 0.074000;,
    0.447000; 0.074000;,
    0.594000; 0.074000;,
    0.741000; 0.074000;,
    0.887000; 0.074000;,
    0.010000; 0.074000;,
    0.156000; 0.074000;,
    0.303000; 0.074000;,
    0.450000; 0.074000;,
    0.597000; 0.074000;,
    0.322000; 0.885000;,
    0.043000; 0.953000;,
    0.005000; 0.791000;,
    0.005000; 0.791000;,
    0.202000; 0.999000;,
    0.322000; 0.885000;,
    0.283000; 0.723000;;
   }

   FVFData {
    258;
    244;
    0,
    1065353216,
    0,
    1065353216,
    0,
    1065353216,
    0,
    1065353216,
    0,
    1065353216,
    0,
    1065353216,
    0,
    1065353216,
    0,
    1065353216,
    0,
    1065353216,
    0,
    1065353216,
    0,
    1065353216,
    0,
    1065353216,
    0,
    1065353216,
    0,
    1065353216,
    0,
    1065353216,
    0,
    1065353216,
    0,
    1065353216,
    0,
    1065353216,
    0,
    1065353216,
    0,
    1065353216,
    0,
    1065353216,
    0,
    1065353216,
    0,
    1065353216,
    0,
    1065353216,
    0,
    1065353216,
    0,
    1065353216,
    0,
    1065353216,
    0,
    1065353216,
    0,
    1065353216,
    0,
    1065353216,
    0,
    1065353216,
    0,
    1065353216,
    0,
    1065353216,
    0,
    1065353216,
    0,
    1065353216,
    0,
    1065353216,
    0,
    1065353216,
    0,
    1065353216,
    0,
    1065353216,
    0,
    1065353216,
    0,
    1065353216,
    0,
    1065353216,
    0,
    1065353216,
    0,
    1065353216,
    0,
    1065353216,
    0,
    1065353216,
    0,
    1065353216,
    0,
    1065353216,
    0,
    1065353216,
    0,
    1065353216,
    0,
    1065353216,
    0,
    1065353216,
    0,
    1065353216,
    0,
    1065353216,
    0,
    1065353216,
    0,
    1065353216,
    0,
    1065353216,
    0,
    1065353216,
    0,
    1065353216,
    0,
    1065353216,
    0,
    1065353216,
    0,
    1065353216,
    0,
    1065353216,
    0,
    1065353216,
    0,
    1065353216,
    0,
    1065353216,
    0,
    1065353216,
    0,
    1065353216,
    0,
    1065353216,
    0,
    1065353216,
    0,
    1065353216,
    0,
    1065353216,
    0,
    1065353216,
    0,
    1065353216,
    0,
    1065353216,
    0,
    1065353216,
    0,
    1065353216,
    0,
    1065353216,
    0,
    1065353216,
    0,
    1065353216,
    0,
    1065353216,
    0,
    1065353216,
    0,
    1065353216,
    0,
    1065353216,
    0,
    1065353216,
    0,
    1065353216,
    0,
    1065353216,
    0,
    1065353216,
    0,
    1065353216,
    0,
    1065353216,
    0,
    1065353216,
    0,
    1065353216,
    0,
    1065353216,
    0,
    1065353216,
    0,
    1065353216,
    0,
    1065353216,
    0,
    1065353216,
    0,
    1065353216,
    0,
    1065353216,
    0,
    1065353216,
    0,
    1065353216,
    0,
    1065353216,
    0,
    1065353216,
    0,
    1065353216,
    0,
    1065353216,
    0,
    1065353216,
    0,
    1065353216,
    0,
    1065353216,
    0,
    1065353216,
    0,
    1065353216,
    0,
    1065353216,
    0,
    1065353216,
    0,
    1065353216,
    0,
    1065353216,
    0,
    1065353216,
    0,
    1065353216,
    0,
    1065353216,
    0,
    1065353216,
    0,
    1065353216,
    0,
    1065353216,
    0,
    1065353216,
    0,
    1065353216;
   }

   MeshMaterialList {
    1;
    74;
    0,
    0,
    0,
    0,
    0,
    0,
    0,
    0,
    0,
    0,
    0,
    0,
    0,
    0,
    0,
    0,
    0,
    0,
    0,
    0,
    0,
    0,
    0,
    0,
    0,
    0,
    0,
    0,
    0,
    0,
    0,
    0,
    0,
    0,
    0,
    0,
    0,
    0,
    0,
    0,
    0,
    0,
    0,
    0,
    0,
    0,
    0,
    0,
    0,
    0,
    0,
    0,
    0,
    0,
    0,
    0,
    0,
    0,
    0,
    0,
    0,
    0,
    0,
    0,
    0,
    0,
    0,
    0,
    0,
    0,
    0,
    0,
    0,
    0;

    Material trashcan_Smoothing {
     0.588000; 0.588000; 0.588000; 1.000000;;
     128.000000;
     0.000000; 0.000000; 0.000000;;
     0.000000; 0.000000; 0.000000;;

     TextureFilename {
      "D:\\new packs\\test\\trashcan_diffuse.tga";
     }
    }

   }
  }
}
