xof 0302txt 0032
Header {
 1;
 0;
 1;
}
template Header {
 <3D82AB43-62DA-11cf-AB39-0020AF71E433>
 WORD major;
 WORD minor;
 DWORD flags;
}

template Vector {
 <3D82AB5E-62DA-11cf-AB39-0020AF71E433>
 FLOAT x;
 FLOAT y;
 FLOAT z;
}

template Coords2d {
 <F6F23F44-7686-11cf-8F52-0040333594A3>
 FLOAT u;
 FLOAT v;
}

template Matrix4x4 {
 <F6F23F45-7686-11cf-8F52-0040333594A3>
 array FLOAT matrix[16];
}

template ColorRGBA {
 <35FF44E0-6C7C-11cf-8F52-0040333594A3>
 FLOAT red;
 FLOAT green;
 FLOAT blue;
 FLOAT alpha;
}

template ColorRGB {
 <D3E16E81-7835-11cf-8F52-0040333594A3>
 FLOAT red;
 FLOAT green;
 FLOAT blue;
}

template TextureFilename {
 <A42790E1-7810-11cf-8F52-0040333594A3>
 STRING filename;
}

template Material {
 <3D82AB4D-62DA-11cf-AB39-0020AF71E433>
 ColorRGBA faceColor;
 FLOAT power;
 ColorRGB specularColor;
 ColorRGB emissiveColor;
 [...]
}

template MeshFace {
 <3D82AB5F-62DA-11cf-AB39-0020AF71E433>
 DWORD nFaceVertexIndices;
 array DWORD faceVertexIndices[nFaceVertexIndices];
}

template MeshTextureCoords {
 <F6F23F40-7686-11cf-8F52-0040333594A3>
 DWORD nTextureCoords;
 array Coords2d textureCoords[nTextureCoords];
}

template MeshMaterialList {
 <F6F23F42-7686-11cf-8F52-0040333594A3>
 DWORD nMaterials;
 DWORD nFaceIndexes;
 array DWORD faceIndexes[nFaceIndexes];
 [Material]
}

template MeshNormals {
 <F6F23F43-7686-11cf-8F52-0040333594A3>
 DWORD nNormals;
 array Vector normals[nNormals];
 DWORD nFaceNormals;
 array MeshFace faceNormals[nFaceNormals];
}

template Mesh {
 <3D82AB44-62DA-11cf-AB39-0020AF71E433>
 DWORD nVertices;
 array Vector vertices[nVertices];
 DWORD nFaces;
 array MeshFace faces[nFaces];
 [...]
}

template FrameTransformMatrix {
 <F6F23F41-7686-11cf-8F52-0040333594A3>
 Matrix4x4 frameMatrix;
}

template Frame {
 <3D82AB46-62DA-11cf-AB39-0020AF71E433>
 [...]
}
template FloatKeys {
 <10DD46A9-775B-11cf-8F52-0040333594A3>
 DWORD nValues;
 array FLOAT values[nValues];
}

template TimedFloatKeys {
 <F406B180-7B3B-11cf-8F52-0040333594A3>
 DWORD time;
 FloatKeys tfkeys;
}

template AnimationKey {
 <10DD46A8-775B-11cf-8F52-0040333594A3>
 DWORD keyType;
 DWORD nKeys;
 array TimedFloatKeys keys[nKeys];
}

template AnimationOptions {
 <E2BF56C0-840F-11cf-8F52-0040333594A3>
 DWORD openclosed;
 DWORD positionquality;
}

template Animation {
 <3D82AB4F-62DA-11cf-AB39-0020AF71E433>
 [...]
}

template AnimationSet {
 <3D82AB50-62DA-11cf-AB39-0020AF71E433>
 [Animation]
}

template XSkinMeshHeader {
 <3cf169ce-ff7c-44ab-93c0-f78f62d172e2>
 WORD nMaxSkinWeightsPerVertex;
 WORD nMaxSkinWeightsPerFace;
 WORD nBones;
}

template VertexDuplicationIndices {
 <b8d65549-d7c9-4995-89cf-53a9a8b031e3>
 DWORD nIndices;
 DWORD nOriginalVertices;
 array DWORD indices[nIndices];
}

template SkinWeights {
 <6f0d123b-bad2-4167-a0d0-80224f25fabb>
 STRING transformNodeName;
 DWORD nWeights;
 array DWORD vertexIndices[nWeights];
 array FLOAT weights[nWeights];
 Matrix4x4 matrixOffset;
}
Frame Frm0 {
   FrameTransformMatrix {
1.000000,0.000000,0.000000,0.000000,
0.000000,1.000000,0.000000,0.000000,
0.000000,0.000000,1.000000,0.000000,
0.000000,0.000000,0.000000,1.000000;;
 }
Mesh object1 {
 201;
-0.626400;1.020000;2.080000;,
-0.725220;0.740000;2.140000;,
-0.918000;0.740000;1.680000;,
-0.783000;1.020000;1.680000;,
-0.725220;0.240000;2.060000;,
0.918000;0.180000;1.680000;,
-0.918000;0.180000;1.680000;,
0.725220;0.240000;2.060000;,
-0.626400;1.020000;2.080000;,
0.725220;0.740000;2.140000;,
-0.725220;0.740000;2.140000;,
0.626400;1.020000;2.080000;,
-0.626400;1.020000;2.080000;,
-0.783000;1.020000;1.680000;,
0.783000;1.020000;1.680000;,
0.626400;1.020000;2.080000;,
-0.373246;0.764990;-2.169355;,
-0.435148;0.497555;-2.265435;,
0.435148;0.497555;-2.265435;,
0.373246;0.764990;-2.169355;,
0.626400;1.020000;2.080000;,
0.783000;1.020000;1.680000;,
0.918000;0.740000;1.680000;,
0.725220;0.740000;2.140000;,
0.437606;0.500594;-2.262238;,
-0.437104;0.134121;-2.110024;,
0.437104;0.134121;-2.110024;,
-0.437606;0.500594;-2.262238;,
0.725220;0.240000;2.060000;,
0.918000;0.180000;1.680000;,
-0.493150;0.620000;2.260000;,
0.493150;0.240000;2.200000;,
-0.493150;0.240000;2.200000;,
0.493150;0.620000;2.260000;,
-0.725220;0.240000;2.060000;,
-0.918000;0.180000;1.680000;,
-0.493150;0.240000;2.200000;,
0.493150;0.240000;2.200000;,
0.493150;0.240000;2.200000;,
0.493150;0.620000;2.260000;,
-0.493150;0.620000;2.260000;,
-0.493150;0.240000;2.200000;,
-0.728190;0.960000;-0.860000;,
-0.853740;0.680000;-0.860000;,
0.354229;1.360000;0.460259;,
-0.329433;1.320000;-0.060259;,
0.329433;1.320000;-0.060259;,
-0.354229;1.360000;0.460259;,
0.728190;0.960000;-0.860000;,
0.853740;0.680000;-0.860000;,
0.853740;0.120000;-0.860000;,
-0.853740;0.120000;-0.860000;,
-0.853740;0.120000;-0.860000;,
0.853740;0.120000;-0.860000;,
-0.662653;0.840000;-1.940000;,
-0.776903;0.500000;-2.040000;,
0.728190;0.960000;-0.860000;,
-0.662653;0.840000;-1.940000;,
0.662653;0.840000;-1.940000;,
-0.728190;0.960000;-0.860000;,
0.662653;0.840000;-1.940000;,
0.776903;0.500000;-2.040000;,
0.776903;0.120000;-1.880000;,
-0.776903;0.120000;-1.880000;,
-0.776903;0.120000;-1.880000;,
0.776903;0.120000;-1.880000;,
-0.662653;0.840000;-1.940000;,
-0.776903;0.500000;-2.040000;,
-0.373246;0.764990;-2.169355;,
0.373246;0.764990;-2.169355;,
0.662653;0.840000;-1.940000;,
0.776903;0.500000;-2.040000;,
-0.437606;0.500594;-2.262238;,
0.435148;0.497555;-2.265435;,
-0.435148;0.497555;-2.265435;,
0.437606;0.500594;-2.262238;,
0.437104;0.134121;-2.110024;,
-0.437104;0.134121;-2.110024;,
-0.776903;0.120000;-1.880000;,
0.776903;0.120000;-1.880000;,
-0.776903;0.500000;-2.040000;,
0.437606;0.500594;-2.262238;,
0.435148;0.497555;-2.265435;,
0.567988;1.260000;-0.237700;,
-0.567988;1.260000;-0.237700;,
-0.728190;0.960000;-0.860000;,
0.728190;0.960000;-0.860000;,
-0.567988;1.260000;-0.237700;,
-0.610740;1.320000;0.837700;,
-0.610740;1.320000;0.837700;,
0.610740;1.320000;0.837700;,
0.783000;1.020000;1.680000;,
-0.783000;1.020000;1.680000;,
0.610740;1.320000;0.837700;,
0.567988;1.260000;-0.237700;,
-0.567988;1.260000;-0.237700;,
0.567988;1.260000;-0.237700;,
-0.850000;1.300060;2.130244;,
-0.850000;1.203467;2.156126;,
-0.850000;1.099940;1.769756;,
-0.850000;1.196532;1.743874;,
-0.850000;1.203467;2.156126;,
0.850000;1.099940;1.769756;,
-0.850000;1.099940;1.769756;,
0.850000;1.203467;2.156126;,
-0.850000;1.300060;2.130244;,
0.850000;1.203467;2.156126;,
-0.850000;1.203467;2.156126;,
0.850000;1.300060;2.130244;,
-0.850000;1.300060;2.130244;,
-0.850000;1.196532;1.743874;,
0.850000;1.196532;1.743874;,
0.850000;1.300060;2.130244;,
-0.850000;1.196532;1.743874;,
-0.850000;1.099940;1.769756;,
0.850000;1.099940;1.769756;,
0.850000;1.196532;1.743874;,
0.850000;1.300060;2.130244;,
0.850000;1.196532;1.743874;,
0.850000;1.099940;1.769756;,
0.850000;1.203467;2.156126;,
0.525000;0.175000;-1.125000;,
0.525000;0.000000;-1.235000;,
0.525000;0.000000;-1.565000;,
0.525000;0.175000;-1.675000;,
0.525000;0.000000;-1.235000;,
0.825000;0.000000;-1.565000;,
0.525000;0.000000;-1.565000;,
0.825000;0.000000;-1.235000;,
0.525000;0.175000;-1.125000;,
0.825000;0.175000;-1.125000;,
0.825000;0.175000;-1.675000;,
0.525000;0.175000;-1.125000;,
0.525000;0.175000;-1.675000;,
0.825000;0.175000;-1.125000;,
0.525000;0.175000;-1.675000;,
0.825000;0.175000;-1.675000;,
0.825000;0.175000;-1.125000;,
0.825000;0.175000;-1.675000;,
0.825000;0.000000;-1.565000;,
0.825000;0.000000;-1.235000;,
-0.830000;0.175000;-1.125000;,
-0.830000;0.000000;-1.235000;,
-0.830000;0.000000;-1.565000;,
-0.830000;0.175000;-1.675000;,
-0.830000;0.000000;-1.565000;,
-0.830000;0.000000;-1.235000;,
-0.530000;0.000000;-1.565000;,
-0.530000;0.000000;-1.235000;,
-0.830000;0.175000;-1.125000;,
-0.530000;0.175000;-1.125000;,
-0.830000;0.175000;-1.125000;,
-0.830000;0.175000;-1.675000;,
-0.530000;0.175000;-1.675000;,
-0.530000;0.175000;-1.125000;,
-0.830000;0.175000;-1.675000;,
-0.530000;0.175000;-1.675000;,
-0.530000;0.175000;-1.125000;,
-0.530000;0.175000;-1.675000;,
-0.530000;0.000000;-1.565000;,
-0.530000;0.000000;-1.235000;,
0.600000;0.175000;1.455000;,
0.600000;0.000000;1.345000;,
0.600000;0.000000;1.015000;,
0.600000;0.175000;0.905000;,
0.600000;0.000000;1.345000;,
0.900000;0.000000;1.015000;,
0.600000;0.000000;1.015000;,
0.900000;0.000000;1.345000;,
0.600000;0.175000;1.455000;,
0.900000;0.175000;1.455000;,
0.900000;0.175000;0.905000;,
0.600000;0.175000;1.455000;,
0.600000;0.175000;0.905000;,
0.900000;0.175000;1.455000;,
0.600000;0.175000;0.905000;,
0.900000;0.175000;0.905000;,
0.900000;0.175000;1.455000;,
0.900000;0.175000;0.905000;,
0.900000;0.000000;1.015000;,
0.900000;0.000000;1.345000;,
-0.900000;0.175000;1.455000;,
-0.900000;0.000000;1.345000;,
-0.900000;0.000000;1.015000;,
-0.900000;0.175000;0.905000;,
-0.900000;0.000000;1.015000;,
-0.900000;0.000000;1.345000;,
-0.600000;0.000000;1.015000;,
-0.600000;0.000000;1.345000;,
-0.900000;0.175000;1.455000;,
-0.600000;0.175000;1.455000;,
-0.900000;0.175000;1.455000;,
-0.900000;0.175000;0.905000;,
-0.600000;0.175000;0.905000;,
-0.600000;0.175000;1.455000;,
-0.900000;0.175000;0.905000;,
-0.600000;0.175000;0.905000;,
-0.600000;0.175000;1.455000;,
-0.600000;0.175000;0.905000;,
-0.600000;0.000000;1.015000;,
-0.600000;0.000000;1.345000;;

 144;
3;2,1,0;,
3;2,0,3;,
3;6,5,4;,
3;5,7,4;,
3;10,9,8;,
3;9,11,8;,
3;14,13,12;,
3;14,12,15;,
3;18,17,16;,
3;18,16,19;,
3;22,21,20;,
3;22,20,23;,
3;26,25,24;,
3;25,27,24;,
3;29,22,28;,
3;28,22,23;,
3;32,31,30;,
3;31,33,30;,
3;35,34,2;,
3;34,1,2;,
3;7,37,36;,
3;4,7,36;,
3;28,39,38;,
3;28,23,39;,
3;30,33,10;,
3;33,9,10;,
3;34,41,40;,
3;34,40,1;,
3;43,2,42;,
3;2,3,42;,
3;46,45,44;,
3;45,47,44;,
3;49,48,22;,
3;22,48,21;,
3;51,50,6;,
3;50,5,6;,
3;35,2,43;,
3;52,35,43;,
3;53,49,29;,
3;29,49,22;,
3;55,43,54;,
3;43,42,54;,
3;58,57,56;,
3;57,59,56;,
3;61,60,49;,
3;49,60,48;,
3;63,62,51;,
3;62,50,51;,
3;64,43,55;,
3;64,52,43;,
3;65,49,53;,
3;65,61,49;,
3;17,67,66;,
3;17,66,16;,
3;69,68,58;,
3;68,57,58;,
3;18,19,70;,
3;18,70,71;,
3;74,73,72;,
3;73,75,72;,
3;62,63,76;,
3;63,77,76;,
3;78,67,25;,
3;25,67,27;,
3;79,26,71;,
3;26,24,71;,
3;74,72,80;,
3;82,81,61;,
3;85,84,83;,
3;86,85,83;,
3;42,3,87;,
3;3,88,87;,
3;91,90,89;,
3;92,91,89;,
3;21,94,93;,
3;48,94,21;,
3;95,45,46;,
3;96,95,46;,
3;95,47,45;,
3;95,89,47;,
3;90,44,47;,
3;89,90,47;,
3;96,46,44;,
3;96,44,90;,
3;99,98,97;,
3;99,97,100;,
3;103,102,101;,
3;102,104,101;,
3;107,106,105;,
3;106,108,105;,
3;111,110,109;,
3;111,109,112;,
3;115,114,113;,
3;115,113,116;,
3;119,118,117;,
3;119,117,120;,
3;123,122,121;,
3;123,121,124;,
3;127,126,125;,
3;126,128,125;,
3;125,128,129;,
3;128,130,129;,
3;133,132,131;,
3;131,132,134;,
3;127,135,126;,
3;126,135,136;,
3;139,138,137;,
3;139,137,140;,
3;143,142,141;,
3;143,141,144;,
3;147,146,145;,
3;147,148,146;,
3;148,149,146;,
3;148,150,149;,
3;153,152,151;,
3;153,151,154;,
3;147,145,155;,
3;147,155,156;,
3;159,158,157;,
3;159,157,160;,
3;163,162,161;,
3;163,161,164;,
3;167,166,165;,
3;166,168,165;,
3;165,168,169;,
3;168,170,169;,
3;173,172,171;,
3;171,172,174;,
3;167,175,166;,
3;166,175,176;,
3;179,178,177;,
3;179,177,180;,
3;183,182,181;,
3;183,181,184;,
3;187,186,185;,
3;187,188,186;,
3;188,189,186;,
3;188,190,189;,
3;193,192,191;,
3;193,191,194;,
3;187,185,195;,
3;187,195,196;,
3;199,198,197;,
3;199,197,200;;
MeshMaterialList {
 1;
 144;
  0,
  0,
  0,
  0,
  0,
  0,
  0,
  0,
  0,
  0,
  0,
  0,
  0,
  0,
  0,
  0,
  0,
  0,
  0,
  0,
  0,
  0,
  0,
  0,
  0,
  0,
  0,
  0,
  0,
  0,
  0,
  0,
  0,
  0,
  0,
  0,
  0,
  0,
  0,
  0,
  0,
  0,
  0,
  0,
  0,
  0,
  0,
  0,
  0,
  0,
  0,
  0,
  0,
  0,
  0,
  0,
  0,
  0,
  0,
  0,
  0,
  0,
  0,
  0,
  0,
  0,
  0,
  0,
  0,
  0,
  0,
  0,
  0,
  0,
  0,
  0,
  0,
  0,
  0,
  0,
  0,
  0,
  0,
  0,
  0,
  0,
  0,
  0,
  0,
  0,
  0,
  0,
  0,
  0,
  0,
  0,
  0,
  0,
  0,
  0,
  0,
  0,
  0,
  0,
  0,
  0,
  0,
  0,
  0,
  0,
  0,
  0,
  0,
  0,
  0,
  0,
  0,
  0,
  0,
  0,
  0,
  0,
  0,
  0,
  0,
  0,
  0,
  0,
  0,
  0,
  0,
  0,
  0,
  0,
  0,
  0,
  0,
  0,
  0,
  0,
  0,
  0,
  0,
  0;;
Material lod_4 {
 1.000000;1.000000;1.000000;1.000000;;
64.000000;
 0.627451;0.627451;0.627451;;
 0.000000;0.000000;0.000000;;
TextureFilename {
"modified_diff_lod4.tga";
}
 }
}

 MeshNormals {
 201;
-0.379124;0.713730;0.588943;,
-0.462819;0.365580;0.807558;,
-0.947737;0.234985;0.215814;,
-0.688698;0.717062;0.107319;,
-0.544558;-0.635517;0.547334;,
0.000000;-0.993701;0.112067;,
0.000000;-0.997695;0.067864;,
0.552606;-0.647296;0.525009;,
-0.379124;0.713730;0.588943;,
0.456462;0.261115;0.850565;,
-0.462819;0.365580;0.807558;,
0.547676;0.642140;0.536383;,
-0.379124;0.713730;0.588943;,
-0.688698;0.717062;0.107319;,
0.527416;0.839242;0.132308;,
0.547676;0.642140;0.536383;,
-0.113866;0.667814;-0.735567;,
-0.348088;0.388067;-0.853369;,
0.313623;0.386432;-0.867359;,
0.189227;0.628316;-0.754594;,
0.547676;0.642140;0.536383;,
0.527416;0.839242;0.132308;,
0.947737;0.234985;0.215814;,
0.456462;0.261115;0.850565;,
0.281638;-0.192301;-0.940053;,
-0.237069;-0.554892;-0.797429;,
0.249878;-0.733040;-0.632624;,
-0.268358;-0.369821;-0.889504;,
0.552606;-0.647296;0.525009;,
0.990479;0.000000;0.137667;,
-0.226998;0.027837;0.973497;,
0.159284;-0.449916;0.878752;,
-0.171801;-0.768547;0.616296;,
0.235396;0.227754;0.944837;,
-0.544558;-0.635517;0.547334;,
-0.990479;0.000000;0.137667;,
-0.171801;-0.768547;0.616296;,
0.159284;-0.449916;0.878752;,
0.159284;-0.449916;0.878752;,
0.235396;0.227754;0.944837;,
-0.226998;0.027837;0.973497;,
-0.171801;-0.768547;0.616296;,
-0.604216;0.771777;-0.198198;,
-0.984127;0.165824;-0.063212;,
0.086417;0.995478;-0.039448;,
-0.046369;0.988974;-0.140644;,
0.046452;0.978184;-0.202479;,
-0.086530;0.996246;-0.002741;,
0.602461;0.785227;-0.143037;,
0.984127;0.165824;-0.063212;,
0.000000;-0.999876;0.015745;,
0.000000;-0.999969;0.007872;,
-0.998738;0.000000;-0.050220;,
0.998738;0.000000;-0.050220;,
-0.493098;0.775253;-0.394761;,
-0.808966;0.012884;-0.587715;,
0.602461;0.785227;-0.143037;,
-0.493098;0.775253;-0.394761;,
0.488962;0.761299;-0.425841;,
-0.604216;0.771777;-0.198198;,
0.488962;0.761299;-0.425841;,
0.767438;0.087925;-0.635065;,
0.583766;-0.779047;-0.228698;,
-0.582014;-0.776274;-0.242194;,
-0.582014;-0.776274;-0.242194;,
0.583766;-0.779047;-0.228698;,
-0.493098;0.775253;-0.394761;,
-0.808966;0.012884;-0.587715;,
-0.113866;0.667814;-0.735567;,
0.189227;0.628316;-0.754594;,
0.488962;0.761299;-0.425841;,
0.767438;0.087925;-0.635065;,
0.174799;-0.643146;0.745526;,
0.000000;-0.724923;0.688830;,
0.263654;-0.589882;0.763234;,
0.000000;-0.724923;0.688830;,
0.249878;-0.733040;-0.632624;,
-0.237069;-0.554892;-0.797429;,
-0.582014;-0.776274;-0.242194;,
0.583766;-0.779047;-0.228698;,
0.502713;-0.399813;0.766439;,
0.281638;-0.192301;-0.940053;,
0.313623;0.386432;-0.867359;,
0.357842;0.904815;-0.230781;,
-0.356859;0.909844;-0.211743;,
-0.604216;0.771777;-0.198198;,
0.602461;0.785227;-0.143037;,
-0.356859;0.909844;-0.211743;,
-0.264748;0.952884;0.148057;,
-0.264748;0.952884;0.148057;,
0.263432;0.959932;0.095575;,
0.527416;0.839242;0.132308;,
-0.688698;0.717062;0.107319;,
0.263432;0.959932;0.095575;,
0.357842;0.904815;-0.230781;,
-0.356859;0.909844;-0.211743;,
0.357842;0.904815;-0.230781;,
-1.000000;0.000000;0.000000;,
-1.000000;0.000000;0.000000;,
-1.000000;0.000000;0.000000;,
-1.000000;0.000000;0.000000;,
0.000000;-0.965926;0.258819;,
0.000000;-0.965926;0.258819;,
0.000000;-0.965926;0.258819;,
0.000000;-0.965926;0.258819;,
0.000000;0.258820;0.965926;,
0.000000;0.258820;0.965926;,
0.000000;0.258820;0.965926;,
0.000000;0.258820;0.965926;,
0.000000;0.965926;-0.258819;,
0.000000;0.965926;-0.258819;,
0.000000;0.965926;-0.258819;,
0.000000;0.965926;-0.258819;,
0.000000;-0.258820;-0.965926;,
0.000000;-0.258820;-0.965926;,
0.000000;-0.258820;-0.965926;,
0.000000;-0.258820;-0.965926;,
1.000000;0.000000;0.000000;,
1.000000;0.000000;0.000000;,
1.000000;0.000000;0.000000;,
1.000000;0.000000;0.000000;,
-1.000000;0.000000;0.000000;,
-1.000000;0.000000;0.000000;,
-1.000000;0.000000;0.000000;,
-1.000000;0.000000;0.000000;,
0.000000;-0.948393;0.317097;,
0.000000;-0.875263;-0.483647;,
0.000000;-0.875263;-0.483647;,
0.000000;-0.773174;0.634194;,
0.000000;-0.532172;0.846637;,
0.000000;-0.532172;0.846637;,
0.000000;1.000000;0.000000;,
0.000000;1.000000;0.000000;,
0.000000;1.000000;0.000000;,
0.000000;1.000000;0.000000;,
0.000000;-0.532172;-0.846636;,
0.000000;-0.532172;-0.846636;,
1.000000;0.000000;0.000000;,
1.000000;0.000000;0.000000;,
1.000000;0.000000;0.000000;,
1.000000;0.000000;0.000000;,
-1.000000;0.000000;0.000000;,
-1.000000;0.000000;0.000000;,
-1.000000;0.000000;0.000000;,
-1.000000;0.000000;0.000000;,
0.000000;-0.875263;-0.483647;,
0.000000;-0.948393;0.317097;,
0.000000;-0.875263;-0.483647;,
0.000000;-0.773174;0.634194;,
0.000000;-0.532172;0.846637;,
0.000000;-0.532172;0.846637;,
0.000000;1.000000;0.000000;,
0.000000;1.000000;0.000000;,
0.000000;1.000000;0.000000;,
0.000000;1.000000;0.000000;,
0.000000;-0.532172;-0.846636;,
0.000000;-0.532172;-0.846636;,
1.000000;0.000000;0.000000;,
1.000000;0.000000;0.000000;,
1.000000;0.000000;0.000000;,
1.000000;0.000000;0.000000;,
-1.000000;0.000000;0.000000;,
-1.000000;0.000000;0.000000;,
-1.000000;0.000000;0.000000;,
-1.000000;0.000000;0.000000;,
0.000000;-0.948393;0.317097;,
0.000000;-0.875263;-0.483647;,
0.000000;-0.875263;-0.483647;,
0.000000;-0.773174;0.634194;,
0.000000;-0.532172;0.846637;,
0.000000;-0.532172;0.846637;,
0.000000;1.000000;0.000000;,
0.000000;1.000000;0.000000;,
0.000000;1.000000;0.000000;,
0.000000;1.000000;0.000000;,
0.000000;-0.532172;-0.846636;,
0.000000;-0.532172;-0.846636;,
1.000000;0.000000;0.000000;,
1.000000;0.000000;0.000000;,
1.000000;0.000000;0.000000;,
1.000000;0.000000;0.000000;,
-1.000000;0.000000;0.000000;,
-1.000000;0.000000;0.000000;,
-1.000000;0.000000;0.000000;,
-1.000000;0.000000;0.000000;,
0.000000;-0.875263;-0.483647;,
0.000000;-0.948393;0.317097;,
0.000000;-0.875263;-0.483647;,
0.000000;-0.773174;0.634194;,
0.000000;-0.532172;0.846637;,
0.000000;-0.532172;0.846637;,
0.000000;1.000000;0.000000;,
0.000000;1.000000;0.000000;,
0.000000;1.000000;0.000000;,
0.000000;1.000000;0.000000;,
0.000000;-0.532172;-0.846636;,
0.000000;-0.532172;-0.846636;,
1.000000;0.000000;0.000000;,
1.000000;0.000000;0.000000;,
1.000000;0.000000;0.000000;,
1.000000;0.000000;0.000000;;

 144;
3;2,1,0;,
3;2,0,3;,
3;6,5,4;,
3;5,7,4;,
3;10,9,8;,
3;9,11,8;,
3;14,13,12;,
3;14,12,15;,
3;18,17,16;,
3;18,16,19;,
3;22,21,20;,
3;22,20,23;,
3;26,25,24;,
3;25,27,24;,
3;29,22,28;,
3;28,22,23;,
3;32,31,30;,
3;31,33,30;,
3;35,34,2;,
3;34,1,2;,
3;7,37,36;,
3;4,7,36;,
3;28,39,38;,
3;28,23,39;,
3;30,33,10;,
3;33,9,10;,
3;34,41,40;,
3;34,40,1;,
3;43,2,42;,
3;2,3,42;,
3;46,45,44;,
3;45,47,44;,
3;49,48,22;,
3;22,48,21;,
3;51,50,6;,
3;50,5,6;,
3;35,2,43;,
3;52,35,43;,
3;53,49,29;,
3;29,49,22;,
3;55,43,54;,
3;43,42,54;,
3;58,57,56;,
3;57,59,56;,
3;61,60,49;,
3;49,60,48;,
3;63,62,51;,
3;62,50,51;,
3;64,43,55;,
3;64,52,43;,
3;65,49,53;,
3;65,61,49;,
3;17,67,66;,
3;17,66,16;,
3;69,68,58;,
3;68,57,58;,
3;18,19,70;,
3;18,70,71;,
3;74,73,72;,
3;73,75,72;,
3;62,63,76;,
3;63,77,76;,
3;78,67,25;,
3;25,67,27;,
3;79,26,71;,
3;26,24,71;,
3;74,72,80;,
3;82,81,61;,
3;85,84,83;,
3;86,85,83;,
3;42,3,87;,
3;3,88,87;,
3;91,90,89;,
3;92,91,89;,
3;21,94,93;,
3;48,94,21;,
3;95,45,46;,
3;96,95,46;,
3;95,47,45;,
3;95,89,47;,
3;90,44,47;,
3;89,90,47;,
3;96,46,44;,
3;96,44,90;,
3;99,98,97;,
3;99,97,100;,
3;103,102,101;,
3;102,104,101;,
3;107,106,105;,
3;106,108,105;,
3;111,110,109;,
3;111,109,112;,
3;115,114,113;,
3;115,113,116;,
3;119,118,117;,
3;119,117,120;,
3;123,122,121;,
3;123,121,124;,
3;127,126,125;,
3;126,128,125;,
3;125,128,129;,
3;128,130,129;,
3;133,132,131;,
3;131,132,134;,
3;127,135,126;,
3;126,135,136;,
3;139,138,137;,
3;139,137,140;,
3;143,142,141;,
3;143,141,144;,
3;147,146,145;,
3;147,148,146;,
3;148,149,146;,
3;148,150,149;,
3;153,152,151;,
3;153,151,154;,
3;147,145,155;,
3;147,155,156;,
3;159,158,157;,
3;159,157,160;,
3;163,162,161;,
3;163,161,164;,
3;167,166,165;,
3;166,168,165;,
3;165,168,169;,
3;168,170,169;,
3;173,172,171;,
3;171,172,174;,
3;167,175,166;,
3;166,175,176;,
3;179,178,177;,
3;179,177,180;,
3;183,182,181;,
3;183,181,184;,
3;187,186,185;,
3;187,188,186;,
3;188,189,186;,
3;188,190,189;,
3;193,192,191;,
3;193,191,194;,
3;187,185,195;,
3;187,195,196;,
3;199,198,197;,
3;199,197,200;;
 }
MeshTextureCoords {
 201;
0.476933;0.372010;,
0.483492;0.401754;,
0.437207;0.401754;,
0.437207;0.372010;,
0.472446;0.516001;,
0.430567;0.687599;,
0.430567;0.495869;,
0.472446;0.667468;,
0.605765;0.088834;,
0.922600;0.153665;,
0.582600;0.153665;,
0.899435;0.088834;,
0.948874;0.423237;,
0.928352;0.405544;,
0.928352;0.582466;,
0.948874;0.564773;,
0.166421;0.143443;,
0.151681;0.210349;,
0.358919;0.210349;,
0.344179;0.143443;,
0.476933;0.372010;,
0.437207;0.372010;,
0.437207;0.401754;,
0.483492;0.401754;,
0.359505;0.209589;,
0.151215;0.301271;,
0.359385;0.301271;,
0.151095;0.209589;,
0.474747;0.454869;,
0.437207;0.461243;,
0.637000;0.181449;,
0.868200;0.269434;,
0.637000;0.269434;,
0.868200;0.181449;,
0.474747;0.454869;,
0.437207;0.461243;,
0.487875;0.540236;,
0.487875;0.643233;,
0.490051;0.454869;,
0.496610;0.414502;,
0.496610;0.414502;,
0.490051;0.454869;,
0.159546;0.378384;,
0.159546;0.408128;,
0.801010;0.534025;,
0.746511;0.456787;,
0.746511;0.531223;,
0.801010;0.453985;,
0.159546;0.378384;,
0.159546;0.408128;,
0.150638;0.680889;,
0.150638;0.502580;,
0.159546;0.467616;,
0.159546;0.467616;,
0.041485;0.391131;,
0.030554;0.427249;,
0.662777;0.576273;,
0.549700;0.419141;,
0.549700;0.568869;,
0.662777;0.411737;,
0.041485;0.391131;,
0.030554;0.427249;,
0.038226;0.672865;,
0.038226;0.510604;,
0.048044;0.467616;,
0.048044;0.467616;,
0.097506;0.124678;,
0.070300;0.209737;,
0.525686;0.451837;,
0.525686;0.536173;,
0.413094;0.124678;,
0.440300;0.209737;,
0.006260;0.427186;,
0.005910;0.427509;,
0.005910;0.427509;,
0.006260;0.427186;,
0.012875;0.637380;,
0.012875;0.546088;,
0.070300;0.304804;,
0.440300;0.304804;,
0.030554;0.427249;,
0.006260;0.427186;,
0.005910;0.427509;,
0.390552;0.019604;,
0.120048;0.019604;,
0.081900;0.094657;,
0.428700;0.094657;,
0.227573;0.346515;,
0.345131;0.340141;,
0.840529;0.425006;,
0.840529;0.563004;,
0.928719;0.582466;,
0.928719;0.405544;,
0.345131;0.340141;,
0.227573;0.346515;,
0.727933;0.429836;,
0.727933;0.558174;,
0.518426;0.327260;,
0.521255;0.337521;,
0.479019;0.348518;,
0.476189;0.338257;,
0.978218;0.398715;,
0.951385;0.588855;,
0.951385;0.398715;,
0.978218;0.588855;,
0.971475;0.404024;,
0.965058;0.583759;,
0.965058;0.404024;,
0.971475;0.583759;,
0.976421;0.398715;,
0.949588;0.398715;,
0.949588;0.588855;,
0.976421;0.588855;,
0.964597;0.404024;,
0.958179;0.404024;,
0.958179;0.583759;,
0.964597;0.583759;,
0.518426;0.327260;,
0.476189;0.338257;,
0.479019;0.348518;,
0.521255;0.337521;,
0.130577;0.461774;,
0.118553;0.480364;,
0.082478;0.480364;,
0.070454;0.461774;,
0.123173;0.665024;,
0.080403;0.692072;,
0.080403;0.665024;,
0.123173;0.692072;,
0.137429;0.665024;,
0.137429;0.692072;,
0.070454;0.461774;,
0.130577;0.461774;,
0.070454;0.461774;,
0.130577;0.461774;,
0.066146;0.665024;,
0.066146;0.692072;,
0.130577;0.461774;,
0.070454;0.461774;,
0.082478;0.480364;,
0.118553;0.480364;,
0.130577;0.461774;,
0.118553;0.480364;,
0.082478;0.480364;,
0.070454;0.461774;,
0.075403;0.497857;,
0.118173;0.497857;,
0.075403;0.524905;,
0.118173;0.524905;,
0.132429;0.497857;,
0.132429;0.524905;,
0.130577;0.461774;,
0.070454;0.461774;,
0.070454;0.461774;,
0.130577;0.461774;,
0.061146;0.497857;,
0.061146;0.524905;,
0.130577;0.461774;,
0.070454;0.461774;,
0.082478;0.480364;,
0.118553;0.480364;,
0.412611;0.461774;,
0.400586;0.480364;,
0.364512;0.480364;,
0.352488;0.461774;,
0.407556;0.656786;,
0.364786;0.683834;,
0.364786;0.656786;,
0.407556;0.683834;,
0.421813;0.656786;,
0.421813;0.683834;,
0.352488;0.461774;,
0.412611;0.461774;,
0.352488;0.461774;,
0.412611;0.461774;,
0.350530;0.656786;,
0.350530;0.683834;,
0.412611;0.461774;,
0.352488;0.461774;,
0.364512;0.480364;,
0.400586;0.480364;,
0.412611;0.461774;,
0.400586;0.480364;,
0.364512;0.480364;,
0.352488;0.461774;,
0.364786;0.501546;,
0.407556;0.501546;,
0.364786;0.528594;,
0.407556;0.528594;,
0.421813;0.501546;,
0.421813;0.528594;,
0.412611;0.461774;,
0.352488;0.461774;,
0.352488;0.461774;,
0.412611;0.461774;,
0.350530;0.501546;,
0.350530;0.528594;,
0.412611;0.461774;,
0.352488;0.461774;,
0.364512;0.480364;,
0.400586;0.478390;;
}
}
 }
