# 
# Wavefront material file
# Converted by the DEEP Exploration  Deep Exploration 5 5.0.3.1555 Release
# Right Hemisphere, LTD
# http://www.righthemisphere.com/
# 

newmtl Body
Ka 0 0 0
Kd 0.75 0.75 0.75
Ks 1 1 1
illum 2
Ns 256
map_Kd DIFF.tga
map_bump Bump2.tga
bump Bump2.tga
map_opacity 
map_d 
refl Reflect.tga
map_kS Spec2.tga
map_kA 
map_Ns 

newmtl Glas
Ka 0 0 0
Kd 0.2 0.2 0.2
Ks 0.8 0.8 0.8
illum 2
Ns 22.6274
d 0.2
map_Kd Diff_silver.tga
map_bump Bump2.tga
bump Bump2.tga
map_opacity 
map_d 
refl 
map_kS Spec2.tga
map_kA 
map_Ns 

newmtl Steerwheel
Ka 0 0 0
Kd 1 1 1
Ks 0.278392 0.278392 0.278392
illum 2
Ns 11.3137
map_Kd Diff_silver.tga
map_bump Bump2.tga
bump Bump2.tga
map_opacity 
map_d 
refl 
map_kS Spec2.tga
map_kA 
map_Ns 

newmtl Explorer_Default
Ka 0.117647 0.117647 0.117647
Kd 0.752941 0.752941 0.752941
Ks 0.752941 0.752941 0.752941
illum 2
Ns 8
map_Kd 
map_bump 
bump 
map_opacity 
map_d 
refl 
map_kS 
map_kA 
map_Ns 

newmtl Rubber
Ka 0 0 0
Kd 1 1 1
Ks 0.170627 0.170627 0.170627
illum 2
Ns 6.96441
map_Kd WHEEL.tga
map_bump Wheel_Bump.tga
bump Wheel_Bump.tga
map_opacity 
map_d 
refl 
map_kS Wheel_Spec.tga
map_kA 
map_Ns 

newmtl Alloy
Ka 0 0 0
Kd 1 1 1
Ks 0.862118 0.862118 0.862118
illum 2
Ns 16
map_Kd WHEEL.tga
map_bump Wheel_Bump.tga
bump Wheel_Bump.tga
map_opacity 
map_d 
refl 
map_kS Wheel_Spec.tga
map_kA 
map_Ns 

newmtl Brakedisc
Ka 0 0 0
Kd 1 1 1
Ks 0.754353 0.754353 0.754353
illum 2
Ns 16
map_Kd WHEEL.tga
map_bump 
bump 
map_opacity 
map_d 
refl 
map_kS 
map_kA 
map_Ns 

newmtl Worn_Metal
Ka 0 0 0
Kd 1 1 1
Ks 0 0 0
illum 2
Ns 5.65685
map_Kd WHEEL.tga
map_bump Bump2.tga
bump Bump2.tga
map_opacity 
map_d 
refl 
map_kS Spec2.tga
map_kA 
map_Ns 

newmtl Brake_Caliper
Ka 0 0 0
Kd 1 1 1
Ks 0.601686 0.601686 0.601686
illum 2
Ns 207.937
map_Kd WHEEL.tga
map_bump Wheel_Bump.tga
bump Wheel_Bump.tga
map_opacity 
map_d 
refl 
map_kS Wheel_Spec.tga
map_kA 
map_Ns 
