# 
# Wavefront OBJ file
# Converted by the DEEP Exploration Deep Exploration 5 5.0.3.1555 Release
# Right Hemisphere, LTD
# http://www.righthemisphere.com/
# 
mtllib wheel.mtl
# object object
g object
v -0.13238 -0.00000 0.35149
v 0.12945 0.00000 0.35149
v 0.00001 -0.00014 0.22592
v -0.14010 -0.00014 0.22593
v -0.13238 0.09903 0.33726
v 0.12945 0.09903 0.33726
v 0.13411 0.07240 0.24694
v 0.00001 0.06354 0.21677
v -0.14010 0.06354 0.21677
v -0.13238 0.19003 0.29569
v 0.12945 0.19003 0.29569
v 0.13411 0.13907 0.21649
v 0.00001 0.12207 0.19004
v -0.14010 0.12207 0.19004
v -0.13238 0.26564 0.23018
v 0.12945 0.26564 0.23018
v 0.13411 0.19445 0.16850
v 0.00001 0.17069 0.14791
v -0.14010 0.17069 0.14791
v -0.13238 0.31973 0.14602
v 0.12945 0.31973 0.14602
v 0.13411 0.23407 0.10685
v 0.00001 0.20547 0.09378
v -0.14010 0.20547 0.09378
v -0.13238 0.34792 0.05002
v 0.12945 0.34792 0.05002
v 0.13411 0.25472 0.03653
v 0.00001 0.22360 0.03205
v -0.14010 0.22360 0.03205
v -0.13238 0.34792 -0.05002
v 0.12945 0.34792 -0.05002
v 0.13411 0.25472 -0.03676
v 0.00001 0.22360 -0.03229
v -0.14010 0.22360 -0.03229
v -0.13238 0.31973 -0.14602
v 0.12945 0.31973 -0.14602
v 0.13411 0.23407 -0.10708
v 0.00001 0.20547 -0.09402
v -0.14010 0.20547 -0.09402
v -0.13238 0.26564 -0.23018
v 0.12945 0.26564 -0.23018
v 0.13411 0.19445 -0.16873
v 0.00001 0.17069 -0.14814
v -0.14010 0.17069 -0.14814
v -0.13238 0.19003 -0.29570
v 0.12945 0.19003 -0.29570
v 0.13411 0.13906 -0.21673
v 0.00001 0.12207 -0.19028
v -0.14010 0.12207 -0.19028
v -0.13238 0.09903 -0.33726
v 0.12945 0.09903 -0.33726
v 0.13411 0.07240 -0.24717
v 0.00001 0.06354 -0.21700
v -0.14010 0.06354 -0.21700
v -0.13238 -0.00000 -0.35149
v 0.12945 0.00000 -0.35149
v 0.13411 -0.00014 -0.25760
v 0.00001 -0.00014 -0.22616
v -0.14010 -0.00014 -0.22616
v -0.13238 -0.09903 -0.33726
v 0.12945 -0.09903 -0.33726
v 0.13411 -0.07268 -0.24717
v 0.00001 -0.06383 -0.21700
v -0.14010 -0.06383 -0.21700
v -0.13238 -0.19003 -0.29570
v 0.12945 -0.19003 -0.29570
v 0.13411 -0.13935 -0.21673
v 0.00001 -0.12235 -0.19028
v -0.14010 -0.12235 -0.19028
v -0.13238 -0.26564 -0.23018
v 0.12945 -0.26564 -0.23018
v 0.13411 -0.19474 -0.16873
v 0.00001 -0.17097 -0.14814
v -0.14010 -0.17097 -0.14814
v -0.13238 -0.31973 -0.14602
v 0.12945 -0.31973 -0.14602
v 0.13411 -0.23436 -0.10708
v 0.00001 -0.20576 -0.09402
v -0.14010 -0.20576 -0.09402
v -0.13238 -0.34792 -0.05002
v 0.12945 -0.34792 -0.05002
v 0.13411 -0.25500 -0.03676
v 0.00001 -0.22388 -0.03229
v -0.14010 -0.22388 -0.03229
v -0.13238 -0.34792 0.05002
v 0.12945 -0.34792 0.05002
v 0.13411 -0.25500 0.03653
v 0.00001 -0.22388 0.03205
v -0.14010 -0.22388 0.03205
v -0.13238 -0.31973 0.14602
v 0.12945 -0.31973 0.14602
v 0.13411 -0.23436 0.10685
v 0.00001 -0.20576 0.09378
v -0.14010 -0.20576 0.09378
v -0.13238 -0.26564 0.23018
v 0.12945 -0.26564 0.23018
v 0.13411 -0.19473 0.16850
v 0.00001 -0.17097 0.14791
v -0.14010 -0.17097 0.14791
v -0.13238 -0.19003 0.29570
v 0.12945 -0.19003 0.29569
v 0.13411 -0.13935 0.21649
v 0.00001 -0.12235 0.19004
v -0.14010 -0.12235 0.19004
v -0.13238 -0.09903 0.33726
v 0.12945 -0.09903 0.33726
v 0.00001 -0.06382 0.21677
v -0.14010 -0.06382 0.21677
v 0.05416 0.09081 -0.00000
v 0.05416 0.07864 0.04540
v 0.05416 0.04540 0.07864
v 0.05416 0.00000 0.09081
v 0.05416 -0.04540 0.07864
v 0.05416 -0.07864 0.04540
v 0.05416 -0.09081 -0.00000
v 0.05416 -0.07864 -0.04541
v 0.05416 -0.04540 -0.07864
v 0.05416 0.00000 -0.09081
v 0.05416 0.04540 -0.07864
v 0.05416 0.07864 -0.04541
v 0.13221 0.07975 -0.00000
v 0.13221 0.06906 0.03987
v 0.13221 0.03987 0.06906
v 0.13221 0.00000 0.07975
v 0.13221 -0.03987 0.06906
v 0.13221 -0.06906 0.03987
v 0.13221 -0.07975 -0.00000
v 0.13221 -0.06906 -0.03987
v 0.13221 -0.03987 -0.06906
v 0.13221 -0.00000 -0.07975
v 0.13221 0.03987 -0.06906
v 0.13221 0.06906 -0.03987
v 0.06580 -0.04059 0.31708
v 0.06580 -0.07390 0.30815
v 0.06580 0.12297 -0.29333
v 0.06580 0.08965 -0.30226
v 0.11670 -0.03031 0.26819
v 0.11670 -0.05836 0.26067
v 0.11670 0.10743 -0.24585
v 0.11670 0.07937 -0.25337
v 0.06558 0.04872 -0.31240
v 0.06558 0.08204 -0.30347
v 0.06558 -0.11484 0.29801
v 0.06558 -0.08152 0.30694
v 0.11649 0.03844 -0.26351
v 0.11649 0.06650 -0.25599
v 0.11649 -0.09930 0.25053
v 0.11649 -0.07124 0.25805
v 0.06580 0.30364 0.08941
v 0.06580 -0.30677 -0.07414
v 0.06580 -0.31570 -0.04083
v 0.06580 0.29471 0.12273
v 0.11670 0.25475 0.07913
v 0.11670 0.24723 0.10719
v 0.11670 -0.26681 -0.03055
v 0.11670 -0.25929 -0.05861
v 0.06558 -0.30448 -0.08660
v 0.06558 0.30593 0.07696
v 0.06558 0.31485 0.04364
v 0.06558 -0.29555 -0.11992
v 0.11649 -0.25559 -0.07632
v 0.11649 -0.24807 -0.10438
v 0.11649 0.26597 0.03336
v 0.11649 0.25845 0.06141
v 0.05991 0.19386 0.25589
v 0.05991 -0.12211 -0.29139
v 0.05991 -0.15198 -0.27414
v 0.05991 0.16399 0.27313
v 0.11081 0.16656 0.21405
v 0.11081 0.14140 0.22857
v 0.11081 -0.12468 -0.23230
v 0.11081 -0.09953 -0.24683
v 0.05969 -0.18916 -0.25119
v 0.05969 0.12681 0.29609
v 0.05969 0.15668 0.27884
v 0.05969 -0.15929 -0.26843
v 0.11060 -0.16186 -0.20935
v 0.11059 -0.13671 -0.22387
v 0.11060 0.12938 0.23701
v 0.11060 0.10423 0.25153
v 0.05991 0.26021 -0.18747
v 0.05991 -0.28706 0.12850
v 0.05991 -0.26981 0.15837
v 0.05991 0.27746 -0.15760
v 0.11081 0.21838 -0.16017
v 0.11081 0.23290 -0.13502
v 0.11081 -0.22798 0.13107
v 0.11081 -0.24250 0.10591
v 0.05969 -0.24863 0.19472
v 0.05969 0.29865 -0.12125
v 0.05969 0.28140 -0.15113
v 0.05969 -0.26587 0.16484
v 0.11060 -0.20679 0.16742
v 0.11059 -0.22131 0.14226
v 0.11060 0.23956 -0.12383
v 0.11060 0.25409 -0.09867
v 0.01578 -0.18994 0.00000
v 0.01578 -0.09497 0.16449
v 0.01578 0.09497 0.16449
v 0.01578 0.18994 0.00000
v 0.01578 0.09497 -0.16449
v 0.01578 -0.09497 -0.16449
v -0.00188 -0.18994 0.00000
v -0.00188 -0.09497 0.16449
v -0.00188 0.09497 0.16449
v -0.00188 0.18994 0.00000
v -0.00188 0.09497 -0.16449
v -0.00188 -0.09497 -0.16449
v 0.13411 -0.00014 0.25737
v 0.13411 -0.07268 0.24694
v 0.14010 0.08067 0.27505
v 0.14010 -0.00012 0.28667
v 0.14010 -0.08091 0.27506
v 0.14010 -0.15517 0.24116
v 0.14010 -0.21686 0.18771
v 0.14010 -0.26100 0.11904
v 0.14010 -0.28401 0.04072
v 0.14010 -0.28401 -0.04092
v 0.14010 -0.26101 -0.11925
v 0.14010 -0.21688 -0.18792
v 0.14010 -0.15518 -0.24138
v 0.14010 -0.08092 -0.27529
v 0.14010 -0.00012 -0.28690
v 0.14010 0.08068 -0.27528
v 0.14010 0.15493 -0.24136
v 0.14010 0.21661 -0.18790
v 0.14010 0.26074 -0.11923
v 0.14010 0.28373 -0.04091
v 0.14010 0.28372 0.04071
v 0.14010 0.26072 0.11902
v 0.14010 0.21660 0.18769
v 0.14010 0.15491 0.24114
v 0.05533 0.00000 0.00000
v 0.01578 -0.16424 0.09482
v -0.00188 -0.16424 0.09482
v 0.01578 0.00000 0.18965
v -0.00188 0.00000 0.18965
v 0.01578 0.16424 0.09482
v -0.00188 0.16424 0.09482
v 0.01578 0.16424 -0.09482
v -0.00188 0.16424 -0.09482
v 0.01578 0.00000 -0.18965
v -0.00188 0.00000 -0.18965
v 0.01578 -0.16424 -0.09482
v -0.00188 -0.16424 -0.09482
v -0.00188 -0.00000 0.00000
v 0.01578 0.10543 -0.00000
v 0.01578 -0.10543 0.00000
v 0.01578 -0.05271 -0.09130
v 0.01578 0.05271 0.09130
v 0.01578 -0.05271 0.09130
v 0.01578 0.05271 -0.09130
v 0.01578 0.09116 0.05263
v 0.01578 -0.09116 -0.05263
v 0.01578 0.00000 -0.10527
v 0.01578 0.00000 0.10527
v 0.01578 -0.09116 0.05263
v 0.05533 0.09538 0.00000
v 0.05533 0.08248 0.04762
v 0.05533 0.04769 0.08260
v 0.05533 0.00000 0.09524
v 0.05533 -0.04769 0.08260
v 0.05533 -0.08248 0.04762
v 0.05533 -0.09538 0.00000
v 0.05533 -0.08248 -0.04762
v 0.05533 -0.04769 -0.08260
v 0.05533 0.00000 -0.09524
v 0.05533 0.04769 -0.08260
v 0.05533 0.08248 -0.04762
v 0.12170 -0.03413 0.26210
v 0.12170 -0.05201 0.25731
v 0.12170 0.10108 -0.24249
v 0.12170 0.08319 -0.24728
v 0.12148 0.04226 -0.25742
v 0.12148 0.06014 -0.25263
v 0.12148 -0.09294 0.24717
v 0.12148 -0.07506 0.25196
v 0.12170 0.24866 0.08295
v 0.12170 0.24387 0.10084
v 0.12170 -0.26072 -0.03437
v 0.12170 -0.25593 -0.05225
v 0.12148 -0.24950 -0.08014
v 0.12148 -0.24471 -0.09803
v 0.12148 0.25988 0.03718
v 0.12148 0.25509 0.05506
v 0.11581 0.15955 0.21245
v 0.11581 0.14352 0.22170
v 0.11580 -0.11768 -0.23070
v 0.11580 -0.10164 -0.23996
v 0.11559 -0.15486 -0.20774
v 0.11559 -0.13882 -0.21700
v 0.11559 0.12237 0.23540
v 0.11559 0.10634 0.24466
v 0.11581 0.21677 -0.15317
v 0.11581 0.22603 -0.13713
v 0.11580 -0.22637 0.12406
v 0.11580 -0.23563 0.10803
v 0.11559 -0.20519 0.16041
v 0.11559 -0.21444 0.14438
v 0.11559 0.23796 -0.11682
v 0.11559 0.24722 -0.10079
v 0.13043 -0.00000 -0.00000
v 0.05416 0.00000 -0.00000
v 0.01578 0.09000 -0.05495
v -0.13238 0.09903 0.33726
v -0.13238 0.09903 0.33726
v -0.13238 -0.00000 0.35149
v 0.12945 0.09903 0.33726
v 0.12945 0.09903 0.33726
v 0.12945 0.00000 0.35149
v -0.13238 0.09903 0.33726
v -0.13238 0.19003 0.29569
v -0.13238 0.19003 0.29569
v -0.13238 0.09903 0.33726
v 0.12945 0.19003 0.29569
v 0.12945 0.19003 0.29569
v 0.12945 0.09903 0.33726
v -0.13238 0.26564 0.23018
v -0.13238 0.26564 0.23018
v -0.13238 0.19003 0.29569
v 0.12945 0.26564 0.23018
v 0.12945 0.26564 0.23018
v 0.12945 0.19003 0.29569
v -0.13238 0.31973 0.14602
v -0.13238 0.31973 0.14602
v -0.13238 0.26564 0.23018
v 0.12945 0.31973 0.14602
v 0.12945 0.31973 0.14602
v 0.12945 0.26564 0.23018
v -0.13238 0.31973 0.14602
v -0.13238 0.34792 0.05002
v -0.13238 0.34792 0.05002
v -0.13238 0.31973 0.14602
v 0.12945 0.34792 0.05002
v 0.12945 0.34792 0.05002
v 0.12945 0.31973 0.14602
v -0.13238 0.34792 -0.05002
v -0.13238 0.34792 -0.05002
v -0.13238 0.34792 0.05002
v 0.12945 0.34792 -0.05002
v 0.12945 0.34792 -0.05002
v 0.12945 0.34792 0.05002
v 0.12945 0.34792 -0.05002
v -0.13238 0.31973 -0.14602
v -0.13238 0.31973 -0.14602
v -0.13238 0.34792 -0.05002
v 0.12945 0.34792 -0.05002
v 0.12945 0.31973 -0.14602
v 0.12945 0.31973 -0.14602
v 0.12945 0.34792 -0.05002
v -0.13238 0.31973 -0.14602
v -0.13238 0.26564 -0.23018
v -0.13238 0.26564 -0.23018
v -0.13238 0.31973 -0.14602
v 0.12945 0.26564 -0.23018
v 0.12945 0.26564 -0.23018
v 0.12945 0.31973 -0.14602
v -0.13238 0.26564 -0.23018
v -0.13238 0.19003 -0.29570
v -0.13238 0.19003 -0.29570
v -0.13238 0.26564 -0.23018
v 0.12945 0.19003 -0.29570
v 0.12945 0.19003 -0.29570
v 0.12945 0.26564 -0.23018
v -0.13238 0.19003 -0.29570
v -0.13238 0.09903 -0.33726
v -0.13238 0.09903 -0.33726
v -0.13238 0.19003 -0.29570
v 0.12945 0.09903 -0.33726
v 0.12945 0.09903 -0.33726
v 0.12945 0.19003 -0.29570
v -0.13238 -0.00000 -0.35149
v -0.13238 -0.00000 -0.35149
v -0.13238 0.09903 -0.33726
v 0.12945 0.00000 -0.35149
v 0.12945 0.00000 -0.35149
v 0.12945 0.09903 -0.33726
v -0.13238 -0.00000 -0.35149
v -0.13238 -0.09903 -0.33726
v -0.13238 -0.09903 -0.33726
v -0.13238 -0.00000 -0.35149
v 0.12945 -0.09903 -0.33726
v 0.12945 -0.09903 -0.33726
v 0.12945 0.00000 -0.35149
v -0.13238 -0.09903 -0.33726
v -0.13238 -0.19003 -0.29570
v -0.13238 -0.19003 -0.29570
v -0.13238 -0.09903 -0.33726
v 0.12945 -0.19003 -0.29570
v 0.12945 -0.19003 -0.29570
v 0.12945 -0.09903 -0.33726
v -0.13238 -0.26564 -0.23018
v -0.13238 -0.26564 -0.23018
v -0.13238 -0.19003 -0.29570
v 0.12945 -0.26564 -0.23018
v 0.12945 -0.26564 -0.23018
v 0.12945 -0.19003 -0.29570
v -0.13238 -0.31973 -0.14602
v -0.13238 -0.31973 -0.14602
v -0.13238 -0.26564 -0.23018
v 0.12945 -0.31973 -0.14602
v 0.12945 -0.31973 -0.14602
v 0.12945 -0.26564 -0.23018
v -0.13238 -0.31973 -0.14602
v -0.13238 -0.34792 -0.05002
v -0.13238 -0.34792 -0.05002
v -0.13238 -0.31973 -0.14602
v 0.12945 -0.34792 -0.05002
v 0.12945 -0.34792 -0.05002
v 0.12945 -0.31973 -0.14602
v -0.13238 -0.34792 0.05002
v -0.13238 -0.34792 0.05002
v -0.13238 -0.34792 -0.05002
v 0.12945 -0.34792 0.05002
v 0.12945 -0.34792 0.05002
v 0.12945 -0.34792 -0.05002
v -0.13238 -0.34792 0.05002
v -0.13238 -0.31973 0.14602
v -0.13238 -0.31973 0.14602
v -0.13238 -0.34792 0.05002
v 0.12945 -0.31973 0.14602
v 0.12945 -0.31973 0.14602
v 0.12945 -0.34792 0.05002
v -0.13238 -0.26564 0.23018
v -0.13238 -0.26564 0.23018
v -0.13238 -0.31973 0.14602
v 0.12945 -0.26564 0.23018
v 0.12945 -0.26564 0.23018
v 0.12945 -0.31973 0.14602
v -0.13238 -0.26564 0.23018
v -0.13238 -0.19003 0.29570
v -0.13238 -0.19003 0.29570
v -0.13238 -0.26564 0.23018
v 0.12945 -0.19003 0.29569
v 0.12945 -0.19003 0.29569
v 0.12945 -0.26564 0.23018
v -0.13238 -0.19003 0.29570
v -0.13238 -0.09903 0.33726
v -0.13238 -0.09903 0.33726
v -0.13238 -0.19003 0.29570
v 0.12945 -0.09903 0.33726
v 0.12945 -0.09903 0.33726
v 0.12945 -0.19003 0.29569
v -0.13238 -0.09903 0.33726
v -0.13238 -0.00000 0.35149
v -0.13238 -0.00000 0.35149
v -0.13238 -0.09903 0.33726
v 0.12945 0.00000 0.35149
v 0.12945 0.00000 0.35149
v 0.12945 -0.09903 0.33726
v -0.14010 -0.00014 0.22593
v -0.14010 -0.00014 0.22593
v -0.14010 0.06354 0.21677
v -0.14010 -0.06382 0.21677
v -0.14010 -0.06382 0.21677
v -0.14010 -0.00014 0.22593
v -0.14010 -0.12235 0.19004
v -0.14010 -0.12235 0.19004
v -0.14010 -0.06382 0.21677
v -0.14010 -0.17097 0.14791
v -0.14010 -0.17097 0.14791
v -0.14010 -0.12235 0.19004
v -0.14010 -0.20576 0.09378
v -0.14010 -0.20576 0.09378
v -0.14010 -0.17097 0.14791
v -0.14010 -0.22388 0.03205
v -0.14010 -0.22388 0.03205
v -0.14010 -0.20576 0.09378
v -0.14010 -0.22388 -0.03229
v -0.14010 -0.22388 -0.03229
v -0.14010 -0.22388 0.03205
v -0.14010 -0.20576 -0.09402
v -0.14010 -0.20576 -0.09402
v -0.14010 -0.22388 -0.03229
v -0.14010 -0.17097 -0.14814
v -0.14010 -0.17097 -0.14814
v -0.14010 -0.20576 -0.09402
v -0.14010 -0.12235 -0.19028
v -0.14010 -0.12235 -0.19028
v -0.14010 -0.17097 -0.14814
v -0.14010 -0.06383 -0.21700
v -0.14010 -0.06383 -0.21700
v -0.14010 -0.12235 -0.19028
v -0.14010 -0.00014 -0.22616
v -0.14010 -0.00014 -0.22616
v -0.14010 -0.06383 -0.21700
v -0.14010 0.06354 -0.21700
v -0.14010 0.06354 -0.21700
v -0.14010 -0.00014 -0.22616
v -0.14010 0.12207 -0.19028
v -0.14010 0.12207 -0.19028
v -0.14010 0.06354 -0.21700
v -0.14010 0.17069 -0.14814
v -0.14010 0.17069 -0.14814
v -0.14010 0.12207 -0.19028
v -0.14010 0.20547 -0.09402
v -0.14010 0.20547 -0.09402
v -0.14010 0.17069 -0.14814
v -0.14010 0.22360 -0.03229
v -0.14010 0.22360 -0.03229
v -0.14010 0.20547 -0.09402
v -0.14010 0.22360 0.03205
v -0.14010 0.22360 0.03205
v -0.14010 0.22360 -0.03229
v -0.14010 0.20547 0.09378
v -0.14010 0.20547 0.09378
v -0.14010 0.22360 0.03205
v -0.14010 0.17069 0.14791
v -0.14010 0.17069 0.14791
v -0.14010 0.20547 0.09378
v -0.14010 0.12207 0.19004
v -0.14010 0.12207 0.19004
v -0.14010 0.17069 0.14791
v -0.14010 0.06354 0.21677
v -0.14010 0.06354 0.21677
v -0.14010 0.12207 0.19004
v 0.01578 0.16424 -0.09482
v 0.01578 0.16424 -0.09482
v 0.14010 -0.00012 0.28667
v 0.14010 0.08067 0.27505
v 0.14010 -0.00012 0.28667
v 0.14010 0.08067 0.27505
v 0.14010 0.15491 0.24114
v 0.14010 0.08067 0.27505
v 0.14010 0.15491 0.24114
v 0.14010 0.21660 0.18769
v 0.14010 0.15491 0.24114
v 0.14010 0.21660 0.18769
v 0.14010 0.26072 0.11902
v 0.14010 0.21660 0.18769
v 0.14010 0.26072 0.11902
v 0.14010 0.28372 0.04071
v 0.14010 0.26072 0.11902
v 0.14010 0.28372 0.04071
v 0.14010 0.28373 -0.04091
v 0.14010 0.28372 0.04071
v 0.14010 0.28373 -0.04091
v 0.14010 0.26074 -0.11923
v 0.14010 0.28373 -0.04091
v 0.14010 0.26074 -0.11923
v 0.14010 0.21661 -0.18790
v 0.14010 0.26074 -0.11923
v 0.14010 0.21661 -0.18790
v 0.14010 0.15493 -0.24136
v 0.14010 0.21661 -0.18790
v 0.14010 0.15493 -0.24136
v 0.14010 0.08068 -0.27528
v 0.14010 0.15493 -0.24136
v 0.14010 0.08068 -0.27528
v 0.14010 -0.00012 -0.28690
v 0.14010 0.08068 -0.27528
v 0.14010 -0.00012 -0.28690
v 0.14010 -0.08092 -0.27529
v 0.14010 -0.00012 -0.28690
v 0.14010 -0.08092 -0.27529
v 0.14010 -0.15518 -0.24138
v 0.14010 -0.08092 -0.27529
v 0.14010 -0.15518 -0.24138
v 0.14010 -0.21688 -0.18792
v 0.14010 -0.15518 -0.24138
v 0.14010 -0.21688 -0.18792
v 0.14010 -0.26101 -0.11925
v 0.14010 -0.21688 -0.18792
v 0.14010 -0.26101 -0.11925
v 0.14010 -0.28401 -0.04092
v 0.14010 -0.26101 -0.11925
v 0.14010 -0.28401 -0.04092
v 0.14010 -0.28401 0.04072
v 0.14010 -0.28401 -0.04092
v 0.14010 -0.28401 0.04072
v 0.14010 -0.26100 0.11904
v 0.14010 -0.28401 0.04072
v 0.14010 -0.26100 0.11904
v 0.14010 -0.21686 0.18771
v 0.14010 -0.26100 0.11904
v 0.14010 -0.21686 0.18771
v 0.14010 -0.15517 0.24116
v 0.14010 -0.21686 0.18771
v 0.14010 -0.15517 0.24116
v 0.14010 -0.08091 0.27506
v 0.14010 -0.15517 0.24116
v 0.14010 -0.08091 0.27506
v 0.14010 -0.00012 0.28667
v 0.14010 -0.08091 0.27506
v 0.01578 0.09000 -0.05495
v 0.01578 0.09000 -0.05495
v 0.01578 0.10543 -0.00000
v 0.01578 0.09116 0.05263
v 0.01578 0.10543 -0.00000
v 0.01578 0.09116 0.05263
v 0.01578 0.05271 0.09130
v 0.01578 0.09116 0.05263
v 0.01578 0.05271 0.09130
v 0.01578 0.00000 0.10527
v 0.01578 0.05271 0.09130
v 0.01578 0.00000 0.10527
v 0.01578 -0.05271 0.09130
v 0.01578 0.00000 0.10527
v 0.01578 -0.05271 0.09130
v 0.01578 -0.09116 0.05263
v 0.01578 -0.05271 0.09130
v 0.01578 -0.09116 0.05263
v 0.01578 -0.10543 0.00000
v 0.01578 -0.09116 0.05263
v 0.01578 -0.10543 0.00000
v 0.01578 -0.09116 -0.05263
v 0.01578 -0.10543 0.00000
v 0.01578 -0.09116 -0.05263
v 0.01578 -0.05271 -0.09130
v 0.01578 -0.09116 -0.05263
v 0.01578 -0.05271 -0.09130
v 0.01578 0.00000 -0.10527
v 0.01578 -0.05271 -0.09130
v 0.01578 0.00000 -0.10527
v 0.01578 0.05271 -0.09130
v 0.01578 0.00000 -0.10527
v 0.01578 0.05271 -0.09130
v 0.01578 0.09000 -0.05495
v 0.05533 0.08248 -0.04762
v 0.05533 0.08248 -0.04762
v 0.01578 0.05271 -0.09130
v 0.01578 0.09000 -0.05495
v 0.01578 0.10543 -0.00000
v 0.01578 0.09000 -0.05495
# 624 verticies
vt 0.04329 0.96499
vt 0.05157 0.97251
vt 0.04261 0.96982
vt 0.05263 0.96500
vt 0.59281 0.77273
vt 0.68282 0.72727
vt 0.68282 0.77273
vt 0.59281 0.72727
vt 0.00701 0.78941
vt 0.05743 0.70187
vt 0.06664 0.76687
vt -0.00036 0.70912
vt 0.48146 0.76675
vt 0.43576 0.80485
vt 0.45783 0.75922
vt 0.45633 0.81873
vt 0.04848 0.97941
vt 0.04062 0.97426
vt 0.05157 0.97251
vt 0.59281 0.81818
vt 0.68282 0.81818
vt 0.04165 0.86749
vt 0.09378 0.82663
vt 0.49091 0.70978
vt 0.46612 0.70921
vt 0.04360 0.98515
vt 0.03748 0.97795
vt 0.59281 0.86364
vt 0.68282 0.86364
vt 0.09521 0.93061
vt 0.13535 0.87892
vt 0.48391 0.65243
vt 0.45998 0.65886
vt 0.03734 0.98925
vt 0.03346 0.98058
vt 0.59281 0.90909
vt 0.68282 0.90909
vt 0.16629 0.97510
vt 0.19260 0.91232
vt 0.46104 0.59935
vt 0.43989 0.61226
vt 0.03020 0.99139
vt 0.02887 0.98196
vt 0.03734 0.98925
vt 0.59281 0.95455
vt 0.68282 0.95455
vt 0.24713 0.99792
vt 0.25559 0.93069
vt 0.42413 0.55483
vt 0.40749 0.57318
vt 0.02408 0.98196
vt 0.02276 0.99139
vt 0.68282 1.00000
vt 0.59281 1.00000
vt 0.32120 0.93056
vt 0.32805 0.99792
vt 0.36540 0.54480
vt 0.37618 0.52250
vt 0.01949 0.98058
vt 0.01562 0.98925
vt 0.59281 0.04545
vt 0.68282 0.00000
vt 0.68282 0.04545
vt 0.59281 -0.00000
vt 0.38411 0.91194
vt 0.41486 0.97570
vt 0.31703 0.52939
vt 0.32109 0.50495
vt 0.01546 0.97795
vt 0.00936 0.98515
vt 0.01562 0.98925
vt 0.59281 0.09091
vt 0.68282 0.09091
vt 0.43924 0.87634
vt 0.48292 0.92945
vt 0.26630 0.52823
vt 0.26330 0.50362
vt 0.01233 0.97426
vt 0.00449 0.97941
vt 0.00936 0.98515
vt 0.59281 0.13636
vt 0.68282 0.13636
vt 0.48211 0.82664
vt 0.54009 0.86133
vt 0.21732 0.54139
vt 0.20750 0.51862
vt 0.01034 0.96982
vt 0.00139 0.97251
vt 0.00449 0.97941
vt 0.68282 0.18182
vt 0.59281 0.18182
vt 0.50925 0.76687
vt 0.57380 0.78942
vt 0.17406 0.56782
vt 0.15822 0.54872
vt 0.00966 0.96499
vt 0.00034 0.96500
vt 0.68282 0.22727
vt 0.59281 0.22727
vt 0.51846 0.70187
vt 0.58012 0.70637
vt 0.14001 0.60537
vt 0.11944 0.59149
vt 0.01034 0.96016
vt 0.00139 0.95749
vt 0.00034 0.96500
vt 0.68282 0.27273
vt 0.59281 0.27273
vt 0.50899 0.63690
vt 0.56963 0.62033
vt 0.11795 0.65100
vt 0.09431 0.64347
vt 0.01233 0.95572
vt 0.00449 0.95059
vt 0.00139 0.95749
vt 0.68282 0.31818
vt 0.59281 0.31818
vt 0.48162 0.57723
vt 0.53889 0.54454
vt 0.10965 0.70101
vt 0.08486 0.70044
vt 0.01546 0.95203
vt 0.00936 0.94485
vt 0.68282 0.36364
vt 0.59281 0.36364
vt 0.43925 0.52831
vt 0.47827 0.48123
vt 0.11580 0.75136
vt 0.09186 0.75779
vt 0.01562 0.94075
vt 0.01949 0.94940
vt 0.68282 0.40909
vt 0.59281 0.40909
vt 0.38412 0.49271
vt 0.40550 0.43503
vt 0.13588 0.79796
vt 0.11474 0.81087
vt 0.02276 0.93862
vt 0.02408 0.94802
vt 0.01562 0.94075
vt 0.68282 0.45455
vt 0.59281 0.45455
vt 0.32120 0.47409
vt 0.32493 0.41425
vt 0.16828 0.83704
vt 0.15165 0.85539
vt 0.03020 0.93862
vt 0.02887 0.94802
vt 0.68282 0.50000
vt 0.59281 0.50000
vt 0.25559 0.47396
vt 0.24594 0.41518
vt 0.21037 0.86543
vt 0.19959 0.88773
vt 0.03734 0.94075
vt 0.03346 0.94940
vt 0.03020 0.93862
vt 0.68282 0.54545
vt 0.59281 0.54545
vt 0.19260 0.49233
vt 0.16384 0.44184
vt 0.25874 0.88083
vt 0.25469 0.90527
vt 0.04360 0.94486
vt 0.03748 0.95203
vt 0.68282 0.59091
vt 0.59281 0.59091
vt 0.13733 0.52771
vt 0.09450 0.48791
vt 0.30947 0.88199
vt 0.31248 0.90660
vt 0.04848 0.95059
vt 0.04062 0.95572
vt 0.04360 0.94486
vt 0.68282 0.63636
vt 0.59281 0.63636
vt 0.09427 0.57725
vt 0.04097 0.55086
vt 0.35845 0.86883
vt 0.36827 0.89160
vt 0.05157 0.95749
vt 0.04261 0.96016
vt 0.04848 0.95059
vt 0.68282 0.68182
vt 0.59281 0.68182
vt 0.06689 0.63691
vt 0.00908 0.62751
vt 0.40172 0.84240
vt 0.41755 0.86150
vt 0.05157 0.95749
vt 0.43576 0.80485
vt 0.45783 0.75922
vt 0.40172 0.84240
vt 0.35845 0.86883
vt 0.30947 0.88199
vt 0.25874 0.88083
vt 0.21037 0.86543
vt 0.16828 0.83704
vt 0.13588 0.79796
vt 0.11580 0.75136
vt 0.10965 0.70101
vt 0.11795 0.65100
vt 0.14001 0.60537
vt 0.17406 0.56782
vt 0.21732 0.54139
vt 0.26630 0.52823
vt 0.31703 0.52939
vt 0.36540 0.54480
vt 0.40749 0.57319
vt 0.43989 0.61226
vt 0.45998 0.65886
vt 0.46612 0.70921
vt 0.35237 0.67374
vt 0.32315 0.65299
vt 0.32803 0.64576
vt 0.34453 0.67756
vt 0.35948 0.71012
vt 0.35077 0.70950
vt 0.34743 0.74514
vt 0.34019 0.74026
vt 0.31947 0.76942
vt 0.31564 0.76158
vt 0.28309 0.77647
vt 0.28369 0.76777
vt 0.24802 0.76438
vt 0.25290 0.75715
vt 0.22368 0.73639
vt 0.23152 0.73258
vt 0.21658 0.70002
vt 0.22528 0.70064
vt 0.22862 0.66500
vt 0.23586 0.66988
vt 0.28803 0.70507
vt 0.25658 0.64071
vt 0.29297 0.63367
vt 0.26041 0.64856
vt 0.29236 0.64237
vt 0.47758 0.87149
vt 0.15030 0.49533
vt 0.12979 0.51315
vt 0.45706 0.88931
vt 0.44446 0.84301
vt 0.43345 0.85258
vt 0.16290 0.54162
vt 0.17392 0.53206
vt 0.43285 0.85821
vt 0.45012 0.84320
vt 0.15724 0.54143
vt 0.17452 0.52642
vt 0.43240 0.91157
vt 0.45291 0.89375
vt 0.10512 0.53540
vt 0.12564 0.51758
vt 0.14925 0.55431
vt 0.41979 0.86527
vt 0.13824 0.56388
vt 0.40878 0.87483
vt 0.14985 0.54868
vt 0.13257 0.56369
vt 0.42546 0.86546
vt 0.40818 0.88047
vt 0.12225 0.89323
vt 0.48027 0.54622
vt 0.10439 0.87270
vt 0.49814 0.56676
vt 0.45183 0.57928
vt 0.46142 0.59030
vt 0.15069 0.86018
vt 0.14110 0.84916
vt 0.46706 0.59091
vt 0.45201 0.57362
vt 0.15051 0.86584
vt 0.13547 0.84855
vt 0.47313 0.53923
vt 0.45527 0.51870
vt 0.09725 0.86570
vt 0.07938 0.84517
vt 0.42683 0.55175
vt 0.12569 0.83265
vt 0.11610 0.82163
vt 0.43641 0.56277
vt 0.11046 0.82102
vt 0.12551 0.83831
vt 0.42701 0.54609
vt 0.44205 0.56338
vt 0.04173 0.68336
vt 0.54082 0.69138
vt 0.04361 0.65624
vt 0.53895 0.71850
vt 0.49729 0.69461
vt 0.49628 0.70917
vt 0.08527 0.68012
vt 0.08627 0.66557
vt 0.49985 0.71358
vt 0.50143 0.69075
vt 0.08113 0.68399
vt 0.08271 0.66116
vt 0.53759 0.75291
vt 0.53946 0.72579
vt 0.04037 0.71777
vt 0.04225 0.69065
vt 0.49593 0.72902
vt 0.08391 0.71453
vt 0.08491 0.69998
vt 0.49492 0.74358
vt 0.08135 0.69556
vt 0.07977 0.71840
vt 0.50007 0.72515
vt 0.49849 0.74799
vt 0.24564 0.94924
vt 0.27277 0.95116
vt 0.28001 0.45240
vt 0.30715 0.45432
vt 0.29788 0.49694
vt 0.26947 0.90765
vt 0.28332 0.49591
vt 0.25490 0.90662
vt 0.30229 0.49339
vt 0.27944 0.49177
vt 0.27334 0.91179
vt 0.25049 0.91018
vt 0.30589 0.95336
vt 0.34026 0.45652
vt 0.31312 0.45461
vt 0.27875 0.95145
vt 0.30258 0.90985
vt 0.28801 0.90883
vt 0.31643 0.49812
vt 0.33099 0.49914
vt 0.28360 0.91238
vt 0.30646 0.91399
vt 0.31255 0.49398
vt 0.33540 0.49559
vt 0.29124 0.06768
vt 0.21111 0.04601
vt 0.37136 0.20625
vt 0.35010 0.12613
vt 0.29124 0.34482
vt 0.35010 0.28637
vt 0.21111 0.36650
vt 0.13099 0.34482
vt 0.07213 0.28637
vt 0.05087 0.20625
vt 0.13099 0.06768
vt 0.07213 0.12613
vt 0.21111 0.29520
vt 0.16469 0.28219
vt 0.13099 0.34482
vt 0.21111 0.20625
vt 0.47423 0.83078
vt 0.50203 0.77329
vt 0.51248 0.71027
vt 0.50473 0.64683
vt 0.47943 0.58812
vt 0.43861 0.53888
vt 0.38558 0.50311
vt 0.32463 0.48370
vt 0.26071 0.48222
vt 0.19899 0.49880
vt 0.14446 0.53210
vt 0.10156 0.57941
vt 0.07376 0.63691
vt 0.06330 0.69994
vt 0.07104 0.76339
vt 0.09635 0.82211
vt 0.13718 0.87135
vt 0.19023 0.90713
vt 0.25118 0.92653
vt 0.31511 0.92800
vt 0.37683 0.91140
vt 0.43134 0.87810
vt 0.30006 0.20625
vt 0.28826 0.25072
vt 0.16664 0.12934
vt 0.21111 0.11731
vt 0.12217 0.20625
vt 0.13397 0.16178
vt 0.26729 0.75029
vt 0.26962 0.74800
vt 0.26413 0.74486
vt 0.26413 0.75114
vt 0.26097 0.75029
vt 0.25865 0.74800
vt 0.25559 0.12934
vt 0.28826 0.16178
vt 0.25781 0.74486
vt 0.19231 0.44382
vt 0.13397 0.25072
vt 0.27045 0.74486
vt 0.26413 0.73858
vt 0.26097 0.73942
vt 0.25865 0.74172
vt 0.25559 0.28316
vt 0.26962 0.74172
vt 0.26729 0.73942
vt 0.26072 0.75033
vt 0.26075 0.75036
vt 0.28803 0.70507
# 398 texture verticies
vn -0.99811 0.00294 0.06133
vn -0.99808 0.00882 0.06132
vn -0.99811 0.02009 0.05800
vn -0.99811 -0.00294 0.06134
vn 0.00000 0.14231 0.98982
vn 0.00000 0.04787 0.99885
vn 0.00000 0.32734 0.94491
vn 0.00000 0.14231 0.98982
vn 0.98652 0.02330 0.16200
vn 0.98675 0.00777 0.16208
vn 0.98676 0.05309 0.15325
vn 0.98651 0.02329 0.16201
vn 0.22804 -0.22927 -0.94627
vn 0.11494 0.00062 -0.99337
vn 0.11494 -0.27927 -0.95331
vn 0.22804 0.04661 -0.97253
vn -0.99811 0.03067 0.05316
vn -0.99811 0.03561 0.04998
vn -0.99808 0.02573 0.05634
vn 0.00000 0.41542 0.90963
vn -0.00000 0.58029 0.81441
vn 0.00000 0.41542 0.90963
vn 0.98653 0.06797 0.14881
vn 0.98677 0.09408 0.13204
vn 0.98653 0.06796 0.14882
vn 0.22804 -0.48658 -0.84335
vn 0.11494 -0.53653 -0.83602
vn -0.99811 0.04440 0.04237
vn -0.99811 0.04825 0.03792
vn -0.00000 0.65486 0.75575
vn -0.00000 0.78623 0.61793
vn -0.00000 0.65486 0.75575
vn 0.98653 0.10711 0.12361
vn 0.98677 0.12746 0.10018
vn 0.98653 0.10711 0.12361
vn 0.22804 -0.70447 -0.67210
vn 0.11494 -0.75033 -0.65099
vn -0.99808 0.05210 0.03348
vn -0.99811 0.05699 0.02279
vn -0.00000 0.84125 0.54064
vn -0.00000 0.92848 0.37139
vn 0.98653 0.13759 0.08843
vn 0.98677 0.15054 0.06022
vn 0.98653 0.13759 0.08842
vn 0.22804 -0.86529 -0.44640
vn 0.11494 -0.90335 -0.41323
vn -0.99811 0.06027 0.01163
vn -0.99811 0.06111 0.00582
vn -0.99808 0.05943 0.01745
vn -0.00000 0.95949 0.28173
vn -0.00000 0.99550 0.09477
vn -0.00000 0.95949 0.28173
vn 0.98653 0.15697 0.04609
vn 0.98676 0.16147 0.01537
vn 0.98653 0.15696 0.04609
vn 0.22804 -0.95600 -0.18454
vn 0.11494 -0.98317 -0.14199
vn -0.99811 0.06029 -0.01164
vn -0.99811 0.06112 -0.00582
vn -0.00000 1.00000 0.00000
vn -0.00000 1.00000 -0.00000
vn 0.98674 0.15934 -0.03076
vn 0.98652 0.16367 0.00001
vn 0.98652 0.16365 0.00000
vn 0.11494 -0.98335 0.14075
vn 0.22804 -0.96927 0.09227
vn -0.99811 0.05459 -0.02816
vn -0.99808 0.05946 -0.01746
vn -0.00000 0.95949 -0.28173
vn -0.00000 0.88870 -0.45848
vn -0.00000 0.95949 -0.28173
vn 0.98673 0.14432 -0.07445
vn 0.98650 0.15713 -0.04612
vn 0.98650 0.15711 -0.04613
vn 0.11494 -0.90386 0.41209
vn 0.22804 -0.90401 0.36161
vn -0.99811 0.04446 -0.04242
vn -0.99808 0.05215 -0.03352
vn -0.99808 0.05215 -0.03352
vn -0.00000 0.84125 -0.54064
vn -0.00000 0.72353 -0.69029
vn -0.00000 0.84125 -0.54064
vn 0.98671 0.11759 -0.11218
vn 0.98648 0.13787 -0.08859
vn 0.98648 0.13785 -0.08859
vn 0.11494 -0.75115 0.65005
vn 0.22804 -0.76552 0.60165
vn -0.99811 0.03072 -0.05325
vn -0.99808 0.04061 -0.04687
vn -0.99808 0.04061 -0.04687
vn -0.00000 0.65486 -0.75575
vn -0.00000 0.49975 -0.86617
vn -0.00000 0.65486 -0.75575
vn 0.98668 0.08128 -0.14088
vn 0.98646 0.10741 -0.12394
vn 0.98646 0.10739 -0.12393
vn 0.11494 -0.53758 0.83534
vn 0.22804 -0.56500 0.79295
vn -0.99811 0.01448 -0.05977
vn -0.99811 0.02013 -0.05810
vn -0.99807 0.02577 -0.05644
vn -0.00000 0.23548 -0.97188
vn -0.00000 0.41541 -0.90963
vn -0.00000 0.41541 -0.90963
vn 0.98666 0.03833 -0.15819
vn 0.98644 0.06820 -0.14930
vn 0.98644 0.06817 -0.14929
vn 0.11494 -0.28047 0.95296
vn 0.22804 -0.31872 0.92001
vn -0.99811 -0.00295 -0.06145
vn -0.99807 0.00883 -0.06143
vn 0.00000 -0.04787 -0.99885
vn -0.00000 0.14231 -0.98982
vn 0.00000 0.14231 -0.98982
vn 0.98665 -0.00780 -0.16269
vn 0.98642 0.02339 -0.16259
vn 0.98642 0.02338 -0.16257
vn 0.11494 -0.00062 0.99337
vn 0.22804 -0.04661 0.97254
vn -0.99810 -0.02014 -0.05815
vn -0.99807 -0.00883 -0.06145
vn -0.99807 -0.00883 -0.06145
vn 0.00000 -0.32734 -0.94491
vn 0.00000 -0.14232 -0.98982
vn 0.00000 -0.14232 -0.98982
vn 0.98663 -0.05334 -0.15398
vn 0.98640 -0.02338 -0.16269
vn 0.98640 -0.02339 -0.16267
vn 0.11494 0.27927 0.95331
vn 0.22804 0.22927 0.94627
vn -0.99810 -0.03572 -0.05012
vn -0.99810 -0.03076 -0.05331
vn -0.99807 -0.02580 -0.05649
vn -0.00000 -0.58029 -0.81441
vn -0.00000 -0.41541 -0.90963
vn 0.00000 -0.41541 -0.90963
vn 0.98663 -0.09459 -0.13275
vn 0.98639 -0.06830 -0.14957
vn 0.98639 -0.06830 -0.14956
vn 0.11494 0.53653 0.83602
vn 0.22804 0.48658 0.84335
vn -0.99810 -0.04839 -0.03803
vn -0.99810 -0.04453 -0.04249
vn -0.00000 -0.78623 -0.61793
vn -0.00000 -0.65486 -0.75575
vn -0.00000 -0.65486 -0.75575
vn 0.98662 -0.12817 -0.10073
vn 0.98638 -0.10770 -0.12430
vn 0.98638 -0.10770 -0.12429
vn 0.11494 0.75033 0.65099
vn 0.22804 0.70447 0.67210
vn -0.99807 -0.05225 -0.03358
vn -0.99810 -0.05714 -0.02286
vn 0.00000 -0.92848 -0.37139
vn -0.00000 -0.84126 -0.54064
vn -0.00000 -0.84125 -0.54064
vn 0.98663 -0.15134 -0.06053
vn 0.98638 -0.13836 -0.08891
vn 0.98638 -0.13836 -0.08892
vn 0.11494 0.90334 0.41323
vn 0.22804 0.86529 0.44640
vn -0.99810 -0.06042 -0.01166
vn -0.99811 -0.06126 -0.00583
vn -0.99807 -0.05959 -0.01750
vn -0.00000 -0.99550 -0.09477
vn -0.00000 -0.95949 -0.28173
vn 0.00000 -0.95949 -0.28173
vn 0.98664 -0.16221 -0.01544
vn 0.98639 -0.15777 -0.04632
vn 0.98639 -0.15778 -0.04633
vn 0.11494 0.98317 0.14199
vn 0.22804 0.95600 0.18454
vn -0.99807 -0.06209 -0.00000
vn -0.99811 -0.06040 0.01166
vn 0.00000 -0.98187 0.18954
vn 0.00000 -1.00000 0.00000
vn 0.98665 -0.15990 0.03087
vn 0.98640 -0.16436 0.00001
vn 0.98640 -0.16437 0.00000
vn 0.11494 0.98335 -0.14075
vn 0.22804 0.96927 -0.09227
vn -0.99811 -0.05710 0.02284
vn -0.99811 -0.05465 0.02819
vn -0.99807 -0.05956 0.01749
vn 0.00000 -0.88870 0.45848
vn 0.00000 -0.95949 0.28173
vn 0.00000 -0.95949 0.28173
vn 0.98667 -0.14463 0.07462
vn 0.98642 -0.15760 0.04629
vn 0.98641 -0.15762 0.04628
vn 0.11494 0.90386 -0.41209
vn 0.22804 0.90401 -0.36161
vn -0.99807 -0.05220 0.03354
vn -0.99811 -0.04448 0.04243
vn -0.00000 -0.72353 0.69029
vn -0.00000 -0.84125 0.54064
vn 0.00000 -0.84125 0.54064
vn 0.98669 -0.11766 0.11225
vn 0.98644 -0.13807 0.08875
vn 0.98643 -0.13810 0.08875
vn 0.11494 0.75115 -0.65005
vn 0.22804 0.76552 -0.60165
vn -0.99807 -0.04062 0.04687
vn -0.99811 -0.03071 0.05322
vn -0.99807 -0.04061 0.04687
vn 0.00000 -0.49975 0.86617
vn 0.00000 -0.65486 0.75575
vn -0.00000 -0.65486 0.75575
vn 0.98671 -0.08120 0.14074
vn 0.98646 -0.10739 0.12396
vn 0.98646 -0.10742 0.12397
vn 0.11494 0.53758 -0.83534
vn 0.22804 0.56500 -0.79295
vn -0.99808 -0.02575 0.05639
vn -0.99811 -0.01446 0.05969
vn -0.99808 -0.02575 0.05639
vn 0.00000 -0.23548 0.97188
vn 0.00000 -0.41542 0.90963
vn 0.00000 -0.41541 0.90963
vn 0.98673 -0.03823 0.15780
vn 0.98648 -0.06807 0.14908
vn 0.98648 -0.06809 0.14909
vn 0.11494 0.28047 -0.95296
vn 0.22804 0.31872 -0.92001
vn -0.99808 -0.00882 0.06134
vn 0.00000 -0.14231 0.98982
vn 0.00000 -0.14231 0.98982
vn 0.98650 -0.02329 0.16210
vn 0.98650 -0.02331 0.16212
vn -0.00000 -0.14232 -0.98982
vn -0.00000 -0.14231 -0.98982
vn -0.00000 0.14232 -0.98982
vn -0.00000 0.14232 -0.98982
vn -0.00000 0.41542 -0.90963
vn -0.00000 0.41542 -0.90963
vn -0.00000 0.65486 -0.75575
vn -0.00000 0.65486 -0.75575
vn -0.00000 0.84126 -0.54064
vn -0.00000 0.84125 -0.54064
vn -0.00000 0.95949 -0.28173
vn -0.00000 0.95949 -0.28173
vn 0.00000 1.00000 0.00000
vn 0.00000 0.95949 0.28173
vn 0.00000 0.95949 0.28173
vn 0.00000 0.84125 0.54064
vn 0.00000 0.84125 0.54064
vn 0.00000 0.65486 0.75575
vn 0.00000 0.65486 0.75575
vn 0.00000 0.41542 0.90963
vn 0.00000 0.41542 0.90963
vn 0.00000 0.14231 0.98982
vn 0.00000 0.14231 0.98982
vn 0.00000 -0.14231 0.98982
vn 0.00000 -0.14231 0.98982
vn 0.00000 -0.41542 0.90963
vn 0.00000 -0.41542 0.90963
vn 0.00000 -0.65486 0.75575
vn 0.00000 -0.65486 0.75575
vn -0.00000 -0.84126 0.54064
vn 0.00000 -0.84125 0.54064
vn -0.00000 -0.95949 0.28173
vn -0.00000 -0.95949 0.28173
vn -0.00000 -1.00000 0.00000
vn -0.00000 -0.95949 -0.28173
vn -0.00000 -0.95949 -0.28173
vn 0.00000 -0.84126 -0.54064
vn -0.00000 -0.84125 -0.54064
vn -0.00000 -0.65486 -0.75575
vn 0.00000 -0.65486 -0.75575
vn -0.00000 -0.41542 -0.90963
vn -0.00000 -0.41542 -0.90963
vn 0.13981 0.89816 0.41684
vn 0.13981 0.98625 0.08809
vn 0.13981 0.98625 -0.08809
vn 0.13981 0.81007 0.56941
vn 0.13981 0.56941 0.81008
vn 0.13981 0.41684 0.89816
vn 0.13981 0.08809 0.98625
vn 0.13981 -0.08809 0.98625
vn 0.13980 -0.41684 0.89817
vn 0.13980 -0.56941 0.81008
vn 0.13980 -0.81007 0.56942
vn 0.13981 -0.89816 0.41684
vn 0.13981 -0.98625 0.08809
vn 0.13981 -0.98625 -0.08809
vn 0.13981 -0.89816 -0.41684
vn 0.13981 -0.81008 -0.56941
vn 0.13981 -0.56941 -0.81007
vn 0.13981 -0.41684 -0.89816
vn 0.13981 -0.08809 -0.98625
vn 0.13981 0.08809 -0.98625
vn -1.00000 0.00000 -0.00000
vn -1.00000 0.00000 0.00000
vn -1.00000 0.00000 0.00000
vn 0.13981 0.81007 -0.56941
vn 0.13981 0.56941 -0.81007
vn 0.13981 0.41684 -0.89816
vn 0.13981 0.89816 -0.41684
vn -1.00000 0.00000 -0.00000
vn -1.00000 0.00000 -0.00000
vn -1.00000 0.00000 0.00000
vn -1.00000 0.00001 0.00000
vn -1.00000 -0.00000 -0.00000
vn 1.00000 -0.00000 -0.00000
vn 1.00000 0.00000 -0.00000
vn 1.00000 -0.00000 -0.00000
vn 0.69990 -0.18486 0.68991
vn 0.69990 -0.18486 0.68991
vn 0.69989 -0.18485 0.68991
vn 0.69989 -0.18485 0.68991
vn 0.69989 -0.18485 0.68991
vn 0.69989 -0.18485 0.68991
vn 0.05341 -0.96455 -0.25845
vn 0.05340 -0.96455 -0.25845
vn 0.05341 -0.96455 -0.25845
vn 0.69990 0.18486 -0.68991
vn 0.69990 0.18486 -0.68991
vn 0.69990 0.18486 -0.68991
vn 0.69990 0.18486 -0.68991
vn 0.69990 0.18486 -0.68991
vn 0.05341 0.96455 0.25845
vn 0.05341 0.96455 0.25845
vn 0.05340 0.96455 0.25845
vn -1.00000 0.00001 0.00000
vn -1.00000 0.00001 0.00000
vn -1.00000 0.00000 -0.00000
vn 1.00000 0.00000 0.00000
vn 1.00000 0.00000 0.00000
vn 1.00000 0.00000 0.00000
vn 0.69990 0.18487 -0.68990
vn 0.69990 0.18487 -0.68990
vn 0.69990 0.18487 -0.68990
vn 0.69990 0.18487 -0.68990
vn 0.69990 0.18487 -0.68990
vn 0.69990 0.18487 -0.68990
vn 0.05341 0.96455 0.25845
vn 0.05341 0.96455 0.25845
vn 0.05341 0.96455 0.25845
vn 0.69989 -0.18487 0.68991
vn 0.69989 -0.18487 0.68991
vn 0.69989 -0.18486 0.68991
vn 0.69989 -0.18486 0.68991
vn 0.69989 -0.18486 0.68991
vn 0.69989 -0.18486 0.68991
vn 0.05341 -0.96455 -0.25845
vn 0.05341 -0.96455 -0.25845
vn 0.05341 -0.96455 -0.25845
vn -1.00000 0.00000 -0.00000
vn -1.00000 0.00000 -0.00001
vn -1.00000 -0.00000 0.00000
vn 1.00000 -0.00000 0.00000
vn 1.00000 -0.00000 -0.00000
vn 1.00000 -0.00000 0.00000
vn 0.69989 0.68991 0.18486
vn 0.69990 0.68991 0.18487
vn 0.69990 0.68991 0.18486
vn 0.69989 0.68991 0.18486
vn 0.69990 0.68990 0.18485
vn 0.69990 0.68991 0.18486
vn 0.05341 -0.25845 0.96455
vn 0.05340 -0.25845 0.96455
vn 0.05341 -0.25845 0.96455
vn 0.69990 -0.68990 -0.18487
vn 0.69990 -0.68991 -0.18485
vn 0.69990 -0.68990 -0.18486
vn 0.69990 -0.68991 -0.18485
vn 0.69990 -0.68990 -0.18485
vn 0.69990 -0.68991 -0.18485
vn 0.05341 0.25845 -0.96455
vn 0.05341 0.25845 -0.96455
vn 0.05340 0.25845 -0.96455
vn -1.00000 0.00000 -0.00001
vn -1.00000 -0.00000 -0.00000
vn -1.00000 -0.00000 0.00000
vn 1.00000 0.00000 -0.00000
vn 1.00000 0.00000 -0.00001
vn 1.00000 -0.00000 -0.00000
vn 0.69990 -0.68990 -0.18486
vn 0.69990 -0.68990 -0.18487
vn 0.69990 -0.68990 -0.18486
vn 0.69990 -0.68991 -0.18487
vn 0.69990 -0.68991 -0.18487
vn 0.69990 -0.68990 -0.18487
vn 0.05341 0.25845 -0.96455
vn 0.05341 0.25845 -0.96455
vn 0.05341 0.25845 -0.96455
vn 0.69989 0.68991 0.18486
vn 0.69989 0.68991 0.18485
vn 0.69989 0.68991 0.18486
vn 0.69989 0.68991 0.18486
vn 0.69989 0.68991 0.18487
vn 0.69989 0.68991 0.18486
vn 0.05341 -0.25845 0.96455
vn 0.05341 -0.25845 0.96455
vn 0.05341 -0.25845 0.96455
vn -1.00000 0.00000 -0.00000
vn -1.00000 0.00001 -0.00000
vn -1.00000 -0.00001 0.00000
vn 1.00000 -0.00000 0.00000
vn 1.00000 -0.00000 0.00000
vn 1.00000 -0.00000 0.00000
vn 0.69990 0.35714 0.61854
vn 0.69990 0.35715 0.61854
vn 0.69989 0.35714 0.61855
vn 0.69989 0.35714 0.61855
vn 0.69989 0.35713 0.61855
vn 0.69989 0.35713 0.61855
vn 0.05341 -0.86479 0.49929
vn 0.05341 -0.86479 0.49929
vn 0.05341 -0.86479 0.49929
vn 0.69990 -0.35713 -0.61855
vn 0.69990 -0.35712 -0.61855
vn 0.69990 -0.35712 -0.61855
vn 0.69990 -0.35712 -0.61855
vn 0.69990 -0.35712 -0.61855
vn 0.69990 -0.35712 -0.61855
vn 0.05340 0.86479 -0.49929
vn 0.05340 0.86479 -0.49929
vn 0.05340 0.86479 -0.49929
vn -1.00000 0.00001 -0.00000
vn -1.00000 0.00000 -0.00000
vn -1.00000 -0.00000 0.00000
vn 1.00000 0.00000 -0.00000
vn 1.00000 0.00000 -0.00000
vn 1.00000 -0.00000 -0.00000
vn 0.69990 -0.35711 -0.61856
vn 0.69990 -0.35712 -0.61855
vn 0.69990 -0.35712 -0.61855
vn 0.69990 -0.35712 -0.61855
vn 0.69990 -0.35712 -0.61856
vn 0.69990 -0.35712 -0.61855
vn 0.05341 0.86479 -0.49929
vn 0.05341 0.86479 -0.49929
vn 0.05340 0.86479 -0.49929
vn 0.69989 0.35712 0.61856
vn 0.69989 0.35713 0.61856
vn 0.69990 0.35712 0.61856
vn 0.69989 0.35712 0.61856
vn 0.69990 0.35712 0.61855
vn 0.69990 0.35712 0.61855
vn 0.05341 -0.86479 0.49929
vn 0.05341 -0.86479 0.49929
vn 0.05341 -0.86479 0.49929
vn -1.00000 -0.00000 -0.00001
vn -1.00000 -0.00000 -0.00000
vn -1.00000 -0.00000 0.00000
vn 1.00000 -0.00000 0.00000
vn 1.00000 -0.00000 0.00000
vn 1.00000 -0.00000 0.00000
vn 0.69989 0.61855 -0.35714
vn 0.69990 0.61855 -0.35714
vn 0.69989 0.61855 -0.35714
vn 0.69989 0.61855 -0.35713
vn 0.69990 0.61854 -0.35713
vn 0.69990 0.61855 -0.35713
vn 0.05340 0.49929 0.86479
vn 0.05341 0.49929 0.86479
vn 0.05341 0.49929 0.86479
vn 0.69989 -0.61855 0.35713
vn 0.69990 -0.61855 0.35713
vn 0.69990 -0.61855 0.35713
vn 0.69990 -0.61855 0.35713
vn 0.69988 -0.61856 0.35713
vn 0.69989 -0.61855 0.35713
vn 0.05340 -0.49929 -0.86479
vn 0.05341 -0.49929 -0.86479
vn 0.05340 -0.49929 -0.86479
vn -1.00000 -0.00000 -0.00000
vn -1.00000 -0.00001 -0.00001
vn -1.00000 -0.00000 0.00000
vn 1.00000 -0.00000 -0.00000
vn 1.00000 -0.00000 -0.00000
vn 1.00000 -0.00000 0.00000
vn 0.69990 -0.61855 0.35712
vn 0.69990 -0.61855 0.35712
vn 0.69990 -0.61856 0.35711
vn 0.69990 -0.61855 0.35712
vn 0.69990 -0.61855 0.35712
vn 0.69990 -0.61855 0.35712
vn 0.05341 -0.49929 -0.86479
vn 0.05341 -0.49929 -0.86479
vn 0.05341 -0.49929 -0.86479
vn 0.69989 0.61856 -0.35712
vn 0.69990 0.61855 -0.35712
vn 0.69990 0.61856 -0.35712
vn 0.69990 0.61856 -0.35712
vn 0.69990 0.61855 -0.35712
vn 0.69990 0.61855 -0.35712
vn 0.05341 0.49929 0.86479
vn 0.05341 0.49929 0.86479
vn 0.05341 0.49929 0.86479
vn -0.00000 -0.90665 0.42188
vn -0.00000 -0.81868 0.57425
vn -0.00000 -0.99595 0.08996
vn 0.00000 -0.99595 -0.08996
vn 0.00000 -0.08797 0.99612
vn 0.00000 0.08797 0.99612
vn 0.00000 -0.42007 0.90749
vn -0.00000 -0.57588 0.81754
vn 0.00000 0.90665 0.42188
vn 0.00000 0.57588 0.81754
vn 0.00000 0.81868 0.57425
vn 0.00000 0.42007 0.90749
vn 0.00000 0.99595 -0.08996
vn 0.00000 0.90665 -0.42188
vn 0.00000 0.81868 -0.57425
vn 0.00000 0.99595 0.08995
vn 0.00000 0.42007 -0.90749
vn 0.00000 0.08797 -0.99612
vn 0.00000 -0.08797 -0.99612
vn 0.00000 0.57588 -0.81754
vn 0.00000 -0.81868 -0.57425
vn 0.00000 -0.90665 -0.42188
vn 0.00000 -0.57588 -0.81754
vn 0.00000 -0.42007 -0.90749
vn 1.00000 -0.00000 0.00000
vn 1.00000 -0.00000 -0.00000
vn 1.00000 -0.00000 0.00000
vn -1.00000 0.00000 -0.00000
vn 0.97933 -0.02879 -0.20021
vn 0.97969 0.00959 -0.20029
vn 0.97969 -0.04722 -0.19489
vn 0.97932 -0.02880 -0.20024
vn 0.97933 -0.08403 -0.18400
vn 0.97969 -0.10022 -0.17369
vn 0.97932 -0.08404 -0.18401
vn 0.97933 -0.13247 -0.15288
vn 0.97969 -0.14509 -0.13842
vn 0.97933 -0.13248 -0.15288
vn 0.97933 -0.17018 -0.10937
vn 0.97969 -0.17822 -0.09194
vn 0.97933 -0.17017 -0.10936
vn 0.97932 -0.19410 -0.05699
vn 0.97969 -0.19690 -0.03801
vn 0.97933 -0.19408 -0.05700
vn 0.97932 -0.20230 0.00000
vn 0.97969 -0.19964 0.01900
vn 0.97933 -0.20227 -0.00001
vn 0.97932 -0.19411 0.05700
vn 0.97969 -0.18620 0.07448
vn 0.97933 -0.19408 0.05697
vn 0.97932 -0.17019 0.10938
vn 0.97969 -0.15767 0.12392
vn 0.97933 -0.17016 0.10934
vn 0.97932 -0.13249 0.15290
vn 0.97969 -0.11638 0.16332
vn 0.97933 -0.13247 0.15285
vn 0.97932 -0.08404 0.18403
vn 0.97969 -0.06565 0.18949
vn 0.97933 -0.08404 0.18398
vn 0.97969 -0.00961 0.20031
vn 0.97932 -0.02879 0.20025
vn 0.97933 -0.02880 0.20020
vn 0.97969 0.04722 0.19490
vn 0.97932 0.02879 0.20024
vn 0.97933 0.02877 0.20021
vn 0.97969 0.10021 0.17370
vn 0.97932 0.08404 0.18402
vn 0.97933 0.08402 0.18400
vn 0.97969 0.14509 0.13842
vn 0.97933 0.13247 0.15288
vn 0.97933 0.13246 0.15287
vn 0.97969 0.17821 0.09194
vn 0.97933 0.17017 0.10936
vn 0.97933 0.17018 0.10936
vn 0.97969 0.19689 0.03800
vn 0.97933 0.19408 0.05699
vn 0.97933 0.19410 0.05698
vn 0.97969 0.19962 -0.01901
vn 0.97933 0.20227 0.00000
vn 0.97932 0.20230 -0.00001
vn 0.97969 0.18618 -0.07447
vn 0.97933 0.19407 -0.05698
vn 0.97932 0.19410 -0.05701
vn 0.97969 0.15765 -0.12391
vn 0.97933 0.17015 -0.10935
vn 0.97932 0.17018 -0.10939
vn 0.97969 0.11636 -0.16331
vn 0.97933 0.13245 -0.15286
vn 0.97932 0.13247 -0.15291
vn 0.97969 0.06563 -0.18948
vn 0.97933 0.08402 -0.18398
vn 0.97932 0.08402 -0.18403
vn 0.97933 0.02878 -0.20021
vn 0.97932 0.02877 -0.20025
vn 1.00000 -0.00000 0.00000
vn 1.00000 -0.00000 0.00000
vn 1.00000 -0.00000 0.00000
vn 1.00000 -0.00000 0.00000
vn 1.00000 -0.00000 0.00000
vn 1.00000 -0.00000 0.00000
vn 1.00000 -0.00000 -0.00000
vn 1.00000 -0.00000 -0.00000
vn 1.00000 -0.00000 -0.00000
vn -1.00000 0.00000 -0.00000
vn -1.00000 0.00000 -0.00000
vn -1.00000 0.00000 0.00000
vn -1.00000 0.00000 0.00000
vn -1.00000 0.00000 0.00000
vn -1.00000 0.00000 0.00000
vn -1.00000 0.00000 -0.00000
vn -1.00000 0.00000 -0.00000
vn 1.00000 -0.00000 -0.00000
vn 1.00000 -0.00000 -0.00000
vn 1.00000 -0.00000 -0.00000
vn 1.00000 -0.00000 0.00000
vn 1.00000 -0.00000 0.00000
vn 1.00000 -0.00000 -0.00000
vn 0.23816 0.93742 0.25401
vn 0.24499 0.87902 0.40902
vn 0.24114 0.96627 -0.09042
vn 0.23816 0.93742 0.25401
vn 0.23816 0.68869 0.68483
vn 0.24530 0.55828 0.79256
vn 0.23816 0.68869 0.68483
vn 0.23816 0.24873 0.93884
vn 0.24499 0.08529 0.96577
vn 0.23816 0.24873 0.93883
vn 0.23816 -0.24873 0.93884
vn 0.24530 -0.40724 0.87977
vn 0.23816 -0.24873 0.93884
vn 0.23816 -0.68869 0.68483
vn 0.24499 -0.79373 0.55675
vn 0.23816 -0.68869 0.68483
vn 0.24530 -0.96552 0.08721
vn 0.23816 -0.93742 0.25401
vn 0.23816 -0.93742 0.25401
vn 0.24499 -0.87902 -0.40902
vn 0.23816 -0.93742 -0.25401
vn 0.23816 -0.93742 -0.25401
vn 0.24530 -0.55828 -0.79256
vn 0.23816 -0.68869 -0.68483
vn 0.23816 -0.68869 -0.68483
vn 0.24499 -0.08529 -0.96577
vn 0.23816 -0.24873 -0.93884
vn 0.23816 -0.24873 -0.93883
vn 0.23816 0.24873 -0.93884
vn 0.24530 0.40724 -0.87977
vn 0.23816 0.24873 -0.93884
vn 0.25673 0.67464 -0.69206
vn 0.23816 0.68869 -0.68483
vn 0.72574 -0.66453 -0.17806
vn 0.72574 -0.66453 -0.17806
vn 0.72574 -0.66453 -0.17806
vn 0.72575 0.66452 0.17806
vn 0.72574 0.66452 0.17806
vn 0.72575 0.66452 0.17806
vn 0.72574 0.66452 0.17806
vn 0.72574 0.66453 0.17806
vn 0.72575 0.66452 0.17806
vn 0.72574 -0.66452 -0.17806
vn 0.72574 -0.66453 -0.17806
vn 0.72574 -0.66452 -0.17806
vn 0.72574 -0.17806 0.66452
vn 0.72575 -0.17806 0.66452
vn 0.72574 -0.17806 0.66453
vn 0.72575 0.17806 -0.66452
vn 0.72574 0.17806 -0.66452
vn 0.72575 0.17806 -0.66452
vn 0.72574 0.17806 -0.66452
vn 0.72574 0.17806 -0.66453
vn 0.72574 0.17806 -0.66452
vn 0.72574 -0.17806 0.66452
vn 0.72574 -0.17806 0.66452
vn 0.72574 -0.17806 0.66453
vn 0.72575 -0.59579 0.34398
vn 0.72574 -0.59579 0.34398
vn 0.72575 -0.59579 0.34398
vn 0.72574 0.59580 -0.34398
vn 0.72574 0.59580 -0.34399
vn 0.72575 0.59579 -0.34398
vn 0.72574 0.59579 -0.34398
vn 0.72574 0.59580 -0.34398
vn 0.72575 0.59579 -0.34398
vn 0.72574 -0.59580 0.34398
vn 0.72575 -0.59579 0.34398
vn 0.72574 -0.59580 0.34399
vn 0.72574 0.34398 0.59580
vn 0.72574 0.34398 0.59579
vn 0.72575 0.34398 0.59579
vn 0.72574 -0.34398 -0.59580
vn 0.72574 -0.34398 -0.59580
vn 0.72574 -0.34398 -0.59580
vn 0.72574 -0.34398 -0.59580
vn 0.72574 -0.34398 -0.59580
vn 0.72574 -0.34398 -0.59580
vn 0.72574 0.34398 0.59580
vn 0.72574 0.34398 0.59580
vn 0.72574 0.34399 0.59580
vn -1.00000 0.00000 0.00000
vn -1.00000 0.00000 0.00000
vn -1.00000 0.00000 0.00000
vn -1.00000 0.00000 -0.00000
vn 0.99975 -0.01118 -0.01936
vn 0.99975 -0.00000 -0.02235
vn 1.00000 -0.00000 0.00000
vn 0.99975 0.01117 -0.01936
vn 0.99975 0.02235 0.00000
vn 0.99975 0.01935 0.01118
vn 0.99975 -0.02235 0.00000
vn 0.99975 -0.01936 0.01117
vn 0.99975 0.01935 -0.01118
vn 0.99975 -0.01118 0.01936
vn 0.99975 -0.00000 0.02235
vn 0.99975 0.01117 0.01936
vn 0.99975 -0.01936 -0.01117
vn 0.23760 0.93523 -0.26248
vn 0.22620 0.94018 -0.25475
# 708 normals
usemtl Rubber
f  4/1/1 5/2/2 9/3/3
f  1/4/4 5/2/2 4/1/1
f  305/5/5 2/6/6 6/7/7
f  307/8/8 2/6/6 306/5/8
f  308/9/9 212/10/10 211/11/11
f  309/9/12 310/12/12 212/10/10
usemtl Alloy
f  7/13/13 3/14/14 8/15/15
f  7/13/13 209/16/16 3/14/14
usemtl Rubber
f  9/3/3 10/17/17 14/18/18
f  311/19/19 10/17/17 9/3/3
f  312/20/20 6/7/7 11/21/21
f  314/5/22 6/7/7 313/20/22
f  315/22/23 211/11/11 232/23/24
f  316/22/25 317/9/25 211/11/11
usemtl Alloy
f  12/24/26 8/15/15 13/25/27
f  7/13/13 8/15/15 12/24/26
usemtl Rubber
f  14/18/18 15/26/28 19/27/29
f  10/17/17 15/26/28 14/18/18
f  318/28/30 11/21/21 16/29/31
f  320/20/32 11/21/21 319/28/32
f  321/30/33 232/23/24 231/31/34
f  323/22/35 232/23/24 322/30/35
usemtl Alloy
f  17/32/36 13/25/27 18/33/37
f  12/24/26 13/25/27 17/32/36
usemtl Rubber
f  19/27/29 20/34/38 24/35/39
f  19/27/29 15/26/28 20/34/38
f  324/36/40 16/29/31 21/37/41
f  326/28/40 16/29/31 325/36/40
f  327/38/42 231/31/34 230/39/43
f  329/30/44 231/31/34 328/38/44
usemtl Alloy
f  22/40/45 18/33/37 23/41/46
f  17/32/36 18/33/37 22/40/45
usemtl Rubber
f  24/35/39 25/42/47 29/43/48
f  24/35/39 330/44/49 25/42/47
f  331/45/50 21/37/41 26/46/51
f  333/36/52 21/37/41 332/45/52
f  334/47/53 230/39/43 229/48/54
f  336/38/55 230/39/43 335/47/55
usemtl Alloy
f  27/49/56 23/41/46 28/50/57
f  22/40/45 23/41/46 27/49/56
usemtl Rubber
f  34/51/58 29/43/48 30/52/59
f  29/43/48 25/42/47 30/52/59
f  26/46/51 31/53/60 337/54/60
f  339/45/61 26/46/51 338/54/61
f  229/48/54 228/55/62 340/56/63
f  342/47/64 229/48/54 341/56/64
usemtl Alloy
f  28/50/57 33/57/65 32/58/66
f  27/49/56 28/50/57 32/58/66
usemtl Rubber
f  39/59/67 34/51/58 35/60/68
f  34/51/58 30/52/59 35/60/68
f  344/61/69 343/62/69 36/63/70
f  346/64/71 347/62/71 345/61/71
f  228/55/62 227/65/72 348/66/73
f  350/56/74 228/55/62 349/66/74
usemtl Alloy
f  33/57/65 38/67/75 37/68/76
f  32/58/66 33/57/65 37/68/76
usemtl Rubber
f  44/69/77 39/59/67 40/70/78
f  39/59/67 351/71/79 40/70/78
f  352/72/80 36/63/70 41/73/81
f  354/61/82 36/63/70 353/72/82
f  227/65/72 226/74/83 355/75/84
f  357/66/85 227/65/72 356/75/85
usemtl Alloy
f  38/67/75 43/76/86 42/77/87
f  37/68/76 38/67/75 42/77/87
usemtl Rubber
f  49/78/88 44/69/77 45/79/89
f  44/69/77 358/80/90 45/79/89
f  359/81/91 41/73/81 46/82/92
f  361/72/93 41/73/81 360/81/93
f  226/74/83 225/83/94 362/84/95
f  364/75/96 226/74/83 363/84/96
usemtl Alloy
f  43/76/86 48/85/97 47/86/98
f  42/77/87 43/76/86 47/86/98
usemtl Rubber
f  54/87/99 49/78/88 50/88/100
f  49/78/88 365/89/101 50/88/100
f  46/82/92 51/90/102 366/91/103
f  368/81/104 46/82/92 367/91/104
f  225/83/94 224/92/105 369/93/106
f  371/84/107 225/83/94 370/93/107
usemtl Alloy
f  48/85/97 53/94/108 52/95/109
f  47/86/98 48/85/97 52/95/109
usemtl Rubber
f  59/96/110 54/87/99 55/97/111
f  54/87/99 50/88/100 55/97/111
f  51/90/102 56/98/112 372/99/113
f  374/91/114 51/90/102 373/99/114
f  224/92/105 223/100/115 375/101/116
f  377/93/117 224/92/105 376/101/117
usemtl Alloy
f  53/94/108 58/102/118 57/103/119
f  52/95/109 53/94/108 57/103/119
usemtl Rubber
f  64/104/120 59/96/110 60/105/121
f  60/105/121 59/96/110 378/106/122
f  61/107/123 379/108/124 56/98/112
f  56/98/112 380/108/125 381/99/125
f  223/100/115 222/109/126 382/110/127
f  223/100/115 383/110/128 384/101/128
usemtl Alloy
f  58/102/118 63/111/129 62/112/130
f  58/102/118 62/112/130 57/103/119
usemtl Rubber
f  69/113/131 64/104/120 65/114/132
f  65/114/132 64/104/120 385/115/133
f  66/116/134 386/117/135 61/107/123
f  61/107/123 387/117/136 388/108/136
f  222/109/126 221/118/137 389/119/138
f  222/109/126 390/119/139 391/110/139
usemtl Alloy
f  68/120/140 67/121/141 63/111/129
f  63/111/129 67/121/141 62/112/130
usemtl Rubber
f  74/122/142 69/113/131 70/123/143
f  70/123/143 69/113/131 65/114/132
f  71/124/144 392/125/145 66/116/134
f  393/125/146 394/117/146 66/116/134
f  220/126/147 395/127/148 221/118/137
f  221/118/137 396/127/149 397/119/149
usemtl Alloy
f  73/128/150 72/129/151 68/120/140
f  68/120/140 72/129/151 67/121/141
usemtl Rubber
f  75/130/152 79/131/153 74/122/142
f  75/130/152 74/122/142 70/123/143
f  76/132/154 398/133/155 71/124/144
f  399/133/156 400/125/156 71/124/144
f  219/134/157 401/135/158 220/126/147
f  220/126/147 402/135/159 403/127/159
usemtl Alloy
f  78/136/160 77/137/161 73/128/150
f  73/128/150 77/137/161 72/129/151
usemtl Rubber
f  80/138/162 84/139/163 79/131/153
f  80/138/162 79/131/153 404/140/164
f  81/141/165 405/142/166 76/132/154
f  406/142/167 407/133/167 76/132/154
f  218/143/168 408/144/169 219/134/157
f  219/134/157 409/144/170 410/135/170
usemtl Alloy
f  83/145/171 82/146/172 78/136/160
f  78/136/160 82/146/172 77/137/161
usemtl Rubber
f  85/147/173 89/148/174 84/139/163
f  85/147/173 84/139/163 80/138/162
f  86/149/175 411/150/176 81/141/165
f  412/150/176 413/142/176 81/141/165
f  217/151/177 414/152/178 218/143/168
f  218/143/168 415/152/179 416/144/179
usemtl Alloy
f  88/153/180 87/154/181 83/145/171
f  83/145/171 87/154/181 82/146/172
usemtl Rubber
f  90/155/182 94/156/183 89/148/174
f  417/157/184 90/155/182 89/148/174
f  91/158/185 418/159/186 86/149/175
f  419/159/187 420/150/187 86/149/175
f  216/160/188 421/161/189 217/151/177
f  422/161/190 423/152/190 217/151/177
usemtl Alloy
f  93/162/191 92/163/192 88/153/180
f  92/163/192 87/154/181 88/153/180
usemtl Rubber
f  95/164/193 99/165/194 94/156/183
f  90/155/182 95/164/193 94/156/183
f  96/166/195 424/167/196 91/158/185
f  425/167/197 426/159/197 91/158/185
f  215/168/198 427/169/199 216/160/188
f  428/169/200 429/161/200 216/160/188
usemtl Alloy
f  98/170/201 97/171/202 93/162/191
f  97/171/202 92/163/192 93/162/191
usemtl Rubber
f  100/172/203 104/173/204 99/165/194
f  430/174/205 100/172/203 99/165/194
f  101/175/206 431/176/207 96/166/195
f  432/176/208 433/167/208 96/166/195
f  214/177/209 434/178/210 215/168/198
f  435/178/211 436/169/211 215/168/198
usemtl Alloy
f  103/179/212 102/180/213 98/170/201
f  102/180/213 97/171/202 98/170/201
usemtl Rubber
f  105/181/214 108/182/215 104/173/204
f  437/183/216 105/181/214 104/173/204
f  106/184/217 438/185/218 101/175/206
f  439/185/219 440/176/219 101/175/206
f  213/186/220 441/187/221 214/177/209
f  442/187/222 443/178/222 214/177/209
usemtl Alloy
f  107/188/223 210/189/224 103/179/212
f  210/189/224 102/180/213 103/179/212
usemtl Rubber
f  1/4/4 4/1/1 108/182/215
f  444/190/225 1/4/4 108/182/215
f  2/6/6 445/8/226 106/184/217
f  446/8/227 447/185/227 106/184/217
f  212/10/10 448/12/228 213/186/220
f  449/12/229 450/187/229 213/186/220
usemtl Alloy
f  3/14/14 209/16/16 107/188/223
f  209/16/16 210/189/224 107/188/223
f  3/14/14 451/191/230 8/15/15
f  452/191/231 453/192/231 8/15/15
f  454/193/232 3/14/14 107/188/223
f  456/191/233 3/14/14 455/193/233
f  457/194/234 107/188/223 103/179/212
f  459/193/235 107/188/223 458/194/235
f  460/195/236 103/179/212 98/170/201
f  462/194/237 103/179/212 461/195/237
f  463/196/238 98/170/201 93/162/191
f  465/195/239 98/170/201 464/196/239
f  466/197/240 93/162/191 88/153/180
f  468/196/241 93/162/191 467/197/241
f  469/198/242 88/153/180 83/145/171
f  471/197/242 88/153/180 470/198/242
f  472/199/243 83/145/171 78/136/160
f  474/198/244 83/145/171 473/199/244
f  475/200/245 78/136/160 73/128/150
f  477/199/246 78/136/160 476/200/246
f  478/201/247 73/128/150 68/120/140
f  480/200/248 73/128/150 479/201/248
f  481/202/249 68/120/140 63/111/129
f  483/201/250 68/120/140 482/202/250
f  484/203/251 63/111/129 58/102/118
f  486/202/252 63/111/129 485/203/252
f  53/94/108 487/204/253 58/102/118
f  488/204/254 489/203/254 58/102/118
f  48/85/97 490/205/255 53/94/108
f  491/205/256 492/204/256 53/94/108
f  43/76/86 493/206/257 48/85/97
f  494/206/258 495/205/258 48/85/97
f  38/67/75 496/207/259 43/76/86
f  497/207/260 498/206/260 43/76/86
f  33/57/65 499/208/261 38/67/75
f  500/208/262 501/207/262 38/67/75
f  28/50/57 502/209/263 33/57/65
f  503/209/263 504/208/263 33/57/65
f  23/41/46 505/210/264 28/50/57
f  506/210/265 507/209/265 28/50/57
f  18/33/37 508/211/266 23/41/46
f  509/211/267 510/210/267 23/41/46
f  13/25/27 511/212/268 18/33/37
f  512/212/269 513/211/269 18/33/37
f  8/15/15 514/192/270 13/25/27
f  515/192/271 516/212/271 13/25/27
f  110/213/272 121/214/273 109/215/274
f  110/213/272 122/216/275 121/214/273
f  110/213/272 111/217/276 122/216/275
f  111/217/276 123/218/277 122/216/275
f  111/217/276 112/219/278 123/218/277
f  112/219/278 124/220/279 123/218/277
f  124/220/279 112/219/278 113/221/280
f  124/220/279 113/221/280 125/222/281
f  125/222/281 113/221/280 114/223/282
f  125/222/281 114/223/282 126/224/283
f  126/224/283 114/223/282 115/225/284
f  127/226/285 126/224/283 115/225/284
f  127/226/285 115/225/284 116/227/286
f  128/228/287 127/226/285 116/227/286
f  128/228/287 116/227/286 117/229/288
f  129/230/289 128/228/287 117/229/288
f  129/230/289 117/229/288 118/231/290
f  130/232/291 129/230/289 118/231/290
f  303/233/292 119/234/293 118/231/294
f  120/235/295 131/236/296 119/234/297
f  120/235/295 132/237/298 131/236/296
f  109/215/274 132/237/298 120/235/295
f  109/215/274 121/214/273 132/237/298
f  113/221/299 112/219/300 303/233/292
f  133/238/301 135/239/302 136/240/301
f  134/241/303 133/238/301 136/240/301
f  270/242/304 271/243/305 273/244/304
f  272/245/306 270/242/304 273/244/304
f  134/241/307 138/246/308 271/243/309
f  133/238/310 134/241/307 271/243/309
f  270/242/311 137/247/312 271/243/309
f  137/247/312 133/238/310 271/243/309
f  140/248/313 134/241/313 136/240/314
f  138/246/315 134/241/313 140/248/313
f  139/249/316 272/245/317 135/239/318
f  135/239/318 272/245/317 136/240/319
f  272/245/317 273/244/320 140/248/320
f  272/245/317 140/248/320 136/240/319
f  133/238/321 137/247/322 135/239/322
f  137/247/322 139/249/323 135/239/322
f  143/250/324 144/251/325 141/252/325
f  144/251/325 142/253/326 141/252/325
f  275/254/327 277/255/328 274/256/328
f  277/255/328 276/257/329 274/256/328
f  146/258/330 275/254/331 142/253/332
f  142/253/332 275/254/331 141/252/333
f  275/254/331 274/256/334 145/259/335
f  275/254/331 145/259/335 141/252/333
f  144/251/336 148/260/337 142/253/337
f  148/260/337 146/258/338 142/253/337
f  143/250/339 147/261/340 276/257/341
f  144/251/342 143/250/339 276/257/341
f  277/255/343 148/260/344 276/257/341
f  148/260/344 144/251/342 276/257/341
f  145/259/345 143/250/345 141/252/346
f  147/261/347 143/250/345 145/259/345
f  151/262/348 149/263/348 150/264/349
f  152/265/350 149/263/348 151/262/348
f  278/266/351 279/267/352 280/268/351
f  278/266/351 280/268/351 281/269/353
f  152/265/354 154/270/355 279/267/356
f  152/265/354 279/267/356 149/263/357
f  279/267/356 278/266/358 153/271/359
f  149/263/357 279/267/356 153/271/359
f  155/272/360 152/265/360 151/262/361
f  154/270/362 152/265/360 155/272/360
f  156/273/363 281/269/364 150/264/365
f  281/269/364 151/262/366 150/264/365
f  280/268/367 155/272/368 281/269/364
f  155/272/368 151/262/366 281/269/364
f  149/263/369 153/271/370 150/264/370
f  153/271/370 156/273/371 150/264/370
f  158/274/372 159/275/373 157/276/373
f  157/276/373 159/275/373 160/277/374
f  284/278/375 282/279/375 283/280/376
f  284/278/375 285/281/377 282/279/375
f  162/282/378 283/280/379 160/277/380
f  283/280/379 157/276/381 160/277/380
f  282/279/382 161/283/383 283/280/379
f  161/283/383 157/276/381 283/280/379
f  159/275/384 163/284/385 160/277/385
f  163/284/385 162/282/386 160/277/385
f  158/274/387 164/285/388 285/281/389
f  158/274/387 285/281/389 159/275/390
f  285/281/389 284/278/391 163/284/392
f  159/275/390 285/281/389 163/284/392
f  161/283/393 158/274/393 157/276/394
f  164/285/395 158/274/393 161/283/393
f  167/286/396 165/287/396 166/288/397
f  168/289/398 165/287/396 167/286/396
f  286/290/399 287/291/400 288/292/399
f  286/290/399 288/292/399 289/293/401
f  168/289/402 170/294/403 287/291/404
f  165/287/405 168/289/402 287/291/404
f  169/295/406 287/291/404 286/290/407
f  165/287/405 287/291/404 169/295/406
f  171/296/408 168/289/408 167/286/409
f  170/294/410 168/289/408 171/296/408
f  172/297/411 289/293/412 166/288/413
f  289/293/412 167/286/414 166/288/413
f  288/292/415 171/296/416 289/293/412
f  289/293/412 171/296/416 167/286/414
f  165/287/417 169/295/418 166/288/418
f  169/295/418 172/297/419 166/288/418
f  174/298/420 175/299/421 173/300/421
f  173/300/421 175/299/421 176/301/422
f  292/302/423 290/303/423 291/304/424
f  292/302/423 293/305/425 290/303/423
f  178/306/426 291/304/427 176/301/428
f  291/304/427 173/300/429 176/301/428
f  290/303/430 177/307/431 291/304/427
f  291/304/427 177/307/431 173/300/429
f  175/299/432 179/308/433 176/301/433
f  179/308/433 178/306/434 176/301/433
f  174/298/435 180/309/436 293/305/437
f  175/299/438 174/298/435 293/305/437
f  179/308/439 293/305/437 292/302/440
f  175/299/438 293/305/437 179/308/439
f  177/307/441 174/298/441 173/300/442
f  180/309/443 174/298/441 177/307/441
f  182/310/444 183/311/445 181/312/445
f  183/311/445 184/313/446 181/312/445
f  295/314/447 296/315/448 294/316/448
f  296/315/448 297/317/449 294/316/448
f  186/318/450 295/314/451 184/313/452
f  184/313/452 295/314/451 181/312/453
f  295/314/451 294/316/454 185/319/455
f  295/314/451 185/319/455 181/312/453
f  183/311/456 187/320/457 184/313/457
f  187/320/457 186/318/458 184/313/457
f  297/317/459 182/310/460 188/321/461
f  183/311/462 182/310/460 297/317/459
f  296/315/463 187/320/464 297/317/459
f  187/320/464 183/311/462 297/317/459
f  185/319/465 182/310/465 181/312/466
f  188/321/467 182/310/465 185/319/465
f  189/322/468 190/323/469 191/324/468
f  192/325/470 189/322/468 191/324/468
f  298/326/471 299/327/472 300/328/471
f  301/329/473 298/326/471 300/328/471
f  299/327/474 192/325/475 194/330/476
f  189/322/477 192/325/475 299/327/474
f  298/326/478 193/331/479 299/327/474
f  193/331/479 189/322/477 299/327/474
f  195/332/480 192/325/480 191/324/481
f  194/330/482 192/325/480 195/332/480
f  196/333/483 301/329/484 190/323/485
f  190/323/485 301/329/484 191/324/486
f  301/329/484 300/328/487 195/332/488
f  301/329/484 195/332/488 191/324/486
f  189/322/489 193/331/490 190/323/490
f  193/331/490 196/333/491 190/323/490
usemtl Brakedisc
f  234/334/492 235/334/493 203/335/494
f  197/335/495 234/334/492 203/335/494
f  236/336/496 237/336/497 204/337/498
f  198/337/499 236/336/496 204/337/498
f  239/338/500 205/339/501 238/338/502
f  205/339/501 199/339/503 238/338/502
f  206/340/504 240/341/505 241/341/506
f  206/340/504 200/340/507 240/341/505
f  207/342/508 242/343/509 243/343/510
f  207/342/508 201/342/511 242/343/509
f  244/344/512 245/344/513 208/345/514
f  202/345/515 244/344/512 208/345/514
f  247/346/516 304/347/517 517/348/517
f  200/340/518 247/346/516 518/348/329
f  208/345/293 246/349/519 243/343/293
usemtl Alloy
f  519/350/520 209/16/521 7/13/522
f  520/351/523 521/350/523 7/13/522
f  522/351/524 7/13/522 12/24/525
f  523/352/526 524/351/526 12/24/525
f  525/352/527 12/24/525 17/32/528
f  526/353/529 527/352/529 17/32/528
f  528/353/530 17/32/528 22/40/531
f  529/354/532 530/353/532 22/40/531
f  531/354/533 22/40/531 27/49/534
f  532/355/535 533/354/535 27/49/534
f  534/355/536 27/49/534 32/58/537
f  536/355/538 32/58/537 535/356/538
f  537/356/539 32/58/537 37/68/540
f  539/356/541 37/68/540 538/357/541
f  540/357/542 37/68/540 42/77/543
f  542/357/544 42/77/543 541/358/544
f  543/358/545 42/77/543 47/86/546
f  545/358/547 47/86/546 544/359/547
f  546/359/548 47/86/546 52/95/549
f  548/359/550 52/95/549 547/360/550
f  52/95/549 57/103/551 549/360/552
f  551/360/553 57/103/551 550/361/553
f  57/103/551 62/112/554 552/361/555
f  62/112/554 553/362/556 554/361/556
f  62/112/554 67/121/557 555/362/558
f  67/121/557 556/363/559 557/362/559
f  67/121/557 72/129/560 558/363/561
f  72/129/560 559/364/562 560/363/562
f  72/129/560 77/137/563 561/364/564
f  77/137/563 562/365/565 563/364/565
f  77/137/563 82/146/566 564/365/567
f  82/146/566 565/366/568 566/365/568
f  82/146/566 87/154/569 567/366/570
f  87/154/569 568/367/571 569/366/571
f  92/163/572 570/367/573 87/154/569
f  92/163/572 571/368/574 572/367/574
f  97/171/575 573/368/576 92/163/572
f  97/171/575 574/369/577 575/368/577
f  102/180/578 576/369/579 97/171/575
f  102/180/578 577/370/580 578/369/580
f  210/189/581 579/370/582 102/180/578
f  210/189/581 580/371/583 581/370/583
f  209/16/521 582/371/584 210/189/581
f  583/350/585 584/371/585 209/16/521
usemtl Brakedisc
f  199/339/329 236/336/329 256/372/329
f  199/339/329 256/372/329 250/373/329
f  254/374/586 197/335/586 244/344/587
f  248/375/588 197/335/586 254/374/586
f  255/376/329 202/345/329 242/343/329
f  255/376/329 249/377/329 202/345/329
usemtl Worn_Metal
f  259/378/589 260/379/329 233/380/590
usemtl Brakedisc
f  249/377/329 254/374/586 244/344/587
f  249/377/329 244/344/587 202/345/329
usemtl Worn_Metal
f  258/381/591 259/378/589 233/380/590
f  269/382/592 233/380/590 268/383/329
usemtl Brakedisc
f  198/337/593 234/334/594 257/384/594
f  251/385/329 198/337/593 257/384/594
usemtl Worn_Metal
f  268/383/329 233/380/590 267/386/329
usemtl Brakedisc
f  239/338/595 206/340/596 246/349/519
f  246/349/519 207/342/597 243/343/293
f  235/334/598 204/337/599 246/349/519
f  204/337/599 237/336/293 246/349/519
f  246/349/519 206/340/596 241/341/600
f  203/335/601 235/334/598 246/349/519
f  205/339/293 239/338/595 246/349/519
f  245/344/602 246/349/519 208/345/293
f  198/337/499 204/337/498 235/334/493
f  198/337/499 235/334/493 234/334/492
f  237/336/497 199/339/503 205/339/501
f  237/336/497 236/336/496 199/339/503
f  239/338/500 200/340/507 206/340/504
f  239/338/500 238/338/502 200/340/507
f  241/341/506 201/342/511 207/342/508
f  241/341/506 240/341/505 201/342/511
f  202/345/515 208/345/514 243/343/510
f  242/343/509 202/345/515 243/343/510
f  197/335/495 203/335/494 245/344/513
f  244/344/512 197/335/495 245/344/513
f  237/336/293 205/339/293 246/349/519
f  203/335/601 246/349/519 245/344/602
f  246/349/519 241/341/600 207/342/597
f  585/387/329 252/388/329 201/342/603
f  240/341/604 586/387/604 201/342/603
f  236/336/329 198/337/593 251/385/329
f  256/372/329 236/336/329 251/385/329
f  234/334/594 197/335/586 248/375/588
f  257/384/594 234/334/594 248/375/588
usemtl Worn_Metal
f  258/381/591 233/380/590 269/382/592
f  260/379/329 261/389/329 233/380/590
f  233/380/590 264/390/605 265/391/606
f  233/380/590 266/392/329 267/386/329
usemtl Brakedisc
f  238/338/607 199/339/329 250/373/329
f  238/338/607 250/373/329 253/393/518
f  238/338/607 253/393/518 200/340/518
f  200/340/518 253/393/518 247/346/516
usemtl Worn_Metal
f  233/380/590 265/391/606 266/392/329
f  262/394/329 263/395/608 233/380/590
usemtl Brakedisc
f  201/342/603 252/388/329 242/343/329
f  252/388/329 255/376/329 242/343/329
usemtl Worn_Metal
f  261/389/329 262/394/329 233/380/590
f  263/395/608 264/390/605 233/380/590
f  588/378/609 259/378/610 587/381/609
f  259/378/610 258/381/611 589/381/612
f  591/379/613 260/379/614 590/378/613
f  592/378/615 260/379/614 259/378/610
f  594/389/616 261/389/617 593/379/616
f  595/379/618 261/389/617 260/379/614
f  596/389/619 597/394/619 262/394/620
f  261/389/617 598/389/621 262/394/620
f  599/394/622 600/395/622 263/395/623
f  262/394/620 601/394/624 263/395/623
f  264/390/625 602/395/626 603/390/626
f  263/395/623 604/395/627 264/390/625
f  265/391/628 605/390/629 606/391/629
f  264/390/625 607/390/630 265/391/628
f  266/392/631 608/391/632 609/392/632
f  265/391/628 610/391/633 266/392/631
f  267/386/634 611/392/635 612/386/635
f  266/392/631 613/392/636 267/386/634
f  615/383/637 268/383/638 614/386/637
f  268/383/638 267/386/634 616/386/639
f  618/396/640 619/397/640 617/383/640
f  620/397/641 268/383/638 621/383/641
usemtl Alloy
f  271/243/642 138/246/643 140/248/642
f  273/244/644 271/243/642 140/248/642
f  137/247/645 272/245/645 139/249/646
f  137/247/645 270/242/647 272/245/645
f  148/260/648 275/254/648 146/258/649
f  148/260/648 277/255/650 275/254/648
f  276/257/651 147/261/652 145/259/651
f  274/256/653 276/257/651 145/259/651
f  279/267/654 154/270/655 155/272/654
f  279/267/654 155/272/654 280/268/656
f  153/271/657 281/269/657 156/273/658
f  153/271/657 278/266/659 281/269/657
f  163/284/660 283/280/660 162/282/661
f  163/284/660 284/278/662 283/280/660
f  285/281/663 164/285/664 161/283/663
f  285/281/663 161/283/663 282/279/665
f  287/291/666 170/294/667 171/296/666
f  288/292/668 287/291/666 171/296/666
f  169/295/669 289/293/669 172/297/670
f  169/295/669 286/290/671 289/293/669
f  179/308/672 291/304/672 178/306/673
f  179/308/672 292/302/674 291/304/672
f  293/305/675 180/309/676 177/307/675
f  290/303/677 293/305/675 177/307/675
f  186/318/678 187/320/679 295/314/679
f  187/320/679 296/315/680 295/314/679
f  297/317/681 188/321/682 185/319/681
f  294/316/683 297/317/681 185/319/681
f  299/327/684 194/330/685 195/332/684
f  300/328/686 299/327/684 195/332/684
f  196/333/687 193/331/688 301/329/688
f  193/331/688 298/326/689 301/329/688
f  112/219/300 111/217/293 303/233/292
f  303/233/292 109/215/293 120/235/293
f  115/225/690 303/233/292 116/227/691
f  111/217/293 110/213/293 303/233/292
f  117/229/692 303/233/292 118/231/294
f  303/233/292 110/213/293 109/215/293
f  116/227/691 303/233/292 117/229/692
f  303/233/292 120/235/293 119/234/293
f  114/223/693 303/233/292 115/225/690
f  114/223/693 113/221/299 303/233/292
f  123/218/694 124/220/695 302/398/696
f  124/220/695 125/222/697 302/398/696
f  302/398/696 127/226/698 128/228/699
f  121/214/700 302/398/696 132/237/701
f  125/222/697 126/224/702 302/398/696
f  131/236/703 302/398/696 130/232/704
f  302/398/696 126/224/702 127/226/698
f  132/237/701 302/398/696 131/236/703
f  302/398/696 128/228/699 129/230/705
f  122/216/706 302/398/696 121/214/700
f  302/398/696 129/230/705 130/232/704
f  122/216/706 123/218/694 302/398/696
f  119/234/297 130/232/291 118/231/290
f  119/234/297 131/236/296 130/232/291
usemtl Brakedisc
f  623/381/707 258/381/611 622/387/707
f  258/381/611 269/382/708 624/387/708
